/store/mc/Run3Summer22NanoAODv12/DYto2L-2Jets_MLL-50_PTLL-40to100_2J_TuneCP5_13p6TeV_amcatnloFXFX-pythia8/NANOAODSIM/130X_mcRun3_2022_realistic_v5-v1/2560000/30624dd1-ba96-465e-a745-8ff472357277.root
/store/mc/Run3Summer22NanoAODv12/DYto2L-2Jets_MLL-50_PTLL-40to100_2J_TuneCP5_13p6TeV_amcatnloFXFX-pythia8/NANOAODSIM/130X_mcRun3_2022_realistic_v5-v1/25510000/c033f27c-9085-4bb4-9cd5-49fd8d13eb04.root
/store/mc/Run3Summer22NanoAODv12/DYto2L-2Jets_MLL-50_PTLL-40to100_2J_TuneCP5_13p6TeV_amcatnloFXFX-pythia8/NANOAODSIM/130X_mcRun3_2022_realistic_v5-v1/2560000/6ce85978-78c8-4870-b6f5-8e7503b838b9.root
/store/mc/Run3Summer22NanoAODv12/DYto2L-2Jets_MLL-50_PTLL-40to100_2J_TuneCP5_13p6TeV_amcatnloFXFX-pythia8/NANOAODSIM/130X_mcRun3_2022_realistic_v5-v1/2560000/dfa135ab-38f0-4623-84f8-5127689e13aa.root
/store/mc/Run3Summer22NanoAODv12/DYto2L-2Jets_MLL-50_PTLL-40to100_2J_TuneCP5_13p6TeV_amcatnloFXFX-pythia8/NANOAODSIM/130X_mcRun3_2022_realistic_v5-v1/2560000/6ae8957a-3972-49fc-957b-1b306cbcb4f8.root
/store/mc/Run3Summer22NanoAODv12/DYto2L-2Jets_MLL-50_PTLL-40to100_2J_TuneCP5_13p6TeV_amcatnloFXFX-pythia8/NANOAODSIM/130X_mcRun3_2022_realistic_v5-v1/2560000/d50712ca-70be-4240-ac9f-71ecae12b97b.root
/store/mc/Run3Summer22NanoAODv12/DYto2L-2Jets_MLL-50_PTLL-40to100_2J_TuneCP5_13p6TeV_amcatnloFXFX-pythia8/NANOAODSIM/130X_mcRun3_2022_realistic_v5-v1/2560000/fd82dc5c-473d-4e32-bf1c-a150e63f83dd.root
/store/mc/Run3Summer22NanoAODv12/DYto2L-2Jets_MLL-50_PTLL-40to100_2J_TuneCP5_13p6TeV_amcatnloFXFX-pythia8/NANOAODSIM/130X_mcRun3_2022_realistic_v5-v1/2560000/63e59c27-a017-49fb-a9c6-24023bcb8840.root
/store/mc/Run3Summer22NanoAODv12/DYto2L-2Jets_MLL-50_PTLL-40to100_2J_TuneCP5_13p6TeV_amcatnloFXFX-pythia8/NANOAODSIM/130X_mcRun3_2022_realistic_v5-v1/2560000/32bc6347-7b6b-4b79-b8e2-e23cdf517a5f.root
/store/mc/Run3Summer22NanoAODv12/DYto2L-2Jets_MLL-50_PTLL-40to100_2J_TuneCP5_13p6TeV_amcatnloFXFX-pythia8/NANOAODSIM/130X_mcRun3_2022_realistic_v5-v1/2560000/4addaf9f-9732-45a9-b6a9-24ed073c6f5e.root
/store/mc/Run3Summer22NanoAODv12/DYto2L-2Jets_MLL-50_PTLL-40to100_2J_TuneCP5_13p6TeV_amcatnloFXFX-pythia8/NANOAODSIM/130X_mcRun3_2022_realistic_v5-v1/2560000/7f374a1c-a755-4b2d-93c9-d831fb6369ae.root
/store/mc/Run3Summer22NanoAODv12/DYto2L-2Jets_MLL-50_PTLL-40to100_2J_TuneCP5_13p6TeV_amcatnloFXFX-pythia8/NANOAODSIM/130X_mcRun3_2022_realistic_v5-v1/2560000/a2773319-9fb6-44c9-a104-0e713ad9d3a7.root
/store/mc/Run3Summer22NanoAODv12/DYto2L-2Jets_MLL-50_PTLL-40to100_2J_TuneCP5_13p6TeV_amcatnloFXFX-pythia8/NANOAODSIM/130X_mcRun3_2022_realistic_v5-v1/2560000/e2145e86-2088-43c7-82e6-7d662881a9ca.root
/store/mc/Run3Summer22NanoAODv12/DYto2L-2Jets_MLL-50_PTLL-40to100_2J_TuneCP5_13p6TeV_amcatnloFXFX-pythia8/NANOAODSIM/130X_mcRun3_2022_realistic_v5-v1/2560000/98d136ea-7300-42f1-93d4-f41b52614b1e.root
/store/mc/Run3Summer22NanoAODv12/DYto2L-2Jets_MLL-50_PTLL-40to100_2J_TuneCP5_13p6TeV_amcatnloFXFX-pythia8/NANOAODSIM/130X_mcRun3_2022_realistic_v5-v1/2560000/aa77a427-8b6c-4533-bc98-d731cdce0bd7.root
/store/mc/Run3Summer22NanoAODv12/DYto2L-2Jets_MLL-50_PTLL-40to100_2J_TuneCP5_13p6TeV_amcatnloFXFX-pythia8/NANOAODSIM/130X_mcRun3_2022_realistic_v5-v1/2560000/4e238417-b337-467b-8047-f05ba619c0a0.root
/store/mc/Run3Summer22NanoAODv12/DYto2L-2Jets_MLL-50_PTLL-40to100_2J_TuneCP5_13p6TeV_amcatnloFXFX-pythia8/NANOAODSIM/130X_mcRun3_2022_realistic_v5-v1/2560000/3de6fe5f-a89b-41c9-b57d-61c1bc360ed3.root
/store/mc/Run3Summer22NanoAODv12/DYto2L-2Jets_MLL-50_PTLL-40to100_2J_TuneCP5_13p6TeV_amcatnloFXFX-pythia8/NANOAODSIM/130X_mcRun3_2022_realistic_v5-v1/2560000/cb353e53-fc1e-482a-ad8b-a3af2b823cd8.root
/store/mc/Run3Summer22NanoAODv12/DYto2L-2Jets_MLL-50_PTLL-40to100_2J_TuneCP5_13p6TeV_amcatnloFXFX-pythia8/NANOAODSIM/130X_mcRun3_2022_realistic_v5-v1/2560000/ce63218a-97a6-4d47-923e-9644f3cb5010.root
/store/mc/Run3Summer22NanoAODv12/DYto2L-2Jets_MLL-50_PTLL-40to100_2J_TuneCP5_13p6TeV_amcatnloFXFX-pythia8/NANOAODSIM/130X_mcRun3_2022_realistic_v5-v1/2560000/027f3102-7589-4c9d-8a25-2d3a0e6b6efb.root
/store/mc/Run3Summer22NanoAODv12/DYto2L-2Jets_MLL-50_PTLL-40to100_2J_TuneCP5_13p6TeV_amcatnloFXFX-pythia8/NANOAODSIM/130X_mcRun3_2022_realistic_v5-v1/2560000/2bd20038-7c8b-4ef4-8281-7d71180c43b3.root
/store/mc/Run3Summer22NanoAODv12/DYto2L-2Jets_MLL-50_PTLL-40to100_2J_TuneCP5_13p6TeV_amcatnloFXFX-pythia8/NANOAODSIM/130X_mcRun3_2022_realistic_v5-v1/2560000/1a3b0311-1465-4f10-99a7-45046b7f1069.root
/store/mc/Run3Summer22NanoAODv12/DYto2L-2Jets_MLL-50_PTLL-40to100_2J_TuneCP5_13p6TeV_amcatnloFXFX-pythia8/NANOAODSIM/130X_mcRun3_2022_realistic_v5-v1/2560000/4080c83a-b518-44f1-b5f1-28a4fce79604.root
/store/mc/Run3Summer22NanoAODv12/DYto2L-2Jets_MLL-50_PTLL-40to100_2J_TuneCP5_13p6TeV_amcatnloFXFX-pythia8/NANOAODSIM/130X_mcRun3_2022_realistic_v5-v1/2560000/b661d574-0201-4bff-ae48-5c1797a01c9b.root
/store/mc/Run3Summer22NanoAODv12/DYto2L-2Jets_MLL-50_PTLL-40to100_2J_TuneCP5_13p6TeV_amcatnloFXFX-pythia8/NANOAODSIM/130X_mcRun3_2022_realistic_v5-v1/2560000/07cd7fa7-0413-4ece-8c29-350af6894853.root
/store/mc/Run3Summer22NanoAODv12/DYto2L-2Jets_MLL-50_PTLL-40to100_2J_TuneCP5_13p6TeV_amcatnloFXFX-pythia8/NANOAODSIM/130X_mcRun3_2022_realistic_v5-v1/2560000/92090d97-e44a-49ba-8602-176c3ca5e2ca.root
/store/mc/Run3Summer22NanoAODv12/DYto2L-2Jets_MLL-50_PTLL-40to100_2J_TuneCP5_13p6TeV_amcatnloFXFX-pythia8/NANOAODSIM/130X_mcRun3_2022_realistic_v5-v1/2560000/b9b8dfa0-57be-48f1-be3f-2b93ae006cbe.root
/store/mc/Run3Summer22NanoAODv12/DYto2L-2Jets_MLL-50_PTLL-40to100_2J_TuneCP5_13p6TeV_amcatnloFXFX-pythia8/NANOAODSIM/130X_mcRun3_2022_realistic_v5-v1/2560000/1f337759-39b6-4c30-b044-a1c3bd17ab7a.root
/store/mc/Run3Summer22NanoAODv12/DYto2L-2Jets_MLL-50_PTLL-40to100_2J_TuneCP5_13p6TeV_amcatnloFXFX-pythia8/NANOAODSIM/130X_mcRun3_2022_realistic_v5-v1/2560000/d28dc243-6da4-4643-adfd-1c71e5085c57.root
/store/mc/Run3Summer22NanoAODv12/DYto2L-2Jets_MLL-50_PTLL-40to100_2J_TuneCP5_13p6TeV_amcatnloFXFX-pythia8/NANOAODSIM/130X_mcRun3_2022_realistic_v5-v1/2560000/036f6c00-7eea-47bb-8118-9955a0c5fa59.root
/store/mc/Run3Summer22NanoAODv12/DYto2L-2Jets_MLL-50_PTLL-40to100_2J_TuneCP5_13p6TeV_amcatnloFXFX-pythia8/NANOAODSIM/130X_mcRun3_2022_realistic_v5-v1/2560000/168e3546-5637-47ab-8199-1318ef4f6ee2.root
/store/mc/Run3Summer22NanoAODv12/DYto2L-2Jets_MLL-50_PTLL-40to100_2J_TuneCP5_13p6TeV_amcatnloFXFX-pythia8/NANOAODSIM/130X_mcRun3_2022_realistic_v5-v1/2560000/129ed9c9-15fa-46bf-b183-a06156714f51.root
/store/mc/Run3Summer22NanoAODv12/DYto2L-2Jets_MLL-50_PTLL-40to100_2J_TuneCP5_13p6TeV_amcatnloFXFX-pythia8/NANOAODSIM/130X_mcRun3_2022_realistic_v5-v1/2560000/43e5e10c-e587-440d-9d68-c417a036a25c.root
/store/mc/Run3Summer22NanoAODv12/DYto2L-2Jets_MLL-50_PTLL-40to100_2J_TuneCP5_13p6TeV_amcatnloFXFX-pythia8/NANOAODSIM/130X_mcRun3_2022_realistic_v5-v1/2560000/a54b5955-225d-4198-9865-7a93ce06491a.root
/store/mc/Run3Summer22NanoAODv12/DYto2L-2Jets_MLL-50_PTLL-40to100_2J_TuneCP5_13p6TeV_amcatnloFXFX-pythia8/NANOAODSIM/130X_mcRun3_2022_realistic_v5-v1/2560000/7b732ed2-6630-4523-93c7-ba2db2f1c0bb.root
/store/mc/Run3Summer22NanoAODv12/DYto2L-2Jets_MLL-50_PTLL-40to100_2J_TuneCP5_13p6TeV_amcatnloFXFX-pythia8/NANOAODSIM/130X_mcRun3_2022_realistic_v5-v1/2560000/dc75eab1-0445-4bbb-ab7d-7762cd1d5d9a.root
/store/mc/Run3Summer22NanoAODv12/DYto2L-2Jets_MLL-50_PTLL-40to100_2J_TuneCP5_13p6TeV_amcatnloFXFX-pythia8/NANOAODSIM/130X_mcRun3_2022_realistic_v5-v1/2560000/15f59625-de79-4e9f-9fe7-c5ce95da9b51.root
/store/mc/Run3Summer22NanoAODv12/DYto2L-2Jets_MLL-50_PTLL-40to100_2J_TuneCP5_13p6TeV_amcatnloFXFX-pythia8/NANOAODSIM/130X_mcRun3_2022_realistic_v5-v1/2560000/40b65dbe-072b-4179-a130-92520aa40d68.root
/store/mc/Run3Summer22NanoAODv12/DYto2L-2Jets_MLL-50_PTLL-40to100_2J_TuneCP5_13p6TeV_amcatnloFXFX-pythia8/NANOAODSIM/130X_mcRun3_2022_realistic_v5-v1/2560000/c4726527-3da8-447e-84f1-58c3c2b871bf.root
/store/mc/Run3Summer22NanoAODv12/DYto2L-2Jets_MLL-50_PTLL-40to100_2J_TuneCP5_13p6TeV_amcatnloFXFX-pythia8/NANOAODSIM/130X_mcRun3_2022_realistic_v5-v1/2560000/e2fa1b6d-4596-44cd-b8b9-b87a22453f42.root
/store/mc/Run3Summer22NanoAODv12/DYto2L-2Jets_MLL-50_PTLL-40to100_2J_TuneCP5_13p6TeV_amcatnloFXFX-pythia8/NANOAODSIM/130X_mcRun3_2022_realistic_v5-v1/2560000/d0a1fc68-f3a6-4889-a280-e5a6918786bb.root
/store/mc/Run3Summer22NanoAODv12/DYto2L-2Jets_MLL-50_PTLL-40to100_2J_TuneCP5_13p6TeV_amcatnloFXFX-pythia8/NANOAODSIM/130X_mcRun3_2022_realistic_v5-v1/2560000/cbb3353c-c941-4672-b84b-f842e32e4d06.root
/store/mc/Run3Summer22NanoAODv12/DYto2L-2Jets_MLL-50_PTLL-40to100_2J_TuneCP5_13p6TeV_amcatnloFXFX-pythia8/NANOAODSIM/130X_mcRun3_2022_realistic_v5-v1/2560000/e11a3142-7bcb-4ded-a506-176891a4f9d8.root
/store/mc/Run3Summer22NanoAODv12/DYto2L-2Jets_MLL-50_PTLL-40to100_2J_TuneCP5_13p6TeV_amcatnloFXFX-pythia8/NANOAODSIM/130X_mcRun3_2022_realistic_v5-v1/2560000/99d1c0df-ed10-4eea-b392-51ef26eb0aea.root
/store/mc/Run3Summer22NanoAODv12/DYto2L-2Jets_MLL-50_PTLL-40to100_2J_TuneCP5_13p6TeV_amcatnloFXFX-pythia8/NANOAODSIM/130X_mcRun3_2022_realistic_v5-v1/2560000/2f9ab1fb-7b3c-4057-b0bf-473bf92936d3.root
/store/mc/Run3Summer22NanoAODv12/DYto2L-2Jets_MLL-50_PTLL-40to100_2J_TuneCP5_13p6TeV_amcatnloFXFX-pythia8/NANOAODSIM/130X_mcRun3_2022_realistic_v5-v1/2560000/6fc9fc8e-885d-4f62-9a61-685be8c0a86a.root
/store/mc/Run3Summer22NanoAODv12/DYto2L-2Jets_MLL-50_PTLL-40to100_2J_TuneCP5_13p6TeV_amcatnloFXFX-pythia8/NANOAODSIM/130X_mcRun3_2022_realistic_v5-v1/60000/9bc721d9-cd0a-4800-b821-2cfeb40b65bf.root
/store/mc/Run3Summer22NanoAODv12/DYto2L-2Jets_MLL-50_PTLL-40to100_2J_TuneCP5_13p6TeV_amcatnloFXFX-pythia8/NANOAODSIM/130X_mcRun3_2022_realistic_v5-v1/60000/9d63aeec-965c-4d3f-8188-9d6f8d5fa0a7.root
/store/mc/Run3Summer22NanoAODv12/DYto2L-2Jets_MLL-50_PTLL-40to100_2J_TuneCP5_13p6TeV_amcatnloFXFX-pythia8/NANOAODSIM/130X_mcRun3_2022_realistic_v5-v1/60000/a72d82ba-0db3-4fd7-9d3f-87e177b670c0.root
/store/mc/Run3Summer22NanoAODv12/DYto2L-2Jets_MLL-50_PTLL-40to100_2J_TuneCP5_13p6TeV_amcatnloFXFX-pythia8/NANOAODSIM/130X_mcRun3_2022_realistic_v5-v1/60000/316955e9-23b1-4e89-99ef-3f1b0b89406d.root
/store/mc/Run3Summer22NanoAODv12/DYto2L-2Jets_MLL-50_PTLL-40to100_2J_TuneCP5_13p6TeV_amcatnloFXFX-pythia8/NANOAODSIM/130X_mcRun3_2022_realistic_v5-v1/2550000/48d70c11-daa1-4811-abb8-bf70e9bad087.root
/store/mc/Run3Summer22NanoAODv12/DYto2L-2Jets_MLL-50_PTLL-40to100_2J_TuneCP5_13p6TeV_amcatnloFXFX-pythia8/NANOAODSIM/130X_mcRun3_2022_realistic_v5-v1/2550000/6729b465-e5ac-4523-ab63-c14035ad36d3.root
/store/mc/Run3Summer22NanoAODv12/DYto2L-2Jets_MLL-50_PTLL-40to100_2J_TuneCP5_13p6TeV_amcatnloFXFX-pythia8/NANOAODSIM/130X_mcRun3_2022_realistic_v5-v1/2550000/162eddf1-edad-449b-9ae0-74f62d744b2b.root
/store/mc/Run3Summer22NanoAODv12/DYto2L-2Jets_MLL-50_PTLL-40to100_2J_TuneCP5_13p6TeV_amcatnloFXFX-pythia8/NANOAODSIM/130X_mcRun3_2022_realistic_v5-v1/2550000/f536ccd4-d104-49e8-b442-f439411cb9e3.root
/store/mc/Run3Summer22NanoAODv12/DYto2L-2Jets_MLL-50_PTLL-40to100_2J_TuneCP5_13p6TeV_amcatnloFXFX-pythia8/NANOAODSIM/130X_mcRun3_2022_realistic_v5-v1/2550000/4590c6e2-9800-486b-a9f9-5a8f3bff76c3.root
/store/mc/Run3Summer22NanoAODv12/DYto2L-2Jets_MLL-50_PTLL-40to100_2J_TuneCP5_13p6TeV_amcatnloFXFX-pythia8/NANOAODSIM/130X_mcRun3_2022_realistic_v5-v1/2550000/8119d403-4979-4086-89da-0771c9922bc4.root
/store/mc/Run3Summer22NanoAODv12/DYto2L-2Jets_MLL-50_PTLL-40to100_2J_TuneCP5_13p6TeV_amcatnloFXFX-pythia8/NANOAODSIM/130X_mcRun3_2022_realistic_v5-v1/2550000/9625d61a-b407-48d5-be0b-a3855e70b658.root
/store/mc/Run3Summer22NanoAODv12/DYto2L-2Jets_MLL-50_PTLL-40to100_2J_TuneCP5_13p6TeV_amcatnloFXFX-pythia8/NANOAODSIM/130X_mcRun3_2022_realistic_v5-v1/2550000/5e1d9998-4dc6-49fa-bbf0-15f0cb7d4ef0.root
/store/mc/Run3Summer22NanoAODv12/DYto2L-2Jets_MLL-50_PTLL-40to100_2J_TuneCP5_13p6TeV_amcatnloFXFX-pythia8/NANOAODSIM/130X_mcRun3_2022_realistic_v5-v1/2550000/d954b7a3-25b2-4bd0-907a-9b1eed06d0a5.root
/store/mc/Run3Summer22NanoAODv12/DYto2L-2Jets_MLL-50_PTLL-40to100_2J_TuneCP5_13p6TeV_amcatnloFXFX-pythia8/NANOAODSIM/130X_mcRun3_2022_realistic_v5-v1/2550000/03a56bca-a47a-4ef9-90b8-b31ddcde1825.root
/store/mc/Run3Summer22NanoAODv12/DYto2L-2Jets_MLL-50_PTLL-40to100_2J_TuneCP5_13p6TeV_amcatnloFXFX-pythia8/NANOAODSIM/130X_mcRun3_2022_realistic_v5-v1/2550000/60354daa-c00b-444b-9afc-376d0a572c8c.root
/store/mc/Run3Summer22NanoAODv12/DYto2L-2Jets_MLL-50_PTLL-40to100_2J_TuneCP5_13p6TeV_amcatnloFXFX-pythia8/NANOAODSIM/130X_mcRun3_2022_realistic_v5-v1/60000/e07d3f78-e70c-4de6-9da2-0321a3fd72b2.root
/store/mc/Run3Summer22NanoAODv12/DYto2L-2Jets_MLL-50_PTLL-40to100_2J_TuneCP5_13p6TeV_amcatnloFXFX-pythia8/NANOAODSIM/130X_mcRun3_2022_realistic_v5-v1/60000/2b82f6ce-3d68-418d-a3b0-33b3df35cd67.root
/store/mc/Run3Summer22NanoAODv12/DYto2L-2Jets_MLL-50_PTLL-40to100_2J_TuneCP5_13p6TeV_amcatnloFXFX-pythia8/NANOAODSIM/130X_mcRun3_2022_realistic_v5-v1/2550000/8b785f26-62aa-4747-859e-ebfa18d10a2c.root
/store/mc/Run3Summer22NanoAODv12/DYto2L-2Jets_MLL-50_PTLL-40to100_2J_TuneCP5_13p6TeV_amcatnloFXFX-pythia8/NANOAODSIM/130X_mcRun3_2022_realistic_v5-v1/2550000/e0b8e8d9-64b5-43fa-9fc8-cda45fa5d4db.root
/store/mc/Run3Summer22NanoAODv12/DYto2L-2Jets_MLL-50_PTLL-40to100_2J_TuneCP5_13p6TeV_amcatnloFXFX-pythia8/NANOAODSIM/130X_mcRun3_2022_realistic_v5-v1/2550000/66bd6ebc-fa02-465f-aa3e-71582d81dcc6.root
/store/mc/Run3Summer22NanoAODv12/DYto2L-2Jets_MLL-50_PTLL-40to100_2J_TuneCP5_13p6TeV_amcatnloFXFX-pythia8/NANOAODSIM/130X_mcRun3_2022_realistic_v5-v1/2550000/9ac616dc-8827-4816-8d7a-17959530253d.root
/store/mc/Run3Summer22NanoAODv12/DYto2L-2Jets_MLL-50_PTLL-40to100_2J_TuneCP5_13p6TeV_amcatnloFXFX-pythia8/NANOAODSIM/130X_mcRun3_2022_realistic_v5-v1/2550000/9ba66820-51b4-431b-b705-960910d1f21a.root
/store/mc/Run3Summer22NanoAODv12/DYto2L-2Jets_MLL-50_PTLL-40to100_2J_TuneCP5_13p6TeV_amcatnloFXFX-pythia8/NANOAODSIM/130X_mcRun3_2022_realistic_v5-v1/2550000/f587d2d3-7178-41b9-895e-bd1a1d555a1b.root
/store/mc/Run3Summer22NanoAODv12/DYto2L-2Jets_MLL-50_PTLL-40to100_2J_TuneCP5_13p6TeV_amcatnloFXFX-pythia8/NANOAODSIM/130X_mcRun3_2022_realistic_v5-v1/2550000/333d9c8c-2a4d-410f-9530-911a86e357cc.root
/store/mc/Run3Summer22NanoAODv12/DYto2L-2Jets_MLL-50_PTLL-40to100_2J_TuneCP5_13p6TeV_amcatnloFXFX-pythia8/NANOAODSIM/130X_mcRun3_2022_realistic_v5-v1/2550000/1616a56b-d6ae-4b2b-8aad-8b843600973d.root
/store/mc/Run3Summer22NanoAODv12/DYto2L-2Jets_MLL-50_PTLL-40to100_2J_TuneCP5_13p6TeV_amcatnloFXFX-pythia8/NANOAODSIM/130X_mcRun3_2022_realistic_v5-v1/2550000/8d2c65ba-4c59-41c6-8c68-214f8019db3a.root
/store/mc/Run3Summer22NanoAODv12/DYto2L-2Jets_MLL-50_PTLL-40to100_2J_TuneCP5_13p6TeV_amcatnloFXFX-pythia8/NANOAODSIM/130X_mcRun3_2022_realistic_v5-v1/2550000/008c728d-d105-4df0-809e-003171d160ae.root
/store/mc/Run3Summer22NanoAODv12/DYto2L-2Jets_MLL-50_PTLL-40to100_2J_TuneCP5_13p6TeV_amcatnloFXFX-pythia8/NANOAODSIM/130X_mcRun3_2022_realistic_v5-v1/2550000/222293ff-30e7-4ea7-b46a-28c85eded59c.root
/store/mc/Run3Summer22NanoAODv12/DYto2L-2Jets_MLL-50_PTLL-40to100_2J_TuneCP5_13p6TeV_amcatnloFXFX-pythia8/NANOAODSIM/130X_mcRun3_2022_realistic_v5-v1/2550000/adbec44f-72aa-4633-b4b4-c7327a833116.root
/store/mc/Run3Summer22NanoAODv12/DYto2L-2Jets_MLL-50_PTLL-40to100_2J_TuneCP5_13p6TeV_amcatnloFXFX-pythia8/NANOAODSIM/130X_mcRun3_2022_realistic_v5-v1/2550000/3394bb7b-30bb-4ac5-b429-2503f9ec7ebf.root
/store/mc/Run3Summer22NanoAODv12/DYto2L-2Jets_MLL-50_PTLL-40to100_2J_TuneCP5_13p6TeV_amcatnloFXFX-pythia8/NANOAODSIM/130X_mcRun3_2022_realistic_v5-v1/2550000/05a6df4d-56b9-4fd1-b016-8192914d85a4.root
/store/mc/Run3Summer22NanoAODv12/DYto2L-2Jets_MLL-50_PTLL-40to100_2J_TuneCP5_13p6TeV_amcatnloFXFX-pythia8/NANOAODSIM/130X_mcRun3_2022_realistic_v5-v1/2550000/dc5d265e-b7bc-421f-b1e3-27d34433db7f.root
/store/mc/Run3Summer22NanoAODv12/DYto2L-2Jets_MLL-50_PTLL-40to100_2J_TuneCP5_13p6TeV_amcatnloFXFX-pythia8/NANOAODSIM/130X_mcRun3_2022_realistic_v5-v1/2550000/ca5f9431-bd92-436a-bdfb-8fdc435ea9dd.root
/store/mc/Run3Summer22NanoAODv12/DYto2L-2Jets_MLL-50_PTLL-40to100_2J_TuneCP5_13p6TeV_amcatnloFXFX-pythia8/NANOAODSIM/130X_mcRun3_2022_realistic_v5-v1/2550000/9361b8ea-7a6d-464b-a0b3-0e33137dfb33.root
/store/mc/Run3Summer22NanoAODv12/DYto2L-2Jets_MLL-50_PTLL-40to100_2J_TuneCP5_13p6TeV_amcatnloFXFX-pythia8/NANOAODSIM/130X_mcRun3_2022_realistic_v5-v1/2550000/3d7a2367-64be-48da-a7cf-54a1b2eb1f6b.root