/store/mc/Run3Summer22NanoAODv12/DYto2L-2Jets_MLL-50_PTLL-600_1J_TuneCP5_13p6TeV_amcatnloFXFX-pythia8/NANOAODSIM/130X_mcRun3_2022_realistic_v5-v2/70000/04367a81-d625-4977-ae9d-eb4887f00fd4.root
/store/mc/Run3Summer22NanoAODv12/DYto2L-2Jets_MLL-50_PTLL-600_1J_TuneCP5_13p6TeV_amcatnloFXFX-pythia8/NANOAODSIM/130X_mcRun3_2022_realistic_v5-v2/70000/a3c2cc8f-1b2c-4954-90a0-a6ca97901e6b.root
/store/mc/Run3Summer22NanoAODv12/DYto2L-2Jets_MLL-50_PTLL-600_1J_TuneCP5_13p6TeV_amcatnloFXFX-pythia8/NANOAODSIM/130X_mcRun3_2022_realistic_v5-v2/70000/8641be9e-738e-4f5c-9541-9d4510d713d9.root
/store/mc/Run3Summer22NanoAODv12/DYto2L-2Jets_MLL-50_PTLL-600_1J_TuneCP5_13p6TeV_amcatnloFXFX-pythia8/NANOAODSIM/130X_mcRun3_2022_realistic_v5-v2/70000/187330ab-3726-4c36-9be7-05a7a4a3a080.root
/store/mc/Run3Summer22NanoAODv12/DYto2L-2Jets_MLL-50_PTLL-600_1J_TuneCP5_13p6TeV_amcatnloFXFX-pythia8/NANOAODSIM/130X_mcRun3_2022_realistic_v5-v2/70000/81ab495d-269c-489f-94ab-336ebc9a53ab.root
/store/mc/Run3Summer22NanoAODv12/DYto2L-2Jets_MLL-50_PTLL-600_1J_TuneCP5_13p6TeV_amcatnloFXFX-pythia8/NANOAODSIM/130X_mcRun3_2022_realistic_v5-v2/70000/8b482960-2ac9-46f2-bc97-31179a719742.root
/store/mc/Run3Summer22NanoAODv12/DYto2L-2Jets_MLL-50_PTLL-600_1J_TuneCP5_13p6TeV_amcatnloFXFX-pythia8/NANOAODSIM/130X_mcRun3_2022_realistic_v5-v2/70000/dfe5293f-9193-48cd-b6eb-a9b973b27082.root
/store/mc/Run3Summer22NanoAODv12/DYto2L-2Jets_MLL-50_PTLL-600_1J_TuneCP5_13p6TeV_amcatnloFXFX-pythia8/NANOAODSIM/130X_mcRun3_2022_realistic_v5-v2/70000/1a00db25-50eb-49ab-872b-815d0b6b3edc.root
/store/mc/Run3Summer22NanoAODv12/DYto2L-2Jets_MLL-50_PTLL-600_1J_TuneCP5_13p6TeV_amcatnloFXFX-pythia8/NANOAODSIM/130X_mcRun3_2022_realistic_v5-v2/70000/ac2bb79e-ea80-4683-a4ae-b0252aace00d.root
/store/mc/Run3Summer22NanoAODv12/DYto2L-2Jets_MLL-50_PTLL-600_1J_TuneCP5_13p6TeV_amcatnloFXFX-pythia8/NANOAODSIM/130X_mcRun3_2022_realistic_v5-v2/70000/1ab3f626-93a2-4eba-9283-61e4275b1314.root
/store/mc/Run3Summer22NanoAODv12/DYto2L-2Jets_MLL-50_PTLL-600_1J_TuneCP5_13p6TeV_amcatnloFXFX-pythia8/NANOAODSIM/130X_mcRun3_2022_realistic_v5-v2/70000/96a4c10e-d8ff-4a08-95f2-ead4a4a9d6cf.root
/store/mc/Run3Summer22NanoAODv12/DYto2L-2Jets_MLL-50_PTLL-600_1J_TuneCP5_13p6TeV_amcatnloFXFX-pythia8/NANOAODSIM/130X_mcRun3_2022_realistic_v5-v2/70000/b49eee18-f65b-41c9-9067-98fbd1e77c12.root
/store/mc/Run3Summer22NanoAODv12/DYto2L-2Jets_MLL-50_PTLL-600_1J_TuneCP5_13p6TeV_amcatnloFXFX-pythia8/NANOAODSIM/130X_mcRun3_2022_realistic_v5-v2/70000/bb1e50a0-95a6-4703-a7fb-0a81e4160c92.root
/store/mc/Run3Summer22NanoAODv12/DYto2L-2Jets_MLL-50_PTLL-600_1J_TuneCP5_13p6TeV_amcatnloFXFX-pythia8/NANOAODSIM/130X_mcRun3_2022_realistic_v5-v2/70000/5e1008e7-0ce7-47a2-8e4e-74cf117aac60.root
/store/mc/Run3Summer22NanoAODv12/DYto2L-2Jets_MLL-50_PTLL-600_1J_TuneCP5_13p6TeV_amcatnloFXFX-pythia8/NANOAODSIM/130X_mcRun3_2022_realistic_v5-v2/70000/2221d0f8-6488-47f1-a4ac-5cc7407fed62.root
/store/mc/Run3Summer22NanoAODv12/DYto2L-2Jets_MLL-50_PTLL-600_1J_TuneCP5_13p6TeV_amcatnloFXFX-pythia8/NANOAODSIM/130X_mcRun3_2022_realistic_v5-v2/2560000/69aa642d-c4d5-4b58-906a-c74ec4057424.root
/store/mc/Run3Summer22NanoAODv12/DYto2L-2Jets_MLL-50_PTLL-600_1J_TuneCP5_13p6TeV_amcatnloFXFX-pythia8/NANOAODSIM/130X_mcRun3_2022_realistic_v5-v2/2560000/d02c1982-8a84-4d71-9d0d-9272861bef86.root
/store/mc/Run3Summer22NanoAODv12/DYto2L-2Jets_MLL-50_PTLL-600_1J_TuneCP5_13p6TeV_amcatnloFXFX-pythia8/NANOAODSIM/130X_mcRun3_2022_realistic_v5-v2/2560000/cacacde9-0950-4e42-892d-0f829c340463.root
/store/mc/Run3Summer22NanoAODv12/DYto2L-2Jets_MLL-50_PTLL-600_1J_TuneCP5_13p6TeV_amcatnloFXFX-pythia8/NANOAODSIM/130X_mcRun3_2022_realistic_v5-v2/2560000/c44bc330-b0d6-4f6f-b024-ce23b4538ebb.root
/store/mc/Run3Summer22NanoAODv12/DYto2L-2Jets_MLL-50_PTLL-600_1J_TuneCP5_13p6TeV_amcatnloFXFX-pythia8/NANOAODSIM/130X_mcRun3_2022_realistic_v5-v2/2560000/66897238-ed26-4aa4-a027-808ca7b66bc8.root