/store/mc/Run3Summer22NanoAODv13/GluGlutoHHto2B2Tau_kl-5p00_kt-1p00_c2-0p00_TuneCP5_13p6TeV_powheg-pythia8/NANOAODSIM/ggHH_powheg_bugfix_133X_mcRun3_2022_realistic_ForNanov13_v1-v2/60000/6582e55d-f59c-46f2-bd38-f0a4904bdf3d.root
/store/mc/Run3Summer22NanoAODv13/GluGlutoHHto2B2Tau_kl-5p00_kt-1p00_c2-0p00_TuneCP5_13p6TeV_powheg-pythia8/NANOAODSIM/ggHH_powheg_bugfix_133X_mcRun3_2022_realistic_ForNanov13_v1-v2/60000/79ef4ef4-ecd2-4add-9739-0b2117bca43c.root
/store/mc/Run3Summer22NanoAODv13/GluGlutoHHto2B2Tau_kl-5p00_kt-1p00_c2-0p00_TuneCP5_13p6TeV_powheg-pythia8/NANOAODSIM/ggHH_powheg_bugfix_133X_mcRun3_2022_realistic_ForNanov13_v1-v2/60000/2182ae99-9659-4522-a7c3-24fc8ae719a8.root
/store/mc/Run3Summer22NanoAODv13/GluGlutoHHto2B2Tau_kl-5p00_kt-1p00_c2-0p00_TuneCP5_13p6TeV_powheg-pythia8/NANOAODSIM/ggHH_powheg_bugfix_133X_mcRun3_2022_realistic_ForNanov13_v1-v2/60000/6f7d46bc-f603-4dc9-8687-0954e7ce27dd.root
/store/mc/Run3Summer22NanoAODv13/GluGlutoHHto2B2Tau_kl-5p00_kt-1p00_c2-0p00_TuneCP5_13p6TeV_powheg-pythia8/NANOAODSIM/ggHH_powheg_bugfix_133X_mcRun3_2022_realistic_ForNanov13_v1-v2/60000/5c7b79f4-ca0e-4f37-82f3-c3fccf575635.root
/store/mc/Run3Summer22NanoAODv13/GluGlutoHHto2B2Tau_kl-5p00_kt-1p00_c2-0p00_TuneCP5_13p6TeV_powheg-pythia8/NANOAODSIM/ggHH_powheg_bugfix_133X_mcRun3_2022_realistic_ForNanov13_v1-v2/60000/a64c26a5-d0e4-477e-88b4-06035a07b9c1.root
/store/mc/Run3Summer22NanoAODv13/GluGlutoHHto2B2Tau_kl-5p00_kt-1p00_c2-0p00_TuneCP5_13p6TeV_powheg-pythia8/NANOAODSIM/ggHH_powheg_bugfix_133X_mcRun3_2022_realistic_ForNanov13_v1-v2/60000/e13a031c-1838-4537-87cb-414bacc72c18.root
/store/mc/Run3Summer22NanoAODv13/GluGlutoHHto2B2Tau_kl-5p00_kt-1p00_c2-0p00_TuneCP5_13p6TeV_powheg-pythia8/NANOAODSIM/ggHH_powheg_bugfix_133X_mcRun3_2022_realistic_ForNanov13_v1-v2/60000/dcc8508f-98c6-40fc-bb3b-59d62e30cc5e.root
/store/mc/Run3Summer22NanoAODv13/GluGlutoHHto2B2Tau_kl-5p00_kt-1p00_c2-0p00_TuneCP5_13p6TeV_powheg-pythia8/NANOAODSIM/ggHH_powheg_bugfix_133X_mcRun3_2022_realistic_ForNanov13_v1-v2/2830000/1e536092-026d-4994-a43a-7681d74363ee.root
/store/mc/Run3Summer22NanoAODv13/GluGlutoHHto2B2Tau_kl-5p00_kt-1p00_c2-0p00_TuneCP5_13p6TeV_powheg-pythia8/NANOAODSIM/ggHH_powheg_bugfix_133X_mcRun3_2022_realistic_ForNanov13_v1-v2/2830000/cdaae3ba-6ba2-4f72-bdcd-524b84567791.root
/store/mc/Run3Summer22NanoAODv13/GluGlutoHHto2B2Tau_kl-5p00_kt-1p00_c2-0p00_TuneCP5_13p6TeV_powheg-pythia8/NANOAODSIM/ggHH_powheg_bugfix_133X_mcRun3_2022_realistic_ForNanov13_v1-v2/60000/78f260c6-cec3-4010-8180-94a7e777644f.root
/store/mc/Run3Summer22NanoAODv13/GluGlutoHHto2B2Tau_kl-5p00_kt-1p00_c2-0p00_TuneCP5_13p6TeV_powheg-pythia8/NANOAODSIM/ggHH_powheg_bugfix_133X_mcRun3_2022_realistic_ForNanov13_v1-v2/60000/d1c87f8c-bae6-4b20-9f4b-a7a77508bd2e.root
/store/mc/Run3Summer22NanoAODv13/GluGlutoHHto2B2Tau_kl-5p00_kt-1p00_c2-0p00_TuneCP5_13p6TeV_powheg-pythia8/NANOAODSIM/ggHH_powheg_bugfix_133X_mcRun3_2022_realistic_ForNanov13_v1-v2/2830000/a243a37d-9128-4b14-a469-7a6215659366.root
/store/mc/Run3Summer22NanoAODv13/GluGlutoHHto2B2Tau_kl-5p00_kt-1p00_c2-0p00_TuneCP5_13p6TeV_powheg-pythia8/NANOAODSIM/ggHH_powheg_bugfix_133X_mcRun3_2022_realistic_ForNanov13_v1-v2/2830000/143afc9f-31f9-4a40-a9d8-a9c510a34a38.root
/store/mc/Run3Summer22NanoAODv13/GluGlutoHHto2B2Tau_kl-5p00_kt-1p00_c2-0p00_TuneCP5_13p6TeV_powheg-pythia8/NANOAODSIM/ggHH_powheg_bugfix_133X_mcRun3_2022_realistic_ForNanov13_v1-v2/2830000/a67d6379-d248-4c62-9c90-a52cd0550dfa.root
/store/mc/Run3Summer22NanoAODv13/GluGlutoHHto2B2Tau_kl-5p00_kt-1p00_c2-0p00_TuneCP5_13p6TeV_powheg-pythia8/NANOAODSIM/ggHH_powheg_bugfix_133X_mcRun3_2022_realistic_ForNanov13_v1-v2/2830000/ab8a28bf-8101-4df1-92e5-2785aee97ba7.root
/store/mc/Run3Summer22NanoAODv13/GluGlutoHHto2B2Tau_kl-5p00_kt-1p00_c2-0p00_TuneCP5_13p6TeV_powheg-pythia8/NANOAODSIM/ggHH_powheg_bugfix_133X_mcRun3_2022_realistic_ForNanov13_v1-v2/2830000/ec7e77dc-8812-45a5-8dd9-153a29ca2d44.root
/store/mc/Run3Summer22NanoAODv13/GluGlutoHHto2B2Tau_kl-5p00_kt-1p00_c2-0p00_TuneCP5_13p6TeV_powheg-pythia8/NANOAODSIM/ggHH_powheg_bugfix_133X_mcRun3_2022_realistic_ForNanov13_v1-v2/2830000/6abeeb30-f571-4982-8555-442b53a408c9.root
/store/mc/Run3Summer22NanoAODv13/GluGlutoHHto2B2Tau_kl-5p00_kt-1p00_c2-0p00_TuneCP5_13p6TeV_powheg-pythia8/NANOAODSIM/ggHH_powheg_bugfix_133X_mcRun3_2022_realistic_ForNanov13_v1-v2/2830000/4d0ee7b8-3ea8-457f-9fc0-20b01c524b1e.root
/store/mc/Run3Summer22NanoAODv13/GluGlutoHHto2B2Tau_kl-5p00_kt-1p00_c2-0p00_TuneCP5_13p6TeV_powheg-pythia8/NANOAODSIM/ggHH_powheg_bugfix_133X_mcRun3_2022_realistic_ForNanov13_v1-v2/2830000/41120663-be66-48ca-93ac-fc1419fa1f6f.root
/store/mc/Run3Summer22NanoAODv13/GluGlutoHHto2B2Tau_kl-5p00_kt-1p00_c2-0p00_TuneCP5_13p6TeV_powheg-pythia8/NANOAODSIM/ggHH_powheg_bugfix_133X_mcRun3_2022_realistic_ForNanov13_v1-v2/60000/c1bf0bc0-9045-4db9-b754-618bea323e4b.root
/store/mc/Run3Summer22NanoAODv13/GluGlutoHHto2B2Tau_kl-5p00_kt-1p00_c2-0p00_TuneCP5_13p6TeV_powheg-pythia8/NANOAODSIM/ggHH_powheg_bugfix_133X_mcRun3_2022_realistic_ForNanov13_v1-v2/60000/d013d1af-dc85-4eaf-829a-badf29aa9daf.root
/store/mc/Run3Summer22NanoAODv13/GluGlutoHHto2B2Tau_kl-5p00_kt-1p00_c2-0p00_TuneCP5_13p6TeV_powheg-pythia8/NANOAODSIM/ggHH_powheg_bugfix_133X_mcRun3_2022_realistic_ForNanov13_v1-v2/60000/be3abac8-0c14-461a-b76e-90c2c660cf91.root
/store/mc/Run3Summer22NanoAODv13/GluGlutoHHto2B2Tau_kl-5p00_kt-1p00_c2-0p00_TuneCP5_13p6TeV_powheg-pythia8/NANOAODSIM/ggHH_powheg_bugfix_133X_mcRun3_2022_realistic_ForNanov13_v1-v2/60000/767c3f0e-cb01-432e-bc9d-616f3f4412ee.root
/store/mc/Run3Summer22NanoAODv13/GluGlutoHHto2B2Tau_kl-5p00_kt-1p00_c2-0p00_TuneCP5_13p6TeV_powheg-pythia8/NANOAODSIM/ggHH_powheg_bugfix_133X_mcRun3_2022_realistic_ForNanov13_v1-v2/60000/d90c3587-ab2d-461a-82aa-0801340d1bc3.root
/store/mc/Run3Summer22NanoAODv13/GluGlutoHHto2B2Tau_kl-5p00_kt-1p00_c2-0p00_TuneCP5_13p6TeV_powheg-pythia8/NANOAODSIM/ggHH_powheg_bugfix_133X_mcRun3_2022_realistic_ForNanov13_v1-v2/60000/36d86f03-6c2b-44f5-8c9c-c76fefe4abeb.root
/store/mc/Run3Summer22NanoAODv13/GluGlutoHHto2B2Tau_kl-5p00_kt-1p00_c2-0p00_TuneCP5_13p6TeV_powheg-pythia8/NANOAODSIM/ggHH_powheg_bugfix_133X_mcRun3_2022_realistic_ForNanov13_v1-v2/60000/c901718b-d10c-4417-abef-3182bd7a8460.root
/store/mc/Run3Summer22NanoAODv13/GluGlutoHHto2B2Tau_kl-5p00_kt-1p00_c2-0p00_TuneCP5_13p6TeV_powheg-pythia8/NANOAODSIM/ggHH_powheg_bugfix_133X_mcRun3_2022_realistic_ForNanov13_v1-v2/60000/17c8c57c-9327-4788-a00b-e0e306ca1902.root
/store/mc/Run3Summer22NanoAODv13/GluGlutoHHto2B2Tau_kl-5p00_kt-1p00_c2-0p00_TuneCP5_13p6TeV_powheg-pythia8/NANOAODSIM/ggHH_powheg_bugfix_133X_mcRun3_2022_realistic_ForNanov13_v1-v2/2830000/da88e3ac-8581-476d-864d-49b4c7d303f3.root
/store/mc/Run3Summer22NanoAODv13/GluGlutoHHto2B2Tau_kl-5p00_kt-1p00_c2-0p00_TuneCP5_13p6TeV_powheg-pythia8/NANOAODSIM/ggHH_powheg_bugfix_133X_mcRun3_2022_realistic_ForNanov13_v1-v2/60000/f15e7548-6d37-447d-944b-b356b1e672f2.root
/store/mc/Run3Summer22NanoAODv13/GluGlutoHHto2B2Tau_kl-5p00_kt-1p00_c2-0p00_TuneCP5_13p6TeV_powheg-pythia8/NANOAODSIM/ggHH_powheg_bugfix_133X_mcRun3_2022_realistic_ForNanov13_v1-v2/60000/bbe42745-f133-4d55-b759-bf4413eda8ac.root
/store/mc/Run3Summer22NanoAODv13/GluGlutoHHto2B2Tau_kl-5p00_kt-1p00_c2-0p00_TuneCP5_13p6TeV_powheg-pythia8/NANOAODSIM/ggHH_powheg_bugfix_133X_mcRun3_2022_realistic_ForNanov13_v1-v2/60000/cfa81d30-e325-45b4-bfd7-094542c3d037.root
/store/mc/Run3Summer22NanoAODv13/GluGlutoHHto2B2Tau_kl-5p00_kt-1p00_c2-0p00_TuneCP5_13p6TeV_powheg-pythia8/NANOAODSIM/ggHH_powheg_bugfix_133X_mcRun3_2022_realistic_ForNanov13_v1-v2/60000/6da35dbb-77fb-4264-88ed-42833da81d4c.root
/store/mc/Run3Summer22NanoAODv13/GluGlutoHHto2B2Tau_kl-5p00_kt-1p00_c2-0p00_TuneCP5_13p6TeV_powheg-pythia8/NANOAODSIM/ggHH_powheg_bugfix_133X_mcRun3_2022_realistic_ForNanov13_v1-v2/60000/b646f225-5337-4c51-b70f-a1d3d68a2143.root
/store/mc/Run3Summer22NanoAODv13/GluGlutoHHto2B2Tau_kl-5p00_kt-1p00_c2-0p00_TuneCP5_13p6TeV_powheg-pythia8/NANOAODSIM/ggHH_powheg_bugfix_133X_mcRun3_2022_realistic_ForNanov13_v1-v2/60000/f9d43e66-d219-4787-92e9-f99c004fccda.root
/store/mc/Run3Summer22NanoAODv13/GluGlutoHHto2B2Tau_kl-5p00_kt-1p00_c2-0p00_TuneCP5_13p6TeV_powheg-pythia8/NANOAODSIM/ggHH_powheg_bugfix_133X_mcRun3_2022_realistic_ForNanov13_v1-v2/2830000/1b38d46f-132c-4516-858f-093f53c7b13f.root
/store/mc/Run3Summer22NanoAODv13/GluGlutoHHto2B2Tau_kl-5p00_kt-1p00_c2-0p00_TuneCP5_13p6TeV_powheg-pythia8/NANOAODSIM/ggHH_powheg_bugfix_133X_mcRun3_2022_realistic_ForNanov13_v1-v2/2830000/4536b8db-a630-407e-b551-809ce33b12b4.root
/store/mc/Run3Summer22NanoAODv13/GluGlutoHHto2B2Tau_kl-5p00_kt-1p00_c2-0p00_TuneCP5_13p6TeV_powheg-pythia8/NANOAODSIM/ggHH_powheg_bugfix_133X_mcRun3_2022_realistic_ForNanov13_v1-v2/2830000/af065dce-12de-432c-912f-0240b0cd6709.root
/store/mc/Run3Summer22NanoAODv13/GluGlutoHHto2B2Tau_kl-5p00_kt-1p00_c2-0p00_TuneCP5_13p6TeV_powheg-pythia8/NANOAODSIM/ggHH_powheg_bugfix_133X_mcRun3_2022_realistic_ForNanov13_v1-v2/2830000/97f399d0-0449-4ec5-bc30-b6f0821507a7.root
/store/mc/Run3Summer22NanoAODv13/GluGlutoHHto2B2Tau_kl-5p00_kt-1p00_c2-0p00_TuneCP5_13p6TeV_powheg-pythia8/NANOAODSIM/ggHH_powheg_bugfix_133X_mcRun3_2022_realistic_ForNanov13_v1-v2/2830000/5badf643-f3af-447d-9fce-a53ed095a748.root
/store/mc/Run3Summer22NanoAODv13/GluGlutoHHto2B2Tau_kl-5p00_kt-1p00_c2-0p00_TuneCP5_13p6TeV_powheg-pythia8/NANOAODSIM/ggHH_powheg_bugfix_133X_mcRun3_2022_realistic_ForNanov13_v1-v2/2830000/07b98aa4-7bb0-4d13-bd7e-202310e9df72.root
/store/mc/Run3Summer22NanoAODv13/GluGlutoHHto2B2Tau_kl-5p00_kt-1p00_c2-0p00_TuneCP5_13p6TeV_powheg-pythia8/NANOAODSIM/ggHH_powheg_bugfix_133X_mcRun3_2022_realistic_ForNanov13_v1-v2/2830000/27eccad5-7dbb-4106-908e-422022bad5ea.root
/store/mc/Run3Summer22NanoAODv13/GluGlutoHHto2B2Tau_kl-5p00_kt-1p00_c2-0p00_TuneCP5_13p6TeV_powheg-pythia8/NANOAODSIM/ggHH_powheg_bugfix_133X_mcRun3_2022_realistic_ForNanov13_v1-v2/2830000/c7e15f5a-9e59-4cf4-bf28-257a4b48253d.root
/store/mc/Run3Summer22NanoAODv13/GluGlutoHHto2B2Tau_kl-5p00_kt-1p00_c2-0p00_TuneCP5_13p6TeV_powheg-pythia8/NANOAODSIM/ggHH_powheg_bugfix_133X_mcRun3_2022_realistic_ForNanov13_v1-v2/2830000/353aff8d-65fa-4192-bb9a-fda97c8f2c58.root
/store/mc/Run3Summer22NanoAODv13/GluGlutoHHto2B2Tau_kl-5p00_kt-1p00_c2-0p00_TuneCP5_13p6TeV_powheg-pythia8/NANOAODSIM/ggHH_powheg_bugfix_133X_mcRun3_2022_realistic_ForNanov13_v1-v2/2830000/574c91fa-ea81-4407-9ec6-c0e4dfbffb8b.root
/store/mc/Run3Summer22NanoAODv13/GluGlutoHHto2B2Tau_kl-5p00_kt-1p00_c2-0p00_TuneCP5_13p6TeV_powheg-pythia8/NANOAODSIM/ggHH_powheg_bugfix_133X_mcRun3_2022_realistic_ForNanov13_v1-v2/2830000/3a1e1e9d-00e3-4ff2-96af-b9390b99f9b0.root
/store/mc/Run3Summer22NanoAODv13/GluGlutoHHto2B2Tau_kl-5p00_kt-1p00_c2-0p00_TuneCP5_13p6TeV_powheg-pythia8/NANOAODSIM/ggHH_powheg_bugfix_133X_mcRun3_2022_realistic_ForNanov13_v1-v2/2830000/46dfd690-1bfe-45e5-a514-a3d57282f3d9.root
/store/mc/Run3Summer22NanoAODv13/GluGlutoHHto2B2Tau_kl-5p00_kt-1p00_c2-0p00_TuneCP5_13p6TeV_powheg-pythia8/NANOAODSIM/ggHH_powheg_bugfix_133X_mcRun3_2022_realistic_ForNanov13_v1-v2/2830000/e7dd3080-5ef0-4d37-af34-496f9763ee98.root
/store/mc/Run3Summer22NanoAODv13/GluGlutoHHto2B2Tau_kl-5p00_kt-1p00_c2-0p00_TuneCP5_13p6TeV_powheg-pythia8/NANOAODSIM/ggHH_powheg_bugfix_133X_mcRun3_2022_realistic_ForNanov13_v1-v2/2830000/abe51924-efd9-445d-a670-57ddb060325c.root
/store/mc/Run3Summer22NanoAODv13/GluGlutoHHto2B2Tau_kl-5p00_kt-1p00_c2-0p00_TuneCP5_13p6TeV_powheg-pythia8/NANOAODSIM/ggHH_powheg_bugfix_133X_mcRun3_2022_realistic_ForNanov13_v1-v2/60000/72fea802-ecd5-45ff-948a-3327f5304ca7.root
/store/mc/Run3Summer22NanoAODv13/GluGlutoHHto2B2Tau_kl-5p00_kt-1p00_c2-0p00_TuneCP5_13p6TeV_powheg-pythia8/NANOAODSIM/ggHH_powheg_bugfix_133X_mcRun3_2022_realistic_ForNanov13_v1-v2/2830000/4cddd80e-c641-42c8-b803-154f0d960b10.root
/store/mc/Run3Summer22NanoAODv13/GluGlutoHHto2B2Tau_kl-5p00_kt-1p00_c2-0p00_TuneCP5_13p6TeV_powheg-pythia8/NANOAODSIM/ggHH_powheg_bugfix_133X_mcRun3_2022_realistic_ForNanov13_v1-v2/2830000/067a8b4f-fac1-415e-b077-64fbd4eb4804.root
/store/mc/Run3Summer22NanoAODv13/GluGlutoHHto2B2Tau_kl-5p00_kt-1p00_c2-0p00_TuneCP5_13p6TeV_powheg-pythia8/NANOAODSIM/ggHH_powheg_bugfix_133X_mcRun3_2022_realistic_ForNanov13_v1-v2/2830000/74a6c462-715e-4239-acdc-c2dd8714dd73.root
/store/mc/Run3Summer22NanoAODv13/GluGlutoHHto2B2Tau_kl-5p00_kt-1p00_c2-0p00_TuneCP5_13p6TeV_powheg-pythia8/NANOAODSIM/ggHH_powheg_bugfix_133X_mcRun3_2022_realistic_ForNanov13_v1-v2/2830000/e8619ef3-1768-414c-8387-5a86f6f496a1.root
/store/mc/Run3Summer22NanoAODv13/GluGlutoHHto2B2Tau_kl-5p00_kt-1p00_c2-0p00_TuneCP5_13p6TeV_powheg-pythia8/NANOAODSIM/ggHH_powheg_bugfix_133X_mcRun3_2022_realistic_ForNanov13_v1-v2/2830000/b6023da4-dbd1-441b-8b49-cf37ea323f5b.root
/store/mc/Run3Summer22NanoAODv13/GluGlutoHHto2B2Tau_kl-5p00_kt-1p00_c2-0p00_TuneCP5_13p6TeV_powheg-pythia8/NANOAODSIM/ggHH_powheg_bugfix_133X_mcRun3_2022_realistic_ForNanov13_v1-v2/2830000/1e8fa3da-8a97-43ba-a217-8519f2c60897.root
/store/mc/Run3Summer22NanoAODv13/GluGlutoHHto2B2Tau_kl-5p00_kt-1p00_c2-0p00_TuneCP5_13p6TeV_powheg-pythia8/NANOAODSIM/ggHH_powheg_bugfix_133X_mcRun3_2022_realistic_ForNanov13_v1-v2/2830000/b6934b1b-1202-458e-9e6f-37d06b4d66f8.root
/store/mc/Run3Summer22NanoAODv13/GluGlutoHHto2B2Tau_kl-5p00_kt-1p00_c2-0p00_TuneCP5_13p6TeV_powheg-pythia8/NANOAODSIM/ggHH_powheg_bugfix_133X_mcRun3_2022_realistic_ForNanov13_v1-v2/2830000/8bf64a4f-23b1-4370-8f9d-71b674c107cf.root
/store/mc/Run3Summer22NanoAODv13/GluGlutoHHto2B2Tau_kl-5p00_kt-1p00_c2-0p00_TuneCP5_13p6TeV_powheg-pythia8/NANOAODSIM/ggHH_powheg_bugfix_133X_mcRun3_2022_realistic_ForNanov13_v1-v2/2830000/d3bf1603-536d-421f-82ee-239649c67bec.root
/store/mc/Run3Summer22NanoAODv13/GluGlutoHHto2B2Tau_kl-5p00_kt-1p00_c2-0p00_TuneCP5_13p6TeV_powheg-pythia8/NANOAODSIM/ggHH_powheg_bugfix_133X_mcRun3_2022_realistic_ForNanov13_v1-v2/60000/4b703cda-0e62-49bd-8600-74ec33bb0053.root
/store/mc/Run3Summer22NanoAODv13/GluGlutoHHto2B2Tau_kl-5p00_kt-1p00_c2-0p00_TuneCP5_13p6TeV_powheg-pythia8/NANOAODSIM/ggHH_powheg_bugfix_133X_mcRun3_2022_realistic_ForNanov13_v1-v2/60000/63759bd2-a382-4553-ae6d-f14e96b66785.root
/store/mc/Run3Summer22NanoAODv13/GluGlutoHHto2B2Tau_kl-5p00_kt-1p00_c2-0p00_TuneCP5_13p6TeV_powheg-pythia8/NANOAODSIM/ggHH_powheg_bugfix_133X_mcRun3_2022_realistic_ForNanov13_v1-v2/2830000/ad15c9ec-a113-4765-88bd-54a902ef7ae6.root
/store/mc/Run3Summer22NanoAODv13/GluGlutoHHto2B2Tau_kl-5p00_kt-1p00_c2-0p00_TuneCP5_13p6TeV_powheg-pythia8/NANOAODSIM/ggHH_powheg_bugfix_133X_mcRun3_2022_realistic_ForNanov13_v1-v2/60000/37b991a1-b6b4-4a9c-921d-ba3306b4c35a.root
/store/mc/Run3Summer22NanoAODv13/GluGlutoHHto2B2Tau_kl-5p00_kt-1p00_c2-0p00_TuneCP5_13p6TeV_powheg-pythia8/NANOAODSIM/ggHH_powheg_bugfix_133X_mcRun3_2022_realistic_ForNanov13_v1-v2/60000/c7678c31-e33b-443f-86ea-f9a9a547cfc2.root
/store/mc/Run3Summer22NanoAODv13/GluGlutoHHto2B2Tau_kl-5p00_kt-1p00_c2-0p00_TuneCP5_13p6TeV_powheg-pythia8/NANOAODSIM/ggHH_powheg_bugfix_133X_mcRun3_2022_realistic_ForNanov13_v1-v2/60000/e5d8bffd-75c0-4504-ab22-d11b70596b88.root
/store/mc/Run3Summer22NanoAODv13/GluGlutoHHto2B2Tau_kl-5p00_kt-1p00_c2-0p00_TuneCP5_13p6TeV_powheg-pythia8/NANOAODSIM/ggHH_powheg_bugfix_133X_mcRun3_2022_realistic_ForNanov13_v1-v2/60000/980d90cd-1625-429b-92e6-8f9ff3a7d758.root
/store/mc/Run3Summer22NanoAODv13/GluGlutoHHto2B2Tau_kl-5p00_kt-1p00_c2-0p00_TuneCP5_13p6TeV_powheg-pythia8/NANOAODSIM/ggHH_powheg_bugfix_133X_mcRun3_2022_realistic_ForNanov13_v1-v2/60000/7a09ee90-253f-47e6-a144-585863fa13c1.root
/store/mc/Run3Summer22NanoAODv13/GluGlutoHHto2B2Tau_kl-5p00_kt-1p00_c2-0p00_TuneCP5_13p6TeV_powheg-pythia8/NANOAODSIM/ggHH_powheg_bugfix_133X_mcRun3_2022_realistic_ForNanov13_v1-v2/60000/09170954-c479-4ca3-9b51-48e6c9c617fb.root
/store/mc/Run3Summer22NanoAODv13/GluGlutoHHto2B2Tau_kl-5p00_kt-1p00_c2-0p00_TuneCP5_13p6TeV_powheg-pythia8/NANOAODSIM/ggHH_powheg_bugfix_133X_mcRun3_2022_realistic_ForNanov13_v1-v2/60000/5c6763f4-6a82-4ef3-90dc-6709b821cd1d.root
/store/mc/Run3Summer22NanoAODv13/GluGlutoHHto2B2Tau_kl-5p00_kt-1p00_c2-0p00_TuneCP5_13p6TeV_powheg-pythia8/NANOAODSIM/ggHH_powheg_bugfix_133X_mcRun3_2022_realistic_ForNanov13_v1-v2/2830000/5d237497-f07c-4094-b9b4-61addb4c4d77.root
/store/mc/Run3Summer22NanoAODv13/GluGlutoHHto2B2Tau_kl-5p00_kt-1p00_c2-0p00_TuneCP5_13p6TeV_powheg-pythia8/NANOAODSIM/ggHH_powheg_bugfix_133X_mcRun3_2022_realistic_ForNanov13_v1-v2/2830000/b48ea737-87db-4496-81d7-79657d459a0a.root