/store/mc/Run3Summer22NanoAODv12/GluGlutoHHto2B2Tau_kl-1p00_kt-1p00_c2-0p00_LHEweights_TuneCP5_13p6TeV_powheg-pythia8/NANOAODSIM/130X_mcRun3_2022_realistic_v5-v2/50000/992697da-4a10-4435-b63a-413f6d33517e.root
/store/mc/Run3Summer22NanoAODv12/GluGlutoHHto2B2Tau_kl-1p00_kt-1p00_c2-0p00_LHEweights_TuneCP5_13p6TeV_powheg-pythia8/NANOAODSIM/130X_mcRun3_2022_realistic_v5-v2/50000/8a4e45ad-49b7-4e32-a533-ff93ff70348d.root
/store/mc/Run3Summer22NanoAODv12/GluGlutoHHto2B2Tau_kl-1p00_kt-1p00_c2-0p00_LHEweights_TuneCP5_13p6TeV_powheg-pythia8/NANOAODSIM/130X_mcRun3_2022_realistic_v5-v2/50000/81eac07b-1a52-4f41-8f26-8ef5161934d0.root
/store/mc/Run3Summer22NanoAODv12/GluGlutoHHto2B2Tau_kl-1p00_kt-1p00_c2-0p00_LHEweights_TuneCP5_13p6TeV_powheg-pythia8/NANOAODSIM/130X_mcRun3_2022_realistic_v5-v2/2540000/f626dcfc-b152-4907-a532-17aecd460e38.root
/store/mc/Run3Summer22NanoAODv12/GluGlutoHHto2B2Tau_kl-1p00_kt-1p00_c2-0p00_LHEweights_TuneCP5_13p6TeV_powheg-pythia8/NANOAODSIM/130X_mcRun3_2022_realistic_v5-v2/2540000/78b973d9-f814-4db9-8f56-ee08a219319d.root
/store/mc/Run3Summer22NanoAODv12/GluGlutoHHto2B2Tau_kl-1p00_kt-1p00_c2-0p00_LHEweights_TuneCP5_13p6TeV_powheg-pythia8/NANOAODSIM/130X_mcRun3_2022_realistic_v5-v2/2540000/d87a4569-2690-491a-9b28-aef4a6130ea9.root
/store/mc/Run3Summer22NanoAODv12/GluGlutoHHto2B2Tau_kl-1p00_kt-1p00_c2-0p00_LHEweights_TuneCP5_13p6TeV_powheg-pythia8/NANOAODSIM/130X_mcRun3_2022_realistic_v5-v2/2540000/520bb7f1-7adb-498f-8923-afa5a28e3052.root
/store/mc/Run3Summer22NanoAODv12/GluGlutoHHto2B2Tau_kl-1p00_kt-1p00_c2-0p00_LHEweights_TuneCP5_13p6TeV_powheg-pythia8/NANOAODSIM/130X_mcRun3_2022_realistic_v5-v2/50000/7133ca83-b800-4d7e-9511-33e16f491c88.root
/store/mc/Run3Summer22NanoAODv12/GluGlutoHHto2B2Tau_kl-1p00_kt-1p00_c2-0p00_LHEweights_TuneCP5_13p6TeV_powheg-pythia8/NANOAODSIM/130X_mcRun3_2022_realistic_v5-v2/50000/e46965e3-6aab-4e8a-8492-7e7b1ba1f322.root
/store/mc/Run3Summer22NanoAODv12/GluGlutoHHto2B2Tau_kl-1p00_kt-1p00_c2-0p00_LHEweights_TuneCP5_13p6TeV_powheg-pythia8/NANOAODSIM/130X_mcRun3_2022_realistic_v5-v2/2550000/4bb7df73-143b-4baf-a6ac-01de17776023.root
/store/mc/Run3Summer22NanoAODv12/GluGlutoHHto2B2Tau_kl-1p00_kt-1p00_c2-0p00_LHEweights_TuneCP5_13p6TeV_powheg-pythia8/NANOAODSIM/130X_mcRun3_2022_realistic_v5-v2/2550000/0a2470fa-92df-4c0e-a1fe-6ef046412bbf.root
/store/mc/Run3Summer22NanoAODv12/GluGlutoHHto2B2Tau_kl-1p00_kt-1p00_c2-0p00_LHEweights_TuneCP5_13p6TeV_powheg-pythia8/NANOAODSIM/130X_mcRun3_2022_realistic_v5-v2/50000/b053dd11-54b6-471a-99d8-98f42795adfa.root
/store/mc/Run3Summer22NanoAODv12/GluGlutoHHto2B2Tau_kl-1p00_kt-1p00_c2-0p00_LHEweights_TuneCP5_13p6TeV_powheg-pythia8/NANOAODSIM/130X_mcRun3_2022_realistic_v5-v2/50000/57624ab3-f418-461f-bd63-0f9462bc02ae.root
/store/mc/Run3Summer22NanoAODv12/GluGlutoHHto2B2Tau_kl-1p00_kt-1p00_c2-0p00_LHEweights_TuneCP5_13p6TeV_powheg-pythia8/NANOAODSIM/130X_mcRun3_2022_realistic_v5-v2/50000/acd52e7e-ed48-4325-b32d-262ddb336aaa.root
/store/mc/Run3Summer22NanoAODv12/GluGlutoHHto2B2Tau_kl-1p00_kt-1p00_c2-0p00_LHEweights_TuneCP5_13p6TeV_powheg-pythia8/NANOAODSIM/130X_mcRun3_2022_realistic_v5-v2/2550000/1648d342-49a4-4c6f-9854-abbd0dd20107.root
/store/mc/Run3Summer22NanoAODv12/GluGlutoHHto2B2Tau_kl-1p00_kt-1p00_c2-0p00_LHEweights_TuneCP5_13p6TeV_powheg-pythia8/NANOAODSIM/130X_mcRun3_2022_realistic_v5-v2/2540000/3760d1bf-4822-446a-b68f-824e80c6ec69.root
/store/mc/Run3Summer22NanoAODv12/GluGlutoHHto2B2Tau_kl-1p00_kt-1p00_c2-0p00_LHEweights_TuneCP5_13p6TeV_powheg-pythia8/NANOAODSIM/130X_mcRun3_2022_realistic_v5-v2/2540000/1264b81e-ca00-4790-86e3-ca6f9712964f.root
/store/mc/Run3Summer22NanoAODv12/GluGlutoHHto2B2Tau_kl-1p00_kt-1p00_c2-0p00_LHEweights_TuneCP5_13p6TeV_powheg-pythia8/NANOAODSIM/130X_mcRun3_2022_realistic_v5-v2/2540000/c6f99ccf-adfc-4702-a9ff-5067439e8525.root
/store/mc/Run3Summer22NanoAODv12/GluGlutoHHto2B2Tau_kl-1p00_kt-1p00_c2-0p00_LHEweights_TuneCP5_13p6TeV_powheg-pythia8/NANOAODSIM/130X_mcRun3_2022_realistic_v5-v2/2540000/d1791fc0-e9c1-4a7e-afa2-5314d58f48d9.root
/store/mc/Run3Summer22NanoAODv12/GluGlutoHHto2B2Tau_kl-1p00_kt-1p00_c2-0p00_LHEweights_TuneCP5_13p6TeV_powheg-pythia8/NANOAODSIM/130X_mcRun3_2022_realistic_v5-v2/2540000/151e2c3d-dc6b-4e91-97ee-b23b940f7394.root
/store/mc/Run3Summer22NanoAODv12/GluGlutoHHto2B2Tau_kl-1p00_kt-1p00_c2-0p00_LHEweights_TuneCP5_13p6TeV_powheg-pythia8/NANOAODSIM/130X_mcRun3_2022_realistic_v5-v2/50000/f98a8f23-7f71-4946-82f4-7f6d98b79eaa.root
/store/mc/Run3Summer22NanoAODv12/GluGlutoHHto2B2Tau_kl-1p00_kt-1p00_c2-0p00_LHEweights_TuneCP5_13p6TeV_powheg-pythia8/NANOAODSIM/130X_mcRun3_2022_realistic_v5-v2/50000/f848324e-8c06-4a56-a31d-103e0cd80f6d.root
/store/mc/Run3Summer22NanoAODv12/GluGlutoHHto2B2Tau_kl-1p00_kt-1p00_c2-0p00_LHEweights_TuneCP5_13p6TeV_powheg-pythia8/NANOAODSIM/130X_mcRun3_2022_realistic_v5-v2/2550000/f876776d-c35d-42e7-8703-62977b7c2126.root
/store/mc/Run3Summer22NanoAODv12/GluGlutoHHto2B2Tau_kl-1p00_kt-1p00_c2-0p00_LHEweights_TuneCP5_13p6TeV_powheg-pythia8/NANOAODSIM/130X_mcRun3_2022_realistic_v5-v2/2550000/11f59655-9cc4-4351-a018-3ad8b1302101.root
/store/mc/Run3Summer22NanoAODv12/GluGlutoHHto2B2Tau_kl-1p00_kt-1p00_c2-0p00_LHEweights_TuneCP5_13p6TeV_powheg-pythia8/NANOAODSIM/130X_mcRun3_2022_realistic_v5-v2/2540000/50ae38e7-c844-4eaf-b0d9-d68d62919504.root
/store/mc/Run3Summer22NanoAODv12/GluGlutoHHto2B2Tau_kl-1p00_kt-1p00_c2-0p00_LHEweights_TuneCP5_13p6TeV_powheg-pythia8/NANOAODSIM/130X_mcRun3_2022_realistic_v5-v2/2540000/597192ec-8c80-430d-8201-d70c75c91dcc.root
/store/mc/Run3Summer22NanoAODv12/GluGlutoHHto2B2Tau_kl-1p00_kt-1p00_c2-0p00_LHEweights_TuneCP5_13p6TeV_powheg-pythia8/NANOAODSIM/130X_mcRun3_2022_realistic_v5-v2/2540000/d958efc3-b7c7-4d06-a94f-8b9695be7788.root
/store/mc/Run3Summer22NanoAODv12/GluGlutoHHto2B2Tau_kl-1p00_kt-1p00_c2-0p00_LHEweights_TuneCP5_13p6TeV_powheg-pythia8/NANOAODSIM/130X_mcRun3_2022_realistic_v5-v2/2550000/0b28e75e-f2d8-4ca7-a4e6-2ad728eb4dac.root
/store/mc/Run3Summer22NanoAODv12/GluGlutoHHto2B2Tau_kl-1p00_kt-1p00_c2-0p00_LHEweights_TuneCP5_13p6TeV_powheg-pythia8/NANOAODSIM/130X_mcRun3_2022_realistic_v5-v2/2550000/75f7a385-546c-4db5-92c1-87ad0c359c4f.root
/store/mc/Run3Summer22NanoAODv12/GluGlutoHHto2B2Tau_kl-1p00_kt-1p00_c2-0p00_LHEweights_TuneCP5_13p6TeV_powheg-pythia8/NANOAODSIM/130X_mcRun3_2022_realistic_v5-v2/2550000/bcf455c7-ec61-4f02-95e6-74fa42f814fb.root
/store/mc/Run3Summer22NanoAODv12/GluGlutoHHto2B2Tau_kl-1p00_kt-1p00_c2-0p00_LHEweights_TuneCP5_13p6TeV_powheg-pythia8/NANOAODSIM/130X_mcRun3_2022_realistic_v5-v2/2550000/91605215-6c95-4c2c-b5aa-74e32e1a0fe6.root
/store/mc/Run3Summer22NanoAODv12/GluGlutoHHto2B2Tau_kl-1p00_kt-1p00_c2-0p00_LHEweights_TuneCP5_13p6TeV_powheg-pythia8/NANOAODSIM/130X_mcRun3_2022_realistic_v5-v2/2550000/5a5e7a39-00fa-4f86-8282-8e1919b5a05e.root
/store/mc/Run3Summer22NanoAODv12/GluGlutoHHto2B2Tau_kl-1p00_kt-1p00_c2-0p00_LHEweights_TuneCP5_13p6TeV_powheg-pythia8/NANOAODSIM/130X_mcRun3_2022_realistic_v5-v2/50000/eac83039-1574-4554-b210-0e1b6093918d.root
/store/mc/Run3Summer22NanoAODv12/GluGlutoHHto2B2Tau_kl-1p00_kt-1p00_c2-0p00_LHEweights_TuneCP5_13p6TeV_powheg-pythia8/NANOAODSIM/130X_mcRun3_2022_realistic_v5-v2/2550000/e1ee4e21-eec4-4cfe-a446-bea08ae7fc5b.root
/store/mc/Run3Summer22NanoAODv12/GluGlutoHHto2B2Tau_kl-1p00_kt-1p00_c2-0p00_LHEweights_TuneCP5_13p6TeV_powheg-pythia8/NANOAODSIM/130X_mcRun3_2022_realistic_v5-v2/2550000/91bd1de0-d322-4869-965f-328008d8d074.root
/store/mc/Run3Summer22NanoAODv12/GluGlutoHHto2B2Tau_kl-1p00_kt-1p00_c2-0p00_LHEweights_TuneCP5_13p6TeV_powheg-pythia8/NANOAODSIM/130X_mcRun3_2022_realistic_v5-v2/2550000/090155b3-0e4a-4020-8bae-40d69402420a.root
/store/mc/Run3Summer22NanoAODv12/GluGlutoHHto2B2Tau_kl-1p00_kt-1p00_c2-0p00_LHEweights_TuneCP5_13p6TeV_powheg-pythia8/NANOAODSIM/130X_mcRun3_2022_realistic_v5-v2/2550000/cd2a69e5-b995-4086-9f5b-76fca6c1f321.root
/store/mc/Run3Summer22NanoAODv12/GluGlutoHHto2B2Tau_kl-1p00_kt-1p00_c2-0p00_LHEweights_TuneCP5_13p6TeV_powheg-pythia8/NANOAODSIM/130X_mcRun3_2022_realistic_v5-v2/50000/279a23b6-ddc6-48a8-bc3d-4b648a8ae7d9.root
/store/mc/Run3Summer22NanoAODv12/GluGlutoHHto2B2Tau_kl-1p00_kt-1p00_c2-0p00_LHEweights_TuneCP5_13p6TeV_powheg-pythia8/NANOAODSIM/130X_mcRun3_2022_realistic_v5-v2/2540000/c360f597-b2e9-4533-a351-1b8413133177.root
/store/mc/Run3Summer22NanoAODv12/GluGlutoHHto2B2Tau_kl-1p00_kt-1p00_c2-0p00_LHEweights_TuneCP5_13p6TeV_powheg-pythia8/NANOAODSIM/130X_mcRun3_2022_realistic_v5-v2/2550000/662fa958-acd8-4e3a-8eb6-0f1da543fabe.root
/store/mc/Run3Summer22NanoAODv12/GluGlutoHHto2B2Tau_kl-1p00_kt-1p00_c2-0p00_LHEweights_TuneCP5_13p6TeV_powheg-pythia8/NANOAODSIM/130X_mcRun3_2022_realistic_v5-v2/2550000/a8acae5a-fd0b-4b67-bc02-5c78e0e264b4.root
/store/mc/Run3Summer22NanoAODv12/GluGlutoHHto2B2Tau_kl-1p00_kt-1p00_c2-0p00_LHEweights_TuneCP5_13p6TeV_powheg-pythia8/NANOAODSIM/130X_mcRun3_2022_realistic_v5-v2/50000/005637fa-982b-4b1c-93e4-73c493e19688.root
/store/mc/Run3Summer22NanoAODv12/GluGlutoHHto2B2Tau_kl-1p00_kt-1p00_c2-0p00_LHEweights_TuneCP5_13p6TeV_powheg-pythia8/NANOAODSIM/130X_mcRun3_2022_realistic_v5-v2/50000/220eed97-8662-4b2f-b272-c615721f3c29.root
/store/mc/Run3Summer22NanoAODv12/GluGlutoHHto2B2Tau_kl-1p00_kt-1p00_c2-0p00_LHEweights_TuneCP5_13p6TeV_powheg-pythia8/NANOAODSIM/130X_mcRun3_2022_realistic_v5-v2/2550000/3f886598-5ab3-4d3f-a758-4be0f3ed7fd9.root
/store/mc/Run3Summer22NanoAODv12/GluGlutoHHto2B2Tau_kl-1p00_kt-1p00_c2-0p00_LHEweights_TuneCP5_13p6TeV_powheg-pythia8/NANOAODSIM/130X_mcRun3_2022_realistic_v5-v2/2550000/2c8f4f1e-5962-4d9b-8162-14fe1c6fee54.root
/store/mc/Run3Summer22NanoAODv12/GluGlutoHHto2B2Tau_kl-1p00_kt-1p00_c2-0p00_LHEweights_TuneCP5_13p6TeV_powheg-pythia8/NANOAODSIM/130X_mcRun3_2022_realistic_v5-v2/50000/17ced396-61d4-4ce6-992d-b6d5c3b782eb.root
/store/mc/Run3Summer22NanoAODv12/GluGlutoHHto2B2Tau_kl-1p00_kt-1p00_c2-0p00_LHEweights_TuneCP5_13p6TeV_powheg-pythia8/NANOAODSIM/130X_mcRun3_2022_realistic_v5-v2/50000/68752110-d30c-4884-94c0-8b3187f8db48.root
/store/mc/Run3Summer22NanoAODv12/GluGlutoHHto2B2Tau_kl-1p00_kt-1p00_c2-0p00_LHEweights_TuneCP5_13p6TeV_powheg-pythia8/NANOAODSIM/130X_mcRun3_2022_realistic_v5-v2/2550000/965bb8a7-e795-447b-ac6b-2cd921972905.root
/store/mc/Run3Summer22NanoAODv12/GluGlutoHHto2B2Tau_kl-1p00_kt-1p00_c2-0p00_LHEweights_TuneCP5_13p6TeV_powheg-pythia8/NANOAODSIM/130X_mcRun3_2022_realistic_v5-v2/2550000/d6c5e92a-d66a-4636-b4f8-b0eba913a2c9.root
/store/mc/Run3Summer22NanoAODv12/GluGlutoHHto2B2Tau_kl-1p00_kt-1p00_c2-0p00_LHEweights_TuneCP5_13p6TeV_powheg-pythia8/NANOAODSIM/130X_mcRun3_2022_realistic_v5-v2/2550000/4ee9ec8c-164b-4225-88ab-797528ad4209.root
/store/mc/Run3Summer22NanoAODv12/GluGlutoHHto2B2Tau_kl-1p00_kt-1p00_c2-0p00_LHEweights_TuneCP5_13p6TeV_powheg-pythia8/NANOAODSIM/130X_mcRun3_2022_realistic_v5-v2/2550000/e8febb18-c0ba-4c4f-8e63-1ebc717f29fe.root
/store/mc/Run3Summer22NanoAODv12/GluGlutoHHto2B2Tau_kl-1p00_kt-1p00_c2-0p00_LHEweights_TuneCP5_13p6TeV_powheg-pythia8/NANOAODSIM/130X_mcRun3_2022_realistic_v5-v2/2540000/aae78759-58a2-4e95-884f-ecc0ac214f3e.root
/store/mc/Run3Summer22NanoAODv12/GluGlutoHHto2B2Tau_kl-1p00_kt-1p00_c2-0p00_LHEweights_TuneCP5_13p6TeV_powheg-pythia8/NANOAODSIM/130X_mcRun3_2022_realistic_v5-v2/2540000/8b4e1c11-b93b-4da9-93a9-841f70cced21.root
/store/mc/Run3Summer22NanoAODv12/GluGlutoHHto2B2Tau_kl-1p00_kt-1p00_c2-0p00_LHEweights_TuneCP5_13p6TeV_powheg-pythia8/NANOAODSIM/130X_mcRun3_2022_realistic_v5-v2/2540000/6bec652f-5b1f-464c-ad94-3b50c27b515c.root
/store/mc/Run3Summer22NanoAODv12/GluGlutoHHto2B2Tau_kl-1p00_kt-1p00_c2-0p00_LHEweights_TuneCP5_13p6TeV_powheg-pythia8/NANOAODSIM/130X_mcRun3_2022_realistic_v5-v2/2540000/01886557-3793-4af5-bb7f-84b52987ccab.root
/store/mc/Run3Summer22NanoAODv12/GluGlutoHHto2B2Tau_kl-1p00_kt-1p00_c2-0p00_LHEweights_TuneCP5_13p6TeV_powheg-pythia8/NANOAODSIM/130X_mcRun3_2022_realistic_v5-v2/2550000/5b9e8f88-d845-4406-b0e3-a2b75ada15ad.root
/store/mc/Run3Summer22NanoAODv12/GluGlutoHHto2B2Tau_kl-1p00_kt-1p00_c2-0p00_LHEweights_TuneCP5_13p6TeV_powheg-pythia8/NANOAODSIM/130X_mcRun3_2022_realistic_v5-v2/2550000/021eaa44-5b83-40dc-bd8f-d9013755f017.root
/store/mc/Run3Summer22NanoAODv12/GluGlutoHHto2B2Tau_kl-1p00_kt-1p00_c2-0p00_LHEweights_TuneCP5_13p6TeV_powheg-pythia8/NANOAODSIM/130X_mcRun3_2022_realistic_v5-v2/2540000/b05b9929-9e00-4967-8de5-7ecdf72a949d.root
/store/mc/Run3Summer22NanoAODv12/GluGlutoHHto2B2Tau_kl-1p00_kt-1p00_c2-0p00_LHEweights_TuneCP5_13p6TeV_powheg-pythia8/NANOAODSIM/130X_mcRun3_2022_realistic_v5-v2/50000/30723082-ffe8-44f7-acb2-9b35ea1f76f7.root
/store/mc/Run3Summer22NanoAODv12/GluGlutoHHto2B2Tau_kl-1p00_kt-1p00_c2-0p00_LHEweights_TuneCP5_13p6TeV_powheg-pythia8/NANOAODSIM/130X_mcRun3_2022_realistic_v5-v2/2550000/2df71f4e-2ba1-45e2-9780-c820984e262a.root
/store/mc/Run3Summer22NanoAODv12/GluGlutoHHto2B2Tau_kl-1p00_kt-1p00_c2-0p00_LHEweights_TuneCP5_13p6TeV_powheg-pythia8/NANOAODSIM/130X_mcRun3_2022_realistic_v5-v2/2550000/26c65654-3c99-41a1-b033-f7d42b1d271e.root
/store/mc/Run3Summer22NanoAODv12/GluGlutoHHto2B2Tau_kl-1p00_kt-1p00_c2-0p00_LHEweights_TuneCP5_13p6TeV_powheg-pythia8/NANOAODSIM/130X_mcRun3_2022_realistic_v5-v2/2540000/f42c5fa3-f49a-4170-ae95-d1d370d877e4.root
/store/mc/Run3Summer22NanoAODv12/GluGlutoHHto2B2Tau_kl-1p00_kt-1p00_c2-0p00_LHEweights_TuneCP5_13p6TeV_powheg-pythia8/NANOAODSIM/130X_mcRun3_2022_realistic_v5-v2/2540000/ef03d901-5a39-4855-b0f8-09bcde17b68a.root
/store/mc/Run3Summer22NanoAODv12/GluGlutoHHto2B2Tau_kl-1p00_kt-1p00_c2-0p00_LHEweights_TuneCP5_13p6TeV_powheg-pythia8/NANOAODSIM/130X_mcRun3_2022_realistic_v5-v2/2540000/8aaffb0c-24ab-4d70-b6ad-7b40ae21e7d0.root
/store/mc/Run3Summer22NanoAODv12/GluGlutoHHto2B2Tau_kl-1p00_kt-1p00_c2-0p00_LHEweights_TuneCP5_13p6TeV_powheg-pythia8/NANOAODSIM/130X_mcRun3_2022_realistic_v5-v2/2540000/54682498-9067-4fe6-829c-25e0e0a169fa.root
/store/mc/Run3Summer22NanoAODv12/GluGlutoHHto2B2Tau_kl-1p00_kt-1p00_c2-0p00_LHEweights_TuneCP5_13p6TeV_powheg-pythia8/NANOAODSIM/130X_mcRun3_2022_realistic_v5-v2/2540000/3ff8ce67-039d-4939-9d6d-739aec4267e6.root
/store/mc/Run3Summer22NanoAODv12/GluGlutoHHto2B2Tau_kl-1p00_kt-1p00_c2-0p00_LHEweights_TuneCP5_13p6TeV_powheg-pythia8/NANOAODSIM/130X_mcRun3_2022_realistic_v5-v2/50000/0adb440b-ac73-4fbc-be19-68b4ee1c0025.root
/store/mc/Run3Summer22NanoAODv12/GluGlutoHHto2B2Tau_kl-1p00_kt-1p00_c2-0p00_LHEweights_TuneCP5_13p6TeV_powheg-pythia8/NANOAODSIM/130X_mcRun3_2022_realistic_v5-v2/50000/43871aa3-162b-44c8-b51f-042abf7ee4be.root
/store/mc/Run3Summer22NanoAODv12/GluGlutoHHto2B2Tau_kl-1p00_kt-1p00_c2-0p00_LHEweights_TuneCP5_13p6TeV_powheg-pythia8/NANOAODSIM/130X_mcRun3_2022_realistic_v5-v2/2550000/ce5c53f6-0098-4529-bb00-0659952f4eb1.root
/store/mc/Run3Summer22NanoAODv12/GluGlutoHHto2B2Tau_kl-1p00_kt-1p00_c2-0p00_LHEweights_TuneCP5_13p6TeV_powheg-pythia8/NANOAODSIM/130X_mcRun3_2022_realistic_v5-v2/2550000/77a1eaae-80cf-42a2-ab4b-74d0338e2b22.root
/store/mc/Run3Summer22NanoAODv12/GluGlutoHHto2B2Tau_kl-1p00_kt-1p00_c2-0p00_LHEweights_TuneCP5_13p6TeV_powheg-pythia8/NANOAODSIM/130X_mcRun3_2022_realistic_v5-v2/2550000/6f44ba0a-1f72-4d5e-910e-f9a0d6b161cb.root
/store/mc/Run3Summer22NanoAODv12/GluGlutoHHto2B2Tau_kl-1p00_kt-1p00_c2-0p00_LHEweights_TuneCP5_13p6TeV_powheg-pythia8/NANOAODSIM/130X_mcRun3_2022_realistic_v5-v2/2550000/b0a11ef1-3647-4f64-b132-7888ca03f4d9.root
/store/mc/Run3Summer22NanoAODv12/GluGlutoHHto2B2Tau_kl-1p00_kt-1p00_c2-0p00_LHEweights_TuneCP5_13p6TeV_powheg-pythia8/NANOAODSIM/130X_mcRun3_2022_realistic_v5-v2/2550000/7228d0a4-d984-4279-86a8-51d1cb0e26d6.root
/store/mc/Run3Summer22NanoAODv12/GluGlutoHHto2B2Tau_kl-1p00_kt-1p00_c2-0p00_LHEweights_TuneCP5_13p6TeV_powheg-pythia8/NANOAODSIM/130X_mcRun3_2022_realistic_v5-v2/50000/cf9f0565-4dda-415c-969b-12739ef6c9ac.root
/store/mc/Run3Summer22NanoAODv12/GluGlutoHHto2B2Tau_kl-1p00_kt-1p00_c2-0p00_LHEweights_TuneCP5_13p6TeV_powheg-pythia8/NANOAODSIM/130X_mcRun3_2022_realistic_v5-v2/50000/0847efd0-a5ba-442d-9a52-594212f9b65b.root
/store/mc/Run3Summer22NanoAODv12/GluGlutoHHto2B2Tau_kl-1p00_kt-1p00_c2-0p00_LHEweights_TuneCP5_13p6TeV_powheg-pythia8/NANOAODSIM/130X_mcRun3_2022_realistic_v5-v2/2550000/6ba373fb-8267-4cc5-b084-e7a0680f2632.root
/store/mc/Run3Summer22NanoAODv12/GluGlutoHHto2B2Tau_kl-1p00_kt-1p00_c2-0p00_LHEweights_TuneCP5_13p6TeV_powheg-pythia8/NANOAODSIM/130X_mcRun3_2022_realistic_v5-v2/2550000/343e1f54-bd34-4987-9717-ae44317a99aa.root
/store/mc/Run3Summer22NanoAODv12/GluGlutoHHto2B2Tau_kl-1p00_kt-1p00_c2-0p00_LHEweights_TuneCP5_13p6TeV_powheg-pythia8/NANOAODSIM/130X_mcRun3_2022_realistic_v5-v2/2550000/830fa5ff-1f70-4c16-a68e-b5e8ef371b1e.root
/store/mc/Run3Summer22NanoAODv12/GluGlutoHHto2B2Tau_kl-1p00_kt-1p00_c2-0p00_LHEweights_TuneCP5_13p6TeV_powheg-pythia8/NANOAODSIM/130X_mcRun3_2022_realistic_v5-v2/2550000/9342295a-d891-4cb4-b16a-0da32f3af027.root
/store/mc/Run3Summer22NanoAODv12/GluGlutoHHto2B2Tau_kl-1p00_kt-1p00_c2-0p00_LHEweights_TuneCP5_13p6TeV_powheg-pythia8/NANOAODSIM/130X_mcRun3_2022_realistic_v5-v2/50000/f25519e7-fa95-440e-87d6-e736a8d1b9f2.root
/store/mc/Run3Summer22NanoAODv12/GluGlutoHHto2B2Tau_kl-1p00_kt-1p00_c2-0p00_LHEweights_TuneCP5_13p6TeV_powheg-pythia8/NANOAODSIM/130X_mcRun3_2022_realistic_v5-v2/50000/1f48a225-e09a-46e4-bb75-5c780dd537d0.root
/store/mc/Run3Summer22NanoAODv12/GluGlutoHHto2B2Tau_kl-1p00_kt-1p00_c2-0p00_LHEweights_TuneCP5_13p6TeV_powheg-pythia8/NANOAODSIM/130X_mcRun3_2022_realistic_v5-v2/2550000/85ab76cd-0611-46d6-b17f-463719993a15.root
/store/mc/Run3Summer22NanoAODv12/GluGlutoHHto2B2Tau_kl-1p00_kt-1p00_c2-0p00_LHEweights_TuneCP5_13p6TeV_powheg-pythia8/NANOAODSIM/130X_mcRun3_2022_realistic_v5-v2/2550000/aa444a4f-6a08-40f9-b37a-91d20cbb289d.root
/store/mc/Run3Summer22NanoAODv12/GluGlutoHHto2B2Tau_kl-1p00_kt-1p00_c2-0p00_LHEweights_TuneCP5_13p6TeV_powheg-pythia8/NANOAODSIM/130X_mcRun3_2022_realistic_v5-v2/2550000/5b6f40b5-771d-4420-b308-2dd292b9a5ca.root
/store/mc/Run3Summer22NanoAODv12/GluGlutoHHto2B2Tau_kl-1p00_kt-1p00_c2-0p00_LHEweights_TuneCP5_13p6TeV_powheg-pythia8/NANOAODSIM/130X_mcRun3_2022_realistic_v5-v2/50000/e1b86369-a394-4a16-8902-9bfe2bdd8ebd.root
/store/mc/Run3Summer22NanoAODv12/GluGlutoHHto2B2Tau_kl-1p00_kt-1p00_c2-0p00_LHEweights_TuneCP5_13p6TeV_powheg-pythia8/NANOAODSIM/130X_mcRun3_2022_realistic_v5-v2/2550000/41183793-1eb4-4290-bc4d-a790ff8f8fa4.root
/store/mc/Run3Summer22NanoAODv12/GluGlutoHHto2B2Tau_kl-1p00_kt-1p00_c2-0p00_LHEweights_TuneCP5_13p6TeV_powheg-pythia8/NANOAODSIM/130X_mcRun3_2022_realistic_v5-v2/2550000/b3719044-967a-4bec-a52f-abf1a43537a1.root
/store/mc/Run3Summer22NanoAODv12/GluGlutoHHto2B2Tau_kl-1p00_kt-1p00_c2-0p00_LHEweights_TuneCP5_13p6TeV_powheg-pythia8/NANOAODSIM/130X_mcRun3_2022_realistic_v5-v2/2550000/c794410c-4bfe-454f-bec5-7b81f54fd5fd.root
/store/mc/Run3Summer22NanoAODv12/GluGlutoHHto2B2Tau_kl-1p00_kt-1p00_c2-0p00_LHEweights_TuneCP5_13p6TeV_powheg-pythia8/NANOAODSIM/130X_mcRun3_2022_realistic_v5-v2/2550000/5e90d949-62f5-4d3f-9f11-d64d80a41aae.root
/store/mc/Run3Summer22NanoAODv12/GluGlutoHHto2B2Tau_kl-1p00_kt-1p00_c2-0p00_LHEweights_TuneCP5_13p6TeV_powheg-pythia8/NANOAODSIM/130X_mcRun3_2022_realistic_v5-v2/2550000/9888b348-1ea2-4ac6-9805-73d349850854.root
/store/mc/Run3Summer22NanoAODv12/GluGlutoHHto2B2Tau_kl-1p00_kt-1p00_c2-0p00_LHEweights_TuneCP5_13p6TeV_powheg-pythia8/NANOAODSIM/130X_mcRun3_2022_realistic_v5-v2/50000/702a5554-375b-4a68-ad4d-9bbf647df554.root
/store/mc/Run3Summer22NanoAODv12/GluGlutoHHto2B2Tau_kl-1p00_kt-1p00_c2-0p00_LHEweights_TuneCP5_13p6TeV_powheg-pythia8/NANOAODSIM/130X_mcRun3_2022_realistic_v5-v2/50000/e655040e-67de-49f5-963c-46e04266c78b.root
/store/mc/Run3Summer22NanoAODv12/GluGlutoHHto2B2Tau_kl-1p00_kt-1p00_c2-0p00_LHEweights_TuneCP5_13p6TeV_powheg-pythia8/NANOAODSIM/130X_mcRun3_2022_realistic_v5-v2/50000/98bcc413-7bdd-432c-83b8-1dc8b0025520.root
/store/mc/Run3Summer22NanoAODv12/GluGlutoHHto2B2Tau_kl-1p00_kt-1p00_c2-0p00_LHEweights_TuneCP5_13p6TeV_powheg-pythia8/NANOAODSIM/130X_mcRun3_2022_realistic_v5-v2/50000/7204c422-7fc9-4fd6-b37d-988d0954444e.root
/store/mc/Run3Summer22NanoAODv12/GluGlutoHHto2B2Tau_kl-1p00_kt-1p00_c2-0p00_LHEweights_TuneCP5_13p6TeV_powheg-pythia8/NANOAODSIM/130X_mcRun3_2022_realistic_v5-v2/2550000/8a73c033-214d-4fa2-9aef-5237ebb01f2a.root
/store/mc/Run3Summer22NanoAODv12/GluGlutoHHto2B2Tau_kl-1p00_kt-1p00_c2-0p00_LHEweights_TuneCP5_13p6TeV_powheg-pythia8/NANOAODSIM/130X_mcRun3_2022_realistic_v5-v2/2550000/48089e52-8505-4989-aa20-1344a45e14d2.root
/store/mc/Run3Summer22NanoAODv12/GluGlutoHHto2B2Tau_kl-1p00_kt-1p00_c2-0p00_LHEweights_TuneCP5_13p6TeV_powheg-pythia8/NANOAODSIM/130X_mcRun3_2022_realistic_v5-v2/2550000/29e0168e-b744-48d3-b8f1-ce5b9cf6b88e.root
/store/mc/Run3Summer22NanoAODv12/GluGlutoHHto2B2Tau_kl-1p00_kt-1p00_c2-0p00_LHEweights_TuneCP5_13p6TeV_powheg-pythia8/NANOAODSIM/130X_mcRun3_2022_realistic_v5-v2/2550000/e2745063-7a43-44fa-bad1-7c45a7bc66da.root
/store/mc/Run3Summer22NanoAODv12/GluGlutoHHto2B2Tau_kl-1p00_kt-1p00_c2-0p00_LHEweights_TuneCP5_13p6TeV_powheg-pythia8/NANOAODSIM/130X_mcRun3_2022_realistic_v5-v2/2550000/b11b167c-15c8-4e7c-a439-6b6f883c8ec2.root
/store/mc/Run3Summer22NanoAODv12/GluGlutoHHto2B2Tau_kl-1p00_kt-1p00_c2-0p00_LHEweights_TuneCP5_13p6TeV_powheg-pythia8/NANOAODSIM/130X_mcRun3_2022_realistic_v5-v2/2550000/51a09224-de30-42ab-aa02-aec998f9a47c.root
/store/mc/Run3Summer22NanoAODv12/GluGlutoHHto2B2Tau_kl-1p00_kt-1p00_c2-0p00_LHEweights_TuneCP5_13p6TeV_powheg-pythia8/NANOAODSIM/130X_mcRun3_2022_realistic_v5-v2/2550000/fa4b6af7-1c56-4b2c-9edd-834455750122.root