/store/data/Run2022C/JetMET/NANOAOD/22Sep2023-v1/40000/ba932d98-89fb-4481-bc84-0c1d19f11249.root
/store/data/Run2022C/JetMET/NANOAOD/22Sep2023-v1/40000/abaca018-0ac6-483b-9592-9c9d49aa27f3.root
/store/data/Run2022C/JetMET/NANOAOD/22Sep2023-v1/40000/c712cb13-7b27-451b-9520-64984565a178.root
/store/data/Run2022C/JetMET/NANOAOD/22Sep2023-v1/40000/bcbb6a0f-4ab7-4298-9229-25ed08cb6ac2.root
/store/data/Run2022C/JetMET/NANOAOD/22Sep2023-v1/40000/987ff179-f878-4a2f-b9ef-25cc06c2aec8.root
/store/data/Run2022C/JetMET/NANOAOD/22Sep2023-v1/40000/b89700dd-4247-44f4-966c-dc66e5eaa76f.root
/store/data/Run2022C/JetMET/NANOAOD/22Sep2023-v1/40000/aef3b285-5c37-4636-a746-0aec45611f2c.root
/store/data/Run2022C/JetMET/NANOAOD/22Sep2023-v1/40000/c8f9b475-74df-42aa-a98a-8c2e4145e576.root
/store/data/Run2022C/JetMET/NANOAOD/22Sep2023-v1/40000/aa32a7f3-7278-4b66-b925-4afc7737e2bb.root
/store/data/Run2022C/JetMET/NANOAOD/22Sep2023-v1/40000/c6790a99-e3bf-4e85-859a-400d08233f4f.root
/store/data/Run2022C/JetMET/NANOAOD/22Sep2023-v1/40000/40d6ed46-72d8-4b46-a63e-0cc656d932db.root
/store/data/Run2022C/JetMET/NANOAOD/22Sep2023-v1/50000/5d500f1d-e9aa-403d-80a9-beb086fe5916.root
/store/data/Run2022C/JetMET/NANOAOD/22Sep2023-v1/50000/5d15a792-91cd-4420-a39d-03a64a01b111.root
/store/data/Run2022C/JetMET/NANOAOD/22Sep2023-v1/50000/db62b747-cf59-49f7-9217-0a2b45e31c59.root
/store/data/Run2022C/JetMET/NANOAOD/22Sep2023-v1/50000/8e552d82-ad57-4c8f-b37f-23caf55a6cc8.root
/store/data/Run2022C/JetMET/NANOAOD/22Sep2023-v1/50000/366ec3ab-b6e5-4e31-bcee-03b7827df2b5.root
/store/data/Run2022C/JetMET/NANOAOD/22Sep2023-v1/50000/7062b09b-3978-406d-9f4f-8f086cde8fc2.root
/store/data/Run2022C/JetMET/NANOAOD/22Sep2023-v1/50000/d468cedd-7737-451e-b476-f3194e1bf229.root
/store/data/Run2022C/JetMET/NANOAOD/22Sep2023-v1/50000/561b1f3a-9f98-41ab-b2be-2fddbb13a05b.root
/store/data/Run2022C/JetMET/NANOAOD/22Sep2023-v1/50000/29518fee-3c5f-4ba8-8585-08c4d3a741f6.root
/store/data/Run2022C/JetMET/NANOAOD/22Sep2023-v1/40000/1f9d8b48-88a7-4f01-b120-e10599ab39fc.root
/store/data/Run2022C/JetMET/NANOAOD/22Sep2023-v1/40000/751d0150-d38f-4e38-b94d-e7e3c736e356.root
/store/data/Run2022C/JetMET/NANOAOD/22Sep2023-v1/40000/b838a6ea-3a54-463f-8b93-89f68483c037.root
/store/data/Run2022C/JetMET/NANOAOD/22Sep2023-v1/40000/9e9b947c-76ec-4a29-bc81-46aa9654b9d5.root
/store/data/Run2022C/JetMET/NANOAOD/22Sep2023-v1/40000/24d98f2e-817d-4853-bd88-7ce7b91eea32.root
/store/data/Run2022C/JetMET/NANOAOD/22Sep2023-v1/40000/eb4a167c-31c7-43ac-bf80-2af83645f1e2.root
/store/data/Run2022C/JetMET/NANOAOD/22Sep2023-v1/40000/572b3175-ba66-4994-8378-067d4df44d3c.root
/store/data/Run2022C/JetMET/NANOAOD/22Sep2023-v1/40000/3fe996f2-bee6-40c2-b2ab-ec19d480412e.root
/store/data/Run2022C/JetMET/NANOAOD/22Sep2023-v1/40000/53fc9f1d-40ca-469c-95b3-ea37d6fbe28f.root
/store/data/Run2022C/JetMET/NANOAOD/22Sep2023-v1/40000/f76f2980-c5b7-42f7-a485-89ac1ca5c900.root
/store/data/Run2022C/JetMET/NANOAOD/22Sep2023-v1/40000/a6fcd714-fc02-4e20-ace8-799938059ab8.root
/store/data/Run2022C/JetMET/NANOAOD/22Sep2023-v1/40000/74d10a66-8063-4cba-9adc-c36d42e6eae6.root
/store/data/Run2022C/JetMET/NANOAOD/22Sep2023-v1/50000/f4cf6962-9ebf-45fb-be16-daba84e17a85.root
/store/data/Run2022C/JetMET/NANOAOD/22Sep2023-v1/50000/a5aed66c-f56a-4b1a-b312-e03fcc2247d5.root
/store/data/Run2022C/JetMET/NANOAOD/22Sep2023-v1/50000/d3fa5e9d-3def-4902-be23-715785552e24.root
/store/data/Run2022C/JetMET/NANOAOD/22Sep2023-v1/50000/a073d792-6642-4f38-ba03-fdd20a49bfc5.root
/store/data/Run2022C/JetMET/NANOAOD/22Sep2023-v1/50000/1473babd-a489-4722-8499-6699bc8fe6cd.root
/store/data/Run2022C/JetMET/NANOAOD/22Sep2023-v1/50000/4fc52da8-ac22-4821-87b8-4a871ad2373e.root
/store/data/Run2022C/JetMET/NANOAOD/22Sep2023-v1/50000/d1216208-ff40-45b7-a0e7-7f46cf94fee2.root
/store/data/Run2022C/JetMET/NANOAOD/22Sep2023-v1/50000/3c6b6f4b-a105-4850-9073-8d380635f62a.root
/store/data/Run2022C/JetMET/NANOAOD/22Sep2023-v1/50000/28070c38-2aac-4ecf-a944-b7dc68f6e78d.root
/store/data/Run2022C/JetMET/NANOAOD/22Sep2023-v1/50000/f50f5af4-d772-4331-befc-3ff05a109bbf.root
/store/data/Run2022C/JetMET/NANOAOD/22Sep2023-v1/50000/4d339b4d-04a4-489c-92ea-a74e8b243cd1.root
/store/data/Run2022C/JetMET/NANOAOD/22Sep2023-v1/40000/958d575e-d93a-4b3a-bdbc-971a52e6eea7.root
/store/data/Run2022C/JetMET/NANOAOD/22Sep2023-v1/40000/5b1b4c60-0fe7-4491-9ae5-330420248b25.root
/store/data/Run2022C/JetMET/NANOAOD/22Sep2023-v1/40000/34d32d69-4a2e-4b27-8917-4adca5150910.root
/store/data/Run2022C/JetMET/NANOAOD/22Sep2023-v1/40000/c5be17cc-8544-4fe4-9ef7-324f4d93c684.root
/store/data/Run2022C/JetMET/NANOAOD/22Sep2023-v1/50000/3e8d6ab5-a0ce-4021-a52a-0a21f77f8e8f.root
/store/data/Run2022C/JetMET/NANOAOD/22Sep2023-v1/50000/61a01502-b4e3-4f54-a155-d0787c304424.root
/store/data/Run2022C/JetMET/NANOAOD/22Sep2023-v1/50000/b0c29831-5a1e-4780-bf51-baa80904d71d.root
/store/data/Run2022C/JetMET/NANOAOD/22Sep2023-v1/50000/88cee95a-3472-4d95-8644-4d34d52a6d22.root
/store/data/Run2022C/JetMET/NANOAOD/22Sep2023-v1/50000/34253210-3f58-4a71-8c8c-112cfb32ac42.root
/store/data/Run2022C/JetMET/NANOAOD/22Sep2023-v1/50000/a46d6be7-0705-4bca-a956-9f9454ecf2b4.root
/store/data/Run2022C/JetMET/NANOAOD/22Sep2023-v1/50000/9fce148a-3ff4-4c10-a6f7-2df1427c4d19.root
/store/data/Run2022C/JetMET/NANOAOD/22Sep2023-v1/50000/eab139ca-3f91-4a0c-b769-62a9864a4da5.root
/store/data/Run2022C/JetMET/NANOAOD/22Sep2023-v1/50000/6e29a332-59ff-4c59-9be4-2eb365a5235d.root
/store/data/Run2022C/JetMET/NANOAOD/22Sep2023-v1/50000/975794f2-ddb8-481c-be71-1180e89db19f.root
/store/data/Run2022C/JetMET/NANOAOD/22Sep2023-v1/40000/e96b74d6-0524-4799-8522-6ee848c0c5f9.root
/store/data/Run2022C/JetMET/NANOAOD/22Sep2023-v1/40000/740a3e4d-ebd8-4991-8404-822559a4dbbf.root
/store/data/Run2022C/JetMET/NANOAOD/22Sep2023-v1/40000/39d3e5a9-c243-4bf8-ba37-925ca1b3b901.root
/store/data/Run2022C/JetMET/NANOAOD/22Sep2023-v1/40000/18b67e72-41f8-499c-912e-a09908d90dea.root
/store/data/Run2022C/JetMET/NANOAOD/22Sep2023-v1/40000/a56f33f6-793e-4d0b-9a61-84b3050a7c22.root
/store/data/Run2022C/JetMET/NANOAOD/22Sep2023-v1/40000/6d8ee48a-8efa-4259-a380-44c1260014bb.root
/store/data/Run2022C/JetMET/NANOAOD/22Sep2023-v1/40000/db2293e9-a646-4dd2-bb3b-d4c0aa2ddedf.root
/store/data/Run2022C/JetMET/NANOAOD/22Sep2023-v1/40000/c4656b8a-0077-4630-8e75-be34a0497d92.root
/store/data/Run2022C/JetMET/NANOAOD/22Sep2023-v1/40000/928dfcb9-e504-4a36-9bed-b11310847174.root
/store/data/Run2022C/JetMET/NANOAOD/22Sep2023-v1/40000/04bdd0bc-916b-4779-9bbd-b74e001e5423.root
/store/data/Run2022C/JetMET/NANOAOD/22Sep2023-v1/40000/c6173ea9-8a01-463d-ae14-7e97b0eae1ad.root
/store/data/Run2022C/JetMET/NANOAOD/22Sep2023-v1/40000/36f7ce69-08e0-4d59-b25d-0d19cca3e975.root
/store/data/Run2022C/JetMET/NANOAOD/22Sep2023-v1/40000/249ead1b-d49f-4209-ac56-8fadbc458b27.root
/store/data/Run2022C/JetMET/NANOAOD/22Sep2023-v1/50000/91bd4179-5bf1-40fc-bf49-dbce5a62d1a3.root
/store/data/Run2022C/JetMET/NANOAOD/22Sep2023-v1/50000/07bfe400-560c-44b4-834d-ec49b338d138.root
/store/data/Run2022C/JetMET/NANOAOD/22Sep2023-v1/50000/27c3d083-a640-4fbf-b4ff-aa22b0e2f50c.root
/store/data/Run2022C/JetMET/NANOAOD/22Sep2023-v1/50000/a4259bec-801f-4396-a7d0-a9e5addd1cac.root
/store/data/Run2022C/JetMET/NANOAOD/22Sep2023-v1/50000/42552f7c-d6f2-45e5-8c8b-35d9e0c65b26.root
/store/data/Run2022C/JetMET/NANOAOD/22Sep2023-v1/50000/b0e91691-3775-4fac-a984-d0eadab88a9d.root
/store/data/Run2022C/JetMET/NANOAOD/22Sep2023-v1/50000/95cde407-690d-40d3-a4f3-cbd3a564ebd4.root
/store/data/Run2022C/JetMET/NANOAOD/22Sep2023-v1/50000/4a0cf4c2-5aa9-46d0-86d6-8cd4a309ee83.root
/store/data/Run2022C/JetMET/NANOAOD/22Sep2023-v1/50000/ee3e3a30-ac71-4f3d-92f9-769fc7fd26c9.root
/store/data/Run2022C/JetMET/NANOAOD/22Sep2023-v1/50000/824de1c5-22fd-4b17-aa80-ea6001c3f22e.root
/store/data/Run2022C/JetMET/NANOAOD/22Sep2023-v1/50000/0cb97937-f640-48e0-8d12-83e2dce01443.root
/store/data/Run2022C/JetMET/NANOAOD/22Sep2023-v1/40000/5b925b0a-ca19-4c9e-894d-5ab8d6050dc9.root
/store/data/Run2022C/JetMET/NANOAOD/22Sep2023-v1/40000/b55d8bb4-4f6f-4a9b-b064-719410af0a37.root
/store/data/Run2022C/JetMET/NANOAOD/22Sep2023-v1/40000/34a7d4e9-1af7-46f5-9fe9-b1491d05dc8e.root
/store/data/Run2022C/JetMET/NANOAOD/22Sep2023-v1/40000/ba22b2e2-625d-476a-a3b5-6c14c2164bbf.root
/store/data/Run2022C/JetMET/NANOAOD/22Sep2023-v1/40000/b0e3f48b-c00d-4648-a039-4da20d1f3e66.root
/store/data/Run2022C/JetMET/NANOAOD/22Sep2023-v1/40000/d368daff-a9c6-40b7-a4dd-cc13699ee482.root
/store/data/Run2022C/JetMET/NANOAOD/22Sep2023-v1/40000/6202bfee-f3fb-489c-8f47-e6be1a393339.root
/store/data/Run2022C/JetMET/NANOAOD/22Sep2023-v1/40000/e352b2b1-520a-4bf5-a8e3-d78240a01a2c.root
/store/data/Run2022C/JetMET/NANOAOD/22Sep2023-v1/40000/dc5e274e-450a-482f-ae62-88d151d7481f.root
/store/data/Run2022C/JetMET/NANOAOD/22Sep2023-v1/40000/a635d24d-8ca3-4f43-ac1a-48f39f0b5237.root
/store/data/Run2022C/JetMET/NANOAOD/22Sep2023-v1/40000/bd2ca255-b621-42eb-aff2-4d9b194ccc3c.root
/store/data/Run2022C/JetMET/NANOAOD/22Sep2023-v1/40000/794387c1-b619-44a4-9a19-821908aa1882.root
/store/data/Run2022C/JetMET/NANOAOD/22Sep2023-v1/40000/3cc88058-3860-4153-b2ad-e910eca05ca3.root
/store/data/Run2022C/JetMET/NANOAOD/22Sep2023-v1/40000/06712c89-c90f-4740-a48a-678560e537a3.root
/store/data/Run2022C/JetMET/NANOAOD/22Sep2023-v1/40000/8582e095-ab95-451c-a9c6-36b2c23816fa.root
/store/data/Run2022C/JetMET/NANOAOD/22Sep2023-v1/40000/883fb16e-3988-4600-a617-54c2e0515dd3.root
/store/data/Run2022C/JetMET/NANOAOD/22Sep2023-v1/40000/3bb9f6c2-38f9-42fb-ad6f-852c94fb3c33.root
/store/data/Run2022C/JetMET/NANOAOD/22Sep2023-v1/40000/7c34031e-0a12-40c1-bd3f-262eb8f26e95.root
/store/data/Run2022C/JetMET/NANOAOD/22Sep2023-v1/40000/77622169-906b-468c-8d2c-d4bc575e4b13.root
/store/data/Run2022C/JetMET/NANOAOD/22Sep2023-v1/40000/37eb2da0-6e43-4db3-ae10-17efb1fc16d8.root
/store/data/Run2022C/JetMET/NANOAOD/22Sep2023-v1/40000/04ed8850-b16b-4db7-a8de-2d0893be3ddf.root
/store/data/Run2022C/JetMET/NANOAOD/22Sep2023-v1/40000/abf2b4e7-0576-40c5-8e6b-d6b454e34ec1.root
/store/data/Run2022C/JetMET/NANOAOD/22Sep2023-v1/40000/9c82aab1-6e35-4743-a733-988452c353a3.root
/store/data/Run2022C/JetMET/NANOAOD/22Sep2023-v1/40000/7295812d-83c3-4e69-926d-4542c230378e.root
/store/data/Run2022C/JetMET/NANOAOD/22Sep2023-v1/40000/b50278f6-a45a-4f7e-bdec-ca76d74a5399.root
/store/data/Run2022C/JetMET/NANOAOD/22Sep2023-v1/40000/d4e15886-5504-4b22-af39-13f5ebb95e5d.root
/store/data/Run2022C/JetMET/NANOAOD/22Sep2023-v1/40000/1bc489fb-f644-4313-8b4a-b4785fb86e5d.root
/store/data/Run2022C/JetMET/NANOAOD/22Sep2023-v1/40000/3d775267-47ad-46fb-8e1a-081f170633c6.root
/store/data/Run2022C/JetMET/NANOAOD/22Sep2023-v1/40000/6241890b-8564-4610-9947-daf41253f6b7.root
/store/data/Run2022C/JetMET/NANOAOD/22Sep2023-v1/40000/ce5d3f8f-f951-4d25-8ca8-22a3ccd3428e.root
/store/data/Run2022C/JetMET/NANOAOD/22Sep2023-v1/40000/dd94f8ae-d6f1-4c70-bcba-35f4f5a2d08d.root
/store/data/Run2022C/JetMET/NANOAOD/22Sep2023-v1/40000/35bbae9f-144d-4cb2-9fef-1c17ba297617.root
/store/data/Run2022C/JetMET/NANOAOD/22Sep2023-v1/40000/ae6ba9a2-f253-4963-b59b-0ab2d8e5793d.root
/store/data/Run2022C/JetMET/NANOAOD/22Sep2023-v1/40000/d785185d-1b6b-4958-bed8-e0ff5b1ed92c.root
/store/data/Run2022C/JetMET/NANOAOD/22Sep2023-v1/40000/a5c6f1c0-9e83-4975-9ab2-0a1a19951d03.root
/store/data/Run2022C/JetMET/NANOAOD/22Sep2023-v1/40000/c37a3e6d-8abe-4fee-9bb4-b9021294c45a.root
/store/data/Run2022C/JetMET/NANOAOD/22Sep2023-v1/40000/5364fe32-5378-499b-aac5-13c1bca1f483.root
/store/data/Run2022C/JetMET/NANOAOD/22Sep2023-v1/40000/81cd2e0c-8b8f-4410-b5ca-db8679411d32.root
/store/data/Run2022C/JetMET/NANOAOD/22Sep2023-v1/40000/f9cf8b4f-8a30-4803-98e6-62f5162510b1.root
/store/data/Run2022C/JetMET/NANOAOD/22Sep2023-v1/40000/b00380c3-1fbe-4892-9e19-cf2f20373e52.root
/store/data/Run2022C/JetMET/NANOAOD/22Sep2023-v1/40000/27b2e7ce-c4a0-48ef-a579-184bda926306.root
/store/data/Run2022C/JetMET/NANOAOD/22Sep2023-v1/40000/8fd21860-0484-499c-8c7f-b1ac3658e080.root
/store/data/Run2022C/JetMET/NANOAOD/22Sep2023-v1/40000/fab6a252-8a5f-43b6-8eb8-d43257cb2f01.root
/store/data/Run2022C/JetMET/NANOAOD/22Sep2023-v1/40000/91b9c681-3792-4ef4-b9e2-7b50dd3838f1.root
/store/data/Run2022C/JetMET/NANOAOD/22Sep2023-v1/40000/37aadd40-607c-4f69-aac1-5f16437c3250.root
/store/data/Run2022C/JetMET/NANOAOD/22Sep2023-v1/40000/849dba8b-d40c-46e4-a73a-fa2e4a00cb0e.root
/store/data/Run2022C/JetMET/NANOAOD/22Sep2023-v1/50000/764b9e34-f169-40fe-8427-01aee982fe2e.root
/store/data/Run2022C/JetMET/NANOAOD/22Sep2023-v1/50000/42cf03f2-be82-4f7f-b77c-387770156fd5.root
/store/data/Run2022C/JetMET/NANOAOD/22Sep2023-v1/50000/6b6a67b9-c862-4f22-a471-7ff974b63e03.root
/store/data/Run2022C/JetMET/NANOAOD/22Sep2023-v1/50000/cf2429f0-5df6-4652-a882-ecec7a59cf41.root
/store/data/Run2022C/JetMET/NANOAOD/22Sep2023-v1/50000/34e86258-4bba-4062-96c3-eb9862257092.root
/store/data/Run2022C/JetMET/NANOAOD/22Sep2023-v1/50000/66ecb7ca-bd50-48bd-9701-20487991aa26.root
/store/data/Run2022C/JetMET/NANOAOD/22Sep2023-v1/40000/0718b3f2-2a98-4bbc-8186-07e405dd8bbd.root
/store/data/Run2022C/JetMET/NANOAOD/22Sep2023-v1/40000/c71cde91-476a-431d-9016-aaf59c3b536f.root
/store/data/Run2022C/JetMET/NANOAOD/22Sep2023-v1/40000/dfc74ae2-bb08-4091-abba-d36a5e68b430.root
/store/data/Run2022C/JetMET/NANOAOD/22Sep2023-v1/50000/c9b3fea8-65e0-4dd6-a2b6-1276ac575300.root
/store/data/Run2022C/JetMET/NANOAOD/22Sep2023-v1/50000/d46003b8-091f-4f5d-92bf-13bf58fb0b87.root
/store/data/Run2022C/JetMET/NANOAOD/22Sep2023-v1/50000/ee6dcf45-8076-4b88-8d2d-c94cd02ff409.root
/store/data/Run2022C/JetMET/NANOAOD/22Sep2023-v1/50000/ed31be71-9b54-410c-899b-ed9ae1ec5097.root
/store/data/Run2022C/JetMET/NANOAOD/22Sep2023-v1/50000/50ca1e31-e380-48c6-bc5e-c1fc3a84dea5.root
/store/data/Run2022C/JetMET/NANOAOD/22Sep2023-v1/50000/64ce7be8-eaab-4891-b222-3d53474f23b3.root
/store/data/Run2022C/JetMET/NANOAOD/22Sep2023-v1/50000/73864279-a134-48bd-a664-f4a389f7ca8b.root
/store/data/Run2022C/JetMET/NANOAOD/22Sep2023-v1/50000/dd257816-b1dc-4846-be27-760d80d9500d.root
/store/data/Run2022C/JetMET/NANOAOD/22Sep2023-v1/50000/1de28056-73b2-4d3a-8369-8b1d29c57966.root
/store/data/Run2022C/JetMET/NANOAOD/22Sep2023-v1/50000/a83637c5-676f-442f-8d8d-4312388eb7e7.root
/store/data/Run2022C/JetMET/NANOAOD/22Sep2023-v1/50000/3898654e-a3fb-488b-ab7f-98f430418395.root
/store/data/Run2022C/JetMET/NANOAOD/22Sep2023-v1/40000/f21c9e02-4832-42fa-8187-44836e1b821a.root
/store/data/Run2022C/JetMET/NANOAOD/22Sep2023-v1/40000/8da41344-343a-4b87-9c76-3ba964c6fb34.root
/store/data/Run2022C/JetMET/NANOAOD/22Sep2023-v1/40000/e7ef6991-ab2f-4206-9a17-a7b1c0460b9e.root
/store/data/Run2022C/JetMET/NANOAOD/22Sep2023-v1/40000/abfb829b-75e6-43a7-ab52-51a5595c572f.root
/store/data/Run2022C/JetMET/NANOAOD/22Sep2023-v1/40000/7060d4b2-ae76-477c-89a0-02829a48bd57.root
/store/data/Run2022C/JetMET/NANOAOD/22Sep2023-v1/40000/c62d8dc4-81ba-47e3-8749-6fd9d45d1e04.root
/store/data/Run2022C/JetMET/NANOAOD/22Sep2023-v1/40000/54a2ceda-c00c-456c-8d6d-459b8948b7c8.root
/store/data/Run2022C/JetMET/NANOAOD/22Sep2023-v1/40000/4d6ff724-fe2f-4bd2-8ed9-85092e1bbfd7.root
/store/data/Run2022C/JetMET/NANOAOD/22Sep2023-v1/40000/de134a68-db4d-43b4-887f-b0cb3c12b9e3.root
/store/data/Run2022C/JetMET/NANOAOD/22Sep2023-v1/40000/519eb4f8-44a6-41fd-9967-ec054eed7ae0.root
/store/data/Run2022C/JetMET/NANOAOD/22Sep2023-v1/40000/89d927f0-314b-4ef2-9b1c-8a9651c6af4f.root
/store/data/Run2022C/JetMET/NANOAOD/22Sep2023-v1/40000/52f2b9f4-6ec1-4d9c-b045-23f06102aed0.root
/store/data/Run2022C/JetMET/NANOAOD/22Sep2023-v1/40000/7ced22da-6cc9-4df5-8d7c-520c9cdcd6f9.root
/store/data/Run2022C/JetMET/NANOAOD/22Sep2023-v1/40000/58385390-080f-4644-9f19-66d902480bb3.root
/store/data/Run2022C/JetMET/NANOAOD/22Sep2023-v1/40000/d6789d3c-ab86-4555-9c86-670d4dfbd177.root
/store/data/Run2022C/JetMET/NANOAOD/22Sep2023-v1/40000/d4a7b115-be4a-490c-bddd-374584b89a25.root
/store/data/Run2022C/JetMET/NANOAOD/22Sep2023-v1/40000/0ade0f35-22c8-4761-8f71-c8d49bddee7f.root
/store/data/Run2022C/JetMET/NANOAOD/22Sep2023-v1/40000/3a3c323c-168d-4612-b6a6-d79cb6b722e2.root
/store/data/Run2022C/JetMET/NANOAOD/22Sep2023-v1/40000/0a1a49ac-e0b8-4b39-9cec-c7c4432a7d97.root
/store/data/Run2022C/JetMET/NANOAOD/22Sep2023-v1/40000/516e70af-2ef9-4e4e-8a8f-720a092d62a9.root
/store/data/Run2022C/JetMET/NANOAOD/22Sep2023-v1/40000/7fb16cee-7eae-42f2-9c24-9473f6ce70e6.root
/store/data/Run2022C/JetMET/NANOAOD/22Sep2023-v1/40000/8d1cce8b-bdd4-4dc7-8e46-4c45d4c4daf6.root
/store/data/Run2022C/JetMET/NANOAOD/22Sep2023-v1/40000/05bcea61-9140-426b-a03f-e0fb24caafca.root
/store/data/Run2022C/JetMET/NANOAOD/22Sep2023-v1/40000/1b481090-64be-466b-b0ee-cf15f5db959c.root
/store/data/Run2022C/JetMET/NANOAOD/22Sep2023-v1/40000/822584e9-588f-490b-863a-543da2cf3521.root
/store/data/Run2022C/JetMET/NANOAOD/22Sep2023-v1/40000/225e22be-46c7-45e1-b99d-57daf55d69e4.root
/store/data/Run2022C/JetMET/NANOAOD/22Sep2023-v1/40000/51414db8-e96e-4bdc-824e-990962eed052.root
/store/data/Run2022C/JetMET/NANOAOD/22Sep2023-v1/40000/a9ea1ed7-f4ed-4c68-ad4d-b1eac9946983.root
/store/data/Run2022C/JetMET/NANOAOD/22Sep2023-v1/50000/6970cd6f-79f8-446b-8318-fc4ab84d78ab.root
/store/data/Run2022C/JetMET/NANOAOD/22Sep2023-v1/50000/0d7ad7ba-2835-4d75-bc09-695def0992af.root
/store/data/Run2022C/JetMET/NANOAOD/22Sep2023-v1/50000/e357c2c2-a368-49d2-b314-8c6ac09c6775.root
/store/data/Run2022C/JetMET/NANOAOD/22Sep2023-v1/50000/409f7fb0-71ae-4ad0-940a-d334928b4bf0.root
/store/data/Run2022C/JetMET/NANOAOD/22Sep2023-v1/50000/96aab843-1a82-4e09-a5d6-2fa3248246d0.root
/store/data/Run2022C/JetMET/NANOAOD/22Sep2023-v1/50000/d49377f9-efce-4cce-8211-5160a18b0781.root
/store/data/Run2022C/JetMET/NANOAOD/22Sep2023-v1/50000/cd4e0885-7e0a-4bd3-8889-794eaefce271.root
/store/data/Run2022C/JetMET/NANOAOD/22Sep2023-v1/50000/e48c1422-88fc-446c-8211-72e81a8813c4.root
/store/data/Run2022C/JetMET/NANOAOD/22Sep2023-v1/40000/c0a5ac55-aefc-44d5-a9f3-fd1c852ba343.root
/store/data/Run2022C/JetMET/NANOAOD/22Sep2023-v1/50000/74cdf905-4428-45b5-b851-656a87f72e72.root
/store/data/Run2022C/JetMET/NANOAOD/22Sep2023-v1/50000/199ca7e4-a9cc-49c5-b069-be1bc4e699c3.root
/store/data/Run2022C/JetMET/NANOAOD/22Sep2023-v1/50000/f42c52ee-01d2-4dbe-91c4-7a390c1d940f.root
/store/data/Run2022C/JetMET/NANOAOD/22Sep2023-v1/50000/c304523f-2d41-46ab-ae88-ab0d7943dc02.root
/store/data/Run2022C/JetMET/NANOAOD/22Sep2023-v1/50000/ba688114-70c2-45ec-b07b-87b39f4afa9b.root
/store/data/Run2022C/JetMET/NANOAOD/22Sep2023-v1/50000/5634e40e-4d96-4382-9585-63658e65b5ba.root
/store/data/Run2022C/JetMET/NANOAOD/22Sep2023-v1/50000/59e39849-717a-42c5-a6a3-a7a67bab82eb.root
/store/data/Run2022C/JetMET/NANOAOD/22Sep2023-v1/50000/df8fc4a5-312c-4146-baee-f4175ffc53c3.root
/store/data/Run2022C/JetMET/NANOAOD/22Sep2023-v1/50000/cdc51352-ea1c-425e-8739-2d982a024707.root
/store/data/Run2022C/JetMET/NANOAOD/22Sep2023-v1/50000/4d4cf4ea-f4d3-468a-9572-f74cae800971.root
/store/data/Run2022C/JetMET/NANOAOD/22Sep2023-v1/50000/b0fcbd88-a8c9-4860-b108-bd98fb429c13.root
/store/data/Run2022C/JetMET/NANOAOD/22Sep2023-v1/50000/128b07b0-82ea-409a-9fda-b7663c9859e4.root
/store/data/Run2022C/JetMET/NANOAOD/22Sep2023-v1/50000/52f33248-7bd2-47a4-8f67-c357d6852d01.root
/store/data/Run2022C/JetMET/NANOAOD/22Sep2023-v1/50000/ec1d621a-f671-449b-9544-23dda7b0d4f0.root
/store/data/Run2022C/JetMET/NANOAOD/22Sep2023-v1/50000/6168f9db-e573-458f-a5d2-541f3b719e9d.root
/store/data/Run2022C/JetMET/NANOAOD/22Sep2023-v1/50000/25d270b7-1d35-4834-bcd8-de455081a9f3.root
/store/data/Run2022C/JetMET/NANOAOD/22Sep2023-v1/50000/fbfb2d7b-ae12-4a3c-8baf-4699ccebb040.root
/store/data/Run2022C/JetMET/NANOAOD/22Sep2023-v1/50000/8a43c452-7f26-466d-89e0-0b24df90688c.root
/store/data/Run2022C/JetMET/NANOAOD/22Sep2023-v1/50000/846296d8-7cb1-4a5d-ae38-36a4c1a36793.root
/store/data/Run2022C/JetMET/NANOAOD/22Sep2023-v1/2530000/e4bb6e09-af8e-4b2a-8f9e-5a3b72de50ab.root
/store/data/Run2022C/JetMET/NANOAOD/22Sep2023-v1/2530000/0b6815d2-5fd6-4b55-9374-a32b052c129b.root
/store/data/Run2022C/JetMET/NANOAOD/22Sep2023-v1/2530000/27f35e3e-ceb0-4707-98fd-65e35243d747.root