/store/mc/Run3Summer22NanoAODv12/VBFHHto2B2Tau_CV_1_C2V_1_C3_1_TuneCP5_13p6TeV_madgraph-pythia8/NANOAODSIM/130X_mcRun3_2022_realistic_v5-v2/50000/efc934b2-aa74-4878-bb18-6b4615f0fb3a.root
/store/mc/Run3Summer22NanoAODv12/VBFHHto2B2Tau_CV_1_C2V_1_C3_1_TuneCP5_13p6TeV_madgraph-pythia8/NANOAODSIM/130X_mcRun3_2022_realistic_v5-v2/50000/ef498725-90a8-472a-83a6-4b760f002749.root
/store/mc/Run3Summer22NanoAODv12/VBFHHto2B2Tau_CV_1_C2V_1_C3_1_TuneCP5_13p6TeV_madgraph-pythia8/NANOAODSIM/130X_mcRun3_2022_realistic_v5-v2/50000/574429b5-c027-4cc9-891a-89c4ad00487a.root
/store/mc/Run3Summer22NanoAODv12/VBFHHto2B2Tau_CV_1_C2V_1_C3_1_TuneCP5_13p6TeV_madgraph-pythia8/NANOAODSIM/130X_mcRun3_2022_realistic_v5-v2/50000/6259dd78-f1f0-48ac-a014-df71e03d2c7c.root
/store/mc/Run3Summer22NanoAODv12/VBFHHto2B2Tau_CV_1_C2V_1_C3_1_TuneCP5_13p6TeV_madgraph-pythia8/NANOAODSIM/130X_mcRun3_2022_realistic_v5-v2/50000/e3bd4d23-4762-49f8-b638-b621cc102868.root
/store/mc/Run3Summer22NanoAODv12/VBFHHto2B2Tau_CV_1_C2V_1_C3_1_TuneCP5_13p6TeV_madgraph-pythia8/NANOAODSIM/130X_mcRun3_2022_realistic_v5-v2/50000/6c3b42dc-4437-41d8-8d0f-9be7594a898f.root
/store/mc/Run3Summer22NanoAODv12/VBFHHto2B2Tau_CV_1_C2V_1_C3_1_TuneCP5_13p6TeV_madgraph-pythia8/NANOAODSIM/130X_mcRun3_2022_realistic_v5-v2/50000/6b4bf03e-9365-47f8-a9b7-c8007c3fe0f6.root
/store/mc/Run3Summer22NanoAODv12/VBFHHto2B2Tau_CV_1_C2V_1_C3_1_TuneCP5_13p6TeV_madgraph-pythia8/NANOAODSIM/130X_mcRun3_2022_realistic_v5-v2/50000/30fb3247-73c0-48ad-826d-9eda3ad3eab2.root
/store/mc/Run3Summer22NanoAODv12/VBFHHto2B2Tau_CV_1_C2V_1_C3_1_TuneCP5_13p6TeV_madgraph-pythia8/NANOAODSIM/130X_mcRun3_2022_realistic_v5-v2/40000/c322b33f-5595-45c5-a31f-8231838cbf96.root
/store/mc/Run3Summer22NanoAODv12/VBFHHto2B2Tau_CV_1_C2V_1_C3_1_TuneCP5_13p6TeV_madgraph-pythia8/NANOAODSIM/130X_mcRun3_2022_realistic_v5-v2/50000/b4d3472f-1928-43e2-8a8b-7c889c2a11ce.root
/store/mc/Run3Summer22NanoAODv12/VBFHHto2B2Tau_CV_1_C2V_1_C3_1_TuneCP5_13p6TeV_madgraph-pythia8/NANOAODSIM/130X_mcRun3_2022_realistic_v5-v2/50000/61a85d53-af27-4398-9198-21a307c254a7.root
/store/mc/Run3Summer22NanoAODv12/VBFHHto2B2Tau_CV_1_C2V_1_C3_1_TuneCP5_13p6TeV_madgraph-pythia8/NANOAODSIM/130X_mcRun3_2022_realistic_v5-v2/2520000/389a838b-2a16-48ea-a131-5c5d25284854.root
/store/mc/Run3Summer22NanoAODv12/VBFHHto2B2Tau_CV_1_C2V_1_C3_1_TuneCP5_13p6TeV_madgraph-pythia8/NANOAODSIM/130X_mcRun3_2022_realistic_v5-v2/40000/715272be-9dd1-4021-83f1-efcb2eb89f18.root
/store/mc/Run3Summer22NanoAODv12/VBFHHto2B2Tau_CV_1_C2V_1_C3_1_TuneCP5_13p6TeV_madgraph-pythia8/NANOAODSIM/130X_mcRun3_2022_realistic_v5-v2/50000/6827219a-34f4-45fc-b04f-d8589ed6e67e.root
/store/mc/Run3Summer22NanoAODv12/VBFHHto2B2Tau_CV_1_C2V_1_C3_1_TuneCP5_13p6TeV_madgraph-pythia8/NANOAODSIM/130X_mcRun3_2022_realistic_v5-v2/2520000/2362c13b-565e-4990-847c-8031bc96528d.root
/store/mc/Run3Summer22NanoAODv12/VBFHHto2B2Tau_CV_1_C2V_1_C3_1_TuneCP5_13p6TeV_madgraph-pythia8/NANOAODSIM/130X_mcRun3_2022_realistic_v5-v2/2540000/66aed9cc-5a8b-4d72-b8db-0ededef8354b.root
/store/mc/Run3Summer22NanoAODv12/VBFHHto2B2Tau_CV_1_C2V_1_C3_1_TuneCP5_13p6TeV_madgraph-pythia8/NANOAODSIM/130X_mcRun3_2022_realistic_v5-v2/2520000/292b6382-0116-429b-978c-9751e1d676ac.root
/store/mc/Run3Summer22NanoAODv12/VBFHHto2B2Tau_CV_1_C2V_1_C3_1_TuneCP5_13p6TeV_madgraph-pythia8/NANOAODSIM/130X_mcRun3_2022_realistic_v5-v2/50000/7253011b-c237-4544-af74-b987e18ab2c7.root
/store/mc/Run3Summer22NanoAODv12/VBFHHto2B2Tau_CV_1_C2V_1_C3_1_TuneCP5_13p6TeV_madgraph-pythia8/NANOAODSIM/130X_mcRun3_2022_realistic_v5-v2/2520000/62dc415e-19cc-41d1-b593-e378c8a9f2a8.root
/store/mc/Run3Summer22NanoAODv12/VBFHHto2B2Tau_CV_1_C2V_1_C3_1_TuneCP5_13p6TeV_madgraph-pythia8/NANOAODSIM/130X_mcRun3_2022_realistic_v5-v2/30000/41f3ba17-a44f-48c3-9a5f-8bb0e060b763.root
/store/mc/Run3Summer22NanoAODv12/VBFHHto2B2Tau_CV_1_C2V_1_C3_1_TuneCP5_13p6TeV_madgraph-pythia8/NANOAODSIM/130X_mcRun3_2022_realistic_v5-v2/40000/1598b438-b574-47f0-b2cf-63a92dc11f72.root
/store/mc/Run3Summer22NanoAODv12/VBFHHto2B2Tau_CV_1_C2V_1_C3_1_TuneCP5_13p6TeV_madgraph-pythia8/NANOAODSIM/130X_mcRun3_2022_realistic_v5-v2/40000/4b664d70-ccba-4701-bf36-a44db95918b9.root
/store/mc/Run3Summer22NanoAODv12/VBFHHto2B2Tau_CV_1_C2V_1_C3_1_TuneCP5_13p6TeV_madgraph-pythia8/NANOAODSIM/130X_mcRun3_2022_realistic_v5-v2/30000/3b8ce8d4-64a5-4be8-8982-c9c60526d2c9.root
/store/mc/Run3Summer22NanoAODv12/VBFHHto2B2Tau_CV_1_C2V_1_C3_1_TuneCP5_13p6TeV_madgraph-pythia8/NANOAODSIM/130X_mcRun3_2022_realistic_v5-v2/30000/afa4bdb0-8af2-4af8-833f-0ec1b1022699.root