/store/mc/Run3Summer22NanoAODv12/VBFHHto2B2Tau_CV-m0p012_C2V-0p030_C3-10p2_TuneCP5_13p6TeV_madgraph-pythia8/NANOAODSIM/130X_mcRun3_2022_realistic_v5-v2/50000/c83a1563-2384-4aed-8279-a365c7ab550a.root
/store/mc/Run3Summer22NanoAODv12/VBFHHto2B2Tau_CV-m0p012_C2V-0p030_C3-10p2_TuneCP5_13p6TeV_madgraph-pythia8/NANOAODSIM/130X_mcRun3_2022_realistic_v5-v2/50000/9dc94579-4583-4d2b-99ee-1582676ba2c5.root
/store/mc/Run3Summer22NanoAODv12/VBFHHto2B2Tau_CV-m0p012_C2V-0p030_C3-10p2_TuneCP5_13p6TeV_madgraph-pythia8/NANOAODSIM/130X_mcRun3_2022_realistic_v5-v2/50000/a7f8ecaa-5745-4c47-b2f3-85cb0b7e1891.root
/store/mc/Run3Summer22NanoAODv12/VBFHHto2B2Tau_CV-m0p012_C2V-0p030_C3-10p2_TuneCP5_13p6TeV_madgraph-pythia8/NANOAODSIM/130X_mcRun3_2022_realistic_v5-v2/2540000/beb195c9-ad0a-4698-bab6-a112f404dc3c.root
/store/mc/Run3Summer22NanoAODv12/VBFHHto2B2Tau_CV-m0p012_C2V-0p030_C3-10p2_TuneCP5_13p6TeV_madgraph-pythia8/NANOAODSIM/130X_mcRun3_2022_realistic_v5-v2/2540000/257eaad6-07ed-4264-91e4-3afc7135cc12.root
/store/mc/Run3Summer22NanoAODv12/VBFHHto2B2Tau_CV-m0p012_C2V-0p030_C3-10p2_TuneCP5_13p6TeV_madgraph-pythia8/NANOAODSIM/130X_mcRun3_2022_realistic_v5-v2/2540000/ccf42f77-592a-443e-9172-5961b8cfb3b0.root
/store/mc/Run3Summer22NanoAODv12/VBFHHto2B2Tau_CV-m0p012_C2V-0p030_C3-10p2_TuneCP5_13p6TeV_madgraph-pythia8/NANOAODSIM/130X_mcRun3_2022_realistic_v5-v2/2540000/125a220c-35f3-49c3-b73d-e7de3d9f0944.root
/store/mc/Run3Summer22NanoAODv12/VBFHHto2B2Tau_CV-m0p012_C2V-0p030_C3-10p2_TuneCP5_13p6TeV_madgraph-pythia8/NANOAODSIM/130X_mcRun3_2022_realistic_v5-v2/2540000/67b894f8-e259-4cdb-9fc2-a3b0a83019fd.root
/store/mc/Run3Summer22NanoAODv12/VBFHHto2B2Tau_CV-m0p012_C2V-0p030_C3-10p2_TuneCP5_13p6TeV_madgraph-pythia8/NANOAODSIM/130X_mcRun3_2022_realistic_v5-v2/2540000/5c5fcf9e-5265-4a55-ad8f-d72daf4ef982.root
/store/mc/Run3Summer22NanoAODv12/VBFHHto2B2Tau_CV-m0p012_C2V-0p030_C3-10p2_TuneCP5_13p6TeV_madgraph-pythia8/NANOAODSIM/130X_mcRun3_2022_realistic_v5-v2/2540000/d040adec-ab78-4ece-8d0d-ff9323d3f1cc.root
/store/mc/Run3Summer22NanoAODv12/VBFHHto2B2Tau_CV-m0p012_C2V-0p030_C3-10p2_TuneCP5_13p6TeV_madgraph-pythia8/NANOAODSIM/130X_mcRun3_2022_realistic_v5-v2/50000/8981af6c-9189-46aa-8a36-a8cae3048159.root
/store/mc/Run3Summer22NanoAODv12/VBFHHto2B2Tau_CV-m0p012_C2V-0p030_C3-10p2_TuneCP5_13p6TeV_madgraph-pythia8/NANOAODSIM/130X_mcRun3_2022_realistic_v5-v2/2540000/88e785f4-c2a3-41cb-b95d-15447845c383.root
/store/mc/Run3Summer22NanoAODv12/VBFHHto2B2Tau_CV-m0p012_C2V-0p030_C3-10p2_TuneCP5_13p6TeV_madgraph-pythia8/NANOAODSIM/130X_mcRun3_2022_realistic_v5-v2/2540000/76e22d9e-800a-45f7-8a20-72195dea2876.root
/store/mc/Run3Summer22NanoAODv12/VBFHHto2B2Tau_CV-m0p012_C2V-0p030_C3-10p2_TuneCP5_13p6TeV_madgraph-pythia8/NANOAODSIM/130X_mcRun3_2022_realistic_v5-v2/50000/d5409b39-c3ff-4674-afec-f76f54392115.root
/store/mc/Run3Summer22NanoAODv12/VBFHHto2B2Tau_CV-m0p012_C2V-0p030_C3-10p2_TuneCP5_13p6TeV_madgraph-pythia8/NANOAODSIM/130X_mcRun3_2022_realistic_v5-v2/50000/5158b026-92d3-4fe7-86f8-98764b569b13.root
/store/mc/Run3Summer22NanoAODv12/VBFHHto2B2Tau_CV-m0p012_C2V-0p030_C3-10p2_TuneCP5_13p6TeV_madgraph-pythia8/NANOAODSIM/130X_mcRun3_2022_realistic_v5-v2/50000/c0b8a3db-9120-4c84-8423-c728522579cb.root
/store/mc/Run3Summer22NanoAODv12/VBFHHto2B2Tau_CV-m0p012_C2V-0p030_C3-10p2_TuneCP5_13p6TeV_madgraph-pythia8/NANOAODSIM/130X_mcRun3_2022_realistic_v5-v2/50000/049fd5fe-657b-4899-a71b-0c10882e6135.root
/store/mc/Run3Summer22NanoAODv12/VBFHHto2B2Tau_CV-m0p012_C2V-0p030_C3-10p2_TuneCP5_13p6TeV_madgraph-pythia8/NANOAODSIM/130X_mcRun3_2022_realistic_v5-v2/2540000/a8eb63f9-8776-448c-a780-da738941242a.root
/store/mc/Run3Summer22NanoAODv12/VBFHHto2B2Tau_CV-m0p012_C2V-0p030_C3-10p2_TuneCP5_13p6TeV_madgraph-pythia8/NANOAODSIM/130X_mcRun3_2022_realistic_v5-v2/2540000/c14e75be-292d-4763-99c0-589ac874ec7b.root
/store/mc/Run3Summer22NanoAODv12/VBFHHto2B2Tau_CV-m0p012_C2V-0p030_C3-10p2_TuneCP5_13p6TeV_madgraph-pythia8/NANOAODSIM/130X_mcRun3_2022_realistic_v5-v2/2540000/265a33b4-7183-4590-a337-b17bbd68c497.root
/store/mc/Run3Summer22NanoAODv12/VBFHHto2B2Tau_CV-m0p012_C2V-0p030_C3-10p2_TuneCP5_13p6TeV_madgraph-pythia8/NANOAODSIM/130X_mcRun3_2022_realistic_v5-v2/50000/1966452d-04e5-41c1-8a7d-2d01be4e83cf.root
/store/mc/Run3Summer22NanoAODv12/VBFHHto2B2Tau_CV-m0p012_C2V-0p030_C3-10p2_TuneCP5_13p6TeV_madgraph-pythia8/NANOAODSIM/130X_mcRun3_2022_realistic_v5-v2/2540000/45a39192-f232-49b2-ab57-2bdd5abf5e6e.root
/store/mc/Run3Summer22NanoAODv12/VBFHHto2B2Tau_CV-m0p012_C2V-0p030_C3-10p2_TuneCP5_13p6TeV_madgraph-pythia8/NANOAODSIM/130X_mcRun3_2022_realistic_v5-v2/2540000/bf5686f2-a6b9-48bd-a500-5317b22abe10.root
/store/mc/Run3Summer22NanoAODv12/VBFHHto2B2Tau_CV-m0p012_C2V-0p030_C3-10p2_TuneCP5_13p6TeV_madgraph-pythia8/NANOAODSIM/130X_mcRun3_2022_realistic_v5-v2/2540000/d3c44f28-db6b-4d72-a24d-f26bd01e585b.root
/store/mc/Run3Summer22NanoAODv12/VBFHHto2B2Tau_CV-m0p012_C2V-0p030_C3-10p2_TuneCP5_13p6TeV_madgraph-pythia8/NANOAODSIM/130X_mcRun3_2022_realistic_v5-v2/2540000/f3bd96ec-3a40-4275-8b18-e7ecd92c1fb5.root
/store/mc/Run3Summer22NanoAODv12/VBFHHto2B2Tau_CV-m0p012_C2V-0p030_C3-10p2_TuneCP5_13p6TeV_madgraph-pythia8/NANOAODSIM/130X_mcRun3_2022_realistic_v5-v2/2540000/cae5364c-13a2-4e36-992c-e15e5b376590.root
/store/mc/Run3Summer22NanoAODv12/VBFHHto2B2Tau_CV-m0p012_C2V-0p030_C3-10p2_TuneCP5_13p6TeV_madgraph-pythia8/NANOAODSIM/130X_mcRun3_2022_realistic_v5-v2/2540000/6ccd24a1-d8ce-43ae-a05e-aaa931128e61.root
/store/mc/Run3Summer22NanoAODv12/VBFHHto2B2Tau_CV-m0p012_C2V-0p030_C3-10p2_TuneCP5_13p6TeV_madgraph-pythia8/NANOAODSIM/130X_mcRun3_2022_realistic_v5-v2/2540000/d6f6ca35-663d-44e5-b924-632aa7d25d97.root
/store/mc/Run3Summer22NanoAODv12/VBFHHto2B2Tau_CV-m0p012_C2V-0p030_C3-10p2_TuneCP5_13p6TeV_madgraph-pythia8/NANOAODSIM/130X_mcRun3_2022_realistic_v5-v2/2540000/46ca1054-888b-4cde-8d13-d4d5d370e8e3.root
/store/mc/Run3Summer22NanoAODv12/VBFHHto2B2Tau_CV-m0p012_C2V-0p030_C3-10p2_TuneCP5_13p6TeV_madgraph-pythia8/NANOAODSIM/130X_mcRun3_2022_realistic_v5-v2/50000/5d6314bc-7a8a-4972-b689-45963f9a97ac.root
/store/mc/Run3Summer22NanoAODv12/VBFHHto2B2Tau_CV-m0p012_C2V-0p030_C3-10p2_TuneCP5_13p6TeV_madgraph-pythia8/NANOAODSIM/130X_mcRun3_2022_realistic_v5-v2/50000/582d34d4-4351-475f-afb6-13eebd20f78c.root
/store/mc/Run3Summer22NanoAODv12/VBFHHto2B2Tau_CV-m0p012_C2V-0p030_C3-10p2_TuneCP5_13p6TeV_madgraph-pythia8/NANOAODSIM/130X_mcRun3_2022_realistic_v5-v2/50000/9796a11c-3440-4167-8c7d-f7d6689d1113.root
/store/mc/Run3Summer22NanoAODv12/VBFHHto2B2Tau_CV-m0p012_C2V-0p030_C3-10p2_TuneCP5_13p6TeV_madgraph-pythia8/NANOAODSIM/130X_mcRun3_2022_realistic_v5-v2/50000/67a46afa-4c05-47bd-a29a-234ca36129e5.root
/store/mc/Run3Summer22NanoAODv12/VBFHHto2B2Tau_CV-m0p012_C2V-0p030_C3-10p2_TuneCP5_13p6TeV_madgraph-pythia8/NANOAODSIM/130X_mcRun3_2022_realistic_v5-v2/50000/a23488a6-19f6-42ae-8e04-6f98c626d3cc.root
/store/mc/Run3Summer22NanoAODv12/VBFHHto2B2Tau_CV-m0p012_C2V-0p030_C3-10p2_TuneCP5_13p6TeV_madgraph-pythia8/NANOAODSIM/130X_mcRun3_2022_realistic_v5-v2/50000/6239ecda-dbfb-40a6-98ef-a71cc2ba4773.root
/store/mc/Run3Summer22NanoAODv12/VBFHHto2B2Tau_CV-m0p012_C2V-0p030_C3-10p2_TuneCP5_13p6TeV_madgraph-pythia8/NANOAODSIM/130X_mcRun3_2022_realistic_v5-v2/50000/d93b5d35-50b8-408e-bdd8-26d1c92a7e03.root
/store/mc/Run3Summer22NanoAODv12/VBFHHto2B2Tau_CV-m0p012_C2V-0p030_C3-10p2_TuneCP5_13p6TeV_madgraph-pythia8/NANOAODSIM/130X_mcRun3_2022_realistic_v5-v2/50000/4561ec08-2254-4cc4-b06b-9862d34dd7df.root
/store/mc/Run3Summer22NanoAODv12/VBFHHto2B2Tau_CV-m0p012_C2V-0p030_C3-10p2_TuneCP5_13p6TeV_madgraph-pythia8/NANOAODSIM/130X_mcRun3_2022_realistic_v5-v2/50000/4d5593ba-a72e-4781-9fba-d1d005beef49.root
/store/mc/Run3Summer22NanoAODv12/VBFHHto2B2Tau_CV-m0p012_C2V-0p030_C3-10p2_TuneCP5_13p6TeV_madgraph-pythia8/NANOAODSIM/130X_mcRun3_2022_realistic_v5-v2/50000/41a8f294-6b52-455b-805e-0b5b1e19bff6.root
/store/mc/Run3Summer22NanoAODv12/VBFHHto2B2Tau_CV-m0p012_C2V-0p030_C3-10p2_TuneCP5_13p6TeV_madgraph-pythia8/NANOAODSIM/130X_mcRun3_2022_realistic_v5-v2/50000/871a9d7c-7c11-4a10-9bea-5506b5ce582e.root
/store/mc/Run3Summer22NanoAODv12/VBFHHto2B2Tau_CV-m0p012_C2V-0p030_C3-10p2_TuneCP5_13p6TeV_madgraph-pythia8/NANOAODSIM/130X_mcRun3_2022_realistic_v5-v2/50000/c12f2b6c-53de-41a4-bad9-4ecee41f9ac9.root
/store/mc/Run3Summer22NanoAODv12/VBFHHto2B2Tau_CV-m0p012_C2V-0p030_C3-10p2_TuneCP5_13p6TeV_madgraph-pythia8/NANOAODSIM/130X_mcRun3_2022_realistic_v5-v2/50000/84af9d62-5fbf-43ba-9649-5cdc462d4f48.root
/store/mc/Run3Summer22NanoAODv12/VBFHHto2B2Tau_CV-m0p012_C2V-0p030_C3-10p2_TuneCP5_13p6TeV_madgraph-pythia8/NANOAODSIM/130X_mcRun3_2022_realistic_v5-v2/2540000/21478bc2-1bf2-499d-ba88-c2f0a371f8ce.root
/store/mc/Run3Summer22NanoAODv12/VBFHHto2B2Tau_CV-m0p012_C2V-0p030_C3-10p2_TuneCP5_13p6TeV_madgraph-pythia8/NANOAODSIM/130X_mcRun3_2022_realistic_v5-v2/2540000/d4f6a645-3031-426c-9c2a-56821e1efdef.root
/store/mc/Run3Summer22NanoAODv12/VBFHHto2B2Tau_CV-m0p012_C2V-0p030_C3-10p2_TuneCP5_13p6TeV_madgraph-pythia8/NANOAODSIM/130X_mcRun3_2022_realistic_v5-v2/2540000/5adaffcc-2c41-4c41-b890-d9ccdf15c7ab.root
/store/mc/Run3Summer22NanoAODv12/VBFHHto2B2Tau_CV-m0p012_C2V-0p030_C3-10p2_TuneCP5_13p6TeV_madgraph-pythia8/NANOAODSIM/130X_mcRun3_2022_realistic_v5-v2/2540000/36d1fe31-fa54-4ed2-be75-a79217f07efb.root