/store/mc/Run3Summer22NanoAODv12/WtoLNu-2Jets_PTLNu-40to100_1J_TuneCP5_13p6TeV_amcatnloFXFX-pythia8/NANOAODSIM/130X_mcRun3_2022_realistic_v5-v1/70000/9cec88e8-07d1-46ab-ae16-6f91a6598a19.root
/store/mc/Run3Summer22NanoAODv12/WtoLNu-2Jets_PTLNu-40to100_1J_TuneCP5_13p6TeV_amcatnloFXFX-pythia8/NANOAODSIM/130X_mcRun3_2022_realistic_v5-v1/70000/03658040-0065-4ea5-be11-d20c4f2f77ce.root
/store/mc/Run3Summer22NanoAODv12/WtoLNu-2Jets_PTLNu-40to100_1J_TuneCP5_13p6TeV_amcatnloFXFX-pythia8/NANOAODSIM/130X_mcRun3_2022_realistic_v5-v1/70000/1b4d9adc-b52c-4c51-9dd4-96a4238e6b12.root
/store/mc/Run3Summer22NanoAODv12/WtoLNu-2Jets_PTLNu-40to100_1J_TuneCP5_13p6TeV_amcatnloFXFX-pythia8/NANOAODSIM/130X_mcRun3_2022_realistic_v5-v1/70000/30abaf36-8cdc-4cea-95f9-1e4336aa189e.root
/store/mc/Run3Summer22NanoAODv12/WtoLNu-2Jets_PTLNu-40to100_1J_TuneCP5_13p6TeV_amcatnloFXFX-pythia8/NANOAODSIM/130X_mcRun3_2022_realistic_v5-v1/70000/0793bade-1605-4d17-8670-55a095162dc8.root
/store/mc/Run3Summer22NanoAODv12/WtoLNu-2Jets_PTLNu-40to100_1J_TuneCP5_13p6TeV_amcatnloFXFX-pythia8/NANOAODSIM/130X_mcRun3_2022_realistic_v5-v1/70000/f84d4d80-85b5-4428-8999-812e5b6b5673.root
/store/mc/Run3Summer22NanoAODv12/WtoLNu-2Jets_PTLNu-40to100_1J_TuneCP5_13p6TeV_amcatnloFXFX-pythia8/NANOAODSIM/130X_mcRun3_2022_realistic_v5-v1/70000/f268a4a5-e33b-40ea-83ac-764974ac7755.root
/store/mc/Run3Summer22NanoAODv12/WtoLNu-2Jets_PTLNu-40to100_1J_TuneCP5_13p6TeV_amcatnloFXFX-pythia8/NANOAODSIM/130X_mcRun3_2022_realistic_v5-v1/70000/d1684d9f-3d20-4fbf-b4d4-e81de8b3ecd7.root
/store/mc/Run3Summer22NanoAODv12/WtoLNu-2Jets_PTLNu-40to100_1J_TuneCP5_13p6TeV_amcatnloFXFX-pythia8/NANOAODSIM/130X_mcRun3_2022_realistic_v5-v1/70000/e6085477-b92c-4357-868f-e3c7b8bf7880.root
/store/mc/Run3Summer22NanoAODv12/WtoLNu-2Jets_PTLNu-40to100_1J_TuneCP5_13p6TeV_amcatnloFXFX-pythia8/NANOAODSIM/130X_mcRun3_2022_realistic_v5-v1/70000/c72a36cc-39ca-4e80-8a64-bdb2c931564b.root
/store/mc/Run3Summer22NanoAODv12/WtoLNu-2Jets_PTLNu-40to100_1J_TuneCP5_13p6TeV_amcatnloFXFX-pythia8/NANOAODSIM/130X_mcRun3_2022_realistic_v5-v1/70000/b2955131-9c27-4c47-a72b-761512df7d91.root
/store/mc/Run3Summer22NanoAODv12/WtoLNu-2Jets_PTLNu-40to100_1J_TuneCP5_13p6TeV_amcatnloFXFX-pythia8/NANOAODSIM/130X_mcRun3_2022_realistic_v5-v1/70000/9ea6aaf9-14b6-420b-8a63-302458cdbea9.root
/store/mc/Run3Summer22NanoAODv12/WtoLNu-2Jets_PTLNu-40to100_1J_TuneCP5_13p6TeV_amcatnloFXFX-pythia8/NANOAODSIM/130X_mcRun3_2022_realistic_v5-v1/70000/e85cac7a-09f3-4a2b-b1a1-25d3fbd3cca5.root
/store/mc/Run3Summer22NanoAODv12/WtoLNu-2Jets_PTLNu-40to100_1J_TuneCP5_13p6TeV_amcatnloFXFX-pythia8/NANOAODSIM/130X_mcRun3_2022_realistic_v5-v1/70000/c5c6a508-25a5-4249-b258-ded52843d0dd.root
/store/mc/Run3Summer22NanoAODv12/WtoLNu-2Jets_PTLNu-40to100_1J_TuneCP5_13p6TeV_amcatnloFXFX-pythia8/NANOAODSIM/130X_mcRun3_2022_realistic_v5-v1/70000/b98de9a7-0ad6-4416-8a15-ab7f57080dad.root
/store/mc/Run3Summer22NanoAODv12/WtoLNu-2Jets_PTLNu-40to100_1J_TuneCP5_13p6TeV_amcatnloFXFX-pythia8/NANOAODSIM/130X_mcRun3_2022_realistic_v5-v1/70000/08eda8da-bd83-44a0-b47f-11580909fe06.root
/store/mc/Run3Summer22NanoAODv12/WtoLNu-2Jets_PTLNu-40to100_1J_TuneCP5_13p6TeV_amcatnloFXFX-pythia8/NANOAODSIM/130X_mcRun3_2022_realistic_v5-v1/70000/d3487c4b-3166-494d-aed1-ce4ed3ef639f.root
/store/mc/Run3Summer22NanoAODv12/WtoLNu-2Jets_PTLNu-40to100_1J_TuneCP5_13p6TeV_amcatnloFXFX-pythia8/NANOAODSIM/130X_mcRun3_2022_realistic_v5-v1/70000/58a2b0de-c646-4279-bf77-214e22386a1a.root
/store/mc/Run3Summer22NanoAODv12/WtoLNu-2Jets_PTLNu-40to100_1J_TuneCP5_13p6TeV_amcatnloFXFX-pythia8/NANOAODSIM/130X_mcRun3_2022_realistic_v5-v1/70000/9fa17dd4-693b-4228-98d2-36727a37f51d.root
/store/mc/Run3Summer22NanoAODv12/WtoLNu-2Jets_PTLNu-40to100_1J_TuneCP5_13p6TeV_amcatnloFXFX-pythia8/NANOAODSIM/130X_mcRun3_2022_realistic_v5-v1/70000/52efe1c8-8334-4538-8ba5-070eeea1248a.root
/store/mc/Run3Summer22NanoAODv12/WtoLNu-2Jets_PTLNu-40to100_1J_TuneCP5_13p6TeV_amcatnloFXFX-pythia8/NANOAODSIM/130X_mcRun3_2022_realistic_v5-v1/70000/c642892c-2c3b-442a-94ee-232ea539b838.root
/store/mc/Run3Summer22NanoAODv12/WtoLNu-2Jets_PTLNu-40to100_1J_TuneCP5_13p6TeV_amcatnloFXFX-pythia8/NANOAODSIM/130X_mcRun3_2022_realistic_v5-v1/70000/395461ff-6ab9-4104-98e0-142c5b14161e.root
/store/mc/Run3Summer22NanoAODv12/WtoLNu-2Jets_PTLNu-40to100_1J_TuneCP5_13p6TeV_amcatnloFXFX-pythia8/NANOAODSIM/130X_mcRun3_2022_realistic_v5-v1/70000/be785070-d984-4866-9cb9-1e184c62da44.root
/store/mc/Run3Summer22NanoAODv12/WtoLNu-2Jets_PTLNu-40to100_1J_TuneCP5_13p6TeV_amcatnloFXFX-pythia8/NANOAODSIM/130X_mcRun3_2022_realistic_v5-v1/70000/718a03cc-f10c-402d-b193-5623de2c10fc.root
/store/mc/Run3Summer22NanoAODv12/WtoLNu-2Jets_PTLNu-40to100_1J_TuneCP5_13p6TeV_amcatnloFXFX-pythia8/NANOAODSIM/130X_mcRun3_2022_realistic_v5-v1/70000/14d78c6d-b81f-470e-839d-8a08e841e677.root
/store/mc/Run3Summer22NanoAODv12/WtoLNu-2Jets_PTLNu-40to100_1J_TuneCP5_13p6TeV_amcatnloFXFX-pythia8/NANOAODSIM/130X_mcRun3_2022_realistic_v5-v1/70000/74239a64-8c09-4609-bea5-20cb2280d544.root
/store/mc/Run3Summer22NanoAODv12/WtoLNu-2Jets_PTLNu-40to100_1J_TuneCP5_13p6TeV_amcatnloFXFX-pythia8/NANOAODSIM/130X_mcRun3_2022_realistic_v5-v1/70000/6cc74638-a9af-4e61-bc30-12b0e29b1953.root
/store/mc/Run3Summer22NanoAODv12/WtoLNu-2Jets_PTLNu-40to100_1J_TuneCP5_13p6TeV_amcatnloFXFX-pythia8/NANOAODSIM/130X_mcRun3_2022_realistic_v5-v1/70000/9f3fd286-70aa-427a-947f-41ed240f5025.root
/store/mc/Run3Summer22NanoAODv12/WtoLNu-2Jets_PTLNu-40to100_1J_TuneCP5_13p6TeV_amcatnloFXFX-pythia8/NANOAODSIM/130X_mcRun3_2022_realistic_v5-v1/70000/9d1ad0e5-10ce-41b0-8e5f-60085aa8a469.root
/store/mc/Run3Summer22NanoAODv12/WtoLNu-2Jets_PTLNu-40to100_1J_TuneCP5_13p6TeV_amcatnloFXFX-pythia8/NANOAODSIM/130X_mcRun3_2022_realistic_v5-v1/70000/730787f7-7a61-4a8f-954f-0751bdc0f103.root
/store/mc/Run3Summer22NanoAODv12/WtoLNu-2Jets_PTLNu-40to100_1J_TuneCP5_13p6TeV_amcatnloFXFX-pythia8/NANOAODSIM/130X_mcRun3_2022_realistic_v5-v1/70000/361dee35-08e1-4b92-8b26-fed69c3b0c13.root
/store/mc/Run3Summer22NanoAODv12/WtoLNu-2Jets_PTLNu-40to100_1J_TuneCP5_13p6TeV_amcatnloFXFX-pythia8/NANOAODSIM/130X_mcRun3_2022_realistic_v5-v1/70000/f1a119b5-c615-4c90-8318-2d83bfb2c939.root
/store/mc/Run3Summer22NanoAODv12/WtoLNu-2Jets_PTLNu-40to100_1J_TuneCP5_13p6TeV_amcatnloFXFX-pythia8/NANOAODSIM/130X_mcRun3_2022_realistic_v5-v1/70000/f39f181c-275e-41c3-ba0c-3385b1f3ab1b.root
/store/mc/Run3Summer22NanoAODv12/WtoLNu-2Jets_PTLNu-40to100_1J_TuneCP5_13p6TeV_amcatnloFXFX-pythia8/NANOAODSIM/130X_mcRun3_2022_realistic_v5-v1/70000/da407a51-c6d4-4150-9034-26732971c6fa.root
/store/mc/Run3Summer22NanoAODv12/WtoLNu-2Jets_PTLNu-40to100_1J_TuneCP5_13p6TeV_amcatnloFXFX-pythia8/NANOAODSIM/130X_mcRun3_2022_realistic_v5-v1/70000/3946ff96-ebe8-4d1a-ab3f-e64284497915.root
/store/mc/Run3Summer22NanoAODv12/WtoLNu-2Jets_PTLNu-40to100_1J_TuneCP5_13p6TeV_amcatnloFXFX-pythia8/NANOAODSIM/130X_mcRun3_2022_realistic_v5-v1/70000/8c244377-bc60-4cc8-a3b9-d5726b30a374.root
/store/mc/Run3Summer22NanoAODv12/WtoLNu-2Jets_PTLNu-40to100_1J_TuneCP5_13p6TeV_amcatnloFXFX-pythia8/NANOAODSIM/130X_mcRun3_2022_realistic_v5-v1/70000/a9a077a8-e20d-45fe-93ab-f0d7273fc56d.root
/store/mc/Run3Summer22NanoAODv12/WtoLNu-2Jets_PTLNu-40to100_1J_TuneCP5_13p6TeV_amcatnloFXFX-pythia8/NANOAODSIM/130X_mcRun3_2022_realistic_v5-v1/70000/89b3e23b-3eb5-46d3-902d-e952d08a4cbc.root
/store/mc/Run3Summer22NanoAODv12/WtoLNu-2Jets_PTLNu-40to100_1J_TuneCP5_13p6TeV_amcatnloFXFX-pythia8/NANOAODSIM/130X_mcRun3_2022_realistic_v5-v1/70000/414b3509-067d-4ca7-89e8-d7852ebfc595.root
/store/mc/Run3Summer22NanoAODv12/WtoLNu-2Jets_PTLNu-40to100_1J_TuneCP5_13p6TeV_amcatnloFXFX-pythia8/NANOAODSIM/130X_mcRun3_2022_realistic_v5-v1/70000/5e8b6573-2d0a-435b-b832-86601cdc17ee.root
/store/mc/Run3Summer22NanoAODv12/WtoLNu-2Jets_PTLNu-40to100_1J_TuneCP5_13p6TeV_amcatnloFXFX-pythia8/NANOAODSIM/130X_mcRun3_2022_realistic_v5-v1/70000/c8cbf21c-0eca-4a38-8553-4c7febc6b289.root
/store/mc/Run3Summer22NanoAODv12/WtoLNu-2Jets_PTLNu-40to100_1J_TuneCP5_13p6TeV_amcatnloFXFX-pythia8/NANOAODSIM/130X_mcRun3_2022_realistic_v5-v1/70000/303c046d-1ef8-4717-8a4e-d442e4babc7d.root
/store/mc/Run3Summer22NanoAODv12/WtoLNu-2Jets_PTLNu-40to100_1J_TuneCP5_13p6TeV_amcatnloFXFX-pythia8/NANOAODSIM/130X_mcRun3_2022_realistic_v5-v1/70000/5f4d92cc-fc9e-47e3-b558-416899ba7f5e.root
/store/mc/Run3Summer22NanoAODv12/WtoLNu-2Jets_PTLNu-40to100_1J_TuneCP5_13p6TeV_amcatnloFXFX-pythia8/NANOAODSIM/130X_mcRun3_2022_realistic_v5-v1/70000/1bb93889-796b-429f-a1f7-e1963f65dfc5.root
/store/mc/Run3Summer22NanoAODv12/WtoLNu-2Jets_PTLNu-40to100_1J_TuneCP5_13p6TeV_amcatnloFXFX-pythia8/NANOAODSIM/130X_mcRun3_2022_realistic_v5-v1/70000/d748bbe0-39d6-4d5a-a3ce-89b0ada901cf.root
/store/mc/Run3Summer22NanoAODv12/WtoLNu-2Jets_PTLNu-40to100_1J_TuneCP5_13p6TeV_amcatnloFXFX-pythia8/NANOAODSIM/130X_mcRun3_2022_realistic_v5-v1/70000/fb240ce0-f3cd-44f0-9633-a2f2ad514382.root
/store/mc/Run3Summer22NanoAODv12/WtoLNu-2Jets_PTLNu-40to100_1J_TuneCP5_13p6TeV_amcatnloFXFX-pythia8/NANOAODSIM/130X_mcRun3_2022_realistic_v5-v1/70000/20bf4e8a-a8d1-41e8-aa59-5f3ebec32cf2.root
/store/mc/Run3Summer22NanoAODv12/WtoLNu-2Jets_PTLNu-40to100_1J_TuneCP5_13p6TeV_amcatnloFXFX-pythia8/NANOAODSIM/130X_mcRun3_2022_realistic_v5-v1/70000/0e3911ae-0ce5-4032-9807-b7ad7d8067a8.root
/store/mc/Run3Summer22NanoAODv12/WtoLNu-2Jets_PTLNu-40to100_1J_TuneCP5_13p6TeV_amcatnloFXFX-pythia8/NANOAODSIM/130X_mcRun3_2022_realistic_v5-v1/70000/c433a23e-e043-49a7-90ad-e35888e6a52a.root
/store/mc/Run3Summer22NanoAODv12/WtoLNu-2Jets_PTLNu-40to100_1J_TuneCP5_13p6TeV_amcatnloFXFX-pythia8/NANOAODSIM/130X_mcRun3_2022_realistic_v5-v1/70000/c2a4d8e9-06d3-4e55-ae76-ddd394977d19.root
/store/mc/Run3Summer22NanoAODv12/WtoLNu-2Jets_PTLNu-40to100_1J_TuneCP5_13p6TeV_amcatnloFXFX-pythia8/NANOAODSIM/130X_mcRun3_2022_realistic_v5-v1/70000/1cbeb7d3-ada2-41b3-96ba-2987a087f611.root
/store/mc/Run3Summer22NanoAODv12/WtoLNu-2Jets_PTLNu-40to100_1J_TuneCP5_13p6TeV_amcatnloFXFX-pythia8/NANOAODSIM/130X_mcRun3_2022_realistic_v5-v1/70000/5f87696e-b387-459e-ae34-e2252e7496f3.root
/store/mc/Run3Summer22NanoAODv12/WtoLNu-2Jets_PTLNu-40to100_1J_TuneCP5_13p6TeV_amcatnloFXFX-pythia8/NANOAODSIM/130X_mcRun3_2022_realistic_v5-v1/70000/66db056d-4c3f-4a83-83e4-60e493d3193b.root
/store/mc/Run3Summer22NanoAODv12/WtoLNu-2Jets_PTLNu-40to100_1J_TuneCP5_13p6TeV_amcatnloFXFX-pythia8/NANOAODSIM/130X_mcRun3_2022_realistic_v5-v1/70000/41a4f152-6bec-44f8-a5f4-490b4b9870ac.root
/store/mc/Run3Summer22NanoAODv12/WtoLNu-2Jets_PTLNu-40to100_1J_TuneCP5_13p6TeV_amcatnloFXFX-pythia8/NANOAODSIM/130X_mcRun3_2022_realistic_v5-v1/70000/c442ba5b-6709-41be-ab71-5bb56164a73a.root
/store/mc/Run3Summer22NanoAODv12/WtoLNu-2Jets_PTLNu-40to100_1J_TuneCP5_13p6TeV_amcatnloFXFX-pythia8/NANOAODSIM/130X_mcRun3_2022_realistic_v5-v1/70000/dd273892-5f52-429b-b993-0fe05e46cfe3.root
/store/mc/Run3Summer22NanoAODv12/WtoLNu-2Jets_PTLNu-40to100_1J_TuneCP5_13p6TeV_amcatnloFXFX-pythia8/NANOAODSIM/130X_mcRun3_2022_realistic_v5-v1/70000/41a0da0a-0b2c-4d3e-a513-5807b95cfc17.root
/store/mc/Run3Summer22NanoAODv12/WtoLNu-2Jets_PTLNu-40to100_1J_TuneCP5_13p6TeV_amcatnloFXFX-pythia8/NANOAODSIM/130X_mcRun3_2022_realistic_v5-v1/70000/f6b718f9-d29b-4ad7-9d37-644dc9f857b0.root
/store/mc/Run3Summer22NanoAODv12/WtoLNu-2Jets_PTLNu-40to100_1J_TuneCP5_13p6TeV_amcatnloFXFX-pythia8/NANOAODSIM/130X_mcRun3_2022_realistic_v5-v1/70000/1f34e6ea-2b24-438a-bfd0-346400ded421.root
/store/mc/Run3Summer22NanoAODv12/WtoLNu-2Jets_PTLNu-40to100_1J_TuneCP5_13p6TeV_amcatnloFXFX-pythia8/NANOAODSIM/130X_mcRun3_2022_realistic_v5-v1/70000/6511d528-6a71-47bc-8978-4fc492f04397.root
/store/mc/Run3Summer22NanoAODv12/WtoLNu-2Jets_PTLNu-40to100_1J_TuneCP5_13p6TeV_amcatnloFXFX-pythia8/NANOAODSIM/130X_mcRun3_2022_realistic_v5-v1/70000/c8191a85-123f-420b-aeec-7733e8aa56dd.root
/store/mc/Run3Summer22NanoAODv12/WtoLNu-2Jets_PTLNu-40to100_1J_TuneCP5_13p6TeV_amcatnloFXFX-pythia8/NANOAODSIM/130X_mcRun3_2022_realistic_v5-v1/70000/dfe7c319-fd88-4fb9-b114-4f2a539e91e8.root
/store/mc/Run3Summer22NanoAODv12/WtoLNu-2Jets_PTLNu-40to100_1J_TuneCP5_13p6TeV_amcatnloFXFX-pythia8/NANOAODSIM/130X_mcRun3_2022_realistic_v5-v1/70000/7269dd5b-b9a7-43c2-a258-131cf96ab9a0.root
/store/mc/Run3Summer22NanoAODv12/WtoLNu-2Jets_PTLNu-40to100_1J_TuneCP5_13p6TeV_amcatnloFXFX-pythia8/NANOAODSIM/130X_mcRun3_2022_realistic_v5-v1/70000/d671be63-61b6-4628-adb2-8d2853348a70.root
/store/mc/Run3Summer22NanoAODv12/WtoLNu-2Jets_PTLNu-40to100_1J_TuneCP5_13p6TeV_amcatnloFXFX-pythia8/NANOAODSIM/130X_mcRun3_2022_realistic_v5-v1/70000/2f6f74a5-1714-4b51-baaa-2c7d2dc30ab8.root
/store/mc/Run3Summer22NanoAODv12/WtoLNu-2Jets_PTLNu-40to100_1J_TuneCP5_13p6TeV_amcatnloFXFX-pythia8/NANOAODSIM/130X_mcRun3_2022_realistic_v5-v1/70000/7dd7630d-7cdc-4a6a-aef1-9cb9dc9866ba.root
/store/mc/Run3Summer22NanoAODv12/WtoLNu-2Jets_PTLNu-40to100_1J_TuneCP5_13p6TeV_amcatnloFXFX-pythia8/NANOAODSIM/130X_mcRun3_2022_realistic_v5-v1/70000/ba9e3a81-d0d3-4a7c-aa24-988bc5283a01.root
/store/mc/Run3Summer22NanoAODv12/WtoLNu-2Jets_PTLNu-40to100_1J_TuneCP5_13p6TeV_amcatnloFXFX-pythia8/NANOAODSIM/130X_mcRun3_2022_realistic_v5-v1/70000/3420fdd0-799d-440f-a4f3-38f274b000c6.root
/store/mc/Run3Summer22NanoAODv12/WtoLNu-2Jets_PTLNu-40to100_1J_TuneCP5_13p6TeV_amcatnloFXFX-pythia8/NANOAODSIM/130X_mcRun3_2022_realistic_v5-v1/70000/3c53e1d2-c689-4e63-9749-6b640623156d.root
/store/mc/Run3Summer22NanoAODv12/WtoLNu-2Jets_PTLNu-40to100_1J_TuneCP5_13p6TeV_amcatnloFXFX-pythia8/NANOAODSIM/130X_mcRun3_2022_realistic_v5-v1/70000/02f409c7-e65a-4010-a4fb-5c893327bd61.root
/store/mc/Run3Summer22NanoAODv12/WtoLNu-2Jets_PTLNu-40to100_1J_TuneCP5_13p6TeV_amcatnloFXFX-pythia8/NANOAODSIM/130X_mcRun3_2022_realistic_v5-v1/70000/2b4b02fc-a0e2-4658-9b74-6abd4a88fc45.root
/store/mc/Run3Summer22NanoAODv12/WtoLNu-2Jets_PTLNu-40to100_1J_TuneCP5_13p6TeV_amcatnloFXFX-pythia8/NANOAODSIM/130X_mcRun3_2022_realistic_v5-v1/70000/01507474-adf3-472a-a629-fc1060abc048.root
/store/mc/Run3Summer22NanoAODv12/WtoLNu-2Jets_PTLNu-40to100_1J_TuneCP5_13p6TeV_amcatnloFXFX-pythia8/NANOAODSIM/130X_mcRun3_2022_realistic_v5-v1/70000/fddd15c1-1cd7-4de2-bcbe-675522ad182c.root
/store/mc/Run3Summer22NanoAODv12/WtoLNu-2Jets_PTLNu-40to100_1J_TuneCP5_13p6TeV_amcatnloFXFX-pythia8/NANOAODSIM/130X_mcRun3_2022_realistic_v5-v1/70000/77169603-bee8-4869-bc30-762b91023cea.root
/store/mc/Run3Summer22NanoAODv12/WtoLNu-2Jets_PTLNu-40to100_1J_TuneCP5_13p6TeV_amcatnloFXFX-pythia8/NANOAODSIM/130X_mcRun3_2022_realistic_v5-v1/70000/b8b78fea-4439-46ac-beeb-e3d5b53b9af3.root
/store/mc/Run3Summer22NanoAODv12/WtoLNu-2Jets_PTLNu-40to100_1J_TuneCP5_13p6TeV_amcatnloFXFX-pythia8/NANOAODSIM/130X_mcRun3_2022_realistic_v5-v1/70000/d6f38384-ab6a-421e-9475-d692ee4669d8.root
/store/mc/Run3Summer22NanoAODv12/WtoLNu-2Jets_PTLNu-40to100_1J_TuneCP5_13p6TeV_amcatnloFXFX-pythia8/NANOAODSIM/130X_mcRun3_2022_realistic_v5-v1/70000/2f2dcf95-7521-4e7c-b790-100fce9362f5.root
/store/mc/Run3Summer22NanoAODv12/WtoLNu-2Jets_PTLNu-40to100_1J_TuneCP5_13p6TeV_amcatnloFXFX-pythia8/NANOAODSIM/130X_mcRun3_2022_realistic_v5-v1/70000/e4d8d2e9-0d05-4a5b-a747-c647cff146d9.root
/store/mc/Run3Summer22NanoAODv12/WtoLNu-2Jets_PTLNu-40to100_1J_TuneCP5_13p6TeV_amcatnloFXFX-pythia8/NANOAODSIM/130X_mcRun3_2022_realistic_v5-v1/70000/db80aef1-7a2c-47cc-a604-5d3e98b73039.root
/store/mc/Run3Summer22NanoAODv12/WtoLNu-2Jets_PTLNu-40to100_1J_TuneCP5_13p6TeV_amcatnloFXFX-pythia8/NANOAODSIM/130X_mcRun3_2022_realistic_v5-v1/70000/31b02116-a9a6-4820-bc63-608290969235.root
/store/mc/Run3Summer22NanoAODv12/WtoLNu-2Jets_PTLNu-40to100_1J_TuneCP5_13p6TeV_amcatnloFXFX-pythia8/NANOAODSIM/130X_mcRun3_2022_realistic_v5-v1/70000/4405b71f-cfd7-424a-8eb2-3779074c8a20.root
/store/mc/Run3Summer22NanoAODv12/WtoLNu-2Jets_PTLNu-40to100_1J_TuneCP5_13p6TeV_amcatnloFXFX-pythia8/NANOAODSIM/130X_mcRun3_2022_realistic_v5-v1/70000/28d9fe52-6c68-46d3-be0c-502f317d402b.root
/store/mc/Run3Summer22NanoAODv12/WtoLNu-2Jets_PTLNu-40to100_1J_TuneCP5_13p6TeV_amcatnloFXFX-pythia8/NANOAODSIM/130X_mcRun3_2022_realistic_v5-v1/70000/db605f80-70d6-4e20-ab43-b7fecc3095a2.root
/store/mc/Run3Summer22NanoAODv12/WtoLNu-2Jets_PTLNu-40to100_1J_TuneCP5_13p6TeV_amcatnloFXFX-pythia8/NANOAODSIM/130X_mcRun3_2022_realistic_v5-v1/70000/7222ddf5-b342-4ec8-8f87-b9f41d553db3.root
/store/mc/Run3Summer22NanoAODv12/WtoLNu-2Jets_PTLNu-40to100_1J_TuneCP5_13p6TeV_amcatnloFXFX-pythia8/NANOAODSIM/130X_mcRun3_2022_realistic_v5-v1/70000/e4098006-b9b4-4a9f-974a-b9a86574d963.root
/store/mc/Run3Summer22NanoAODv12/WtoLNu-2Jets_PTLNu-40to100_1J_TuneCP5_13p6TeV_amcatnloFXFX-pythia8/NANOAODSIM/130X_mcRun3_2022_realistic_v5-v1/70000/80463d18-10e9-4f75-9f04-f74cc9c5f3e1.root
/store/mc/Run3Summer22NanoAODv12/WtoLNu-2Jets_PTLNu-40to100_1J_TuneCP5_13p6TeV_amcatnloFXFX-pythia8/NANOAODSIM/130X_mcRun3_2022_realistic_v5-v1/70000/68f9c999-f7c2-4f0e-aa33-98f873bab3d4.root
/store/mc/Run3Summer22NanoAODv12/WtoLNu-2Jets_PTLNu-40to100_1J_TuneCP5_13p6TeV_amcatnloFXFX-pythia8/NANOAODSIM/130X_mcRun3_2022_realistic_v5-v1/70000/7029019f-5eac-4908-a03a-9f1c2ce7b518.root
/store/mc/Run3Summer22NanoAODv12/WtoLNu-2Jets_PTLNu-40to100_1J_TuneCP5_13p6TeV_amcatnloFXFX-pythia8/NANOAODSIM/130X_mcRun3_2022_realistic_v5-v1/70000/b08e3fce-0551-4dd4-94c9-78359d0e9179.root
/store/mc/Run3Summer22NanoAODv12/WtoLNu-2Jets_PTLNu-40to100_1J_TuneCP5_13p6TeV_amcatnloFXFX-pythia8/NANOAODSIM/130X_mcRun3_2022_realistic_v5-v1/70000/0d65e5b4-da30-476f-810b-4d8dc616a845.root
/store/mc/Run3Summer22NanoAODv12/WtoLNu-2Jets_PTLNu-40to100_1J_TuneCP5_13p6TeV_amcatnloFXFX-pythia8/NANOAODSIM/130X_mcRun3_2022_realistic_v5-v1/70000/dfbf8799-62b5-4cc0-904d-f1f007edfe30.root
/store/mc/Run3Summer22NanoAODv12/WtoLNu-2Jets_PTLNu-40to100_1J_TuneCP5_13p6TeV_amcatnloFXFX-pythia8/NANOAODSIM/130X_mcRun3_2022_realistic_v5-v1/70000/59019ff8-ba24-4d18-ba1e-db861b38ff48.root
/store/mc/Run3Summer22NanoAODv12/WtoLNu-2Jets_PTLNu-40to100_1J_TuneCP5_13p6TeV_amcatnloFXFX-pythia8/NANOAODSIM/130X_mcRun3_2022_realistic_v5-v1/70000/598bb083-cc5f-47d4-b7f5-1f0c0db03f5e.root
/store/mc/Run3Summer22NanoAODv12/WtoLNu-2Jets_PTLNu-40to100_1J_TuneCP5_13p6TeV_amcatnloFXFX-pythia8/NANOAODSIM/130X_mcRun3_2022_realistic_v5-v1/70000/c04332dc-2d1e-4d98-9140-359657a4c38c.root
/store/mc/Run3Summer22NanoAODv12/WtoLNu-2Jets_PTLNu-40to100_1J_TuneCP5_13p6TeV_amcatnloFXFX-pythia8/NANOAODSIM/130X_mcRun3_2022_realistic_v5-v1/70000/7e3bb920-f305-45b6-a715-2072051d2508.root
/store/mc/Run3Summer22NanoAODv12/WtoLNu-2Jets_PTLNu-40to100_1J_TuneCP5_13p6TeV_amcatnloFXFX-pythia8/NANOAODSIM/130X_mcRun3_2022_realistic_v5-v1/70000/2b0c0623-64d5-4830-9aea-748fa087dd57.root
/store/mc/Run3Summer22NanoAODv12/WtoLNu-2Jets_PTLNu-40to100_1J_TuneCP5_13p6TeV_amcatnloFXFX-pythia8/NANOAODSIM/130X_mcRun3_2022_realistic_v5-v1/70000/9708e509-939e-477e-979b-61f0c834af59.root
/store/mc/Run3Summer22NanoAODv12/WtoLNu-2Jets_PTLNu-40to100_1J_TuneCP5_13p6TeV_amcatnloFXFX-pythia8/NANOAODSIM/130X_mcRun3_2022_realistic_v5-v1/70000/6d6ca67f-02ba-484b-9ac6-9dfe8c3c542b.root
/store/mc/Run3Summer22NanoAODv12/WtoLNu-2Jets_PTLNu-40to100_1J_TuneCP5_13p6TeV_amcatnloFXFX-pythia8/NANOAODSIM/130X_mcRun3_2022_realistic_v5-v1/70000/96ed1a66-abf4-45f4-8c3b-2a79459ed87f.root
/store/mc/Run3Summer22NanoAODv12/WtoLNu-2Jets_PTLNu-40to100_1J_TuneCP5_13p6TeV_amcatnloFXFX-pythia8/NANOAODSIM/130X_mcRun3_2022_realistic_v5-v1/70000/17f7c71f-2388-4b26-8628-cf5ee773062a.root
/store/mc/Run3Summer22NanoAODv12/WtoLNu-2Jets_PTLNu-40to100_1J_TuneCP5_13p6TeV_amcatnloFXFX-pythia8/NANOAODSIM/130X_mcRun3_2022_realistic_v5-v1/70000/edb3aadd-b84d-45e5-957a-8a966cd7ce91.root
/store/mc/Run3Summer22NanoAODv12/WtoLNu-2Jets_PTLNu-40to100_1J_TuneCP5_13p6TeV_amcatnloFXFX-pythia8/NANOAODSIM/130X_mcRun3_2022_realistic_v5-v1/70000/5baaa2dc-c79a-4295-b21e-b94a02e6d999.root
/store/mc/Run3Summer22NanoAODv12/WtoLNu-2Jets_PTLNu-40to100_1J_TuneCP5_13p6TeV_amcatnloFXFX-pythia8/NANOAODSIM/130X_mcRun3_2022_realistic_v5-v1/70000/01beaf97-78ec-4120-a4af-f9501da18e28.root
/store/mc/Run3Summer22NanoAODv12/WtoLNu-2Jets_PTLNu-40to100_1J_TuneCP5_13p6TeV_amcatnloFXFX-pythia8/NANOAODSIM/130X_mcRun3_2022_realistic_v5-v1/70000/78bf98d7-e556-47be-a6f2-569f70fecdeb.root
/store/mc/Run3Summer22NanoAODv12/WtoLNu-2Jets_PTLNu-40to100_1J_TuneCP5_13p6TeV_amcatnloFXFX-pythia8/NANOAODSIM/130X_mcRun3_2022_realistic_v5-v1/70000/278e30ab-f4e9-40ed-a0ef-ba66106c2eec.root
/store/mc/Run3Summer22NanoAODv12/WtoLNu-2Jets_PTLNu-40to100_1J_TuneCP5_13p6TeV_amcatnloFXFX-pythia8/NANOAODSIM/130X_mcRun3_2022_realistic_v5-v1/70000/44309f9b-8810-4c55-85cf-dbbe100b74fb.root
/store/mc/Run3Summer22NanoAODv12/WtoLNu-2Jets_PTLNu-40to100_1J_TuneCP5_13p6TeV_amcatnloFXFX-pythia8/NANOAODSIM/130X_mcRun3_2022_realistic_v5-v1/70000/8592f7c5-c376-47ed-bd2b-d1e67fd8b15e.root
/store/mc/Run3Summer22NanoAODv12/WtoLNu-2Jets_PTLNu-40to100_1J_TuneCP5_13p6TeV_amcatnloFXFX-pythia8/NANOAODSIM/130X_mcRun3_2022_realistic_v5-v1/70000/da113977-88fe-479f-bf98-a7c344c69f00.root
/store/mc/Run3Summer22NanoAODv12/WtoLNu-2Jets_PTLNu-40to100_1J_TuneCP5_13p6TeV_amcatnloFXFX-pythia8/NANOAODSIM/130X_mcRun3_2022_realistic_v5-v1/70000/5d85b5e5-22b1-44ef-9d18-1c5e04408b00.root
/store/mc/Run3Summer22NanoAODv12/WtoLNu-2Jets_PTLNu-40to100_1J_TuneCP5_13p6TeV_amcatnloFXFX-pythia8/NANOAODSIM/130X_mcRun3_2022_realistic_v5-v1/70000/fbf04a1e-4d36-448f-a153-c5ebc959fb4b.root
/store/mc/Run3Summer22NanoAODv12/WtoLNu-2Jets_PTLNu-40to100_1J_TuneCP5_13p6TeV_amcatnloFXFX-pythia8/NANOAODSIM/130X_mcRun3_2022_realistic_v5-v1/70000/e7f37e2e-d833-4768-b044-4309d63eb84b.root
/store/mc/Run3Summer22NanoAODv12/WtoLNu-2Jets_PTLNu-40to100_1J_TuneCP5_13p6TeV_amcatnloFXFX-pythia8/NANOAODSIM/130X_mcRun3_2022_realistic_v5-v1/70000/8b610764-5785-41d0-94bd-b4e986ad401d.root
/store/mc/Run3Summer22NanoAODv12/WtoLNu-2Jets_PTLNu-40to100_1J_TuneCP5_13p6TeV_amcatnloFXFX-pythia8/NANOAODSIM/130X_mcRun3_2022_realistic_v5-v1/70000/45b3f1fa-8b76-4601-b905-4edf4a8cf6fb.root
/store/mc/Run3Summer22NanoAODv12/WtoLNu-2Jets_PTLNu-40to100_1J_TuneCP5_13p6TeV_amcatnloFXFX-pythia8/NANOAODSIM/130X_mcRun3_2022_realistic_v5-v1/70000/f3146ed2-8ca5-4bf3-9b6d-29eb7c31f3df.root
/store/mc/Run3Summer22NanoAODv12/WtoLNu-2Jets_PTLNu-40to100_1J_TuneCP5_13p6TeV_amcatnloFXFX-pythia8/NANOAODSIM/130X_mcRun3_2022_realistic_v5-v1/70000/4a886a25-4fde-4937-bc5e-220cc88a2a99.root
/store/mc/Run3Summer22NanoAODv12/WtoLNu-2Jets_PTLNu-40to100_1J_TuneCP5_13p6TeV_amcatnloFXFX-pythia8/NANOAODSIM/130X_mcRun3_2022_realistic_v5-v1/70000/4c644037-9a6a-42fd-a0e1-8f91c80f8a8d.root
/store/mc/Run3Summer22NanoAODv12/WtoLNu-2Jets_PTLNu-40to100_1J_TuneCP5_13p6TeV_amcatnloFXFX-pythia8/NANOAODSIM/130X_mcRun3_2022_realistic_v5-v1/70000/585a5a0a-9c42-45f4-8c43-a619636a8ce1.root
/store/mc/Run3Summer22NanoAODv12/WtoLNu-2Jets_PTLNu-40to100_1J_TuneCP5_13p6TeV_amcatnloFXFX-pythia8/NANOAODSIM/130X_mcRun3_2022_realistic_v5-v1/70000/9339ad86-ac0b-40e5-adb1-b7b7dbe03008.root
/store/mc/Run3Summer22NanoAODv12/WtoLNu-2Jets_PTLNu-40to100_1J_TuneCP5_13p6TeV_amcatnloFXFX-pythia8/NANOAODSIM/130X_mcRun3_2022_realistic_v5-v1/70000/6b1b2721-79c1-41cc-8e94-09d7a8d8fdfb.root
/store/mc/Run3Summer22NanoAODv12/WtoLNu-2Jets_PTLNu-40to100_1J_TuneCP5_13p6TeV_amcatnloFXFX-pythia8/NANOAODSIM/130X_mcRun3_2022_realistic_v5-v1/70000/c1597aa5-6d21-4af9-a8a3-45b0aad01ff4.root
/store/mc/Run3Summer22NanoAODv12/WtoLNu-2Jets_PTLNu-40to100_1J_TuneCP5_13p6TeV_amcatnloFXFX-pythia8/NANOAODSIM/130X_mcRun3_2022_realistic_v5-v1/70000/3063fc36-0963-4429-9084-2fbaec1304ec.root
/store/mc/Run3Summer22NanoAODv12/WtoLNu-2Jets_PTLNu-40to100_1J_TuneCP5_13p6TeV_amcatnloFXFX-pythia8/NANOAODSIM/130X_mcRun3_2022_realistic_v5-v1/70000/40fe1fe1-1543-4182-b73a-a048c017577c.root
/store/mc/Run3Summer22NanoAODv12/WtoLNu-2Jets_PTLNu-40to100_1J_TuneCP5_13p6TeV_amcatnloFXFX-pythia8/NANOAODSIM/130X_mcRun3_2022_realistic_v5-v1/70000/74da236a-295d-4c39-8a43-eba1a095cf5c.root
/store/mc/Run3Summer22NanoAODv12/WtoLNu-2Jets_PTLNu-40to100_1J_TuneCP5_13p6TeV_amcatnloFXFX-pythia8/NANOAODSIM/130X_mcRun3_2022_realistic_v5-v1/70000/1a5f9d62-125e-4106-b7e8-0d2b5add66a3.root
/store/mc/Run3Summer22NanoAODv12/WtoLNu-2Jets_PTLNu-40to100_1J_TuneCP5_13p6TeV_amcatnloFXFX-pythia8/NANOAODSIM/130X_mcRun3_2022_realistic_v5-v1/70000/634391a9-1978-42e1-85b2-c2534e32e883.root
/store/mc/Run3Summer22NanoAODv12/WtoLNu-2Jets_PTLNu-40to100_1J_TuneCP5_13p6TeV_amcatnloFXFX-pythia8/NANOAODSIM/130X_mcRun3_2022_realistic_v5-v1/70000/661b5ce7-48f3-4574-95bf-6f93b02e72a5.root
/store/mc/Run3Summer22NanoAODv12/WtoLNu-2Jets_PTLNu-40to100_1J_TuneCP5_13p6TeV_amcatnloFXFX-pythia8/NANOAODSIM/130X_mcRun3_2022_realistic_v5-v1/2560000/312dc102-b115-46c7-a071-583fe007579d.root
/store/mc/Run3Summer22NanoAODv12/WtoLNu-2Jets_PTLNu-40to100_1J_TuneCP5_13p6TeV_amcatnloFXFX-pythia8/NANOAODSIM/130X_mcRun3_2022_realistic_v5-v1/2560000/4fad721d-4013-4e3e-9c77-73c7c36e1175.root
/store/mc/Run3Summer22NanoAODv12/WtoLNu-2Jets_PTLNu-40to100_1J_TuneCP5_13p6TeV_amcatnloFXFX-pythia8/NANOAODSIM/130X_mcRun3_2022_realistic_v5-v1/2560000/3ed8d347-7a8d-4c37-a9ae-bbd5bb7bdc5b.root
/store/mc/Run3Summer22NanoAODv12/WtoLNu-2Jets_PTLNu-40to100_1J_TuneCP5_13p6TeV_amcatnloFXFX-pythia8/NANOAODSIM/130X_mcRun3_2022_realistic_v5-v1/2560000/4a36d031-62e5-4ddf-8853-25c2a7aa1f17.root
/store/mc/Run3Summer22NanoAODv12/WtoLNu-2Jets_PTLNu-40to100_1J_TuneCP5_13p6TeV_amcatnloFXFX-pythia8/NANOAODSIM/130X_mcRun3_2022_realistic_v5-v1/2560000/807b087a-05a4-49e3-89a2-ebf7fb56d02e.root
/store/mc/Run3Summer22NanoAODv12/WtoLNu-2Jets_PTLNu-40to100_1J_TuneCP5_13p6TeV_amcatnloFXFX-pythia8/NANOAODSIM/130X_mcRun3_2022_realistic_v5-v1/2560000/bc24be59-aff1-44cd-8b8b-7aab1f82363c.root
/store/mc/Run3Summer22NanoAODv12/WtoLNu-2Jets_PTLNu-40to100_1J_TuneCP5_13p6TeV_amcatnloFXFX-pythia8/NANOAODSIM/130X_mcRun3_2022_realistic_v5-v1/50000/6b51be67-2560-409b-8786-c84b11b8e04c.root
/store/mc/Run3Summer22NanoAODv12/WtoLNu-2Jets_PTLNu-40to100_1J_TuneCP5_13p6TeV_amcatnloFXFX-pythia8/NANOAODSIM/130X_mcRun3_2022_realistic_v5-v1/2560000/71be41ba-ff24-4dab-b015-93c9730f7e40.root
/store/mc/Run3Summer22NanoAODv12/WtoLNu-2Jets_PTLNu-40to100_1J_TuneCP5_13p6TeV_amcatnloFXFX-pythia8/NANOAODSIM/130X_mcRun3_2022_realistic_v5-v1/2560000/b11c638e-403f-4a38-8492-6b772a4bbf79.root
/store/mc/Run3Summer22NanoAODv12/WtoLNu-2Jets_PTLNu-40to100_1J_TuneCP5_13p6TeV_amcatnloFXFX-pythia8/NANOAODSIM/130X_mcRun3_2022_realistic_v5-v1/50000/eaece35e-0298-49d9-b0eb-9c31f29ea6f0.root
/store/mc/Run3Summer22NanoAODv12/WtoLNu-2Jets_PTLNu-40to100_1J_TuneCP5_13p6TeV_amcatnloFXFX-pythia8/NANOAODSIM/130X_mcRun3_2022_realistic_v5-v1/50000/11d16e99-6170-4c88-8d99-9552b0d7b693.root
/store/mc/Run3Summer22NanoAODv12/WtoLNu-2Jets_PTLNu-40to100_1J_TuneCP5_13p6TeV_amcatnloFXFX-pythia8/NANOAODSIM/130X_mcRun3_2022_realistic_v5-v1/50000/6f8a97a0-f047-4be8-9691-81e314116d70.root
/store/mc/Run3Summer22NanoAODv12/WtoLNu-2Jets_PTLNu-40to100_1J_TuneCP5_13p6TeV_amcatnloFXFX-pythia8/NANOAODSIM/130X_mcRun3_2022_realistic_v5-v1/2560000/984fe38d-c477-4ab7-ba6a-2711a351da18.root
/store/mc/Run3Summer22NanoAODv12/WtoLNu-2Jets_PTLNu-40to100_1J_TuneCP5_13p6TeV_amcatnloFXFX-pythia8/NANOAODSIM/130X_mcRun3_2022_realistic_v5-v1/2560000/3abd8209-46e8-4d18-80c4-550a5b633859.root
/store/mc/Run3Summer22NanoAODv12/WtoLNu-2Jets_PTLNu-40to100_1J_TuneCP5_13p6TeV_amcatnloFXFX-pythia8/NANOAODSIM/130X_mcRun3_2022_realistic_v5-v1/2560000/61771b7d-f3f0-4d76-9ac6-ef4534de918d.root
/store/mc/Run3Summer22NanoAODv12/WtoLNu-2Jets_PTLNu-40to100_1J_TuneCP5_13p6TeV_amcatnloFXFX-pythia8/NANOAODSIM/130X_mcRun3_2022_realistic_v5-v1/2560000/53480a02-3e47-41fd-a17a-c8a7d76c9316.root
/store/mc/Run3Summer22NanoAODv12/WtoLNu-2Jets_PTLNu-40to100_1J_TuneCP5_13p6TeV_amcatnloFXFX-pythia8/NANOAODSIM/130X_mcRun3_2022_realistic_v5-v1/2560000/6f7ef8fd-5167-4913-9098-1f635392e97f.root
/store/mc/Run3Summer22NanoAODv12/WtoLNu-2Jets_PTLNu-40to100_1J_TuneCP5_13p6TeV_amcatnloFXFX-pythia8/NANOAODSIM/130X_mcRun3_2022_realistic_v5-v1/2560000/76da5eea-6f52-4179-ab07-830898e4ee3c.root
/store/mc/Run3Summer22NanoAODv12/WtoLNu-2Jets_PTLNu-40to100_1J_TuneCP5_13p6TeV_amcatnloFXFX-pythia8/NANOAODSIM/130X_mcRun3_2022_realistic_v5-v1/2560000/535bf3cb-7c31-4f21-b8ac-c2e8f65469ee.root
/store/mc/Run3Summer22NanoAODv12/WtoLNu-2Jets_PTLNu-40to100_1J_TuneCP5_13p6TeV_amcatnloFXFX-pythia8/NANOAODSIM/130X_mcRun3_2022_realistic_v5-v1/50000/47250b67-5046-4c6b-ba38-fa3bf9f417b7.root
/store/mc/Run3Summer22NanoAODv12/WtoLNu-2Jets_PTLNu-40to100_1J_TuneCP5_13p6TeV_amcatnloFXFX-pythia8/NANOAODSIM/130X_mcRun3_2022_realistic_v5-v1/50000/b446453c-ccc0-4c6f-a773-ecf05fd3f307.root
/store/mc/Run3Summer22NanoAODv12/WtoLNu-2Jets_PTLNu-40to100_1J_TuneCP5_13p6TeV_amcatnloFXFX-pythia8/NANOAODSIM/130X_mcRun3_2022_realistic_v5-v1/50000/33067feb-4168-4f02-a340-90ce09b0c58e.root
/store/mc/Run3Summer22NanoAODv12/WtoLNu-2Jets_PTLNu-40to100_1J_TuneCP5_13p6TeV_amcatnloFXFX-pythia8/NANOAODSIM/130X_mcRun3_2022_realistic_v5-v1/50000/46a206be-fdd8-4d13-a5de-102c20a86789.root
/store/mc/Run3Summer22NanoAODv12/WtoLNu-2Jets_PTLNu-40to100_1J_TuneCP5_13p6TeV_amcatnloFXFX-pythia8/NANOAODSIM/130X_mcRun3_2022_realistic_v5-v1/50000/6262efd9-28e8-4bed-b621-734ea5e511f1.root
/store/mc/Run3Summer22NanoAODv12/WtoLNu-2Jets_PTLNu-40to100_1J_TuneCP5_13p6TeV_amcatnloFXFX-pythia8/NANOAODSIM/130X_mcRun3_2022_realistic_v5-v1/50000/98428c63-7ce0-4938-831b-0786ad5848bc.root
/store/mc/Run3Summer22NanoAODv12/WtoLNu-2Jets_PTLNu-40to100_1J_TuneCP5_13p6TeV_amcatnloFXFX-pythia8/NANOAODSIM/130X_mcRun3_2022_realistic_v5-v1/50000/ab9f94f8-7281-4df0-884d-a4f21ceb4f5f.root
/store/mc/Run3Summer22NanoAODv12/WtoLNu-2Jets_PTLNu-40to100_1J_TuneCP5_13p6TeV_amcatnloFXFX-pythia8/NANOAODSIM/130X_mcRun3_2022_realistic_v5-v1/50000/03ccbbb8-e0d8-43e9-9888-a8f232c0e33f.root
/store/mc/Run3Summer22NanoAODv12/WtoLNu-2Jets_PTLNu-40to100_1J_TuneCP5_13p6TeV_amcatnloFXFX-pythia8/NANOAODSIM/130X_mcRun3_2022_realistic_v5-v1/50000/1274385c-dc5f-473f-936d-c0e9ab621a9c.root
/store/mc/Run3Summer22NanoAODv12/WtoLNu-2Jets_PTLNu-40to100_1J_TuneCP5_13p6TeV_amcatnloFXFX-pythia8/NANOAODSIM/130X_mcRun3_2022_realistic_v5-v1/50000/670d7543-1d37-4f85-b654-4c39129a33ed.root
/store/mc/Run3Summer22NanoAODv12/WtoLNu-2Jets_PTLNu-40to100_1J_TuneCP5_13p6TeV_amcatnloFXFX-pythia8/NANOAODSIM/130X_mcRun3_2022_realistic_v5-v1/50000/d88ed4a6-229c-4c36-b624-4a9cbbe4bb71.root
/store/mc/Run3Summer22NanoAODv12/WtoLNu-2Jets_PTLNu-40to100_1J_TuneCP5_13p6TeV_amcatnloFXFX-pythia8/NANOAODSIM/130X_mcRun3_2022_realistic_v5-v1/50000/03cb8b70-e569-4c0d-a79b-891af87374f4.root
/store/mc/Run3Summer22NanoAODv12/WtoLNu-2Jets_PTLNu-40to100_1J_TuneCP5_13p6TeV_amcatnloFXFX-pythia8/NANOAODSIM/130X_mcRun3_2022_realistic_v5-v1/50000/33265087-0df9-40ee-8ecb-70a8eb9a9430.root
/store/mc/Run3Summer22NanoAODv12/WtoLNu-2Jets_PTLNu-40to100_1J_TuneCP5_13p6TeV_amcatnloFXFX-pythia8/NANOAODSIM/130X_mcRun3_2022_realistic_v5-v1/50000/da48f63c-c79d-4fb6-bcb4-9d8016450064.root
/store/mc/Run3Summer22NanoAODv12/WtoLNu-2Jets_PTLNu-40to100_1J_TuneCP5_13p6TeV_amcatnloFXFX-pythia8/NANOAODSIM/130X_mcRun3_2022_realistic_v5-v1/50000/9d7a1687-dc9a-4fb5-9467-0bf4a9e34021.root
/store/mc/Run3Summer22NanoAODv12/WtoLNu-2Jets_PTLNu-40to100_1J_TuneCP5_13p6TeV_amcatnloFXFX-pythia8/NANOAODSIM/130X_mcRun3_2022_realistic_v5-v1/50000/3b6cdacf-d9cc-4c87-b652-01679578e3d8.root
/store/mc/Run3Summer22NanoAODv12/WtoLNu-2Jets_PTLNu-40to100_1J_TuneCP5_13p6TeV_amcatnloFXFX-pythia8/NANOAODSIM/130X_mcRun3_2022_realistic_v5-v1/50000/df03b4c3-0cd0-445c-bd89-3e7e8a683bd0.root
/store/mc/Run3Summer22NanoAODv12/WtoLNu-2Jets_PTLNu-40to100_1J_TuneCP5_13p6TeV_amcatnloFXFX-pythia8/NANOAODSIM/130X_mcRun3_2022_realistic_v5-v1/50000/d0ed4c03-a78a-4b7e-9b61-27185be526e3.root
/store/mc/Run3Summer22NanoAODv12/WtoLNu-2Jets_PTLNu-40to100_1J_TuneCP5_13p6TeV_amcatnloFXFX-pythia8/NANOAODSIM/130X_mcRun3_2022_realistic_v5-v1/50000/9014a729-33a3-49fc-b421-cb9837192dc5.root
/store/mc/Run3Summer22NanoAODv12/WtoLNu-2Jets_PTLNu-40to100_1J_TuneCP5_13p6TeV_amcatnloFXFX-pythia8/NANOAODSIM/130X_mcRun3_2022_realistic_v5-v1/50000/40aad20e-853c-4279-b9d3-18c16798be3f.root
/store/mc/Run3Summer22NanoAODv12/WtoLNu-2Jets_PTLNu-40to100_1J_TuneCP5_13p6TeV_amcatnloFXFX-pythia8/NANOAODSIM/130X_mcRun3_2022_realistic_v5-v1/50000/03786b57-8795-4a81-80a5-78d50c0d5693.root
/store/mc/Run3Summer22NanoAODv12/WtoLNu-2Jets_PTLNu-40to100_1J_TuneCP5_13p6TeV_amcatnloFXFX-pythia8/NANOAODSIM/130X_mcRun3_2022_realistic_v5-v1/50000/449b1686-00e9-448e-afbe-10e53d3be577.root
/store/mc/Run3Summer22NanoAODv12/WtoLNu-2Jets_PTLNu-40to100_1J_TuneCP5_13p6TeV_amcatnloFXFX-pythia8/NANOAODSIM/130X_mcRun3_2022_realistic_v5-v1/2560000/d9f30841-e29a-41ef-aa74-ccf3241b9f10.root
/store/mc/Run3Summer22NanoAODv12/WtoLNu-2Jets_PTLNu-40to100_1J_TuneCP5_13p6TeV_amcatnloFXFX-pythia8/NANOAODSIM/130X_mcRun3_2022_realistic_v5-v1/2560000/a75daf29-0047-4a83-a9d1-f227bc3d63fd.root
/store/mc/Run3Summer22NanoAODv12/WtoLNu-2Jets_PTLNu-40to100_1J_TuneCP5_13p6TeV_amcatnloFXFX-pythia8/NANOAODSIM/130X_mcRun3_2022_realistic_v5-v1/2560000/f36739f9-8dff-4f67-844e-3273dc1e0bd7.root
/store/mc/Run3Summer22NanoAODv12/WtoLNu-2Jets_PTLNu-40to100_1J_TuneCP5_13p6TeV_amcatnloFXFX-pythia8/NANOAODSIM/130X_mcRun3_2022_realistic_v5-v1/2560000/396f99dc-b68b-4ada-a08c-cfba84fb20ba.root
/store/mc/Run3Summer22NanoAODv12/WtoLNu-2Jets_PTLNu-40to100_1J_TuneCP5_13p6TeV_amcatnloFXFX-pythia8/NANOAODSIM/130X_mcRun3_2022_realistic_v5-v1/2560000/e623e081-4784-4734-8c8c-625d06789128.root
/store/mc/Run3Summer22NanoAODv12/WtoLNu-2Jets_PTLNu-40to100_1J_TuneCP5_13p6TeV_amcatnloFXFX-pythia8/NANOAODSIM/130X_mcRun3_2022_realistic_v5-v1/2560000/4808373c-471b-4fbe-8179-e5bdaf439542.root
/store/mc/Run3Summer22NanoAODv12/WtoLNu-2Jets_PTLNu-40to100_1J_TuneCP5_13p6TeV_amcatnloFXFX-pythia8/NANOAODSIM/130X_mcRun3_2022_realistic_v5-v1/2560000/f9820755-1b20-45f3-abcb-dbfb6ac1bb99.root
/store/mc/Run3Summer22NanoAODv12/WtoLNu-2Jets_PTLNu-40to100_1J_TuneCP5_13p6TeV_amcatnloFXFX-pythia8/NANOAODSIM/130X_mcRun3_2022_realistic_v5-v1/2560000/6f4eeea9-bb9a-4261-8dcd-0e9eca812610.root
/store/mc/Run3Summer22NanoAODv12/WtoLNu-2Jets_PTLNu-40to100_1J_TuneCP5_13p6TeV_amcatnloFXFX-pythia8/NANOAODSIM/130X_mcRun3_2022_realistic_v5-v1/2560000/517e5b54-644a-4d2d-b031-59856acedd23.root
/store/mc/Run3Summer22NanoAODv12/WtoLNu-2Jets_PTLNu-40to100_1J_TuneCP5_13p6TeV_amcatnloFXFX-pythia8/NANOAODSIM/130X_mcRun3_2022_realistic_v5-v1/2560000/33a4d174-c50e-423c-85bb-42951a5df604.root
/store/mc/Run3Summer22NanoAODv12/WtoLNu-2Jets_PTLNu-40to100_1J_TuneCP5_13p6TeV_amcatnloFXFX-pythia8/NANOAODSIM/130X_mcRun3_2022_realistic_v5-v1/2560000/375aedcb-ff48-4184-8212-25ac65afb49e.root
/store/mc/Run3Summer22NanoAODv12/WtoLNu-2Jets_PTLNu-40to100_1J_TuneCP5_13p6TeV_amcatnloFXFX-pythia8/NANOAODSIM/130X_mcRun3_2022_realistic_v5-v1/2560000/f696a23d-a1f0-4cab-a859-466d712aba82.root
/store/mc/Run3Summer22NanoAODv12/WtoLNu-2Jets_PTLNu-40to100_1J_TuneCP5_13p6TeV_amcatnloFXFX-pythia8/NANOAODSIM/130X_mcRun3_2022_realistic_v5-v1/2560000/b4844368-af36-4b6c-b6db-c4cbe96e21d8.root
/store/mc/Run3Summer22NanoAODv12/WtoLNu-2Jets_PTLNu-40to100_1J_TuneCP5_13p6TeV_amcatnloFXFX-pythia8/NANOAODSIM/130X_mcRun3_2022_realistic_v5-v1/2560000/088797eb-2f07-462c-b50c-a7be5edb9c44.root
/store/mc/Run3Summer22NanoAODv12/WtoLNu-2Jets_PTLNu-40to100_1J_TuneCP5_13p6TeV_amcatnloFXFX-pythia8/NANOAODSIM/130X_mcRun3_2022_realistic_v5-v1/2560000/b2412cfb-8781-4bda-937e-9b9f3a9845e3.root
/store/mc/Run3Summer22NanoAODv12/WtoLNu-2Jets_PTLNu-40to100_1J_TuneCP5_13p6TeV_amcatnloFXFX-pythia8/NANOAODSIM/130X_mcRun3_2022_realistic_v5-v1/2560000/bacc53d4-c790-428c-a0bb-662342ec22a1.root
/store/mc/Run3Summer22NanoAODv12/WtoLNu-2Jets_PTLNu-40to100_1J_TuneCP5_13p6TeV_amcatnloFXFX-pythia8/NANOAODSIM/130X_mcRun3_2022_realistic_v5-v1/2560000/4241ff70-dded-4470-8805-9944e3150e2a.root
/store/mc/Run3Summer22NanoAODv12/WtoLNu-2Jets_PTLNu-40to100_1J_TuneCP5_13p6TeV_amcatnloFXFX-pythia8/NANOAODSIM/130X_mcRun3_2022_realistic_v5-v1/2560000/26f73976-f361-430a-9e01-a2823ee9f36f.root
/store/mc/Run3Summer22NanoAODv12/WtoLNu-2Jets_PTLNu-40to100_1J_TuneCP5_13p6TeV_amcatnloFXFX-pythia8/NANOAODSIM/130X_mcRun3_2022_realistic_v5-v1/2560000/97728b8b-7370-4a30-ab7f-2fa4c65c0b3f.root
/store/mc/Run3Summer22NanoAODv12/WtoLNu-2Jets_PTLNu-40to100_1J_TuneCP5_13p6TeV_amcatnloFXFX-pythia8/NANOAODSIM/130X_mcRun3_2022_realistic_v5-v1/2560000/245cdd5b-98ce-4fc5-9126-72e9e3870653.root
/store/mc/Run3Summer22NanoAODv12/WtoLNu-2Jets_PTLNu-40to100_1J_TuneCP5_13p6TeV_amcatnloFXFX-pythia8/NANOAODSIM/130X_mcRun3_2022_realistic_v5-v1/2560000/4c2d1afe-e787-4714-80eb-4831b0178b3f.root
/store/mc/Run3Summer22NanoAODv12/WtoLNu-2Jets_PTLNu-40to100_1J_TuneCP5_13p6TeV_amcatnloFXFX-pythia8/NANOAODSIM/130X_mcRun3_2022_realistic_v5-v1/2560000/4ca2fc60-ca73-4d4b-9abe-2ab86fd24b1d.root
/store/mc/Run3Summer22NanoAODv12/WtoLNu-2Jets_PTLNu-40to100_1J_TuneCP5_13p6TeV_amcatnloFXFX-pythia8/NANOAODSIM/130X_mcRun3_2022_realistic_v5-v1/2560000/e08ba862-2537-4eea-bf6b-ac5fd783592e.root
/store/mc/Run3Summer22NanoAODv12/WtoLNu-2Jets_PTLNu-40to100_1J_TuneCP5_13p6TeV_amcatnloFXFX-pythia8/NANOAODSIM/130X_mcRun3_2022_realistic_v5-v1/2560000/29311d75-eb59-4eb8-ab5d-77c301f90607.root
/store/mc/Run3Summer22NanoAODv12/WtoLNu-2Jets_PTLNu-40to100_1J_TuneCP5_13p6TeV_amcatnloFXFX-pythia8/NANOAODSIM/130X_mcRun3_2022_realistic_v5-v1/2560000/b1886468-a575-463a-acf4-38b3b1d0d752.root
/store/mc/Run3Summer22NanoAODv12/WtoLNu-2Jets_PTLNu-40to100_1J_TuneCP5_13p6TeV_amcatnloFXFX-pythia8/NANOAODSIM/130X_mcRun3_2022_realistic_v5-v1/50000/e2664ca2-a184-4e73-a79e-e56414a0b39b.root
/store/mc/Run3Summer22NanoAODv12/WtoLNu-2Jets_PTLNu-40to100_1J_TuneCP5_13p6TeV_amcatnloFXFX-pythia8/NANOAODSIM/130X_mcRun3_2022_realistic_v5-v1/50000/da9fdf45-a2b6-40d4-a01c-7e0a998e2213.root
/store/mc/Run3Summer22NanoAODv12/WtoLNu-2Jets_PTLNu-40to100_1J_TuneCP5_13p6TeV_amcatnloFXFX-pythia8/NANOAODSIM/130X_mcRun3_2022_realistic_v5-v1/2560000/baf0f080-3ef0-48fc-bf7f-59c8392ed5fe.root
/store/mc/Run3Summer22NanoAODv12/WtoLNu-2Jets_PTLNu-40to100_1J_TuneCP5_13p6TeV_amcatnloFXFX-pythia8/NANOAODSIM/130X_mcRun3_2022_realistic_v5-v1/2560000/532ce0e9-fc7b-4b34-9ed2-0b712b14ee80.root
/store/mc/Run3Summer22NanoAODv12/WtoLNu-2Jets_PTLNu-40to100_1J_TuneCP5_13p6TeV_amcatnloFXFX-pythia8/NANOAODSIM/130X_mcRun3_2022_realistic_v5-v1/2560000/160cb72d-371f-484c-8e1d-209924c8093e.root
/store/mc/Run3Summer22NanoAODv12/WtoLNu-2Jets_PTLNu-40to100_1J_TuneCP5_13p6TeV_amcatnloFXFX-pythia8/NANOAODSIM/130X_mcRun3_2022_realistic_v5-v1/2560000/f4b8dbd7-60be-4f93-b1a2-057361094652.root
/store/mc/Run3Summer22NanoAODv12/WtoLNu-2Jets_PTLNu-40to100_1J_TuneCP5_13p6TeV_amcatnloFXFX-pythia8/NANOAODSIM/130X_mcRun3_2022_realistic_v5-v1/2560000/3e2fc94b-f346-4feb-a2ef-44e9d4f92e54.root
/store/mc/Run3Summer22NanoAODv12/WtoLNu-2Jets_PTLNu-40to100_1J_TuneCP5_13p6TeV_amcatnloFXFX-pythia8/NANOAODSIM/130X_mcRun3_2022_realistic_v5-v1/2560000/109374e2-6017-4c18-b565-7169ede0772f.root
/store/mc/Run3Summer22NanoAODv12/WtoLNu-2Jets_PTLNu-40to100_1J_TuneCP5_13p6TeV_amcatnloFXFX-pythia8/NANOAODSIM/130X_mcRun3_2022_realistic_v5-v1/2560000/93a7de03-bbc2-44e4-9170-cefa21d9ceb9.root
/store/mc/Run3Summer22NanoAODv12/WtoLNu-2Jets_PTLNu-40to100_1J_TuneCP5_13p6TeV_amcatnloFXFX-pythia8/NANOAODSIM/130X_mcRun3_2022_realistic_v5-v1/2560000/30491653-a78d-416a-a42a-7268dc8c0d29.root
/store/mc/Run3Summer22NanoAODv12/WtoLNu-2Jets_PTLNu-40to100_1J_TuneCP5_13p6TeV_amcatnloFXFX-pythia8/NANOAODSIM/130X_mcRun3_2022_realistic_v5-v1/2560000/ceeb8f96-3eed-44bf-a07b-110437b09356.root
/store/mc/Run3Summer22NanoAODv12/WtoLNu-2Jets_PTLNu-40to100_1J_TuneCP5_13p6TeV_amcatnloFXFX-pythia8/NANOAODSIM/130X_mcRun3_2022_realistic_v5-v1/2560000/3923ae91-4e0d-485a-ba8a-31fa271b55ea.root
/store/mc/Run3Summer22NanoAODv12/WtoLNu-2Jets_PTLNu-40to100_1J_TuneCP5_13p6TeV_amcatnloFXFX-pythia8/NANOAODSIM/130X_mcRun3_2022_realistic_v5-v1/2560000/9ba8b77b-0cb1-4bf4-88a2-2376144b8b85.root
/store/mc/Run3Summer22NanoAODv12/WtoLNu-2Jets_PTLNu-40to100_1J_TuneCP5_13p6TeV_amcatnloFXFX-pythia8/NANOAODSIM/130X_mcRun3_2022_realistic_v5-v1/2560000/68c8a561-45f6-4958-a9ff-5e6a7994ac2f.root
/store/mc/Run3Summer22NanoAODv12/WtoLNu-2Jets_PTLNu-40to100_1J_TuneCP5_13p6TeV_amcatnloFXFX-pythia8/NANOAODSIM/130X_mcRun3_2022_realistic_v5-v1/2560000/adee4946-742d-4fb5-ab3e-c0ffcb998cdd.root
/store/mc/Run3Summer22NanoAODv12/WtoLNu-2Jets_PTLNu-40to100_1J_TuneCP5_13p6TeV_amcatnloFXFX-pythia8/NANOAODSIM/130X_mcRun3_2022_realistic_v5-v1/50000/71fb2da9-c52e-4f61-b570-77c77f5e58a4.root
/store/mc/Run3Summer22NanoAODv12/WtoLNu-2Jets_PTLNu-40to100_1J_TuneCP5_13p6TeV_amcatnloFXFX-pythia8/NANOAODSIM/130X_mcRun3_2022_realistic_v5-v1/50000/db4618a9-46e3-4b6f-bf36-8afc85fe4203.root
/store/mc/Run3Summer22NanoAODv12/WtoLNu-2Jets_PTLNu-40to100_1J_TuneCP5_13p6TeV_amcatnloFXFX-pythia8/NANOAODSIM/130X_mcRun3_2022_realistic_v5-v1/50000/60f2b93d-848d-433d-9b11-4661ae35baa5.root
/store/mc/Run3Summer22NanoAODv12/WtoLNu-2Jets_PTLNu-40to100_1J_TuneCP5_13p6TeV_amcatnloFXFX-pythia8/NANOAODSIM/130X_mcRun3_2022_realistic_v5-v1/50000/2e720748-5a17-44fa-b82b-7ff7938f154d.root