/store/mc/Run3Summer22NanoAODv12/WtoLNu-2Jets_PTLNu-100to200_1J_TuneCP5_13p6TeV_amcatnloFXFX-pythia8/NANOAODSIM/130X_mcRun3_2022_realistic_v5-v1/2550000/6ed04327-da67-48fb-b9a9-ff654e8424dc.root
/store/mc/Run3Summer22NanoAODv12/WtoLNu-2Jets_PTLNu-100to200_1J_TuneCP5_13p6TeV_amcatnloFXFX-pythia8/NANOAODSIM/130X_mcRun3_2022_realistic_v5-v1/2550000/c4a6cdc2-528b-4e6a-b484-7d40068c8aef.root
/store/mc/Run3Summer22NanoAODv12/WtoLNu-2Jets_PTLNu-100to200_1J_TuneCP5_13p6TeV_amcatnloFXFX-pythia8/NANOAODSIM/130X_mcRun3_2022_realistic_v5-v1/2550000/fb3b8c65-7d18-45e0-9e6b-cf35e4311aaa.root
/store/mc/Run3Summer22NanoAODv12/WtoLNu-2Jets_PTLNu-100to200_1J_TuneCP5_13p6TeV_amcatnloFXFX-pythia8/NANOAODSIM/130X_mcRun3_2022_realistic_v5-v1/2550000/a29501c0-dae4-4a6e-899a-818e466e37e4.root
/store/mc/Run3Summer22NanoAODv12/WtoLNu-2Jets_PTLNu-100to200_1J_TuneCP5_13p6TeV_amcatnloFXFX-pythia8/NANOAODSIM/130X_mcRun3_2022_realistic_v5-v1/2550000/9bb7415d-86a8-47e8-9c8e-ec2f6ed14345.root
/store/mc/Run3Summer22NanoAODv12/WtoLNu-2Jets_PTLNu-100to200_1J_TuneCP5_13p6TeV_amcatnloFXFX-pythia8/NANOAODSIM/130X_mcRun3_2022_realistic_v5-v1/2550000/1eea35ce-153b-4ac7-93a3-9b41e93c497d.root
/store/mc/Run3Summer22NanoAODv12/WtoLNu-2Jets_PTLNu-100to200_1J_TuneCP5_13p6TeV_amcatnloFXFX-pythia8/NANOAODSIM/130X_mcRun3_2022_realistic_v5-v1/2550000/82c65415-121d-4a2c-809d-70ebc413c076.root
/store/mc/Run3Summer22NanoAODv12/WtoLNu-2Jets_PTLNu-100to200_1J_TuneCP5_13p6TeV_amcatnloFXFX-pythia8/NANOAODSIM/130X_mcRun3_2022_realistic_v5-v1/2550000/1537c2f9-5f7a-4fa6-9ae4-d28d6c97c684.root
/store/mc/Run3Summer22NanoAODv12/WtoLNu-2Jets_PTLNu-100to200_1J_TuneCP5_13p6TeV_amcatnloFXFX-pythia8/NANOAODSIM/130X_mcRun3_2022_realistic_v5-v1/2550000/52166230-046a-4d9e-8f06-03e0bbe421ad.root
/store/mc/Run3Summer22NanoAODv12/WtoLNu-2Jets_PTLNu-100to200_1J_TuneCP5_13p6TeV_amcatnloFXFX-pythia8/NANOAODSIM/130X_mcRun3_2022_realistic_v5-v1/2550000/f0174c50-be38-4ddc-a98d-04081c876ccc.root
/store/mc/Run3Summer22NanoAODv12/WtoLNu-2Jets_PTLNu-100to200_1J_TuneCP5_13p6TeV_amcatnloFXFX-pythia8/NANOAODSIM/130X_mcRun3_2022_realistic_v5-v1/2550000/791ed249-5e62-4bf4-8d16-83fccafe2774.root
/store/mc/Run3Summer22NanoAODv12/WtoLNu-2Jets_PTLNu-100to200_1J_TuneCP5_13p6TeV_amcatnloFXFX-pythia8/NANOAODSIM/130X_mcRun3_2022_realistic_v5-v1/2550000/e12970c2-d6f7-4d5a-9e37-0d8bbf3b1261.root
/store/mc/Run3Summer22NanoAODv12/WtoLNu-2Jets_PTLNu-100to200_1J_TuneCP5_13p6TeV_amcatnloFXFX-pythia8/NANOAODSIM/130X_mcRun3_2022_realistic_v5-v1/2550000/e3bdd38f-b0a4-4558-a555-1172a6e732b1.root
/store/mc/Run3Summer22NanoAODv12/WtoLNu-2Jets_PTLNu-100to200_1J_TuneCP5_13p6TeV_amcatnloFXFX-pythia8/NANOAODSIM/130X_mcRun3_2022_realistic_v5-v1/2550000/70c9349d-e669-4d69-bed9-c50cc124bcd6.root
/store/mc/Run3Summer22NanoAODv12/WtoLNu-2Jets_PTLNu-100to200_1J_TuneCP5_13p6TeV_amcatnloFXFX-pythia8/NANOAODSIM/130X_mcRun3_2022_realistic_v5-v1/2550000/0b7d62d5-0594-47ef-b4e9-d8a3ac465bd4.root
/store/mc/Run3Summer22NanoAODv12/WtoLNu-2Jets_PTLNu-100to200_1J_TuneCP5_13p6TeV_amcatnloFXFX-pythia8/NANOAODSIM/130X_mcRun3_2022_realistic_v5-v1/2550000/f2a5d2b6-0184-4f78-9259-c17f46ca0943.root
/store/mc/Run3Summer22NanoAODv12/WtoLNu-2Jets_PTLNu-100to200_1J_TuneCP5_13p6TeV_amcatnloFXFX-pythia8/NANOAODSIM/130X_mcRun3_2022_realistic_v5-v1/2550000/5e9ed829-d8c5-49e8-b1c3-5c92b5d6b8a4.root
/store/mc/Run3Summer22NanoAODv12/WtoLNu-2Jets_PTLNu-100to200_1J_TuneCP5_13p6TeV_amcatnloFXFX-pythia8/NANOAODSIM/130X_mcRun3_2022_realistic_v5-v1/2550000/7f93efaf-d6f1-4cf4-85c5-4ccc95786c37.root
/store/mc/Run3Summer22NanoAODv12/WtoLNu-2Jets_PTLNu-100to200_1J_TuneCP5_13p6TeV_amcatnloFXFX-pythia8/NANOAODSIM/130X_mcRun3_2022_realistic_v5-v1/2550000/96f67cf4-649d-4af1-8f0c-3a1b7d6674c8.root
/store/mc/Run3Summer22NanoAODv12/WtoLNu-2Jets_PTLNu-100to200_1J_TuneCP5_13p6TeV_amcatnloFXFX-pythia8/NANOAODSIM/130X_mcRun3_2022_realistic_v5-v1/2550000/706dff96-2cf5-4e9a-aa60-b3cf51174e80.root
/store/mc/Run3Summer22NanoAODv12/WtoLNu-2Jets_PTLNu-100to200_1J_TuneCP5_13p6TeV_amcatnloFXFX-pythia8/NANOAODSIM/130X_mcRun3_2022_realistic_v5-v1/2550000/dcb8542b-6491-4f1a-978d-6ffb003415d1.root
/store/mc/Run3Summer22NanoAODv12/WtoLNu-2Jets_PTLNu-100to200_1J_TuneCP5_13p6TeV_amcatnloFXFX-pythia8/NANOAODSIM/130X_mcRun3_2022_realistic_v5-v1/2560000/6e2c4507-5dae-4ca7-a8a8-019e1a5a9eb5.root
/store/mc/Run3Summer22NanoAODv12/WtoLNu-2Jets_PTLNu-100to200_1J_TuneCP5_13p6TeV_amcatnloFXFX-pythia8/NANOAODSIM/130X_mcRun3_2022_realistic_v5-v1/2560000/6a723a07-98b6-43d2-b451-90a20dd65ab0.root
/store/mc/Run3Summer22NanoAODv12/WtoLNu-2Jets_PTLNu-100to200_1J_TuneCP5_13p6TeV_amcatnloFXFX-pythia8/NANOAODSIM/130X_mcRun3_2022_realistic_v5-v1/2560000/1ca09d82-c263-4d24-8fbc-9a8a8f8d3bc0.root
/store/mc/Run3Summer22NanoAODv12/WtoLNu-2Jets_PTLNu-100to200_1J_TuneCP5_13p6TeV_amcatnloFXFX-pythia8/NANOAODSIM/130X_mcRun3_2022_realistic_v5-v1/2560000/82da6278-b824-4bff-9d2a-62ad7dbb9f83.root
/store/mc/Run3Summer22NanoAODv12/WtoLNu-2Jets_PTLNu-100to200_1J_TuneCP5_13p6TeV_amcatnloFXFX-pythia8/NANOAODSIM/130X_mcRun3_2022_realistic_v5-v1/2560000/890b63b3-a9ba-4370-b8b4-2937aed05bc7.root
/store/mc/Run3Summer22NanoAODv12/WtoLNu-2Jets_PTLNu-100to200_1J_TuneCP5_13p6TeV_amcatnloFXFX-pythia8/NANOAODSIM/130X_mcRun3_2022_realistic_v5-v1/2560000/3f7777e0-c044-4e43-96e8-79bcbbd004ed.root
/store/mc/Run3Summer22NanoAODv12/WtoLNu-2Jets_PTLNu-100to200_1J_TuneCP5_13p6TeV_amcatnloFXFX-pythia8/NANOAODSIM/130X_mcRun3_2022_realistic_v5-v1/2550000/f97c5f3f-5a29-4abb-8d6d-469741f94a10.root
/store/mc/Run3Summer22NanoAODv12/WtoLNu-2Jets_PTLNu-100to200_1J_TuneCP5_13p6TeV_amcatnloFXFX-pythia8/NANOAODSIM/130X_mcRun3_2022_realistic_v5-v1/2550000/1d3f236f-94cf-46a5-a416-f7786e9c9725.root
/store/mc/Run3Summer22NanoAODv12/WtoLNu-2Jets_PTLNu-100to200_1J_TuneCP5_13p6TeV_amcatnloFXFX-pythia8/NANOAODSIM/130X_mcRun3_2022_realistic_v5-v1/2550000/11f3b17e-c5f6-487d-94d3-4afee78448ca.root
/store/mc/Run3Summer22NanoAODv12/WtoLNu-2Jets_PTLNu-100to200_1J_TuneCP5_13p6TeV_amcatnloFXFX-pythia8/NANOAODSIM/130X_mcRun3_2022_realistic_v5-v1/2550000/7fa3f509-8029-478f-8c6d-706ed2ebd19e.root
/store/mc/Run3Summer22NanoAODv12/WtoLNu-2Jets_PTLNu-100to200_1J_TuneCP5_13p6TeV_amcatnloFXFX-pythia8/NANOAODSIM/130X_mcRun3_2022_realistic_v5-v1/2550000/0cdc8f26-b451-4946-8944-95e478815e28.root
/store/mc/Run3Summer22NanoAODv12/WtoLNu-2Jets_PTLNu-100to200_1J_TuneCP5_13p6TeV_amcatnloFXFX-pythia8/NANOAODSIM/130X_mcRun3_2022_realistic_v5-v1/2550000/ed21d387-a398-4f27-8700-199525f78359.root
/store/mc/Run3Summer22NanoAODv12/WtoLNu-2Jets_PTLNu-100to200_1J_TuneCP5_13p6TeV_amcatnloFXFX-pythia8/NANOAODSIM/130X_mcRun3_2022_realistic_v5-v1/2550000/bb5e8ce2-1906-414f-bdd8-bfb70989cef3.root
/store/mc/Run3Summer22NanoAODv12/WtoLNu-2Jets_PTLNu-100to200_1J_TuneCP5_13p6TeV_amcatnloFXFX-pythia8/NANOAODSIM/130X_mcRun3_2022_realistic_v5-v1/2550000/8ad9ea8a-3f5d-4a0f-8522-7bb3af464f25.root
/store/mc/Run3Summer22NanoAODv12/WtoLNu-2Jets_PTLNu-100to200_1J_TuneCP5_13p6TeV_amcatnloFXFX-pythia8/NANOAODSIM/130X_mcRun3_2022_realistic_v5-v1/2550000/8a539677-3fdf-4055-9589-3c30dc5dccf7.root
/store/mc/Run3Summer22NanoAODv12/WtoLNu-2Jets_PTLNu-100to200_1J_TuneCP5_13p6TeV_amcatnloFXFX-pythia8/NANOAODSIM/130X_mcRun3_2022_realistic_v5-v1/2550000/ee6d4061-b4e2-49a7-bb7a-9073b98c2d4d.root
/store/mc/Run3Summer22NanoAODv12/WtoLNu-2Jets_PTLNu-100to200_1J_TuneCP5_13p6TeV_amcatnloFXFX-pythia8/NANOAODSIM/130X_mcRun3_2022_realistic_v5-v1/2550000/4d1df080-adcc-412d-b88d-77390eab6980.root
/store/mc/Run3Summer22NanoAODv12/WtoLNu-2Jets_PTLNu-100to200_1J_TuneCP5_13p6TeV_amcatnloFXFX-pythia8/NANOAODSIM/130X_mcRun3_2022_realistic_v5-v1/2550000/b3bf4c5e-9f2a-4c17-9413-51554b7986c9.root
/store/mc/Run3Summer22NanoAODv12/WtoLNu-2Jets_PTLNu-100to200_1J_TuneCP5_13p6TeV_amcatnloFXFX-pythia8/NANOAODSIM/130X_mcRun3_2022_realistic_v5-v1/2550000/93bff1b1-a222-4661-8a94-11e41a800aab.root
/store/mc/Run3Summer22NanoAODv12/WtoLNu-2Jets_PTLNu-100to200_1J_TuneCP5_13p6TeV_amcatnloFXFX-pythia8/NANOAODSIM/130X_mcRun3_2022_realistic_v5-v1/2550000/85f7cf9c-0dbe-45d7-ac13-335c7bf6a9b2.root
/store/mc/Run3Summer22NanoAODv12/WtoLNu-2Jets_PTLNu-100to200_1J_TuneCP5_13p6TeV_amcatnloFXFX-pythia8/NANOAODSIM/130X_mcRun3_2022_realistic_v5-v1/2550000/db2598ba-03e4-4a27-86a5-0df5f7c85d15.root
/store/mc/Run3Summer22NanoAODv12/WtoLNu-2Jets_PTLNu-100to200_1J_TuneCP5_13p6TeV_amcatnloFXFX-pythia8/NANOAODSIM/130X_mcRun3_2022_realistic_v5-v1/2550000/076c69fb-b72f-4119-9509-1d7acdc10974.root
/store/mc/Run3Summer22NanoAODv12/WtoLNu-2Jets_PTLNu-100to200_1J_TuneCP5_13p6TeV_amcatnloFXFX-pythia8/NANOAODSIM/130X_mcRun3_2022_realistic_v5-v1/2560000/6a0e6218-dd6d-4137-aa19-8e361c344e47.root
/store/mc/Run3Summer22NanoAODv12/WtoLNu-2Jets_PTLNu-100to200_1J_TuneCP5_13p6TeV_amcatnloFXFX-pythia8/NANOAODSIM/130X_mcRun3_2022_realistic_v5-v1/2560000/e330c764-1ed4-4dc4-9b25-2c6f574b7e98.root
/store/mc/Run3Summer22NanoAODv12/WtoLNu-2Jets_PTLNu-100to200_1J_TuneCP5_13p6TeV_amcatnloFXFX-pythia8/NANOAODSIM/130X_mcRun3_2022_realistic_v5-v1/2560000/34c3c631-0fc6-4ab9-9b2d-16ba0a451c70.root
/store/mc/Run3Summer22NanoAODv12/WtoLNu-2Jets_PTLNu-100to200_1J_TuneCP5_13p6TeV_amcatnloFXFX-pythia8/NANOAODSIM/130X_mcRun3_2022_realistic_v5-v1/2560000/8b2dc2b7-0358-4e87-907e-675d0f75ab64.root
/store/mc/Run3Summer22NanoAODv12/WtoLNu-2Jets_PTLNu-100to200_1J_TuneCP5_13p6TeV_amcatnloFXFX-pythia8/NANOAODSIM/130X_mcRun3_2022_realistic_v5-v1/2560000/32af3470-148b-486d-bd16-4c17eb97e651.root
/store/mc/Run3Summer22NanoAODv12/WtoLNu-2Jets_PTLNu-100to200_1J_TuneCP5_13p6TeV_amcatnloFXFX-pythia8/NANOAODSIM/130X_mcRun3_2022_realistic_v5-v1/2560000/ed50d994-45d7-498e-b22b-a32bbc437159.root
/store/mc/Run3Summer22NanoAODv12/WtoLNu-2Jets_PTLNu-100to200_1J_TuneCP5_13p6TeV_amcatnloFXFX-pythia8/NANOAODSIM/130X_mcRun3_2022_realistic_v5-v1/2560000/9807c3b5-caf1-4631-b498-e1e1145b7dc6.root
/store/mc/Run3Summer22NanoAODv12/WtoLNu-2Jets_PTLNu-100to200_1J_TuneCP5_13p6TeV_amcatnloFXFX-pythia8/NANOAODSIM/130X_mcRun3_2022_realistic_v5-v1/2560000/9247ecc6-c3af-4774-b44c-14df7b36440c.root
/store/mc/Run3Summer22NanoAODv12/WtoLNu-2Jets_PTLNu-100to200_1J_TuneCP5_13p6TeV_amcatnloFXFX-pythia8/NANOAODSIM/130X_mcRun3_2022_realistic_v5-v1/2560000/8d7cff47-0954-45c9-a484-cf1e5f14c775.root
/store/mc/Run3Summer22NanoAODv12/WtoLNu-2Jets_PTLNu-100to200_1J_TuneCP5_13p6TeV_amcatnloFXFX-pythia8/NANOAODSIM/130X_mcRun3_2022_realistic_v5-v1/2560000/1a0cc59e-4bd1-4199-b793-43cabb11c9f8.root
/store/mc/Run3Summer22NanoAODv12/WtoLNu-2Jets_PTLNu-100to200_1J_TuneCP5_13p6TeV_amcatnloFXFX-pythia8/NANOAODSIM/130X_mcRun3_2022_realistic_v5-v1/2560000/a149ebbc-8419-4448-9e1a-83fd3ea05fde.root
/store/mc/Run3Summer22NanoAODv12/WtoLNu-2Jets_PTLNu-100to200_1J_TuneCP5_13p6TeV_amcatnloFXFX-pythia8/NANOAODSIM/130X_mcRun3_2022_realistic_v5-v1/2560000/73753702-b865-463e-8ff6-22a1ddefd012.root
/store/mc/Run3Summer22NanoAODv12/WtoLNu-2Jets_PTLNu-100to200_1J_TuneCP5_13p6TeV_amcatnloFXFX-pythia8/NANOAODSIM/130X_mcRun3_2022_realistic_v5-v1/2550000/e88ee9d5-863e-4841-8b87-d7b683f7ea12.root
/store/mc/Run3Summer22NanoAODv12/WtoLNu-2Jets_PTLNu-100to200_1J_TuneCP5_13p6TeV_amcatnloFXFX-pythia8/NANOAODSIM/130X_mcRun3_2022_realistic_v5-v1/2560000/8b0dcc20-05ba-43e4-994a-ffe24ffd3b3e.root
/store/mc/Run3Summer22NanoAODv12/WtoLNu-2Jets_PTLNu-100to200_1J_TuneCP5_13p6TeV_amcatnloFXFX-pythia8/NANOAODSIM/130X_mcRun3_2022_realistic_v5-v1/2560000/a764a67e-04d8-427c-bee1-806dc7cbad46.root
/store/mc/Run3Summer22NanoAODv12/WtoLNu-2Jets_PTLNu-100to200_1J_TuneCP5_13p6TeV_amcatnloFXFX-pythia8/NANOAODSIM/130X_mcRun3_2022_realistic_v5-v1/2560000/f888f194-7d43-439a-b006-33b56e4a8396.root
/store/mc/Run3Summer22NanoAODv12/WtoLNu-2Jets_PTLNu-100to200_1J_TuneCP5_13p6TeV_amcatnloFXFX-pythia8/NANOAODSIM/130X_mcRun3_2022_realistic_v5-v1/2560000/45dd0a3e-f1af-428c-86c2-60a06880ae1a.root
/store/mc/Run3Summer22NanoAODv12/WtoLNu-2Jets_PTLNu-100to200_1J_TuneCP5_13p6TeV_amcatnloFXFX-pythia8/NANOAODSIM/130X_mcRun3_2022_realistic_v5-v1/2560000/a9fb294f-1eb4-4cac-be0f-27522a3a3061.root
/store/mc/Run3Summer22NanoAODv12/WtoLNu-2Jets_PTLNu-100to200_1J_TuneCP5_13p6TeV_amcatnloFXFX-pythia8/NANOAODSIM/130X_mcRun3_2022_realistic_v5-v1/2560000/1308fca0-b70f-48f0-b939-7ab4b144f7ff.root
/store/mc/Run3Summer22NanoAODv12/WtoLNu-2Jets_PTLNu-100to200_1J_TuneCP5_13p6TeV_amcatnloFXFX-pythia8/NANOAODSIM/130X_mcRun3_2022_realistic_v5-v1/2560000/73c6f245-74c5-414b-97d1-e45f20e29cf9.root
/store/mc/Run3Summer22NanoAODv12/WtoLNu-2Jets_PTLNu-100to200_1J_TuneCP5_13p6TeV_amcatnloFXFX-pythia8/NANOAODSIM/130X_mcRun3_2022_realistic_v5-v1/2560000/728b950b-2423-4c2a-8197-7e6f943edb45.root
/store/mc/Run3Summer22NanoAODv12/WtoLNu-2Jets_PTLNu-100to200_1J_TuneCP5_13p6TeV_amcatnloFXFX-pythia8/NANOAODSIM/130X_mcRun3_2022_realistic_v5-v1/2560000/0b131920-d4a4-49c9-9aeb-41c84751ec56.root
/store/mc/Run3Summer22NanoAODv12/WtoLNu-2Jets_PTLNu-100to200_1J_TuneCP5_13p6TeV_amcatnloFXFX-pythia8/NANOAODSIM/130X_mcRun3_2022_realistic_v5-v1/2560000/b60a56c6-34f8-4c27-aff4-0ba296b187b3.root
/store/mc/Run3Summer22NanoAODv12/WtoLNu-2Jets_PTLNu-100to200_1J_TuneCP5_13p6TeV_amcatnloFXFX-pythia8/NANOAODSIM/130X_mcRun3_2022_realistic_v5-v1/2560000/a921d242-75b1-4a05-b232-7e9faeef4699.root
/store/mc/Run3Summer22NanoAODv12/WtoLNu-2Jets_PTLNu-100to200_1J_TuneCP5_13p6TeV_amcatnloFXFX-pythia8/NANOAODSIM/130X_mcRun3_2022_realistic_v5-v1/2560000/3a4455c8-28b5-4995-8aff-6fb0b49b959a.root
/store/mc/Run3Summer22NanoAODv12/WtoLNu-2Jets_PTLNu-100to200_1J_TuneCP5_13p6TeV_amcatnloFXFX-pythia8/NANOAODSIM/130X_mcRun3_2022_realistic_v5-v1/2560000/c6dadac3-b4ed-420c-8eec-e7d280f6aeaa.root
/store/mc/Run3Summer22NanoAODv12/WtoLNu-2Jets_PTLNu-100to200_1J_TuneCP5_13p6TeV_amcatnloFXFX-pythia8/NANOAODSIM/130X_mcRun3_2022_realistic_v5-v1/2550000/5a2e4032-cf07-41b0-8be9-8079353baea5.root
/store/mc/Run3Summer22NanoAODv12/WtoLNu-2Jets_PTLNu-100to200_1J_TuneCP5_13p6TeV_amcatnloFXFX-pythia8/NANOAODSIM/130X_mcRun3_2022_realistic_v5-v1/2550000/8c01466b-e979-41c2-82d5-2b09aab48825.root
/store/mc/Run3Summer22NanoAODv12/WtoLNu-2Jets_PTLNu-100to200_1J_TuneCP5_13p6TeV_amcatnloFXFX-pythia8/NANOAODSIM/130X_mcRun3_2022_realistic_v5-v1/2550000/04e52312-9c29-4611-bd05-2921729c5140.root
/store/mc/Run3Summer22NanoAODv12/WtoLNu-2Jets_PTLNu-100to200_1J_TuneCP5_13p6TeV_amcatnloFXFX-pythia8/NANOAODSIM/130X_mcRun3_2022_realistic_v5-v1/2550000/fd5d454f-60c5-4044-bfeb-c4749807769d.root
/store/mc/Run3Summer22NanoAODv12/WtoLNu-2Jets_PTLNu-100to200_1J_TuneCP5_13p6TeV_amcatnloFXFX-pythia8/NANOAODSIM/130X_mcRun3_2022_realistic_v5-v1/2550000/50837a7c-d2a6-4844-8641-5d1586f148ab.root
/store/mc/Run3Summer22NanoAODv12/WtoLNu-2Jets_PTLNu-100to200_1J_TuneCP5_13p6TeV_amcatnloFXFX-pythia8/NANOAODSIM/130X_mcRun3_2022_realistic_v5-v1/2550000/2e7873d4-4d62-4d22-b1a0-cb45db6afe17.root
/store/mc/Run3Summer22NanoAODv12/WtoLNu-2Jets_PTLNu-100to200_1J_TuneCP5_13p6TeV_amcatnloFXFX-pythia8/NANOAODSIM/130X_mcRun3_2022_realistic_v5-v1/2550000/976e4cb8-1809-4974-9c8e-4007912e81ed.root
/store/mc/Run3Summer22NanoAODv12/WtoLNu-2Jets_PTLNu-100to200_1J_TuneCP5_13p6TeV_amcatnloFXFX-pythia8/NANOAODSIM/130X_mcRun3_2022_realistic_v5-v1/2550000/76a01656-2305-4c80-93aa-6a331aaf8367.root
/store/mc/Run3Summer22NanoAODv12/WtoLNu-2Jets_PTLNu-100to200_1J_TuneCP5_13p6TeV_amcatnloFXFX-pythia8/NANOAODSIM/130X_mcRun3_2022_realistic_v5-v1/2550000/66bd6059-3be5-4dc1-b191-7a2f2fed33ea.root
/store/mc/Run3Summer22NanoAODv12/WtoLNu-2Jets_PTLNu-100to200_1J_TuneCP5_13p6TeV_amcatnloFXFX-pythia8/NANOAODSIM/130X_mcRun3_2022_realistic_v5-v1/2550000/d593d124-22bf-4228-883b-88bc1d3bc5a9.root
/store/mc/Run3Summer22NanoAODv12/WtoLNu-2Jets_PTLNu-100to200_1J_TuneCP5_13p6TeV_amcatnloFXFX-pythia8/NANOAODSIM/130X_mcRun3_2022_realistic_v5-v1/2550000/e0b89319-ae29-4044-9e1c-aba07d39550b.root
/store/mc/Run3Summer22NanoAODv12/WtoLNu-2Jets_PTLNu-100to200_1J_TuneCP5_13p6TeV_amcatnloFXFX-pythia8/NANOAODSIM/130X_mcRun3_2022_realistic_v5-v1/2550000/ef07e00a-91da-41cc-956c-3bf758bd6143.root
/store/mc/Run3Summer22NanoAODv12/WtoLNu-2Jets_PTLNu-100to200_1J_TuneCP5_13p6TeV_amcatnloFXFX-pythia8/NANOAODSIM/130X_mcRun3_2022_realistic_v5-v1/2550000/c2761f6a-0b2a-466b-ad78-1b9bc7309b7e.root
/store/mc/Run3Summer22NanoAODv12/WtoLNu-2Jets_PTLNu-100to200_1J_TuneCP5_13p6TeV_amcatnloFXFX-pythia8/NANOAODSIM/130X_mcRun3_2022_realistic_v5-v1/2550000/400ae246-417a-4866-a79a-e1521a2db7ec.root
/store/mc/Run3Summer22NanoAODv12/WtoLNu-2Jets_PTLNu-100to200_1J_TuneCP5_13p6TeV_amcatnloFXFX-pythia8/NANOAODSIM/130X_mcRun3_2022_realistic_v5-v1/2550000/a9d6ab28-d13c-42d3-a4bd-854579259fd2.root
/store/mc/Run3Summer22NanoAODv12/WtoLNu-2Jets_PTLNu-100to200_1J_TuneCP5_13p6TeV_amcatnloFXFX-pythia8/NANOAODSIM/130X_mcRun3_2022_realistic_v5-v1/2550000/82fd86f9-8b7e-4822-a1f9-7831137d5c17.root
/store/mc/Run3Summer22NanoAODv12/WtoLNu-2Jets_PTLNu-100to200_1J_TuneCP5_13p6TeV_amcatnloFXFX-pythia8/NANOAODSIM/130X_mcRun3_2022_realistic_v5-v1/2550000/b36e93bd-7b9c-43e4-ab5c-c4ea5f56de46.root
/store/mc/Run3Summer22NanoAODv12/WtoLNu-2Jets_PTLNu-100to200_1J_TuneCP5_13p6TeV_amcatnloFXFX-pythia8/NANOAODSIM/130X_mcRun3_2022_realistic_v5-v1/2550000/1ab0f918-626e-4477-9c2b-61723505ecf3.root
/store/mc/Run3Summer22NanoAODv12/WtoLNu-2Jets_PTLNu-100to200_1J_TuneCP5_13p6TeV_amcatnloFXFX-pythia8/NANOAODSIM/130X_mcRun3_2022_realistic_v5-v1/2560000/690d0018-f50e-4503-b851-f28ecd5b82cc.root
/store/mc/Run3Summer22NanoAODv12/WtoLNu-2Jets_PTLNu-100to200_1J_TuneCP5_13p6TeV_amcatnloFXFX-pythia8/NANOAODSIM/130X_mcRun3_2022_realistic_v5-v1/2560000/981cf844-8ad8-4d78-a782-c1c8f4dbbbdc.root
/store/mc/Run3Summer22NanoAODv12/WtoLNu-2Jets_PTLNu-100to200_1J_TuneCP5_13p6TeV_amcatnloFXFX-pythia8/NANOAODSIM/130X_mcRun3_2022_realistic_v5-v1/2560000/b37b0d3e-faad-4999-b7df-a691dfc5316c.root
/store/mc/Run3Summer22NanoAODv12/WtoLNu-2Jets_PTLNu-100to200_1J_TuneCP5_13p6TeV_amcatnloFXFX-pythia8/NANOAODSIM/130X_mcRun3_2022_realistic_v5-v1/2560000/52fb39fd-741c-4237-a5c8-0b68f27d0284.root
/store/mc/Run3Summer22NanoAODv12/WtoLNu-2Jets_PTLNu-100to200_1J_TuneCP5_13p6TeV_amcatnloFXFX-pythia8/NANOAODSIM/130X_mcRun3_2022_realistic_v5-v1/2560000/98fcd8fe-4d27-43f2-bf38-f6157179c026.root
/store/mc/Run3Summer22NanoAODv12/WtoLNu-2Jets_PTLNu-100to200_1J_TuneCP5_13p6TeV_amcatnloFXFX-pythia8/NANOAODSIM/130X_mcRun3_2022_realistic_v5-v1/2560000/f41e1afd-e804-42c2-bab9-0f7c344a2110.root
/store/mc/Run3Summer22NanoAODv12/WtoLNu-2Jets_PTLNu-100to200_1J_TuneCP5_13p6TeV_amcatnloFXFX-pythia8/NANOAODSIM/130X_mcRun3_2022_realistic_v5-v1/2560000/9918ebaf-10b4-4ca5-914b-8bfbce762ac0.root
/store/mc/Run3Summer22NanoAODv12/WtoLNu-2Jets_PTLNu-100to200_1J_TuneCP5_13p6TeV_amcatnloFXFX-pythia8/NANOAODSIM/130X_mcRun3_2022_realistic_v5-v1/2560000/f20dec6a-657b-4e49-a43b-518c6b11d99d.root
/store/mc/Run3Summer22NanoAODv12/WtoLNu-2Jets_PTLNu-100to200_1J_TuneCP5_13p6TeV_amcatnloFXFX-pythia8/NANOAODSIM/130X_mcRun3_2022_realistic_v5-v1/2560000/93a14bf5-4bb5-4990-8883-2b07a51327c3.root
/store/mc/Run3Summer22NanoAODv12/WtoLNu-2Jets_PTLNu-100to200_1J_TuneCP5_13p6TeV_amcatnloFXFX-pythia8/NANOAODSIM/130X_mcRun3_2022_realistic_v5-v1/2560000/95d0beb5-4aef-41aa-9120-ebc7e260cf6a.root
/store/mc/Run3Summer22NanoAODv12/WtoLNu-2Jets_PTLNu-100to200_1J_TuneCP5_13p6TeV_amcatnloFXFX-pythia8/NANOAODSIM/130X_mcRun3_2022_realistic_v5-v1/2560000/ebfa895d-95cc-4b84-95c9-191a81d3357c.root
/store/mc/Run3Summer22NanoAODv12/WtoLNu-2Jets_PTLNu-100to200_1J_TuneCP5_13p6TeV_amcatnloFXFX-pythia8/NANOAODSIM/130X_mcRun3_2022_realistic_v5-v1/2560000/a90be889-c986-401d-b3e9-eb8af596f974.root
/store/mc/Run3Summer22NanoAODv12/WtoLNu-2Jets_PTLNu-100to200_1J_TuneCP5_13p6TeV_amcatnloFXFX-pythia8/NANOAODSIM/130X_mcRun3_2022_realistic_v5-v1/2560000/9e5b4e01-02e3-40de-b283-d277ea61f1b3.root
/store/mc/Run3Summer22NanoAODv12/WtoLNu-2Jets_PTLNu-100to200_1J_TuneCP5_13p6TeV_amcatnloFXFX-pythia8/NANOAODSIM/130X_mcRun3_2022_realistic_v5-v1/2560000/6c278910-e10e-4180-aa9a-10a4c1b865f6.root
/store/mc/Run3Summer22NanoAODv12/WtoLNu-2Jets_PTLNu-100to200_1J_TuneCP5_13p6TeV_amcatnloFXFX-pythia8/NANOAODSIM/130X_mcRun3_2022_realistic_v5-v1/2560000/8eb4cf2a-c65c-441f-9c2e-083570f3f41e.root
/store/mc/Run3Summer22NanoAODv12/WtoLNu-2Jets_PTLNu-100to200_1J_TuneCP5_13p6TeV_amcatnloFXFX-pythia8/NANOAODSIM/130X_mcRun3_2022_realistic_v5-v1/2560000/54c5a1c9-228c-40f1-bfdc-3049e557365f.root
/store/mc/Run3Summer22NanoAODv12/WtoLNu-2Jets_PTLNu-100to200_1J_TuneCP5_13p6TeV_amcatnloFXFX-pythia8/NANOAODSIM/130X_mcRun3_2022_realistic_v5-v1/2560000/2b51591f-5cd2-46af-a88e-22af50bb6eda.root
/store/mc/Run3Summer22NanoAODv12/WtoLNu-2Jets_PTLNu-100to200_1J_TuneCP5_13p6TeV_amcatnloFXFX-pythia8/NANOAODSIM/130X_mcRun3_2022_realistic_v5-v1/2560000/fcca02a8-3579-4035-b885-34a2002f774e.root
/store/mc/Run3Summer22NanoAODv12/WtoLNu-2Jets_PTLNu-100to200_1J_TuneCP5_13p6TeV_amcatnloFXFX-pythia8/NANOAODSIM/130X_mcRun3_2022_realistic_v5-v1/2560000/c7ba0749-1a22-4333-ab86-05655eb10488.root
/store/mc/Run3Summer22NanoAODv12/WtoLNu-2Jets_PTLNu-100to200_1J_TuneCP5_13p6TeV_amcatnloFXFX-pythia8/NANOAODSIM/130X_mcRun3_2022_realistic_v5-v1/2560000/273f46fc-cc7d-471a-9650-5c871cc65afd.root