/store/mc/Run3Summer22NanoAODv12/WtoLNu-2Jets_TuneCP5_13p6TeV_amcatnloFXFX-pythia8/NANOAODSIM/130X_mcRun3_2022_realistic_v5-v2/30000/394febc6-aca5-428b-8881-0c59109c4042.root
/store/mc/Run3Summer22NanoAODv12/WtoLNu-2Jets_TuneCP5_13p6TeV_amcatnloFXFX-pythia8/NANOAODSIM/130X_mcRun3_2022_realistic_v5-v2/30000/e37c736a-6a6b-4658-a486-d71e1c4ed835.root
/store/mc/Run3Summer22NanoAODv12/WtoLNu-2Jets_TuneCP5_13p6TeV_amcatnloFXFX-pythia8/NANOAODSIM/130X_mcRun3_2022_realistic_v5-v2/30000/3a8e6e86-635d-43d7-ba9b-2e2f10b14479.root
/store/mc/Run3Summer22NanoAODv12/WtoLNu-2Jets_TuneCP5_13p6TeV_amcatnloFXFX-pythia8/NANOAODSIM/130X_mcRun3_2022_realistic_v5-v2/30000/4bc354be-336c-439c-8f29-622043e35564.root
/store/mc/Run3Summer22NanoAODv12/WtoLNu-2Jets_TuneCP5_13p6TeV_amcatnloFXFX-pythia8/NANOAODSIM/130X_mcRun3_2022_realistic_v5-v2/30000/32f07aab-7b0a-4f15-ad63-f0cf7a909a6e.root
/store/mc/Run3Summer22NanoAODv12/WtoLNu-2Jets_TuneCP5_13p6TeV_amcatnloFXFX-pythia8/NANOAODSIM/130X_mcRun3_2022_realistic_v5-v2/30000/999afc24-8492-4ee6-9f08-d60d7e7a2f99.root
/store/mc/Run3Summer22NanoAODv12/WtoLNu-2Jets_TuneCP5_13p6TeV_amcatnloFXFX-pythia8/NANOAODSIM/130X_mcRun3_2022_realistic_v5-v2/30000/6ea861db-696d-448d-be55-caf257f0fc56.root
/store/mc/Run3Summer22NanoAODv12/WtoLNu-2Jets_TuneCP5_13p6TeV_amcatnloFXFX-pythia8/NANOAODSIM/130X_mcRun3_2022_realistic_v5-v2/30000/1834c947-6bc0-4261-a491-31e50eec7be8.root
/store/mc/Run3Summer22NanoAODv12/WtoLNu-2Jets_TuneCP5_13p6TeV_amcatnloFXFX-pythia8/NANOAODSIM/130X_mcRun3_2022_realistic_v5-v2/30000/fc424935-a37d-4c82-9cc8-dc8c30c0e582.root
/store/mc/Run3Summer22NanoAODv12/WtoLNu-2Jets_TuneCP5_13p6TeV_amcatnloFXFX-pythia8/NANOAODSIM/130X_mcRun3_2022_realistic_v5-v2/30000/154b9982-eb9a-4b35-8303-d4ed22ba1c09.root
/store/mc/Run3Summer22NanoAODv12/WtoLNu-2Jets_TuneCP5_13p6TeV_amcatnloFXFX-pythia8/NANOAODSIM/130X_mcRun3_2022_realistic_v5-v2/30000/9be86b53-e815-4a47-9e49-d9e23fa4c82a.root
/store/mc/Run3Summer22NanoAODv12/WtoLNu-2Jets_TuneCP5_13p6TeV_amcatnloFXFX-pythia8/NANOAODSIM/130X_mcRun3_2022_realistic_v5-v2/2540000/ce53cf41-fedd-47d1-8c64-c11dd326a6c6.root
/store/mc/Run3Summer22NanoAODv12/WtoLNu-2Jets_TuneCP5_13p6TeV_amcatnloFXFX-pythia8/NANOAODSIM/130X_mcRun3_2022_realistic_v5-v2/30000/2433f514-09f7-411c-87f1-185bbc96dacd.root
/store/mc/Run3Summer22NanoAODv12/WtoLNu-2Jets_TuneCP5_13p6TeV_amcatnloFXFX-pythia8/NANOAODSIM/130X_mcRun3_2022_realistic_v5-v2/30000/f4499f18-9ada-4d84-ac65-7c2c53cba621.root
/store/mc/Run3Summer22NanoAODv12/WtoLNu-2Jets_TuneCP5_13p6TeV_amcatnloFXFX-pythia8/NANOAODSIM/130X_mcRun3_2022_realistic_v5-v2/30000/3e50b7c9-1a13-426a-8087-bcadf5991509.root
/store/mc/Run3Summer22NanoAODv12/WtoLNu-2Jets_TuneCP5_13p6TeV_amcatnloFXFX-pythia8/NANOAODSIM/130X_mcRun3_2022_realistic_v5-v2/30000/1327f290-6770-478d-a8e4-ed66027794a6.root
/store/mc/Run3Summer22NanoAODv12/WtoLNu-2Jets_TuneCP5_13p6TeV_amcatnloFXFX-pythia8/NANOAODSIM/130X_mcRun3_2022_realistic_v5-v2/30000/bb3314a7-80d4-45f0-a1f4-a0ae82ef76b5.root
/store/mc/Run3Summer22NanoAODv12/WtoLNu-2Jets_TuneCP5_13p6TeV_amcatnloFXFX-pythia8/NANOAODSIM/130X_mcRun3_2022_realistic_v5-v2/30000/a3924052-8939-4832-aa15-7497ad613293.root
/store/mc/Run3Summer22NanoAODv12/WtoLNu-2Jets_TuneCP5_13p6TeV_amcatnloFXFX-pythia8/NANOAODSIM/130X_mcRun3_2022_realistic_v5-v2/2540000/c40769e9-bd3e-4587-991c-ecaf82a040fe.root
/store/mc/Run3Summer22NanoAODv12/WtoLNu-2Jets_TuneCP5_13p6TeV_amcatnloFXFX-pythia8/NANOAODSIM/130X_mcRun3_2022_realistic_v5-v2/2540000/71684a64-bcf1-4351-8fd4-e9ac53cee220.root
/store/mc/Run3Summer22NanoAODv12/WtoLNu-2Jets_TuneCP5_13p6TeV_amcatnloFXFX-pythia8/NANOAODSIM/130X_mcRun3_2022_realistic_v5-v2/2530000/0ec1c65b-fbf4-40c7-b24a-656e88bf92ee.root
/store/mc/Run3Summer22NanoAODv12/WtoLNu-2Jets_TuneCP5_13p6TeV_amcatnloFXFX-pythia8/NANOAODSIM/130X_mcRun3_2022_realistic_v5-v2/2530000/639f2e26-e4c0-4b3b-9ecd-7db8bcb02f61.root
/store/mc/Run3Summer22NanoAODv12/WtoLNu-2Jets_TuneCP5_13p6TeV_amcatnloFXFX-pythia8/NANOAODSIM/130X_mcRun3_2022_realistic_v5-v2/2530000/3a22ed71-98f2-4fb1-af5e-443497b425ad.root
/store/mc/Run3Summer22NanoAODv12/WtoLNu-2Jets_TuneCP5_13p6TeV_amcatnloFXFX-pythia8/NANOAODSIM/130X_mcRun3_2022_realistic_v5-v2/2530000/3dd63007-6a2b-46a5-89a4-2c7a153c56d3.root
/store/mc/Run3Summer22NanoAODv12/WtoLNu-2Jets_TuneCP5_13p6TeV_amcatnloFXFX-pythia8/NANOAODSIM/130X_mcRun3_2022_realistic_v5-v2/30000/269ca882-375b-49dc-80ff-01dc2c227522.root
/store/mc/Run3Summer22NanoAODv12/WtoLNu-2Jets_TuneCP5_13p6TeV_amcatnloFXFX-pythia8/NANOAODSIM/130X_mcRun3_2022_realistic_v5-v2/30000/7a0fd24f-82ab-4667-a3ce-07a20dca67eb.root
/store/mc/Run3Summer22NanoAODv12/WtoLNu-2Jets_TuneCP5_13p6TeV_amcatnloFXFX-pythia8/NANOAODSIM/130X_mcRun3_2022_realistic_v5-v2/30000/dc9d2ddd-12cf-438c-84f7-04c4fa61e7d7.root
/store/mc/Run3Summer22NanoAODv12/WtoLNu-2Jets_TuneCP5_13p6TeV_amcatnloFXFX-pythia8/NANOAODSIM/130X_mcRun3_2022_realistic_v5-v2/30000/22dbd045-0718-4969-be35-d43d63524974.root
/store/mc/Run3Summer22NanoAODv12/WtoLNu-2Jets_TuneCP5_13p6TeV_amcatnloFXFX-pythia8/NANOAODSIM/130X_mcRun3_2022_realistic_v5-v2/30000/505015ba-360c-4bcf-93b2-7acd63cd86b1.root
/store/mc/Run3Summer22NanoAODv12/WtoLNu-2Jets_TuneCP5_13p6TeV_amcatnloFXFX-pythia8/NANOAODSIM/130X_mcRun3_2022_realistic_v5-v2/30000/6930857b-a502-4f72-b205-9a3577d4c356.root
/store/mc/Run3Summer22NanoAODv12/WtoLNu-2Jets_TuneCP5_13p6TeV_amcatnloFXFX-pythia8/NANOAODSIM/130X_mcRun3_2022_realistic_v5-v2/30000/4c27b083-a3d2-4bf1-ae05-118e31a4ab7e.root
/store/mc/Run3Summer22NanoAODv12/WtoLNu-2Jets_TuneCP5_13p6TeV_amcatnloFXFX-pythia8/NANOAODSIM/130X_mcRun3_2022_realistic_v5-v2/30000/e86fec01-3b0d-4f54-acfe-a0e5fde810d4.root
/store/mc/Run3Summer22NanoAODv12/WtoLNu-2Jets_TuneCP5_13p6TeV_amcatnloFXFX-pythia8/NANOAODSIM/130X_mcRun3_2022_realistic_v5-v2/30000/6b90dc2c-e6f9-4a9d-b60b-26708c9fbb97.root
/store/mc/Run3Summer22NanoAODv12/WtoLNu-2Jets_TuneCP5_13p6TeV_amcatnloFXFX-pythia8/NANOAODSIM/130X_mcRun3_2022_realistic_v5-v2/2540000/7ce87c63-f20c-494a-9c6d-b442e46b0016.root
/store/mc/Run3Summer22NanoAODv12/WtoLNu-2Jets_TuneCP5_13p6TeV_amcatnloFXFX-pythia8/NANOAODSIM/130X_mcRun3_2022_realistic_v5-v2/30000/cd6cba8c-e30c-4f97-a5f9-68d92b27a371.root
/store/mc/Run3Summer22NanoAODv12/WtoLNu-2Jets_TuneCP5_13p6TeV_amcatnloFXFX-pythia8/NANOAODSIM/130X_mcRun3_2022_realistic_v5-v2/30000/2b9db63f-e10b-4ace-8a54-2cc4c4593913.root
/store/mc/Run3Summer22NanoAODv12/WtoLNu-2Jets_TuneCP5_13p6TeV_amcatnloFXFX-pythia8/NANOAODSIM/130X_mcRun3_2022_realistic_v5-v2/30000/fd07f362-9a9e-4339-9212-f0554178b872.root
/store/mc/Run3Summer22NanoAODv12/WtoLNu-2Jets_TuneCP5_13p6TeV_amcatnloFXFX-pythia8/NANOAODSIM/130X_mcRun3_2022_realistic_v5-v2/30000/063c7238-4df1-4ec5-b439-b29a486ef810.root
/store/mc/Run3Summer22NanoAODv12/WtoLNu-2Jets_TuneCP5_13p6TeV_amcatnloFXFX-pythia8/NANOAODSIM/130X_mcRun3_2022_realistic_v5-v2/2540000/31ec824d-331f-420f-bc1a-9dd30a31a7f3.root
/store/mc/Run3Summer22NanoAODv12/WtoLNu-2Jets_TuneCP5_13p6TeV_amcatnloFXFX-pythia8/NANOAODSIM/130X_mcRun3_2022_realistic_v5-v2/2520000/e3dab212-55cd-4b58-91c5-ce0e8ce190c2.root
/store/mc/Run3Summer22NanoAODv12/WtoLNu-2Jets_TuneCP5_13p6TeV_amcatnloFXFX-pythia8/NANOAODSIM/130X_mcRun3_2022_realistic_v5-v2/2520000/f4f8f16a-caec-47c6-bf7c-d4cf2ad1f736.root
/store/mc/Run3Summer22NanoAODv12/WtoLNu-2Jets_TuneCP5_13p6TeV_amcatnloFXFX-pythia8/NANOAODSIM/130X_mcRun3_2022_realistic_v5-v2/2520000/73ef2b45-ff51-445f-a10c-a3317e1115eb.root
/store/mc/Run3Summer22NanoAODv12/WtoLNu-2Jets_TuneCP5_13p6TeV_amcatnloFXFX-pythia8/NANOAODSIM/130X_mcRun3_2022_realistic_v5-v2/2520000/0dd1dc74-3253-400b-84c2-754a55e80cc8.root
/store/mc/Run3Summer22NanoAODv12/WtoLNu-2Jets_TuneCP5_13p6TeV_amcatnloFXFX-pythia8/NANOAODSIM/130X_mcRun3_2022_realistic_v5-v2/2530000/4abe7343-35d3-4ebf-8f48-501ee975862c.root
/store/mc/Run3Summer22NanoAODv12/WtoLNu-2Jets_TuneCP5_13p6TeV_amcatnloFXFX-pythia8/NANOAODSIM/130X_mcRun3_2022_realistic_v5-v2/2530000/d2e06212-9838-4390-81fc-1b6a020d1ee4.root
/store/mc/Run3Summer22NanoAODv12/WtoLNu-2Jets_TuneCP5_13p6TeV_amcatnloFXFX-pythia8/NANOAODSIM/130X_mcRun3_2022_realistic_v5-v2/2530000/11ef4d90-3f1c-47c7-868a-fee61c3b5078.root
/store/mc/Run3Summer22NanoAODv12/WtoLNu-2Jets_TuneCP5_13p6TeV_amcatnloFXFX-pythia8/NANOAODSIM/130X_mcRun3_2022_realistic_v5-v2/2530000/c0b06369-35cb-412b-99b0-1ea2ff1b510d.root
/store/mc/Run3Summer22NanoAODv12/WtoLNu-2Jets_TuneCP5_13p6TeV_amcatnloFXFX-pythia8/NANOAODSIM/130X_mcRun3_2022_realistic_v5-v2/2530000/226d39a1-1ec4-464e-b803-0de4cb26c25f.root
/store/mc/Run3Summer22NanoAODv12/WtoLNu-2Jets_TuneCP5_13p6TeV_amcatnloFXFX-pythia8/NANOAODSIM/130X_mcRun3_2022_realistic_v5-v2/2530000/e321740e-847d-44aa-a61d-0686eeab4aad.root
/store/mc/Run3Summer22NanoAODv12/WtoLNu-2Jets_TuneCP5_13p6TeV_amcatnloFXFX-pythia8/NANOAODSIM/130X_mcRun3_2022_realistic_v5-v2/2520000/e14e1de1-1b00-4701-83c8-850f9e2bceb5.root
/store/mc/Run3Summer22NanoAODv12/WtoLNu-2Jets_TuneCP5_13p6TeV_amcatnloFXFX-pythia8/NANOAODSIM/130X_mcRun3_2022_realistic_v5-v2/2520000/e1053bfe-6141-409d-b379-f92d21aaac5f.root
/store/mc/Run3Summer22NanoAODv12/WtoLNu-2Jets_TuneCP5_13p6TeV_amcatnloFXFX-pythia8/NANOAODSIM/130X_mcRun3_2022_realistic_v5-v2/2520000/949fe0be-f5e3-4185-8d18-60793b49c04b.root
/store/mc/Run3Summer22NanoAODv12/WtoLNu-2Jets_TuneCP5_13p6TeV_amcatnloFXFX-pythia8/NANOAODSIM/130X_mcRun3_2022_realistic_v5-v2/2520000/055fe8fe-582b-49c1-82f1-bf03981576fa.root
/store/mc/Run3Summer22NanoAODv12/WtoLNu-2Jets_TuneCP5_13p6TeV_amcatnloFXFX-pythia8/NANOAODSIM/130X_mcRun3_2022_realistic_v5-v2/2520000/19c09365-4e3c-49da-817d-722e6a1b3440.root
/store/mc/Run3Summer22NanoAODv12/WtoLNu-2Jets_TuneCP5_13p6TeV_amcatnloFXFX-pythia8/NANOAODSIM/130X_mcRun3_2022_realistic_v5-v2/2520000/70dbfd45-3b4f-439c-8614-7176ed6c6c8c.root
/store/mc/Run3Summer22NanoAODv12/WtoLNu-2Jets_TuneCP5_13p6TeV_amcatnloFXFX-pythia8/NANOAODSIM/130X_mcRun3_2022_realistic_v5-v2/2520000/23f68644-126a-4180-9348-41e0cadd2379.root
/store/mc/Run3Summer22NanoAODv12/WtoLNu-2Jets_TuneCP5_13p6TeV_amcatnloFXFX-pythia8/NANOAODSIM/130X_mcRun3_2022_realistic_v5-v2/2520000/0f8446aa-b053-40fc-934d-b2c0a13feed1.root
/store/mc/Run3Summer22NanoAODv12/WtoLNu-2Jets_TuneCP5_13p6TeV_amcatnloFXFX-pythia8/NANOAODSIM/130X_mcRun3_2022_realistic_v5-v2/2520000/43728ba8-1d7c-41af-9830-abcd698224da.root
/store/mc/Run3Summer22NanoAODv12/WtoLNu-2Jets_TuneCP5_13p6TeV_amcatnloFXFX-pythia8/NANOAODSIM/130X_mcRun3_2022_realistic_v5-v2/2520000/4ccf0fa9-3c21-4ab8-8017-be9acefc7e80.root
/store/mc/Run3Summer22NanoAODv12/WtoLNu-2Jets_TuneCP5_13p6TeV_amcatnloFXFX-pythia8/NANOAODSIM/130X_mcRun3_2022_realistic_v5-v2/2520000/ebf71a42-347d-4617-acae-7ac112e822f5.root
/store/mc/Run3Summer22NanoAODv12/WtoLNu-2Jets_TuneCP5_13p6TeV_amcatnloFXFX-pythia8/NANOAODSIM/130X_mcRun3_2022_realistic_v5-v2/2520000/4a0d2cc2-2721-43d3-8a7e-3cf6305c9002.root
/store/mc/Run3Summer22NanoAODv12/WtoLNu-2Jets_TuneCP5_13p6TeV_amcatnloFXFX-pythia8/NANOAODSIM/130X_mcRun3_2022_realistic_v5-v2/2520000/0e214ebc-0f90-4d34-95ac-f4888d7765e9.root
/store/mc/Run3Summer22NanoAODv12/WtoLNu-2Jets_TuneCP5_13p6TeV_amcatnloFXFX-pythia8/NANOAODSIM/130X_mcRun3_2022_realistic_v5-v2/2520000/055aacfc-52a3-4274-bfc6-767d6f193e9c.root
/store/mc/Run3Summer22NanoAODv12/WtoLNu-2Jets_TuneCP5_13p6TeV_amcatnloFXFX-pythia8/NANOAODSIM/130X_mcRun3_2022_realistic_v5-v2/2520000/6ee3892c-ae30-411b-975f-f7d2431342ad.root
/store/mc/Run3Summer22NanoAODv12/WtoLNu-2Jets_TuneCP5_13p6TeV_amcatnloFXFX-pythia8/NANOAODSIM/130X_mcRun3_2022_realistic_v5-v2/2520000/ca2b43e7-f75f-4e16-a359-eb7b4a320669.root
/store/mc/Run3Summer22NanoAODv12/WtoLNu-2Jets_TuneCP5_13p6TeV_amcatnloFXFX-pythia8/NANOAODSIM/130X_mcRun3_2022_realistic_v5-v2/50000/f6c4f37c-be7b-49f1-8c92-47753df2512b.root
/store/mc/Run3Summer22NanoAODv12/WtoLNu-2Jets_TuneCP5_13p6TeV_amcatnloFXFX-pythia8/NANOAODSIM/130X_mcRun3_2022_realistic_v5-v2/50000/9a56dd0e-5a18-46ed-870d-f35a5320bcb8.root
/store/mc/Run3Summer22NanoAODv12/WtoLNu-2Jets_TuneCP5_13p6TeV_amcatnloFXFX-pythia8/NANOAODSIM/130X_mcRun3_2022_realistic_v5-v2/50000/fac524a0-d188-46d8-86b4-6a61dc196f01.root
/store/mc/Run3Summer22NanoAODv12/WtoLNu-2Jets_TuneCP5_13p6TeV_amcatnloFXFX-pythia8/NANOAODSIM/130X_mcRun3_2022_realistic_v5-v2/2520000/a8e9f524-4cb8-4234-bf6f-60c24a6919f2.root
/store/mc/Run3Summer22NanoAODv12/WtoLNu-2Jets_TuneCP5_13p6TeV_amcatnloFXFX-pythia8/NANOAODSIM/130X_mcRun3_2022_realistic_v5-v2/2540000/5a6d4b77-104f-4717-b2b1-b419df25390d.root
/store/mc/Run3Summer22NanoAODv12/WtoLNu-2Jets_TuneCP5_13p6TeV_amcatnloFXFX-pythia8/NANOAODSIM/130X_mcRun3_2022_realistic_v5-v2/2520000/e5466c19-a445-4902-8a12-cb4f88f65c79.root
/store/mc/Run3Summer22NanoAODv12/WtoLNu-2Jets_TuneCP5_13p6TeV_amcatnloFXFX-pythia8/NANOAODSIM/130X_mcRun3_2022_realistic_v5-v2/2520000/798b8f64-d50a-4018-a979-2e2323af1a10.root
/store/mc/Run3Summer22NanoAODv12/WtoLNu-2Jets_TuneCP5_13p6TeV_amcatnloFXFX-pythia8/NANOAODSIM/130X_mcRun3_2022_realistic_v5-v2/2520000/3d1fd4d8-c9c5-4bc0-a800-5301489c4b6f.root
/store/mc/Run3Summer22NanoAODv12/WtoLNu-2Jets_TuneCP5_13p6TeV_amcatnloFXFX-pythia8/NANOAODSIM/130X_mcRun3_2022_realistic_v5-v2/2530000/7cf1a05e-b434-47c6-a6a7-8483436fa250.root
/store/mc/Run3Summer22NanoAODv12/WtoLNu-2Jets_TuneCP5_13p6TeV_amcatnloFXFX-pythia8/NANOAODSIM/130X_mcRun3_2022_realistic_v5-v2/2530000/fdfaba15-030f-4d6e-9e4e-695949557753.root
/store/mc/Run3Summer22NanoAODv12/WtoLNu-2Jets_TuneCP5_13p6TeV_amcatnloFXFX-pythia8/NANOAODSIM/130X_mcRun3_2022_realistic_v5-v2/50000/78471d81-04e4-46e1-8cb7-ad4e887810e0.root
/store/mc/Run3Summer22NanoAODv12/WtoLNu-2Jets_TuneCP5_13p6TeV_amcatnloFXFX-pythia8/NANOAODSIM/130X_mcRun3_2022_realistic_v5-v2/50000/148aa2ea-7458-4267-989e-6274f1edd5c5.root
/store/mc/Run3Summer22NanoAODv12/WtoLNu-2Jets_TuneCP5_13p6TeV_amcatnloFXFX-pythia8/NANOAODSIM/130X_mcRun3_2022_realistic_v5-v2/2520000/98328fe2-9383-4904-b438-fd10bbb898d9.root
/store/mc/Run3Summer22NanoAODv12/WtoLNu-2Jets_TuneCP5_13p6TeV_amcatnloFXFX-pythia8/NANOAODSIM/130X_mcRun3_2022_realistic_v5-v2/40000/7930ba46-0d2b-4a15-9f3c-2704d7f6ad00.root
/store/mc/Run3Summer22NanoAODv12/WtoLNu-2Jets_TuneCP5_13p6TeV_amcatnloFXFX-pythia8/NANOAODSIM/130X_mcRun3_2022_realistic_v5-v2/40000/3fb1c406-fa14-4258-8e4a-876e26b2e6d8.root
/store/mc/Run3Summer22NanoAODv12/WtoLNu-2Jets_TuneCP5_13p6TeV_amcatnloFXFX-pythia8/NANOAODSIM/130X_mcRun3_2022_realistic_v5-v2/40000/8c02b968-a769-4b7e-86ee-7194778e9f7e.root
/store/mc/Run3Summer22NanoAODv12/WtoLNu-2Jets_TuneCP5_13p6TeV_amcatnloFXFX-pythia8/NANOAODSIM/130X_mcRun3_2022_realistic_v5-v2/40000/75293020-0296-48a3-b4f2-84fb5b575e0c.root
/store/mc/Run3Summer22NanoAODv12/WtoLNu-2Jets_TuneCP5_13p6TeV_amcatnloFXFX-pythia8/NANOAODSIM/130X_mcRun3_2022_realistic_v5-v2/40000/0e058d57-9cf6-47c8-8b87-f6899936447c.root
/store/mc/Run3Summer22NanoAODv12/WtoLNu-2Jets_TuneCP5_13p6TeV_amcatnloFXFX-pythia8/NANOAODSIM/130X_mcRun3_2022_realistic_v5-v2/30000/e3d8a695-d27a-47e8-a083-9f715eeb6d1c.root
/store/mc/Run3Summer22NanoAODv12/WtoLNu-2Jets_TuneCP5_13p6TeV_amcatnloFXFX-pythia8/NANOAODSIM/130X_mcRun3_2022_realistic_v5-v2/30000/dbd64652-6d48-43b9-a9e4-51ac7b6a90f9.root
/store/mc/Run3Summer22NanoAODv12/WtoLNu-2Jets_TuneCP5_13p6TeV_amcatnloFXFX-pythia8/NANOAODSIM/130X_mcRun3_2022_realistic_v5-v2/30000/b1c2d3ec-a37f-4488-9d78-991d34dcef5e.root
/store/mc/Run3Summer22NanoAODv12/WtoLNu-2Jets_TuneCP5_13p6TeV_amcatnloFXFX-pythia8/NANOAODSIM/130X_mcRun3_2022_realistic_v5-v2/30000/b2b31f44-ca0e-4725-afaa-ce8af8663054.root
/store/mc/Run3Summer22NanoAODv12/WtoLNu-2Jets_TuneCP5_13p6TeV_amcatnloFXFX-pythia8/NANOAODSIM/130X_mcRun3_2022_realistic_v5-v2/30000/acb5aef4-61f3-4ad5-b4c6-158029732dc9.root
/store/mc/Run3Summer22NanoAODv12/WtoLNu-2Jets_TuneCP5_13p6TeV_amcatnloFXFX-pythia8/NANOAODSIM/130X_mcRun3_2022_realistic_v5-v2/30000/2d9ea966-5584-48f6-91fd-55928014ae4f.root
/store/mc/Run3Summer22NanoAODv12/WtoLNu-2Jets_TuneCP5_13p6TeV_amcatnloFXFX-pythia8/NANOAODSIM/130X_mcRun3_2022_realistic_v5-v2/30000/9dab4dcc-19bc-4cde-9830-d527e8bd6734.root
/store/mc/Run3Summer22NanoAODv12/WtoLNu-2Jets_TuneCP5_13p6TeV_amcatnloFXFX-pythia8/NANOAODSIM/130X_mcRun3_2022_realistic_v5-v2/30000/8c7d3294-d672-4477-9473-42b6f9ee2801.root
/store/mc/Run3Summer22NanoAODv12/WtoLNu-2Jets_TuneCP5_13p6TeV_amcatnloFXFX-pythia8/NANOAODSIM/130X_mcRun3_2022_realistic_v5-v2/40000/7919a144-5aa2-404c-9b4c-2fb525b542a4.root
/store/mc/Run3Summer22NanoAODv12/WtoLNu-2Jets_TuneCP5_13p6TeV_amcatnloFXFX-pythia8/NANOAODSIM/130X_mcRun3_2022_realistic_v5-v2/40000/9dc76422-3cd0-4221-9ea3-a35bf0658568.root
/store/mc/Run3Summer22NanoAODv12/WtoLNu-2Jets_TuneCP5_13p6TeV_amcatnloFXFX-pythia8/NANOAODSIM/130X_mcRun3_2022_realistic_v5-v2/40000/a6cbd784-96f8-4fa6-8c4a-058c5bdd2f69.root
/store/mc/Run3Summer22NanoAODv12/WtoLNu-2Jets_TuneCP5_13p6TeV_amcatnloFXFX-pythia8/NANOAODSIM/130X_mcRun3_2022_realistic_v5-v2/40000/64e000a6-7ca3-4038-81e0-c22b3e6b1723.root
/store/mc/Run3Summer22NanoAODv12/WtoLNu-2Jets_TuneCP5_13p6TeV_amcatnloFXFX-pythia8/NANOAODSIM/130X_mcRun3_2022_realistic_v5-v2/40000/a67ae906-d5ac-4893-94a5-4c100d3b152c.root
/store/mc/Run3Summer22NanoAODv12/WtoLNu-2Jets_TuneCP5_13p6TeV_amcatnloFXFX-pythia8/NANOAODSIM/130X_mcRun3_2022_realistic_v5-v2/40000/b5844582-36fc-4f30-9a45-0a92a7b5e251.root
/store/mc/Run3Summer22NanoAODv12/WtoLNu-2Jets_TuneCP5_13p6TeV_amcatnloFXFX-pythia8/NANOAODSIM/130X_mcRun3_2022_realistic_v5-v2/40000/34d07953-02d7-4f9a-814b-aa231d14e685.root
/store/mc/Run3Summer22NanoAODv12/WtoLNu-2Jets_TuneCP5_13p6TeV_amcatnloFXFX-pythia8/NANOAODSIM/130X_mcRun3_2022_realistic_v5-v2/40000/eb3fa5a2-80f6-4bcd-8a2a-54ef04cd3c37.root
/store/mc/Run3Summer22NanoAODv12/WtoLNu-2Jets_TuneCP5_13p6TeV_amcatnloFXFX-pythia8/NANOAODSIM/130X_mcRun3_2022_realistic_v5-v2/40000/7b921193-5444-4997-bbb2-a9f98b6165e4.root
/store/mc/Run3Summer22NanoAODv12/WtoLNu-2Jets_TuneCP5_13p6TeV_amcatnloFXFX-pythia8/NANOAODSIM/130X_mcRun3_2022_realistic_v5-v2/40000/e27624bd-6de2-43c6-a04a-d33dff693ef4.root
/store/mc/Run3Summer22NanoAODv12/WtoLNu-2Jets_TuneCP5_13p6TeV_amcatnloFXFX-pythia8/NANOAODSIM/130X_mcRun3_2022_realistic_v5-v2/40000/34aeca10-d437-4a5f-8c72-8a092742f431.root
/store/mc/Run3Summer22NanoAODv12/WtoLNu-2Jets_TuneCP5_13p6TeV_amcatnloFXFX-pythia8/NANOAODSIM/130X_mcRun3_2022_realistic_v5-v2/30000/68d33115-d973-4427-b55c-2ddf955dd3d9.root
/store/mc/Run3Summer22NanoAODv12/WtoLNu-2Jets_TuneCP5_13p6TeV_amcatnloFXFX-pythia8/NANOAODSIM/130X_mcRun3_2022_realistic_v5-v2/30000/802d9b12-4325-4824-a50c-0a4568d28dc6.root
/store/mc/Run3Summer22NanoAODv12/WtoLNu-2Jets_TuneCP5_13p6TeV_amcatnloFXFX-pythia8/NANOAODSIM/130X_mcRun3_2022_realistic_v5-v2/30000/b77e2038-ad27-451a-b8f3-7df2b4cb5599.root
/store/mc/Run3Summer22NanoAODv12/WtoLNu-2Jets_TuneCP5_13p6TeV_amcatnloFXFX-pythia8/NANOAODSIM/130X_mcRun3_2022_realistic_v5-v2/30000/b6b13437-fc93-480d-9ac6-dc28b99ff9c2.root
/store/mc/Run3Summer22NanoAODv12/WtoLNu-2Jets_TuneCP5_13p6TeV_amcatnloFXFX-pythia8/NANOAODSIM/130X_mcRun3_2022_realistic_v5-v2/30000/e1887e2b-8d6f-4f0f-bcaf-e63bf2b305b7.root
/store/mc/Run3Summer22NanoAODv12/WtoLNu-2Jets_TuneCP5_13p6TeV_amcatnloFXFX-pythia8/NANOAODSIM/130X_mcRun3_2022_realistic_v5-v2/30000/a78ec1ac-ad87-4666-9bfc-f4ae71dd016e.root
/store/mc/Run3Summer22NanoAODv12/WtoLNu-2Jets_TuneCP5_13p6TeV_amcatnloFXFX-pythia8/NANOAODSIM/130X_mcRun3_2022_realistic_v5-v2/40000/622d6048-2b7d-40eb-ae3c-8436ea9f75aa.root
/store/mc/Run3Summer22NanoAODv12/WtoLNu-2Jets_TuneCP5_13p6TeV_amcatnloFXFX-pythia8/NANOAODSIM/130X_mcRun3_2022_realistic_v5-v2/40000/15cd5d9f-abce-4ace-84b5-0e1bbed90a20.root
/store/mc/Run3Summer22NanoAODv12/WtoLNu-2Jets_TuneCP5_13p6TeV_amcatnloFXFX-pythia8/NANOAODSIM/130X_mcRun3_2022_realistic_v5-v2/30000/a6847415-14b2-4219-9b42-820ad9226254.root
/store/mc/Run3Summer22NanoAODv12/WtoLNu-2Jets_TuneCP5_13p6TeV_amcatnloFXFX-pythia8/NANOAODSIM/130X_mcRun3_2022_realistic_v5-v2/30000/d97797aa-5dcd-4f2b-a420-7fbf0199cb29.root
/store/mc/Run3Summer22NanoAODv12/WtoLNu-2Jets_TuneCP5_13p6TeV_amcatnloFXFX-pythia8/NANOAODSIM/130X_mcRun3_2022_realistic_v5-v2/40000/9a01b2da-1b77-41ec-83bc-aa0566090c33.root
/store/mc/Run3Summer22NanoAODv12/WtoLNu-2Jets_TuneCP5_13p6TeV_amcatnloFXFX-pythia8/NANOAODSIM/130X_mcRun3_2022_realistic_v5-v2/40000/b979c32d-49dd-4af6-955c-75f86fba0ebd.root
/store/mc/Run3Summer22NanoAODv12/WtoLNu-2Jets_TuneCP5_13p6TeV_amcatnloFXFX-pythia8/NANOAODSIM/130X_mcRun3_2022_realistic_v5-v2/40000/545d70dc-3834-44c0-be9a-a9262ef69fda.root
/store/mc/Run3Summer22NanoAODv12/WtoLNu-2Jets_TuneCP5_13p6TeV_amcatnloFXFX-pythia8/NANOAODSIM/130X_mcRun3_2022_realistic_v5-v2/40000/434b4c77-91dd-459a-bcb1-3982edd28b69.root
/store/mc/Run3Summer22NanoAODv12/WtoLNu-2Jets_TuneCP5_13p6TeV_amcatnloFXFX-pythia8/NANOAODSIM/130X_mcRun3_2022_realistic_v5-v2/30000/6779f27c-8cd3-40a4-83da-db6be0c7d18b.root
/store/mc/Run3Summer22NanoAODv12/WtoLNu-2Jets_TuneCP5_13p6TeV_amcatnloFXFX-pythia8/NANOAODSIM/130X_mcRun3_2022_realistic_v5-v2/30000/9fd4bfb9-dbc9-4a5f-a010-58f6c9d899e3.root
/store/mc/Run3Summer22NanoAODv12/WtoLNu-2Jets_TuneCP5_13p6TeV_amcatnloFXFX-pythia8/NANOAODSIM/130X_mcRun3_2022_realistic_v5-v2/40000/88de05f9-3d3a-4d1d-b650-24a024c23d24.root
/store/mc/Run3Summer22NanoAODv12/WtoLNu-2Jets_TuneCP5_13p6TeV_amcatnloFXFX-pythia8/NANOAODSIM/130X_mcRun3_2022_realistic_v5-v2/40000/e0f4f184-53c3-4697-b18f-548617b43e6b.root
/store/mc/Run3Summer22NanoAODv12/WtoLNu-2Jets_TuneCP5_13p6TeV_amcatnloFXFX-pythia8/NANOAODSIM/130X_mcRun3_2022_realistic_v5-v2/40000/8d1328da-6502-4e43-a0ef-e2e36996bd2c.root
/store/mc/Run3Summer22NanoAODv12/WtoLNu-2Jets_TuneCP5_13p6TeV_amcatnloFXFX-pythia8/NANOAODSIM/130X_mcRun3_2022_realistic_v5-v2/40000/57e8c408-d507-4597-b4e9-3296a265e5a1.root
/store/mc/Run3Summer22NanoAODv12/WtoLNu-2Jets_TuneCP5_13p6TeV_amcatnloFXFX-pythia8/NANOAODSIM/130X_mcRun3_2022_realistic_v5-v2/40000/b7a717f1-18fc-4fce-8e59-e6060f801068.root
/store/mc/Run3Summer22NanoAODv12/WtoLNu-2Jets_TuneCP5_13p6TeV_amcatnloFXFX-pythia8/NANOAODSIM/130X_mcRun3_2022_realistic_v5-v2/30000/b9036267-8816-4e9e-ba73-8fdfecb253ee.root
/store/mc/Run3Summer22NanoAODv12/WtoLNu-2Jets_TuneCP5_13p6TeV_amcatnloFXFX-pythia8/NANOAODSIM/130X_mcRun3_2022_realistic_v5-v2/30000/54fe99d0-cade-468d-9fb9-cf955c298f8f.root
/store/mc/Run3Summer22NanoAODv12/WtoLNu-2Jets_TuneCP5_13p6TeV_amcatnloFXFX-pythia8/NANOAODSIM/130X_mcRun3_2022_realistic_v5-v2/30000/92d8b289-5f91-432f-91ed-5768f6d0a291.root
/store/mc/Run3Summer22NanoAODv12/WtoLNu-2Jets_TuneCP5_13p6TeV_amcatnloFXFX-pythia8/NANOAODSIM/130X_mcRun3_2022_realistic_v5-v2/30000/d27a94ac-19b4-438d-9ca4-13323febee3e.root
/store/mc/Run3Summer22NanoAODv12/WtoLNu-2Jets_TuneCP5_13p6TeV_amcatnloFXFX-pythia8/NANOAODSIM/130X_mcRun3_2022_realistic_v5-v2/30000/5fc2e3ac-4915-491e-b4f6-faf5b9858e56.root
/store/mc/Run3Summer22NanoAODv12/WtoLNu-2Jets_TuneCP5_13p6TeV_amcatnloFXFX-pythia8/NANOAODSIM/130X_mcRun3_2022_realistic_v5-v2/30000/66dd7aa1-000b-4afa-96de-e2db561df14b.root
/store/mc/Run3Summer22NanoAODv12/WtoLNu-2Jets_TuneCP5_13p6TeV_amcatnloFXFX-pythia8/NANOAODSIM/130X_mcRun3_2022_realistic_v5-v2/30000/084661a8-542a-48f4-b92d-fd82303489a3.root
/store/mc/Run3Summer22NanoAODv12/WtoLNu-2Jets_TuneCP5_13p6TeV_amcatnloFXFX-pythia8/NANOAODSIM/130X_mcRun3_2022_realistic_v5-v2/30000/597324b0-ab48-48b9-babb-2e6effcd982a.root
/store/mc/Run3Summer22NanoAODv12/WtoLNu-2Jets_TuneCP5_13p6TeV_amcatnloFXFX-pythia8/NANOAODSIM/130X_mcRun3_2022_realistic_v5-v2/30000/6f923b7c-61b9-4f09-abf4-420fbbde7a38.root
/store/mc/Run3Summer22NanoAODv12/WtoLNu-2Jets_TuneCP5_13p6TeV_amcatnloFXFX-pythia8/NANOAODSIM/130X_mcRun3_2022_realistic_v5-v2/40000/c650d8fe-9587-493d-9b46-1463162376ab.root
/store/mc/Run3Summer22NanoAODv12/WtoLNu-2Jets_TuneCP5_13p6TeV_amcatnloFXFX-pythia8/NANOAODSIM/130X_mcRun3_2022_realistic_v5-v2/30000/0cabf261-3640-4903-aa6e-a80ca459789a.root
/store/mc/Run3Summer22NanoAODv12/WtoLNu-2Jets_TuneCP5_13p6TeV_amcatnloFXFX-pythia8/NANOAODSIM/130X_mcRun3_2022_realistic_v5-v2/30000/d714c7c1-7db9-4228-bea0-3027bbcc2f18.root
/store/mc/Run3Summer22NanoAODv12/WtoLNu-2Jets_TuneCP5_13p6TeV_amcatnloFXFX-pythia8/NANOAODSIM/130X_mcRun3_2022_realistic_v5-v2/30000/d6931e27-b1d9-41d7-add9-b2fc89410312.root
/store/mc/Run3Summer22NanoAODv12/WtoLNu-2Jets_TuneCP5_13p6TeV_amcatnloFXFX-pythia8/NANOAODSIM/130X_mcRun3_2022_realistic_v5-v2/30000/a411de99-e5bf-4b5c-b1c6-18739289c899.root
/store/mc/Run3Summer22NanoAODv12/WtoLNu-2Jets_TuneCP5_13p6TeV_amcatnloFXFX-pythia8/NANOAODSIM/130X_mcRun3_2022_realistic_v5-v2/30000/738eb66c-4076-4836-ac05-cb7c26a1226f.root
/store/mc/Run3Summer22NanoAODv12/WtoLNu-2Jets_TuneCP5_13p6TeV_amcatnloFXFX-pythia8/NANOAODSIM/130X_mcRun3_2022_realistic_v5-v2/30000/d5d62b18-bda8-4fc3-bc1c-c6f7b53cb471.root
/store/mc/Run3Summer22NanoAODv12/WtoLNu-2Jets_TuneCP5_13p6TeV_amcatnloFXFX-pythia8/NANOAODSIM/130X_mcRun3_2022_realistic_v5-v2/30000/2629e687-a20c-4e86-a320-9c07e5d4896d.root
/store/mc/Run3Summer22NanoAODv12/WtoLNu-2Jets_TuneCP5_13p6TeV_amcatnloFXFX-pythia8/NANOAODSIM/130X_mcRun3_2022_realistic_v5-v2/30000/b20fbd52-1664-45fb-a40b-d25f6ad84ac9.root
/store/mc/Run3Summer22NanoAODv12/WtoLNu-2Jets_TuneCP5_13p6TeV_amcatnloFXFX-pythia8/NANOAODSIM/130X_mcRun3_2022_realistic_v5-v2/30000/9e756233-8e9b-4b9f-8c0e-477d76cece8a.root
/store/mc/Run3Summer22NanoAODv12/WtoLNu-2Jets_TuneCP5_13p6TeV_amcatnloFXFX-pythia8/NANOAODSIM/130X_mcRun3_2022_realistic_v5-v2/30000/a8cd03c4-cf2f-43e6-9c32-7675284dc653.root
/store/mc/Run3Summer22NanoAODv12/WtoLNu-2Jets_TuneCP5_13p6TeV_amcatnloFXFX-pythia8/NANOAODSIM/130X_mcRun3_2022_realistic_v5-v2/60000/b5450777-802f-4d5d-891f-9c1b7299fa57.root
/store/mc/Run3Summer22NanoAODv12/WtoLNu-2Jets_TuneCP5_13p6TeV_amcatnloFXFX-pythia8/NANOAODSIM/130X_mcRun3_2022_realistic_v5-v2/60000/20e4040e-4943-4d54-b0e6-d9bac144d19b.root
/store/mc/Run3Summer22NanoAODv12/WtoLNu-2Jets_TuneCP5_13p6TeV_amcatnloFXFX-pythia8/NANOAODSIM/130X_mcRun3_2022_realistic_v5-v2/60000/0dc593c3-e1c6-4d37-934b-f06ecf822f7e.root
/store/mc/Run3Summer22NanoAODv12/WtoLNu-2Jets_TuneCP5_13p6TeV_amcatnloFXFX-pythia8/NANOAODSIM/130X_mcRun3_2022_realistic_v5-v2/60000/d9e41390-a03d-4ac5-bbc8-662a4bdaaa09.root
/store/mc/Run3Summer22NanoAODv12/WtoLNu-2Jets_TuneCP5_13p6TeV_amcatnloFXFX-pythia8/NANOAODSIM/130X_mcRun3_2022_realistic_v5-v2/30000/4068ed49-639c-4f26-bd8b-3dc4b949f6fd.root