/store/mc/Run3Summer22NanoAODv12/WtoLNu-2Jets_PTLNu-400to600_1J_TuneCP5_13p6TeV_amcatnloFXFX-pythia8/NANOAODSIM/130X_mcRun3_2022_realistic_v5-v1/2560000/03ecae3e-b54d-416a-b809-5ef1ef209754.root
/store/mc/Run3Summer22NanoAODv12/WtoLNu-2Jets_PTLNu-400to600_1J_TuneCP5_13p6TeV_amcatnloFXFX-pythia8/NANOAODSIM/130X_mcRun3_2022_realistic_v5-v1/2560000/99cddd8d-0359-4151-8fff-55743cd9be8c.root
/store/mc/Run3Summer22NanoAODv12/WtoLNu-2Jets_PTLNu-400to600_1J_TuneCP5_13p6TeV_amcatnloFXFX-pythia8/NANOAODSIM/130X_mcRun3_2022_realistic_v5-v1/2560000/c2348d51-6a38-41ee-b1c4-e28f3d04cc4c.root
/store/mc/Run3Summer22NanoAODv12/WtoLNu-2Jets_PTLNu-400to600_1J_TuneCP5_13p6TeV_amcatnloFXFX-pythia8/NANOAODSIM/130X_mcRun3_2022_realistic_v5-v1/2560000/34c2cfe2-4133-4cc2-9fda-d4de15cfbf2f.root
/store/mc/Run3Summer22NanoAODv12/WtoLNu-2Jets_PTLNu-400to600_1J_TuneCP5_13p6TeV_amcatnloFXFX-pythia8/NANOAODSIM/130X_mcRun3_2022_realistic_v5-v1/2560000/5ace1caa-09bb-464d-8902-2bb9869247d9.root
/store/mc/Run3Summer22NanoAODv12/WtoLNu-2Jets_PTLNu-400to600_1J_TuneCP5_13p6TeV_amcatnloFXFX-pythia8/NANOAODSIM/130X_mcRun3_2022_realistic_v5-v1/2560000/9d9bd5bb-e30d-44f1-931d-84f2fecaef29.root
/store/mc/Run3Summer22NanoAODv12/WtoLNu-2Jets_PTLNu-400to600_1J_TuneCP5_13p6TeV_amcatnloFXFX-pythia8/NANOAODSIM/130X_mcRun3_2022_realistic_v5-v1/2560000/a165b4b2-7323-4005-8825-7eeb65b6fb91.root
/store/mc/Run3Summer22NanoAODv12/WtoLNu-2Jets_PTLNu-400to600_1J_TuneCP5_13p6TeV_amcatnloFXFX-pythia8/NANOAODSIM/130X_mcRun3_2022_realistic_v5-v1/2560000/b4a4f81f-eae9-4c31-8181-9d8c7a7636a1.root
/store/mc/Run3Summer22NanoAODv12/WtoLNu-2Jets_PTLNu-400to600_1J_TuneCP5_13p6TeV_amcatnloFXFX-pythia8/NANOAODSIM/130X_mcRun3_2022_realistic_v5-v1/2560000/aeea7eb3-af5a-4e84-b698-3271f43e4214.root
/store/mc/Run3Summer22NanoAODv12/WtoLNu-2Jets_PTLNu-400to600_1J_TuneCP5_13p6TeV_amcatnloFXFX-pythia8/NANOAODSIM/130X_mcRun3_2022_realistic_v5-v1/2560000/a3f9ab08-ee22-4f8c-8d4c-32acac577965.root
/store/mc/Run3Summer22NanoAODv12/WtoLNu-2Jets_PTLNu-400to600_1J_TuneCP5_13p6TeV_amcatnloFXFX-pythia8/NANOAODSIM/130X_mcRun3_2022_realistic_v5-v1/2560000/9eaa06c9-9318-4be5-8969-1ed1503c85df.root
/store/mc/Run3Summer22NanoAODv12/WtoLNu-2Jets_PTLNu-400to600_1J_TuneCP5_13p6TeV_amcatnloFXFX-pythia8/NANOAODSIM/130X_mcRun3_2022_realistic_v5-v1/2560000/a0d5fbe2-91d4-4dd2-b4d9-76b7a264d5e7.root
/store/mc/Run3Summer22NanoAODv12/WtoLNu-2Jets_PTLNu-400to600_1J_TuneCP5_13p6TeV_amcatnloFXFX-pythia8/NANOAODSIM/130X_mcRun3_2022_realistic_v5-v1/2560000/58380959-eca5-4962-8762-82925bf6f2da.root
/store/mc/Run3Summer22NanoAODv12/WtoLNu-2Jets_PTLNu-400to600_1J_TuneCP5_13p6TeV_amcatnloFXFX-pythia8/NANOAODSIM/130X_mcRun3_2022_realistic_v5-v1/2560000/13d9d2e8-3883-4881-a3ae-d1cf7756838a.root
/store/mc/Run3Summer22NanoAODv12/WtoLNu-2Jets_PTLNu-400to600_1J_TuneCP5_13p6TeV_amcatnloFXFX-pythia8/NANOAODSIM/130X_mcRun3_2022_realistic_v5-v1/2560000/854cd75b-ee46-44c3-8490-8effcba6f66b.root
/store/mc/Run3Summer22NanoAODv12/WtoLNu-2Jets_PTLNu-400to600_1J_TuneCP5_13p6TeV_amcatnloFXFX-pythia8/NANOAODSIM/130X_mcRun3_2022_realistic_v5-v1/2560000/b2fedc48-fb6e-472e-9f0c-3b16d503bfea.root