/store/mc/Run3Summer22EENanoAODv12/DYto2L-2Jets_MLL-50_PTLL-200to400_1J_TuneCP5_13p6TeV_amcatnloFXFX-pythia8/NANOAODSIM/130X_mcRun3_2022_realistic_postEE_v6-v1/2550000/f21e4d18-e5fd-4bd3-b456-06872852bca0.root
/store/mc/Run3Summer22EENanoAODv12/DYto2L-2Jets_MLL-50_PTLL-200to400_1J_TuneCP5_13p6TeV_amcatnloFXFX-pythia8/NANOAODSIM/130X_mcRun3_2022_realistic_postEE_v6-v1/2550000/72f14f71-e36d-4b67-8ab2-675f665899af.root
/store/mc/Run3Summer22EENanoAODv12/DYto2L-2Jets_MLL-50_PTLL-200to400_1J_TuneCP5_13p6TeV_amcatnloFXFX-pythia8/NANOAODSIM/130X_mcRun3_2022_realistic_postEE_v6-v1/2560000/a28b1eb5-fab8-434c-85ec-e93d1de37b65.root
/store/mc/Run3Summer22EENanoAODv12/DYto2L-2Jets_MLL-50_PTLL-200to400_1J_TuneCP5_13p6TeV_amcatnloFXFX-pythia8/NANOAODSIM/130X_mcRun3_2022_realistic_postEE_v6-v1/2550000/2d9971fe-8d1d-415e-9bfc-cc08bdee1e81.root
/store/mc/Run3Summer22EENanoAODv12/DYto2L-2Jets_MLL-50_PTLL-200to400_1J_TuneCP5_13p6TeV_amcatnloFXFX-pythia8/NANOAODSIM/130X_mcRun3_2022_realistic_postEE_v6-v1/2550000/fcc2bad5-134d-409b-98ab-215b4153ec9b.root
/store/mc/Run3Summer22EENanoAODv12/DYto2L-2Jets_MLL-50_PTLL-200to400_1J_TuneCP5_13p6TeV_amcatnloFXFX-pythia8/NANOAODSIM/130X_mcRun3_2022_realistic_postEE_v6-v1/2560000/95b51b32-305a-4a34-95cb-c04391d7c29c.root
/store/mc/Run3Summer22EENanoAODv12/DYto2L-2Jets_MLL-50_PTLL-200to400_1J_TuneCP5_13p6TeV_amcatnloFXFX-pythia8/NANOAODSIM/130X_mcRun3_2022_realistic_postEE_v6-v1/2550000/e5d9580e-c75f-4583-9f1c-6ee80dccd874.root
/store/mc/Run3Summer22EENanoAODv12/DYto2L-2Jets_MLL-50_PTLL-200to400_1J_TuneCP5_13p6TeV_amcatnloFXFX-pythia8/NANOAODSIM/130X_mcRun3_2022_realistic_postEE_v6-v1/2550000/ff2f5a68-3609-42dc-a600-811313bedb12.root
/store/mc/Run3Summer22EENanoAODv12/DYto2L-2Jets_MLL-50_PTLL-200to400_1J_TuneCP5_13p6TeV_amcatnloFXFX-pythia8/NANOAODSIM/130X_mcRun3_2022_realistic_postEE_v6-v1/2550000/54101764-2afd-4423-8c7d-6d3c765912d4.root
/store/mc/Run3Summer22EENanoAODv12/DYto2L-2Jets_MLL-50_PTLL-200to400_1J_TuneCP5_13p6TeV_amcatnloFXFX-pythia8/NANOAODSIM/130X_mcRun3_2022_realistic_postEE_v6-v1/2550000/be21f7f3-696b-468c-8fe4-0f1e6eb70e1e.root
/store/mc/Run3Summer22EENanoAODv12/DYto2L-2Jets_MLL-50_PTLL-200to400_1J_TuneCP5_13p6TeV_amcatnloFXFX-pythia8/NANOAODSIM/130X_mcRun3_2022_realistic_postEE_v6-v1/2550000/45779571-d9ca-411a-8d15-86eedf6f8177.root
/store/mc/Run3Summer22EENanoAODv12/DYto2L-2Jets_MLL-50_PTLL-200to400_1J_TuneCP5_13p6TeV_amcatnloFXFX-pythia8/NANOAODSIM/130X_mcRun3_2022_realistic_postEE_v6-v1/2550000/342c8fc6-2151-45b5-9122-2c77012bf51f.root
/store/mc/Run3Summer22EENanoAODv12/DYto2L-2Jets_MLL-50_PTLL-200to400_1J_TuneCP5_13p6TeV_amcatnloFXFX-pythia8/NANOAODSIM/130X_mcRun3_2022_realistic_postEE_v6-v1/2550000/91e9e3f8-7e9e-4139-a382-023ba26212dd.root
/store/mc/Run3Summer22EENanoAODv12/DYto2L-2Jets_MLL-50_PTLL-200to400_1J_TuneCP5_13p6TeV_amcatnloFXFX-pythia8/NANOAODSIM/130X_mcRun3_2022_realistic_postEE_v6-v1/2550000/9d58e1e5-4fcc-4c4b-ae90-f26043f42a92.root
/store/mc/Run3Summer22EENanoAODv12/DYto2L-2Jets_MLL-50_PTLL-200to400_1J_TuneCP5_13p6TeV_amcatnloFXFX-pythia8/NANOAODSIM/130X_mcRun3_2022_realistic_postEE_v6-v1/2550000/fa0be662-c2d9-4786-92b2-de917fda0114.root
/store/mc/Run3Summer22EENanoAODv12/DYto2L-2Jets_MLL-50_PTLL-200to400_1J_TuneCP5_13p6TeV_amcatnloFXFX-pythia8/NANOAODSIM/130X_mcRun3_2022_realistic_postEE_v6-v1/2550000/33eecd28-33b6-42b0-9f31-005f7e50b081.root
/store/mc/Run3Summer22EENanoAODv12/DYto2L-2Jets_MLL-50_PTLL-200to400_1J_TuneCP5_13p6TeV_amcatnloFXFX-pythia8/NANOAODSIM/130X_mcRun3_2022_realistic_postEE_v6-v1/2550000/04b9349b-3353-430c-89c4-f1621422514c.root
/store/mc/Run3Summer22EENanoAODv12/DYto2L-2Jets_MLL-50_PTLL-200to400_1J_TuneCP5_13p6TeV_amcatnloFXFX-pythia8/NANOAODSIM/130X_mcRun3_2022_realistic_postEE_v6-v1/2550000/fa8ba143-70f9-49e4-88ed-977b42b3370f.root
/store/mc/Run3Summer22EENanoAODv12/DYto2L-2Jets_MLL-50_PTLL-200to400_1J_TuneCP5_13p6TeV_amcatnloFXFX-pythia8/NANOAODSIM/130X_mcRun3_2022_realistic_postEE_v6-v1/2550000/efe291e3-df5d-429c-babe-d66b3095744b.root
/store/mc/Run3Summer22EENanoAODv12/DYto2L-2Jets_MLL-50_PTLL-200to400_1J_TuneCP5_13p6TeV_amcatnloFXFX-pythia8/NANOAODSIM/130X_mcRun3_2022_realistic_postEE_v6-v1/2550000/486b7902-f120-4016-b3b0-99ce35c0c43a.root
/store/mc/Run3Summer22EENanoAODv12/DYto2L-2Jets_MLL-50_PTLL-200to400_1J_TuneCP5_13p6TeV_amcatnloFXFX-pythia8/NANOAODSIM/130X_mcRun3_2022_realistic_postEE_v6-v1/2550000/797842f9-0121-4585-b164-2327823621ef.root
/store/mc/Run3Summer22EENanoAODv12/DYto2L-2Jets_MLL-50_PTLL-200to400_1J_TuneCP5_13p6TeV_amcatnloFXFX-pythia8/NANOAODSIM/130X_mcRun3_2022_realistic_postEE_v6-v1/2550000/c917f044-b371-4a12-88ac-0620f5d315a0.root
/store/mc/Run3Summer22EENanoAODv12/DYto2L-2Jets_MLL-50_PTLL-200to400_1J_TuneCP5_13p6TeV_amcatnloFXFX-pythia8/NANOAODSIM/130X_mcRun3_2022_realistic_postEE_v6-v1/2550000/0c83e637-9c97-4024-a81a-c0afa3965a05.root
/store/mc/Run3Summer22EENanoAODv12/DYto2L-2Jets_MLL-50_PTLL-200to400_1J_TuneCP5_13p6TeV_amcatnloFXFX-pythia8/NANOAODSIM/130X_mcRun3_2022_realistic_postEE_v6-v1/2550000/c9a71d2c-0bc0-418b-8420-ca9fa570d45b.root
/store/mc/Run3Summer22EENanoAODv12/DYto2L-2Jets_MLL-50_PTLL-200to400_1J_TuneCP5_13p6TeV_amcatnloFXFX-pythia8/NANOAODSIM/130X_mcRun3_2022_realistic_postEE_v6-v1/2550000/82ca7f78-2a5d-4518-a292-90dec81e6166.root
/store/mc/Run3Summer22EENanoAODv12/DYto2L-2Jets_MLL-50_PTLL-200to400_1J_TuneCP5_13p6TeV_amcatnloFXFX-pythia8/NANOAODSIM/130X_mcRun3_2022_realistic_postEE_v6-v1/2550000/f6e0a28d-8c99-4a5a-9edf-6927214f6a9a.root
/store/mc/Run3Summer22EENanoAODv12/DYto2L-2Jets_MLL-50_PTLL-200to400_1J_TuneCP5_13p6TeV_amcatnloFXFX-pythia8/NANOAODSIM/130X_mcRun3_2022_realistic_postEE_v6-v1/2550000/26535ce3-1690-4915-982c-4f61113cd3ea.root
/store/mc/Run3Summer22EENanoAODv12/DYto2L-2Jets_MLL-50_PTLL-200to400_1J_TuneCP5_13p6TeV_amcatnloFXFX-pythia8/NANOAODSIM/130X_mcRun3_2022_realistic_postEE_v6-v1/2550000/d0e72738-d22f-403e-bbbf-ea7cb4e9a8dc.root
/store/mc/Run3Summer22EENanoAODv12/DYto2L-2Jets_MLL-50_PTLL-200to400_1J_TuneCP5_13p6TeV_amcatnloFXFX-pythia8/NANOAODSIM/130X_mcRun3_2022_realistic_postEE_v6-v1/2550000/a5824a44-5063-4bfa-b333-efd8e37dd873.root
/store/mc/Run3Summer22EENanoAODv12/DYto2L-2Jets_MLL-50_PTLL-200to400_1J_TuneCP5_13p6TeV_amcatnloFXFX-pythia8/NANOAODSIM/130X_mcRun3_2022_realistic_postEE_v6-v1/2550000/7a70e0a6-ddd1-45f4-a365-300bd52d22a8.root
/store/mc/Run3Summer22EENanoAODv12/DYto2L-2Jets_MLL-50_PTLL-200to400_1J_TuneCP5_13p6TeV_amcatnloFXFX-pythia8/NANOAODSIM/130X_mcRun3_2022_realistic_postEE_v6-v1/2550000/92c43860-e6b4-494e-bc02-b15190bd1824.root
/store/mc/Run3Summer22EENanoAODv12/DYto2L-2Jets_MLL-50_PTLL-200to400_1J_TuneCP5_13p6TeV_amcatnloFXFX-pythia8/NANOAODSIM/130X_mcRun3_2022_realistic_postEE_v6-v1/2550000/8371c9b2-548c-41dd-8193-42efad802867.root
/store/mc/Run3Summer22EENanoAODv12/DYto2L-2Jets_MLL-50_PTLL-200to400_1J_TuneCP5_13p6TeV_amcatnloFXFX-pythia8/NANOAODSIM/130X_mcRun3_2022_realistic_postEE_v6-v1/2550000/69d8c15c-ff6d-43b8-b4b4-fd736fb786f0.root
/store/mc/Run3Summer22EENanoAODv12/DYto2L-2Jets_MLL-50_PTLL-200to400_1J_TuneCP5_13p6TeV_amcatnloFXFX-pythia8/NANOAODSIM/130X_mcRun3_2022_realistic_postEE_v6-v1/2550000/749061fa-5a54-4aa0-8b09-b76db9f174fd.root
/store/mc/Run3Summer22EENanoAODv12/DYto2L-2Jets_MLL-50_PTLL-200to400_1J_TuneCP5_13p6TeV_amcatnloFXFX-pythia8/NANOAODSIM/130X_mcRun3_2022_realistic_postEE_v6-v1/2550000/fd357f7c-0680-454b-bba9-746065609bde.root
/store/mc/Run3Summer22EENanoAODv12/DYto2L-2Jets_MLL-50_PTLL-200to400_1J_TuneCP5_13p6TeV_amcatnloFXFX-pythia8/NANOAODSIM/130X_mcRun3_2022_realistic_postEE_v6-v1/2550000/a2fc4f62-7c0e-4ee2-8271-55c3e93acf9b.root
/store/mc/Run3Summer22EENanoAODv12/DYto2L-2Jets_MLL-50_PTLL-200to400_1J_TuneCP5_13p6TeV_amcatnloFXFX-pythia8/NANOAODSIM/130X_mcRun3_2022_realistic_postEE_v6-v1/2550000/a9d4f482-bd22-45eb-bf09-1d1853f7be9e.root
/store/mc/Run3Summer22EENanoAODv12/DYto2L-2Jets_MLL-50_PTLL-200to400_1J_TuneCP5_13p6TeV_amcatnloFXFX-pythia8/NANOAODSIM/130X_mcRun3_2022_realistic_postEE_v6-v1/2550000/4fb46c74-62ca-441c-8b67-4b3174b0d729.root
/store/mc/Run3Summer22EENanoAODv12/DYto2L-2Jets_MLL-50_PTLL-200to400_1J_TuneCP5_13p6TeV_amcatnloFXFX-pythia8/NANOAODSIM/130X_mcRun3_2022_realistic_postEE_v6-v1/2550000/8c0c7141-12bc-4c76-9b72-44c2be38ee0c.root
/store/mc/Run3Summer22EENanoAODv12/DYto2L-2Jets_MLL-50_PTLL-200to400_1J_TuneCP5_13p6TeV_amcatnloFXFX-pythia8/NANOAODSIM/130X_mcRun3_2022_realistic_postEE_v6-v1/2550000/b4107cff-8534-4354-bcb9-373d45031e52.root
/store/mc/Run3Summer22EENanoAODv12/DYto2L-2Jets_MLL-50_PTLL-200to400_1J_TuneCP5_13p6TeV_amcatnloFXFX-pythia8/NANOAODSIM/130X_mcRun3_2022_realistic_postEE_v6-v1/2550000/a793ee48-fcb4-43e1-9bf3-d14612c4e9f3.root
/store/mc/Run3Summer22EENanoAODv12/DYto2L-2Jets_MLL-50_PTLL-200to400_1J_TuneCP5_13p6TeV_amcatnloFXFX-pythia8/NANOAODSIM/130X_mcRun3_2022_realistic_postEE_v6-v1/2550000/b9bf9b1f-139d-457c-9294-e89a75896ae2.root
/store/mc/Run3Summer22EENanoAODv12/DYto2L-2Jets_MLL-50_PTLL-200to400_1J_TuneCP5_13p6TeV_amcatnloFXFX-pythia8/NANOAODSIM/130X_mcRun3_2022_realistic_postEE_v6-v1/2550000/a67e6474-58e3-4250-a40c-19fc96141144.root
/store/mc/Run3Summer22EENanoAODv12/DYto2L-2Jets_MLL-50_PTLL-200to400_1J_TuneCP5_13p6TeV_amcatnloFXFX-pythia8/NANOAODSIM/130X_mcRun3_2022_realistic_postEE_v6-v1/2550000/9d4bf9c9-4095-4109-ab5b-080ac256a3ff.root
/store/mc/Run3Summer22EENanoAODv12/DYto2L-2Jets_MLL-50_PTLL-200to400_1J_TuneCP5_13p6TeV_amcatnloFXFX-pythia8/NANOAODSIM/130X_mcRun3_2022_realistic_postEE_v6-v1/50000/3093cea4-d43e-4b02-a8bc-70ca3243cac3.root
/store/mc/Run3Summer22EENanoAODv12/DYto2L-2Jets_MLL-50_PTLL-200to400_1J_TuneCP5_13p6TeV_amcatnloFXFX-pythia8/NANOAODSIM/130X_mcRun3_2022_realistic_postEE_v6-v1/50000/12e5d557-f333-4bd9-8199-27bb81675ae3.root
/store/mc/Run3Summer22EENanoAODv12/DYto2L-2Jets_MLL-50_PTLL-200to400_1J_TuneCP5_13p6TeV_amcatnloFXFX-pythia8/NANOAODSIM/130X_mcRun3_2022_realistic_postEE_v6-v1/50000/16015061-cff9-4b83-a410-859acc9fb9f6.root
/store/mc/Run3Summer22EENanoAODv12/DYto2L-2Jets_MLL-50_PTLL-200to400_1J_TuneCP5_13p6TeV_amcatnloFXFX-pythia8/NANOAODSIM/130X_mcRun3_2022_realistic_postEE_v6-v1/50000/f36c206e-be15-4440-af93-53442b03dbeb.root
/store/mc/Run3Summer22EENanoAODv12/DYto2L-2Jets_MLL-50_PTLL-200to400_1J_TuneCP5_13p6TeV_amcatnloFXFX-pythia8/NANOAODSIM/130X_mcRun3_2022_realistic_postEE_v6-v1/50000/b32fac9d-2a8f-437e-bddf-13de2007b9e8.root
/store/mc/Run3Summer22EENanoAODv12/DYto2L-2Jets_MLL-50_PTLL-200to400_1J_TuneCP5_13p6TeV_amcatnloFXFX-pythia8/NANOAODSIM/130X_mcRun3_2022_realistic_postEE_v6-v1/50000/5f4aa204-03f6-4ef9-8f8f-a74ddb23f73a.root
/store/mc/Run3Summer22EENanoAODv12/DYto2L-2Jets_MLL-50_PTLL-200to400_1J_TuneCP5_13p6TeV_amcatnloFXFX-pythia8/NANOAODSIM/130X_mcRun3_2022_realistic_postEE_v6-v1/50000/24816862-256d-4eff-be64-b514924a53a0.root
/store/mc/Run3Summer22EENanoAODv12/DYto2L-2Jets_MLL-50_PTLL-200to400_1J_TuneCP5_13p6TeV_amcatnloFXFX-pythia8/NANOAODSIM/130X_mcRun3_2022_realistic_postEE_v6-v1/50000/c5362478-d41e-418f-9716-a2c4ea4394d4.root
/store/mc/Run3Summer22EENanoAODv12/DYto2L-2Jets_MLL-50_PTLL-200to400_1J_TuneCP5_13p6TeV_amcatnloFXFX-pythia8/NANOAODSIM/130X_mcRun3_2022_realistic_postEE_v6-v1/50000/6a2024b2-b39b-47f4-8838-71e43013ad72.root
/store/mc/Run3Summer22EENanoAODv12/DYto2L-2Jets_MLL-50_PTLL-200to400_1J_TuneCP5_13p6TeV_amcatnloFXFX-pythia8/NANOAODSIM/130X_mcRun3_2022_realistic_postEE_v6-v1/50000/7781a079-ddf6-42f8-ac9e-5f9241c32d46.root
/store/mc/Run3Summer22EENanoAODv12/DYto2L-2Jets_MLL-50_PTLL-200to400_1J_TuneCP5_13p6TeV_amcatnloFXFX-pythia8/NANOAODSIM/130X_mcRun3_2022_realistic_postEE_v6-v1/50000/5748e3b0-da9b-410c-9d09-2a49cde25de8.root
/store/mc/Run3Summer22EENanoAODv12/DYto2L-2Jets_MLL-50_PTLL-200to400_1J_TuneCP5_13p6TeV_amcatnloFXFX-pythia8/NANOAODSIM/130X_mcRun3_2022_realistic_postEE_v6-v1/50000/8f58f3cd-273f-4b40-92ba-bc2b04c96f72.root
/store/mc/Run3Summer22EENanoAODv12/DYto2L-2Jets_MLL-50_PTLL-200to400_1J_TuneCP5_13p6TeV_amcatnloFXFX-pythia8/NANOAODSIM/130X_mcRun3_2022_realistic_postEE_v6-v1/50000/2ab7ac00-ffd3-41fc-a31e-eff70bc8e295.root
/store/mc/Run3Summer22EENanoAODv12/DYto2L-2Jets_MLL-50_PTLL-200to400_1J_TuneCP5_13p6TeV_amcatnloFXFX-pythia8/NANOAODSIM/130X_mcRun3_2022_realistic_postEE_v6-v1/50000/f016ed37-704b-43db-95a7-bbf1b6768fb2.root
/store/mc/Run3Summer22EENanoAODv12/DYto2L-2Jets_MLL-50_PTLL-200to400_1J_TuneCP5_13p6TeV_amcatnloFXFX-pythia8/NANOAODSIM/130X_mcRun3_2022_realistic_postEE_v6-v1/50000/d3574b00-ccc1-4215-b478-190b5cf9dc53.root
/store/mc/Run3Summer22EENanoAODv12/DYto2L-2Jets_MLL-50_PTLL-200to400_1J_TuneCP5_13p6TeV_amcatnloFXFX-pythia8/NANOAODSIM/130X_mcRun3_2022_realistic_postEE_v6-v1/50000/d1896e53-19a7-4b42-ab95-ab0486c51a56.root
/store/mc/Run3Summer22EENanoAODv12/DYto2L-2Jets_MLL-50_PTLL-200to400_1J_TuneCP5_13p6TeV_amcatnloFXFX-pythia8/NANOAODSIM/130X_mcRun3_2022_realistic_postEE_v6-v1/50000/c278f0ac-3b5a-47ec-b4c1-8c9a4ed036d3.root