/store/mc/Run3Summer22EENanoAODv12/DYto2L-2Jets_MLL-50_2J_TuneCP5_13p6TeV_amcatnloFXFX-pythia8/NANOAODSIM/130X_mcRun3_2022_realistic_postEE_v6-v2/2520000/e3687ce2-2ac1-434a-a2f5-5aae362125b8.root
/store/mc/Run3Summer22EENanoAODv12/DYto2L-2Jets_MLL-50_2J_TuneCP5_13p6TeV_amcatnloFXFX-pythia8/NANOAODSIM/130X_mcRun3_2022_realistic_postEE_v6-v2/2520000/f7720338-f47e-4ffe-b1db-d91a75ecf411.root
/store/mc/Run3Summer22EENanoAODv12/DYto2L-2Jets_MLL-50_2J_TuneCP5_13p6TeV_amcatnloFXFX-pythia8/NANOAODSIM/130X_mcRun3_2022_realistic_postEE_v6-v2/2520000/f3d499d1-14b4-42a7-ba6d-acf6f0db451c.root
/store/mc/Run3Summer22EENanoAODv12/DYto2L-2Jets_MLL-50_2J_TuneCP5_13p6TeV_amcatnloFXFX-pythia8/NANOAODSIM/130X_mcRun3_2022_realistic_postEE_v6-v2/2520000/06a22473-78f9-4219-ba2f-304e2c08b0b2.root
/store/mc/Run3Summer22EENanoAODv12/DYto2L-2Jets_MLL-50_2J_TuneCP5_13p6TeV_amcatnloFXFX-pythia8/NANOAODSIM/130X_mcRun3_2022_realistic_postEE_v6-v2/2520000/b6ac289c-b2f8-49c7-ad24-012858e3b271.root
/store/mc/Run3Summer22EENanoAODv12/DYto2L-2Jets_MLL-50_2J_TuneCP5_13p6TeV_amcatnloFXFX-pythia8/NANOAODSIM/130X_mcRun3_2022_realistic_postEE_v6-v2/2520000/6eb2472c-929d-4240-a7fc-f9670acbd01a.root
/store/mc/Run3Summer22EENanoAODv12/DYto2L-2Jets_MLL-50_2J_TuneCP5_13p6TeV_amcatnloFXFX-pythia8/NANOAODSIM/130X_mcRun3_2022_realistic_postEE_v6-v2/2520000/793fb314-3218-4b93-8601-50442a3c0623.root
/store/mc/Run3Summer22EENanoAODv12/DYto2L-2Jets_MLL-50_2J_TuneCP5_13p6TeV_amcatnloFXFX-pythia8/NANOAODSIM/130X_mcRun3_2022_realistic_postEE_v6-v2/2520000/d993753f-a696-4614-a448-1f60524ca745.root
/store/mc/Run3Summer22EENanoAODv12/DYto2L-2Jets_MLL-50_2J_TuneCP5_13p6TeV_amcatnloFXFX-pythia8/NANOAODSIM/130X_mcRun3_2022_realistic_postEE_v6-v2/2520000/5d75673f-97f9-4dd2-b641-82b0031776a8.root
/store/mc/Run3Summer22EENanoAODv12/DYto2L-2Jets_MLL-50_2J_TuneCP5_13p6TeV_amcatnloFXFX-pythia8/NANOAODSIM/130X_mcRun3_2022_realistic_postEE_v6-v2/2520000/002c9e5a-7b9f-4518-9266-93d4cd1a418d.root
/store/mc/Run3Summer22EENanoAODv12/DYto2L-2Jets_MLL-50_2J_TuneCP5_13p6TeV_amcatnloFXFX-pythia8/NANOAODSIM/130X_mcRun3_2022_realistic_postEE_v6-v2/2520000/363bf3e7-67a5-4f80-993d-0e69210e2cf9.root
/store/mc/Run3Summer22EENanoAODv12/DYto2L-2Jets_MLL-50_2J_TuneCP5_13p6TeV_amcatnloFXFX-pythia8/NANOAODSIM/130X_mcRun3_2022_realistic_postEE_v6-v2/2520000/0f559920-67ed-4dfc-b5ec-70749e8ac4ba.root
/store/mc/Run3Summer22EENanoAODv12/DYto2L-2Jets_MLL-50_2J_TuneCP5_13p6TeV_amcatnloFXFX-pythia8/NANOAODSIM/130X_mcRun3_2022_realistic_postEE_v6-v2/2520000/1a8fa5e8-3201-4bd4-905a-017400cbf20c.root
/store/mc/Run3Summer22EENanoAODv12/DYto2L-2Jets_MLL-50_2J_TuneCP5_13p6TeV_amcatnloFXFX-pythia8/NANOAODSIM/130X_mcRun3_2022_realistic_postEE_v6-v2/2520000/25e3bed1-9627-4abe-8640-692690374958.root
/store/mc/Run3Summer22EENanoAODv12/DYto2L-2Jets_MLL-50_2J_TuneCP5_13p6TeV_amcatnloFXFX-pythia8/NANOAODSIM/130X_mcRun3_2022_realistic_postEE_v6-v2/2520000/90107991-8ef5-448e-b150-61bd09393cf9.root
/store/mc/Run3Summer22EENanoAODv12/DYto2L-2Jets_MLL-50_2J_TuneCP5_13p6TeV_amcatnloFXFX-pythia8/NANOAODSIM/130X_mcRun3_2022_realistic_postEE_v6-v2/2520000/5060ccb7-35c7-4c73-aef6-0ac3af990f36.root
/store/mc/Run3Summer22EENanoAODv12/DYto2L-2Jets_MLL-50_2J_TuneCP5_13p6TeV_amcatnloFXFX-pythia8/NANOAODSIM/130X_mcRun3_2022_realistic_postEE_v6-v2/2520000/187174bc-cd7e-4802-be67-4ff30cc40106.root
/store/mc/Run3Summer22EENanoAODv12/DYto2L-2Jets_MLL-50_2J_TuneCP5_13p6TeV_amcatnloFXFX-pythia8/NANOAODSIM/130X_mcRun3_2022_realistic_postEE_v6-v2/2520000/d20d474f-f449-4a28-adc8-40c9307403c3.root
/store/mc/Run3Summer22EENanoAODv12/DYto2L-2Jets_MLL-50_2J_TuneCP5_13p6TeV_amcatnloFXFX-pythia8/NANOAODSIM/130X_mcRun3_2022_realistic_postEE_v6-v2/2520000/79c96785-afdd-45f4-9a7b-4d3c6435e867.root
/store/mc/Run3Summer22EENanoAODv12/DYto2L-2Jets_MLL-50_2J_TuneCP5_13p6TeV_amcatnloFXFX-pythia8/NANOAODSIM/130X_mcRun3_2022_realistic_postEE_v6-v2/2520000/f93ff1c0-93b6-42fc-99d3-2eb091bac217.root
/store/mc/Run3Summer22EENanoAODv12/DYto2L-2Jets_MLL-50_2J_TuneCP5_13p6TeV_amcatnloFXFX-pythia8/NANOAODSIM/130X_mcRun3_2022_realistic_postEE_v6-v2/2520000/22f6cfab-2f92-4056-96f0-40128f4bef44.root
/store/mc/Run3Summer22EENanoAODv12/DYto2L-2Jets_MLL-50_2J_TuneCP5_13p6TeV_amcatnloFXFX-pythia8/NANOAODSIM/130X_mcRun3_2022_realistic_postEE_v6-v2/2520000/7e8884f9-70cb-419b-908a-7eba1dafba35.root
/store/mc/Run3Summer22EENanoAODv12/DYto2L-2Jets_MLL-50_2J_TuneCP5_13p6TeV_amcatnloFXFX-pythia8/NANOAODSIM/130X_mcRun3_2022_realistic_postEE_v6-v2/2520000/2b26c025-379f-4693-8437-3deb725b6265.root
/store/mc/Run3Summer22EENanoAODv12/DYto2L-2Jets_MLL-50_2J_TuneCP5_13p6TeV_amcatnloFXFX-pythia8/NANOAODSIM/130X_mcRun3_2022_realistic_postEE_v6-v2/2520000/8f262174-7e58-40f2-914d-c1480e4e019e.root
/store/mc/Run3Summer22EENanoAODv12/DYto2L-2Jets_MLL-50_2J_TuneCP5_13p6TeV_amcatnloFXFX-pythia8/NANOAODSIM/130X_mcRun3_2022_realistic_postEE_v6-v2/2520000/9cd0e065-7798-46ac-a0f8-a2d1986420f4.root
/store/mc/Run3Summer22EENanoAODv12/DYto2L-2Jets_MLL-50_2J_TuneCP5_13p6TeV_amcatnloFXFX-pythia8/NANOAODSIM/130X_mcRun3_2022_realistic_postEE_v6-v2/2520000/451f10dd-fb3d-4ed4-96fe-39c22049f777.root
/store/mc/Run3Summer22EENanoAODv12/DYto2L-2Jets_MLL-50_2J_TuneCP5_13p6TeV_amcatnloFXFX-pythia8/NANOAODSIM/130X_mcRun3_2022_realistic_postEE_v6-v2/2520000/4df5e598-d7cc-4eda-87e3-29e85b3572d6.root
/store/mc/Run3Summer22EENanoAODv12/DYto2L-2Jets_MLL-50_2J_TuneCP5_13p6TeV_amcatnloFXFX-pythia8/NANOAODSIM/130X_mcRun3_2022_realistic_postEE_v6-v2/2520000/11e4c29a-09d2-48c5-bf15-9f47c1ef9e35.root
/store/mc/Run3Summer22EENanoAODv12/DYto2L-2Jets_MLL-50_2J_TuneCP5_13p6TeV_amcatnloFXFX-pythia8/NANOAODSIM/130X_mcRun3_2022_realistic_postEE_v6-v2/2520000/a7a9292e-2de6-4d49-92b9-1feae684153e.root
/store/mc/Run3Summer22EENanoAODv12/DYto2L-2Jets_MLL-50_2J_TuneCP5_13p6TeV_amcatnloFXFX-pythia8/NANOAODSIM/130X_mcRun3_2022_realistic_postEE_v6-v2/2520000/cdb097d0-0857-47d7-a2d0-4d8283ab83b7.root
/store/mc/Run3Summer22EENanoAODv12/DYto2L-2Jets_MLL-50_2J_TuneCP5_13p6TeV_amcatnloFXFX-pythia8/NANOAODSIM/130X_mcRun3_2022_realistic_postEE_v6-v2/2520000/ad55fce7-1539-485e-a387-1650ebc9d442.root
/store/mc/Run3Summer22EENanoAODv12/DYto2L-2Jets_MLL-50_2J_TuneCP5_13p6TeV_amcatnloFXFX-pythia8/NANOAODSIM/130X_mcRun3_2022_realistic_postEE_v6-v2/2520000/b2bda53e-bbf9-43e6-80f4-b1f7f55e85ee.root
/store/mc/Run3Summer22EENanoAODv12/DYto2L-2Jets_MLL-50_2J_TuneCP5_13p6TeV_amcatnloFXFX-pythia8/NANOAODSIM/130X_mcRun3_2022_realistic_postEE_v6-v2/2520000/b8f6ea62-f667-4726-9f3d-8fc9755fc893.root
/store/mc/Run3Summer22EENanoAODv12/DYto2L-2Jets_MLL-50_2J_TuneCP5_13p6TeV_amcatnloFXFX-pythia8/NANOAODSIM/130X_mcRun3_2022_realistic_postEE_v6-v2/2520000/21f819ab-1fd2-4d3d-beea-259951094420.root
/store/mc/Run3Summer22EENanoAODv12/DYto2L-2Jets_MLL-50_2J_TuneCP5_13p6TeV_amcatnloFXFX-pythia8/NANOAODSIM/130X_mcRun3_2022_realistic_postEE_v6-v2/2520000/abd3b6c3-1478-4269-8d97-37911218ae61.root
/store/mc/Run3Summer22EENanoAODv12/DYto2L-2Jets_MLL-50_2J_TuneCP5_13p6TeV_amcatnloFXFX-pythia8/NANOAODSIM/130X_mcRun3_2022_realistic_postEE_v6-v2/2520000/956d1f2d-34db-4c95-8ebf-619325ec75ca.root
/store/mc/Run3Summer22EENanoAODv12/DYto2L-2Jets_MLL-50_2J_TuneCP5_13p6TeV_amcatnloFXFX-pythia8/NANOAODSIM/130X_mcRun3_2022_realistic_postEE_v6-v2/2520000/89eb3a92-46b1-4901-9070-6719793857a3.root
/store/mc/Run3Summer22EENanoAODv12/DYto2L-2Jets_MLL-50_2J_TuneCP5_13p6TeV_amcatnloFXFX-pythia8/NANOAODSIM/130X_mcRun3_2022_realistic_postEE_v6-v2/2520000/c9b9a578-fe2d-47af-8335-4b1c44d1cd1a.root
/store/mc/Run3Summer22EENanoAODv12/DYto2L-2Jets_MLL-50_2J_TuneCP5_13p6TeV_amcatnloFXFX-pythia8/NANOAODSIM/130X_mcRun3_2022_realistic_postEE_v6-v2/2520000/04f4cdc4-f105-485f-abdf-f2837f1fa3a6.root
/store/mc/Run3Summer22EENanoAODv12/DYto2L-2Jets_MLL-50_2J_TuneCP5_13p6TeV_amcatnloFXFX-pythia8/NANOAODSIM/130X_mcRun3_2022_realistic_postEE_v6-v2/2540000/7344d006-3699-41ff-84af-24d33dd60b9e.root
/store/mc/Run3Summer22EENanoAODv12/DYto2L-2Jets_MLL-50_2J_TuneCP5_13p6TeV_amcatnloFXFX-pythia8/NANOAODSIM/130X_mcRun3_2022_realistic_postEE_v6-v2/2520000/b1fdf9b6-a853-41d1-9752-14d5d53ce747.root
/store/mc/Run3Summer22EENanoAODv12/DYto2L-2Jets_MLL-50_2J_TuneCP5_13p6TeV_amcatnloFXFX-pythia8/NANOAODSIM/130X_mcRun3_2022_realistic_postEE_v6-v2/2520000/236723fc-4020-44fa-aaaa-8da2be646486.root
/store/mc/Run3Summer22EENanoAODv12/DYto2L-2Jets_MLL-50_2J_TuneCP5_13p6TeV_amcatnloFXFX-pythia8/NANOAODSIM/130X_mcRun3_2022_realistic_postEE_v6-v2/2520000/33a25b3e-c131-464a-809c-e26b65d5e5b1.root
/store/mc/Run3Summer22EENanoAODv12/DYto2L-2Jets_MLL-50_2J_TuneCP5_13p6TeV_amcatnloFXFX-pythia8/NANOAODSIM/130X_mcRun3_2022_realistic_postEE_v6-v2/2520000/26d82e5f-8b4d-4c92-bba5-651fc42239fe.root
/store/mc/Run3Summer22EENanoAODv12/DYto2L-2Jets_MLL-50_2J_TuneCP5_13p6TeV_amcatnloFXFX-pythia8/NANOAODSIM/130X_mcRun3_2022_realistic_postEE_v6-v2/2520000/4a3f5c3a-596e-496e-adb2-933d948ae114.root
/store/mc/Run3Summer22EENanoAODv12/DYto2L-2Jets_MLL-50_2J_TuneCP5_13p6TeV_amcatnloFXFX-pythia8/NANOAODSIM/130X_mcRun3_2022_realistic_postEE_v6-v2/2520000/6d957605-15a0-4d08-a053-4d0b5bf6dd30.root
/store/mc/Run3Summer22EENanoAODv12/DYto2L-2Jets_MLL-50_2J_TuneCP5_13p6TeV_amcatnloFXFX-pythia8/NANOAODSIM/130X_mcRun3_2022_realistic_postEE_v6-v2/2520000/baa21df7-f5f5-4398-9474-e54ac128cc65.root
/store/mc/Run3Summer22EENanoAODv12/DYto2L-2Jets_MLL-50_2J_TuneCP5_13p6TeV_amcatnloFXFX-pythia8/NANOAODSIM/130X_mcRun3_2022_realistic_postEE_v6-v2/50000/74db6195-9fb8-4617-bbfe-f004e7cdded3.root
/store/mc/Run3Summer22EENanoAODv12/DYto2L-2Jets_MLL-50_2J_TuneCP5_13p6TeV_amcatnloFXFX-pythia8/NANOAODSIM/130X_mcRun3_2022_realistic_postEE_v6-v2/50000/5f9b3141-d589-4cdb-ade3-8a5c51db6d4f.root
/store/mc/Run3Summer22EENanoAODv12/DYto2L-2Jets_MLL-50_2J_TuneCP5_13p6TeV_amcatnloFXFX-pythia8/NANOAODSIM/130X_mcRun3_2022_realistic_postEE_v6-v2/50000/fc462666-fa31-44f2-b385-a31cbb199be3.root
/store/mc/Run3Summer22EENanoAODv12/DYto2L-2Jets_MLL-50_2J_TuneCP5_13p6TeV_amcatnloFXFX-pythia8/NANOAODSIM/130X_mcRun3_2022_realistic_postEE_v6-v2/50000/0340e97f-73bc-493a-9db8-b8aa238c64d9.root
/store/mc/Run3Summer22EENanoAODv12/DYto2L-2Jets_MLL-50_2J_TuneCP5_13p6TeV_amcatnloFXFX-pythia8/NANOAODSIM/130X_mcRun3_2022_realistic_postEE_v6-v2/50000/b8be564f-af66-444b-add7-2890c27763bf.root
/store/mc/Run3Summer22EENanoAODv12/DYto2L-2Jets_MLL-50_2J_TuneCP5_13p6TeV_amcatnloFXFX-pythia8/NANOAODSIM/130X_mcRun3_2022_realistic_postEE_v6-v2/50000/24c0e177-87ef-4ce6-8ab0-2db7191ef12d.root
/store/mc/Run3Summer22EENanoAODv12/DYto2L-2Jets_MLL-50_2J_TuneCP5_13p6TeV_amcatnloFXFX-pythia8/NANOAODSIM/130X_mcRun3_2022_realistic_postEE_v6-v2/50000/ebc47866-7a3a-4c7d-9d25-d0d76778eaf4.root
/store/mc/Run3Summer22EENanoAODv12/DYto2L-2Jets_MLL-50_2J_TuneCP5_13p6TeV_amcatnloFXFX-pythia8/NANOAODSIM/130X_mcRun3_2022_realistic_postEE_v6-v2/50000/14467010-17e6-4906-b07d-54781d76bf66.root
/store/mc/Run3Summer22EENanoAODv12/DYto2L-2Jets_MLL-50_2J_TuneCP5_13p6TeV_amcatnloFXFX-pythia8/NANOAODSIM/130X_mcRun3_2022_realistic_postEE_v6-v2/50000/9ae383b0-01ef-4d0d-aafc-61f76057a401.root
/store/mc/Run3Summer22EENanoAODv12/DYto2L-2Jets_MLL-50_2J_TuneCP5_13p6TeV_amcatnloFXFX-pythia8/NANOAODSIM/130X_mcRun3_2022_realistic_postEE_v6-v2/50000/820e062e-6b98-4d51-b161-66464ef43058.root
/store/mc/Run3Summer22EENanoAODv12/DYto2L-2Jets_MLL-50_2J_TuneCP5_13p6TeV_amcatnloFXFX-pythia8/NANOAODSIM/130X_mcRun3_2022_realistic_postEE_v6-v2/50000/0804db55-161e-4b5a-a5bd-acc348fd0152.root
/store/mc/Run3Summer22EENanoAODv12/DYto2L-2Jets_MLL-50_2J_TuneCP5_13p6TeV_amcatnloFXFX-pythia8/NANOAODSIM/130X_mcRun3_2022_realistic_postEE_v6-v2/2540000/ef1a9d6f-02d5-48a9-8fb7-f607238c3404.root
/store/mc/Run3Summer22EENanoAODv12/DYto2L-2Jets_MLL-50_2J_TuneCP5_13p6TeV_amcatnloFXFX-pythia8/NANOAODSIM/130X_mcRun3_2022_realistic_postEE_v6-v2/50000/6bb3f2ff-1a13-4119-8886-525321054ca3.root
/store/mc/Run3Summer22EENanoAODv12/DYto2L-2Jets_MLL-50_2J_TuneCP5_13p6TeV_amcatnloFXFX-pythia8/NANOAODSIM/130X_mcRun3_2022_realistic_postEE_v6-v2/50000/072bdde6-4f33-4be0-a7ca-e493653984db.root
/store/mc/Run3Summer22EENanoAODv12/DYto2L-2Jets_MLL-50_2J_TuneCP5_13p6TeV_amcatnloFXFX-pythia8/NANOAODSIM/130X_mcRun3_2022_realistic_postEE_v6-v2/50000/582dcfd0-c111-4829-9ae9-30bdde80e588.root
/store/mc/Run3Summer22EENanoAODv12/DYto2L-2Jets_MLL-50_2J_TuneCP5_13p6TeV_amcatnloFXFX-pythia8/NANOAODSIM/130X_mcRun3_2022_realistic_postEE_v6-v2/50000/fc176b92-4d5c-41d2-8a15-4070018ad671.root
/store/mc/Run3Summer22EENanoAODv12/DYto2L-2Jets_MLL-50_2J_TuneCP5_13p6TeV_amcatnloFXFX-pythia8/NANOAODSIM/130X_mcRun3_2022_realistic_postEE_v6-v2/30000/36169c8e-353f-4acb-aa32-8c76bb2457b3.root
/store/mc/Run3Summer22EENanoAODv12/DYto2L-2Jets_MLL-50_2J_TuneCP5_13p6TeV_amcatnloFXFX-pythia8/NANOAODSIM/130X_mcRun3_2022_realistic_postEE_v6-v2/30000/1f27fbc4-f416-48bb-9091-9209c0cbd6c1.root
/store/mc/Run3Summer22EENanoAODv12/DYto2L-2Jets_MLL-50_2J_TuneCP5_13p6TeV_amcatnloFXFX-pythia8/NANOAODSIM/130X_mcRun3_2022_realistic_postEE_v6-v2/30000/cc7d09bf-6b28-42d7-a510-f7e0d99bc5fa.root
/store/mc/Run3Summer22EENanoAODv12/DYto2L-2Jets_MLL-50_2J_TuneCP5_13p6TeV_amcatnloFXFX-pythia8/NANOAODSIM/130X_mcRun3_2022_realistic_postEE_v6-v2/30000/33081e90-71ea-406d-9630-44808daba603.root
/store/mc/Run3Summer22EENanoAODv12/DYto2L-2Jets_MLL-50_2J_TuneCP5_13p6TeV_amcatnloFXFX-pythia8/NANOAODSIM/130X_mcRun3_2022_realistic_postEE_v6-v2/30000/c984607e-9b07-453c-9272-9c30d3e178d7.root
/store/mc/Run3Summer22EENanoAODv12/DYto2L-2Jets_MLL-50_2J_TuneCP5_13p6TeV_amcatnloFXFX-pythia8/NANOAODSIM/130X_mcRun3_2022_realistic_postEE_v6-v2/30000/2d6542a7-4e15-479e-922c-3b4b80b4fbed.root
/store/mc/Run3Summer22EENanoAODv12/DYto2L-2Jets_MLL-50_2J_TuneCP5_13p6TeV_amcatnloFXFX-pythia8/NANOAODSIM/130X_mcRun3_2022_realistic_postEE_v6-v2/30000/96e6741e-bd09-48dc-b95d-973ae3b622b6.root
/store/mc/Run3Summer22EENanoAODv12/DYto2L-2Jets_MLL-50_2J_TuneCP5_13p6TeV_amcatnloFXFX-pythia8/NANOAODSIM/130X_mcRun3_2022_realistic_postEE_v6-v2/30000/2dc456ca-2b4c-46f2-844a-aecfa90796ac.root
/store/mc/Run3Summer22EENanoAODv12/DYto2L-2Jets_MLL-50_2J_TuneCP5_13p6TeV_amcatnloFXFX-pythia8/NANOAODSIM/130X_mcRun3_2022_realistic_postEE_v6-v2/2520000/12017188-e670-44af-a573-fa90da90a2c2.root
/store/mc/Run3Summer22EENanoAODv12/DYto2L-2Jets_MLL-50_2J_TuneCP5_13p6TeV_amcatnloFXFX-pythia8/NANOAODSIM/130X_mcRun3_2022_realistic_postEE_v6-v2/2520000/115cd84b-7c2b-4247-8d49-3b345296099d.root
/store/mc/Run3Summer22EENanoAODv12/DYto2L-2Jets_MLL-50_2J_TuneCP5_13p6TeV_amcatnloFXFX-pythia8/NANOAODSIM/130X_mcRun3_2022_realistic_postEE_v6-v2/2520000/f4fe61ce-66d6-431d-aa7d-98b52b629c12.root
/store/mc/Run3Summer22EENanoAODv12/DYto2L-2Jets_MLL-50_2J_TuneCP5_13p6TeV_amcatnloFXFX-pythia8/NANOAODSIM/130X_mcRun3_2022_realistic_postEE_v6-v2/2520000/205fa561-aab2-4906-9e33-b74b513e23ce.root
/store/mc/Run3Summer22EENanoAODv12/DYto2L-2Jets_MLL-50_2J_TuneCP5_13p6TeV_amcatnloFXFX-pythia8/NANOAODSIM/130X_mcRun3_2022_realistic_postEE_v6-v2/2520000/a75414a1-ecab-4ba7-bdf6-8d35bc72fc9e.root
/store/mc/Run3Summer22EENanoAODv12/DYto2L-2Jets_MLL-50_2J_TuneCP5_13p6TeV_amcatnloFXFX-pythia8/NANOAODSIM/130X_mcRun3_2022_realistic_postEE_v6-v2/2520000/45cd705c-49fe-44c4-b8e8-6ded11733eda.root
/store/mc/Run3Summer22EENanoAODv12/DYto2L-2Jets_MLL-50_2J_TuneCP5_13p6TeV_amcatnloFXFX-pythia8/NANOAODSIM/130X_mcRun3_2022_realistic_postEE_v6-v2/2520000/ecd4f73d-4b1c-430b-b4af-3942df971962.root
/store/mc/Run3Summer22EENanoAODv12/DYto2L-2Jets_MLL-50_2J_TuneCP5_13p6TeV_amcatnloFXFX-pythia8/NANOAODSIM/130X_mcRun3_2022_realistic_postEE_v6-v2/2520000/b0756dbe-9bdc-407e-890c-3b37f81fe226.root
/store/mc/Run3Summer22EENanoAODv12/DYto2L-2Jets_MLL-50_2J_TuneCP5_13p6TeV_amcatnloFXFX-pythia8/NANOAODSIM/130X_mcRun3_2022_realistic_postEE_v6-v2/50000/57eaf4b6-8bd9-421b-b6f3-38a6aa5302cc.root
/store/mc/Run3Summer22EENanoAODv12/DYto2L-2Jets_MLL-50_2J_TuneCP5_13p6TeV_amcatnloFXFX-pythia8/NANOAODSIM/130X_mcRun3_2022_realistic_postEE_v6-v2/50000/04fa7592-a10b-4b94-83e6-4e22c0ffb489.root
/store/mc/Run3Summer22EENanoAODv12/DYto2L-2Jets_MLL-50_2J_TuneCP5_13p6TeV_amcatnloFXFX-pythia8/NANOAODSIM/130X_mcRun3_2022_realistic_postEE_v6-v2/50000/c7ef13c2-4500-41cf-a65f-eab98679415e.root
/store/mc/Run3Summer22EENanoAODv12/DYto2L-2Jets_MLL-50_2J_TuneCP5_13p6TeV_amcatnloFXFX-pythia8/NANOAODSIM/130X_mcRun3_2022_realistic_postEE_v6-v2/50000/ae0b5d74-28d2-4ca4-bddb-4e0486ea844c.root
/store/mc/Run3Summer22EENanoAODv12/DYto2L-2Jets_MLL-50_2J_TuneCP5_13p6TeV_amcatnloFXFX-pythia8/NANOAODSIM/130X_mcRun3_2022_realistic_postEE_v6-v2/50000/edbdeb9b-6b4e-4878-a8c6-1f121147a402.root
/store/mc/Run3Summer22EENanoAODv12/DYto2L-2Jets_MLL-50_2J_TuneCP5_13p6TeV_amcatnloFXFX-pythia8/NANOAODSIM/130X_mcRun3_2022_realistic_postEE_v6-v2/50000/d7012e7a-b5fb-4b5b-b1cc-1803a3f1899d.root
/store/mc/Run3Summer22EENanoAODv12/DYto2L-2Jets_MLL-50_2J_TuneCP5_13p6TeV_amcatnloFXFX-pythia8/NANOAODSIM/130X_mcRun3_2022_realistic_postEE_v6-v2/50000/3bf1c2af-2bff-4b95-a8c2-8083e91f0d06.root
/store/mc/Run3Summer22EENanoAODv12/DYto2L-2Jets_MLL-50_2J_TuneCP5_13p6TeV_amcatnloFXFX-pythia8/NANOAODSIM/130X_mcRun3_2022_realistic_postEE_v6-v2/2520000/76aa9533-4129-4354-a82d-9c34be298bf4.root
/store/mc/Run3Summer22EENanoAODv12/DYto2L-2Jets_MLL-50_2J_TuneCP5_13p6TeV_amcatnloFXFX-pythia8/NANOAODSIM/130X_mcRun3_2022_realistic_postEE_v6-v2/2520000/ed47ef90-fca4-40e1-ac61-c4981bd6d00a.root
/store/mc/Run3Summer22EENanoAODv12/DYto2L-2Jets_MLL-50_2J_TuneCP5_13p6TeV_amcatnloFXFX-pythia8/NANOAODSIM/130X_mcRun3_2022_realistic_postEE_v6-v2/2520000/c69a9b0f-77ae-47f1-90fc-e52d62da2ada.root
/store/mc/Run3Summer22EENanoAODv12/DYto2L-2Jets_MLL-50_2J_TuneCP5_13p6TeV_amcatnloFXFX-pythia8/NANOAODSIM/130X_mcRun3_2022_realistic_postEE_v6-v2/2520000/ec1c9884-624f-41e5-974a-4deed8466c47.root
/store/mc/Run3Summer22EENanoAODv12/DYto2L-2Jets_MLL-50_2J_TuneCP5_13p6TeV_amcatnloFXFX-pythia8/NANOAODSIM/130X_mcRun3_2022_realistic_postEE_v6-v2/2520000/3250ef15-7b46-4297-beed-d71d4b052f1d.root
/store/mc/Run3Summer22EENanoAODv12/DYto2L-2Jets_MLL-50_2J_TuneCP5_13p6TeV_amcatnloFXFX-pythia8/NANOAODSIM/130X_mcRun3_2022_realistic_postEE_v6-v2/2520000/c4f5275b-c99a-4f55-9eb5-b2917e7a2dfa.root
/store/mc/Run3Summer22EENanoAODv12/DYto2L-2Jets_MLL-50_2J_TuneCP5_13p6TeV_amcatnloFXFX-pythia8/NANOAODSIM/130X_mcRun3_2022_realistic_postEE_v6-v2/2520000/924c7d86-f4c6-4e32-aa83-049f4e798ff0.root
/store/mc/Run3Summer22EENanoAODv12/DYto2L-2Jets_MLL-50_2J_TuneCP5_13p6TeV_amcatnloFXFX-pythia8/NANOAODSIM/130X_mcRun3_2022_realistic_postEE_v6-v2/2520000/d7c1e54a-5710-462d-b942-3a91597a65ca.root
/store/mc/Run3Summer22EENanoAODv12/DYto2L-2Jets_MLL-50_2J_TuneCP5_13p6TeV_amcatnloFXFX-pythia8/NANOAODSIM/130X_mcRun3_2022_realistic_postEE_v6-v2/2520000/444dea30-53ac-456d-9f09-224012bea2c6.root
/store/mc/Run3Summer22EENanoAODv12/DYto2L-2Jets_MLL-50_2J_TuneCP5_13p6TeV_amcatnloFXFX-pythia8/NANOAODSIM/130X_mcRun3_2022_realistic_postEE_v6-v2/2520000/959b0426-f7ff-4794-861d-589928557df0.root
/store/mc/Run3Summer22EENanoAODv12/DYto2L-2Jets_MLL-50_2J_TuneCP5_13p6TeV_amcatnloFXFX-pythia8/NANOAODSIM/130X_mcRun3_2022_realistic_postEE_v6-v2/2520000/510c3852-a43e-4193-9861-2923e9c7cc96.root
/store/mc/Run3Summer22EENanoAODv12/DYto2L-2Jets_MLL-50_2J_TuneCP5_13p6TeV_amcatnloFXFX-pythia8/NANOAODSIM/130X_mcRun3_2022_realistic_postEE_v6-v2/2520000/2f1938cf-84db-4789-a3ee-86717cc42bcf.root
/store/mc/Run3Summer22EENanoAODv12/DYto2L-2Jets_MLL-50_2J_TuneCP5_13p6TeV_amcatnloFXFX-pythia8/NANOAODSIM/130X_mcRun3_2022_realistic_postEE_v6-v2/2520000/81ac8286-2582-4af4-ad75-af4a155a1ef3.root
/store/mc/Run3Summer22EENanoAODv12/DYto2L-2Jets_MLL-50_2J_TuneCP5_13p6TeV_amcatnloFXFX-pythia8/NANOAODSIM/130X_mcRun3_2022_realistic_postEE_v6-v2/2520000/07e2f967-d135-4705-9d60-bef280c476a6.root
/store/mc/Run3Summer22EENanoAODv12/DYto2L-2Jets_MLL-50_2J_TuneCP5_13p6TeV_amcatnloFXFX-pythia8/NANOAODSIM/130X_mcRun3_2022_realistic_postEE_v6-v2/2520000/6aad7056-a1ed-4e49-9c1d-77f97fa09316.root
/store/mc/Run3Summer22EENanoAODv12/DYto2L-2Jets_MLL-50_2J_TuneCP5_13p6TeV_amcatnloFXFX-pythia8/NANOAODSIM/130X_mcRun3_2022_realistic_postEE_v6-v2/2520000/8fd17d6b-bbd9-4d58-8844-754d31aaa589.root
/store/mc/Run3Summer22EENanoAODv12/DYto2L-2Jets_MLL-50_2J_TuneCP5_13p6TeV_amcatnloFXFX-pythia8/NANOAODSIM/130X_mcRun3_2022_realistic_postEE_v6-v2/2520000/ed42b57f-6246-40d3-a10f-e33e0878e2ab.root
/store/mc/Run3Summer22EENanoAODv12/DYto2L-2Jets_MLL-50_2J_TuneCP5_13p6TeV_amcatnloFXFX-pythia8/NANOAODSIM/130X_mcRun3_2022_realistic_postEE_v6-v2/2520000/a3ff6a5f-8f70-4d42-b0e6-76a275709e5d.root
/store/mc/Run3Summer22EENanoAODv12/DYto2L-2Jets_MLL-50_2J_TuneCP5_13p6TeV_amcatnloFXFX-pythia8/NANOAODSIM/130X_mcRun3_2022_realistic_postEE_v6-v2/2520000/031366c3-c2fb-441c-ac86-c3fc2be4d58d.root
/store/mc/Run3Summer22EENanoAODv12/DYto2L-2Jets_MLL-50_2J_TuneCP5_13p6TeV_amcatnloFXFX-pythia8/NANOAODSIM/130X_mcRun3_2022_realistic_postEE_v6-v2/2520000/4c8e3fa2-4fee-42eb-883a-b9687e3439bf.root
/store/mc/Run3Summer22EENanoAODv12/DYto2L-2Jets_MLL-50_2J_TuneCP5_13p6TeV_amcatnloFXFX-pythia8/NANOAODSIM/130X_mcRun3_2022_realistic_postEE_v6-v2/2520000/bb9fec95-9296-46ef-b2f5-3e76b73ffabd.root
/store/mc/Run3Summer22EENanoAODv12/DYto2L-2Jets_MLL-50_2J_TuneCP5_13p6TeV_amcatnloFXFX-pythia8/NANOAODSIM/130X_mcRun3_2022_realistic_postEE_v6-v2/2520000/f7f8bb1f-1620-429f-a653-860a4c550036.root
/store/mc/Run3Summer22EENanoAODv12/DYto2L-2Jets_MLL-50_2J_TuneCP5_13p6TeV_amcatnloFXFX-pythia8/NANOAODSIM/130X_mcRun3_2022_realistic_postEE_v6-v2/2520000/25864229-4124-43c7-8cb6-5124c3ddd193.root
/store/mc/Run3Summer22EENanoAODv12/DYto2L-2Jets_MLL-50_2J_TuneCP5_13p6TeV_amcatnloFXFX-pythia8/NANOAODSIM/130X_mcRun3_2022_realistic_postEE_v6-v2/2520000/1cc9e1f8-8b36-45cb-bfbe-168262e7fbf0.root
/store/mc/Run3Summer22EENanoAODv12/DYto2L-2Jets_MLL-50_2J_TuneCP5_13p6TeV_amcatnloFXFX-pythia8/NANOAODSIM/130X_mcRun3_2022_realistic_postEE_v6-v2/2520000/28de5cc0-0fef-4440-ac56-54187ca89628.root
/store/mc/Run3Summer22EENanoAODv12/DYto2L-2Jets_MLL-50_2J_TuneCP5_13p6TeV_amcatnloFXFX-pythia8/NANOAODSIM/130X_mcRun3_2022_realistic_postEE_v6-v2/2520000/ff950f16-42a3-4128-a159-3fce03622208.root
/store/mc/Run3Summer22EENanoAODv12/DYto2L-2Jets_MLL-50_2J_TuneCP5_13p6TeV_amcatnloFXFX-pythia8/NANOAODSIM/130X_mcRun3_2022_realistic_postEE_v6-v2/2520000/48a18600-8347-4ef7-bb1e-c36f2760b8e7.root
/store/mc/Run3Summer22EENanoAODv12/DYto2L-2Jets_MLL-50_2J_TuneCP5_13p6TeV_amcatnloFXFX-pythia8/NANOAODSIM/130X_mcRun3_2022_realistic_postEE_v6-v2/2520000/335cc8b5-530c-44f2-a2e5-fd006439b1a2.root
/store/mc/Run3Summer22EENanoAODv12/DYto2L-2Jets_MLL-50_2J_TuneCP5_13p6TeV_amcatnloFXFX-pythia8/NANOAODSIM/130X_mcRun3_2022_realistic_postEE_v6-v2/2520000/6225f016-52f6-40ce-bfd2-1d7281702309.root
/store/mc/Run3Summer22EENanoAODv12/DYto2L-2Jets_MLL-50_2J_TuneCP5_13p6TeV_amcatnloFXFX-pythia8/NANOAODSIM/130X_mcRun3_2022_realistic_postEE_v6-v2/2520000/33b9dd53-8e6a-4fd7-97e1-f354468fc3f7.root
/store/mc/Run3Summer22EENanoAODv12/DYto2L-2Jets_MLL-50_2J_TuneCP5_13p6TeV_amcatnloFXFX-pythia8/NANOAODSIM/130X_mcRun3_2022_realistic_postEE_v6-v2/2540000/a550fc6d-4c33-4c2f-80b4-b1e5e7408627.root
/store/mc/Run3Summer22EENanoAODv12/DYto2L-2Jets_MLL-50_2J_TuneCP5_13p6TeV_amcatnloFXFX-pythia8/NANOAODSIM/130X_mcRun3_2022_realistic_postEE_v6-v2/2540000/7805c218-f8b9-441e-95c7-6531090ecefb.root
/store/mc/Run3Summer22EENanoAODv12/DYto2L-2Jets_MLL-50_2J_TuneCP5_13p6TeV_amcatnloFXFX-pythia8/NANOAODSIM/130X_mcRun3_2022_realistic_postEE_v6-v2/2540000/fc12f9c5-592a-4f4b-bc2a-4caede74ebf9.root
/store/mc/Run3Summer22EENanoAODv12/DYto2L-2Jets_MLL-50_2J_TuneCP5_13p6TeV_amcatnloFXFX-pythia8/NANOAODSIM/130X_mcRun3_2022_realistic_postEE_v6-v2/2530000/7a12811a-f275-4123-9b40-9884bfdaf77e.root
/store/mc/Run3Summer22EENanoAODv12/DYto2L-2Jets_MLL-50_2J_TuneCP5_13p6TeV_amcatnloFXFX-pythia8/NANOAODSIM/130X_mcRun3_2022_realistic_postEE_v6-v2/2530000/0cad58b9-0598-4e9f-8e4e-5042e478c2c3.root
/store/mc/Run3Summer22EENanoAODv12/DYto2L-2Jets_MLL-50_2J_TuneCP5_13p6TeV_amcatnloFXFX-pythia8/NANOAODSIM/130X_mcRun3_2022_realistic_postEE_v6-v2/2530000/696c6da6-d3cd-4d75-8e75-b95d9650ff6d.root
/store/mc/Run3Summer22EENanoAODv12/DYto2L-2Jets_MLL-50_2J_TuneCP5_13p6TeV_amcatnloFXFX-pythia8/NANOAODSIM/130X_mcRun3_2022_realistic_postEE_v6-v2/2540000/07ffef62-ffd3-4949-89ae-530309987883.root
/store/mc/Run3Summer22EENanoAODv12/DYto2L-2Jets_MLL-50_2J_TuneCP5_13p6TeV_amcatnloFXFX-pythia8/NANOAODSIM/130X_mcRun3_2022_realistic_postEE_v6-v2/2540000/4534c092-5264-4b24-ab50-9bdc47f2995c.root
/store/mc/Run3Summer22EENanoAODv12/DYto2L-2Jets_MLL-50_2J_TuneCP5_13p6TeV_amcatnloFXFX-pythia8/NANOAODSIM/130X_mcRun3_2022_realistic_postEE_v6-v2/2520000/814abf8b-3520-4c42-b004-b8b74a1daf8e.root
/store/mc/Run3Summer22EENanoAODv12/DYto2L-2Jets_MLL-50_2J_TuneCP5_13p6TeV_amcatnloFXFX-pythia8/NANOAODSIM/130X_mcRun3_2022_realistic_postEE_v6-v2/2520000/fcc9e3f9-3832-47b5-a5eb-85d5c4f672f0.root
/store/mc/Run3Summer22EENanoAODv12/DYto2L-2Jets_MLL-50_2J_TuneCP5_13p6TeV_amcatnloFXFX-pythia8/NANOAODSIM/130X_mcRun3_2022_realistic_postEE_v6-v2/2520000/5d3010f4-2dbe-42f2-9412-cefa97f25ede.root
/store/mc/Run3Summer22EENanoAODv12/DYto2L-2Jets_MLL-50_2J_TuneCP5_13p6TeV_amcatnloFXFX-pythia8/NANOAODSIM/130X_mcRun3_2022_realistic_postEE_v6-v2/2520000/93751c65-acc3-4e71-b318-9fd95bd195d7.root
/store/mc/Run3Summer22EENanoAODv12/DYto2L-2Jets_MLL-50_2J_TuneCP5_13p6TeV_amcatnloFXFX-pythia8/NANOAODSIM/130X_mcRun3_2022_realistic_postEE_v6-v2/2520000/1df3b752-7e75-4b8a-b81a-44e515811cce.root
/store/mc/Run3Summer22EENanoAODv12/DYto2L-2Jets_MLL-50_2J_TuneCP5_13p6TeV_amcatnloFXFX-pythia8/NANOAODSIM/130X_mcRun3_2022_realistic_postEE_v6-v2/2520000/9fa2c73b-d616-4399-878b-ba24a938c05d.root
/store/mc/Run3Summer22EENanoAODv12/DYto2L-2Jets_MLL-50_2J_TuneCP5_13p6TeV_amcatnloFXFX-pythia8/NANOAODSIM/130X_mcRun3_2022_realistic_postEE_v6-v2/2520000/305d9895-7fbc-461c-9ee1-56f5e1478a07.root
/store/mc/Run3Summer22EENanoAODv12/DYto2L-2Jets_MLL-50_2J_TuneCP5_13p6TeV_amcatnloFXFX-pythia8/NANOAODSIM/130X_mcRun3_2022_realistic_postEE_v6-v2/2520000/6a531759-476f-42c2-a257-4b4b0d6495b4.root
/store/mc/Run3Summer22EENanoAODv12/DYto2L-2Jets_MLL-50_2J_TuneCP5_13p6TeV_amcatnloFXFX-pythia8/NANOAODSIM/130X_mcRun3_2022_realistic_postEE_v6-v2/2520000/6caf86eb-2df9-4f36-8503-fea3dc6698d8.root
/store/mc/Run3Summer22EENanoAODv12/DYto2L-2Jets_MLL-50_2J_TuneCP5_13p6TeV_amcatnloFXFX-pythia8/NANOAODSIM/130X_mcRun3_2022_realistic_postEE_v6-v2/2520000/c0253874-786e-4475-a446-9241627659b3.root
/store/mc/Run3Summer22EENanoAODv12/DYto2L-2Jets_MLL-50_2J_TuneCP5_13p6TeV_amcatnloFXFX-pythia8/NANOAODSIM/130X_mcRun3_2022_realistic_postEE_v6-v2/2520000/4df622cd-f800-403e-9331-beda803d9495.root
/store/mc/Run3Summer22EENanoAODv12/DYto2L-2Jets_MLL-50_2J_TuneCP5_13p6TeV_amcatnloFXFX-pythia8/NANOAODSIM/130X_mcRun3_2022_realistic_postEE_v6-v2/2520000/81b01d0e-0e13-4311-9554-3c881106d34e.root
/store/mc/Run3Summer22EENanoAODv12/DYto2L-2Jets_MLL-50_2J_TuneCP5_13p6TeV_amcatnloFXFX-pythia8/NANOAODSIM/130X_mcRun3_2022_realistic_postEE_v6-v2/2520000/ad4ef4ad-b375-47f7-b920-f9dba8d8d43f.root
/store/mc/Run3Summer22EENanoAODv12/DYto2L-2Jets_MLL-50_2J_TuneCP5_13p6TeV_amcatnloFXFX-pythia8/NANOAODSIM/130X_mcRun3_2022_realistic_postEE_v6-v2/2520000/84761cad-2e9b-4c93-b7cd-d9ab59f249ba.root
/store/mc/Run3Summer22EENanoAODv12/DYto2L-2Jets_MLL-50_2J_TuneCP5_13p6TeV_amcatnloFXFX-pythia8/NANOAODSIM/130X_mcRun3_2022_realistic_postEE_v6-v2/2520000/eede154d-bfec-4514-8a3c-55cbbd4f3306.root
/store/mc/Run3Summer22EENanoAODv12/DYto2L-2Jets_MLL-50_2J_TuneCP5_13p6TeV_amcatnloFXFX-pythia8/NANOAODSIM/130X_mcRun3_2022_realistic_postEE_v6-v2/2530000/db9758d8-a168-4db0-b0fe-e4d07470832a.root
/store/mc/Run3Summer22EENanoAODv12/DYto2L-2Jets_MLL-50_2J_TuneCP5_13p6TeV_amcatnloFXFX-pythia8/NANOAODSIM/130X_mcRun3_2022_realistic_postEE_v6-v2/2530000/329dac9c-e4ef-4f8c-a71e-92f7cc6daeb2.root
/store/mc/Run3Summer22EENanoAODv12/DYto2L-2Jets_MLL-50_2J_TuneCP5_13p6TeV_amcatnloFXFX-pythia8/NANOAODSIM/130X_mcRun3_2022_realistic_postEE_v6-v2/2530000/01d54b10-9348-4cb2-8e69-15f2063e583d.root
/store/mc/Run3Summer22EENanoAODv12/DYto2L-2Jets_MLL-50_2J_TuneCP5_13p6TeV_amcatnloFXFX-pythia8/NANOAODSIM/130X_mcRun3_2022_realistic_postEE_v6-v2/2520000/b93115ba-cd6b-47d3-9fdd-96d14897b344.root
/store/mc/Run3Summer22EENanoAODv12/DYto2L-2Jets_MLL-50_2J_TuneCP5_13p6TeV_amcatnloFXFX-pythia8/NANOAODSIM/130X_mcRun3_2022_realistic_postEE_v6-v2/2520000/4081fb3b-cc78-40be-af90-3f4ea76f8c90.root
/store/mc/Run3Summer22EENanoAODv12/DYto2L-2Jets_MLL-50_2J_TuneCP5_13p6TeV_amcatnloFXFX-pythia8/NANOAODSIM/130X_mcRun3_2022_realistic_postEE_v6-v2/2520000/a6bb9c26-6629-4253-ad11-27af3556d1d7.root
/store/mc/Run3Summer22EENanoAODv12/DYto2L-2Jets_MLL-50_2J_TuneCP5_13p6TeV_amcatnloFXFX-pythia8/NANOAODSIM/130X_mcRun3_2022_realistic_postEE_v6-v2/2520000/ecc37cb3-c3ef-4a46-85e9-9b8b31daef34.root
/store/mc/Run3Summer22EENanoAODv12/DYto2L-2Jets_MLL-50_2J_TuneCP5_13p6TeV_amcatnloFXFX-pythia8/NANOAODSIM/130X_mcRun3_2022_realistic_postEE_v6-v2/2520000/7035a88f-dfc4-4c43-9a3a-f9fce7289c54.root
/store/mc/Run3Summer22EENanoAODv12/DYto2L-2Jets_MLL-50_2J_TuneCP5_13p6TeV_amcatnloFXFX-pythia8/NANOAODSIM/130X_mcRun3_2022_realistic_postEE_v6-v2/2520000/7b1ce7f0-ff72-4cd1-9347-2172640550ff.root
/store/mc/Run3Summer22EENanoAODv12/DYto2L-2Jets_MLL-50_2J_TuneCP5_13p6TeV_amcatnloFXFX-pythia8/NANOAODSIM/130X_mcRun3_2022_realistic_postEE_v6-v2/2520000/dbe0e0f0-c5db-4925-9f4f-226d75c49b68.root
/store/mc/Run3Summer22EENanoAODv12/DYto2L-2Jets_MLL-50_2J_TuneCP5_13p6TeV_amcatnloFXFX-pythia8/NANOAODSIM/130X_mcRun3_2022_realistic_postEE_v6-v2/2520000/349680bb-dd0c-4f24-bf4d-00c2f4f3e8ed.root
/store/mc/Run3Summer22EENanoAODv12/DYto2L-2Jets_MLL-50_2J_TuneCP5_13p6TeV_amcatnloFXFX-pythia8/NANOAODSIM/130X_mcRun3_2022_realistic_postEE_v6-v2/2520000/2f03fdad-c632-4ef9-873e-4e6d2a2892c0.root
/store/mc/Run3Summer22EENanoAODv12/DYto2L-2Jets_MLL-50_2J_TuneCP5_13p6TeV_amcatnloFXFX-pythia8/NANOAODSIM/130X_mcRun3_2022_realistic_postEE_v6-v2/2520000/33723487-7f22-4315-b8f9-cb335255fbb9.root
/store/mc/Run3Summer22EENanoAODv12/DYto2L-2Jets_MLL-50_2J_TuneCP5_13p6TeV_amcatnloFXFX-pythia8/NANOAODSIM/130X_mcRun3_2022_realistic_postEE_v6-v2/2520000/baad1d94-94a8-4962-b078-719baece8a79.root
/store/mc/Run3Summer22EENanoAODv12/DYto2L-2Jets_MLL-50_2J_TuneCP5_13p6TeV_amcatnloFXFX-pythia8/NANOAODSIM/130X_mcRun3_2022_realistic_postEE_v6-v2/2520000/70261f36-f4e8-48b9-8b19-db9e61dc397f.root
/store/mc/Run3Summer22EENanoAODv12/DYto2L-2Jets_MLL-50_2J_TuneCP5_13p6TeV_amcatnloFXFX-pythia8/NANOAODSIM/130X_mcRun3_2022_realistic_postEE_v6-v2/2520000/2b6acdcf-5c6d-48de-8528-4065c172aec5.root
/store/mc/Run3Summer22EENanoAODv12/DYto2L-2Jets_MLL-50_2J_TuneCP5_13p6TeV_amcatnloFXFX-pythia8/NANOAODSIM/130X_mcRun3_2022_realistic_postEE_v6-v2/2520000/80aa480d-8386-45e1-8b74-da9c982101cd.root
/store/mc/Run3Summer22EENanoAODv12/DYto2L-2Jets_MLL-50_2J_TuneCP5_13p6TeV_amcatnloFXFX-pythia8/NANOAODSIM/130X_mcRun3_2022_realistic_postEE_v6-v2/2520000/c86801d3-f2f4-40c6-8508-db750abf7e76.root
/store/mc/Run3Summer22EENanoAODv12/DYto2L-2Jets_MLL-50_2J_TuneCP5_13p6TeV_amcatnloFXFX-pythia8/NANOAODSIM/130X_mcRun3_2022_realistic_postEE_v6-v2/2520000/caf55093-423e-44dd-babc-69165e565105.root
/store/mc/Run3Summer22EENanoAODv12/DYto2L-2Jets_MLL-50_2J_TuneCP5_13p6TeV_amcatnloFXFX-pythia8/NANOAODSIM/130X_mcRun3_2022_realistic_postEE_v6-v2/2520000/2ae3a4b5-35ee-46ed-82f8-a41b3a225965.root
/store/mc/Run3Summer22EENanoAODv12/DYto2L-2Jets_MLL-50_2J_TuneCP5_13p6TeV_amcatnloFXFX-pythia8/NANOAODSIM/130X_mcRun3_2022_realistic_postEE_v6-v2/2520000/d3d4209e-c354-48f2-86ba-69e5760a6e86.root
/store/mc/Run3Summer22EENanoAODv12/DYto2L-2Jets_MLL-50_2J_TuneCP5_13p6TeV_amcatnloFXFX-pythia8/NANOAODSIM/130X_mcRun3_2022_realistic_postEE_v6-v2/2520000/5999a9b1-443e-4c83-83ac-584bf53ee010.root
/store/mc/Run3Summer22EENanoAODv12/DYto2L-2Jets_MLL-50_2J_TuneCP5_13p6TeV_amcatnloFXFX-pythia8/NANOAODSIM/130X_mcRun3_2022_realistic_postEE_v6-v2/2520000/9e6f1e3e-2e48-47ca-a392-18ad92c1fc4a.root
/store/mc/Run3Summer22EENanoAODv12/DYto2L-2Jets_MLL-50_2J_TuneCP5_13p6TeV_amcatnloFXFX-pythia8/NANOAODSIM/130X_mcRun3_2022_realistic_postEE_v6-v2/2520000/67b5a627-71a9-4ac9-aa73-340dbb657aff.root
/store/mc/Run3Summer22EENanoAODv12/DYto2L-2Jets_MLL-50_2J_TuneCP5_13p6TeV_amcatnloFXFX-pythia8/NANOAODSIM/130X_mcRun3_2022_realistic_postEE_v6-v2/2520000/f016d206-763d-445d-9b6c-0c8161438290.root
/store/mc/Run3Summer22EENanoAODv12/DYto2L-2Jets_MLL-50_2J_TuneCP5_13p6TeV_amcatnloFXFX-pythia8/NANOAODSIM/130X_mcRun3_2022_realistic_postEE_v6-v2/2520000/793e045a-51c2-42b4-ad9a-9156751fe8f2.root
/store/mc/Run3Summer22EENanoAODv12/DYto2L-2Jets_MLL-50_2J_TuneCP5_13p6TeV_amcatnloFXFX-pythia8/NANOAODSIM/130X_mcRun3_2022_realistic_postEE_v6-v2/2520000/6e2453bd-7d7e-4cd6-9d64-31097cf6f1ca.root
/store/mc/Run3Summer22EENanoAODv12/DYto2L-2Jets_MLL-50_2J_TuneCP5_13p6TeV_amcatnloFXFX-pythia8/NANOAODSIM/130X_mcRun3_2022_realistic_postEE_v6-v2/2520000/0d8f6343-13a8-4397-8711-fb972a64ebaf.root
/store/mc/Run3Summer22EENanoAODv12/DYto2L-2Jets_MLL-50_2J_TuneCP5_13p6TeV_amcatnloFXFX-pythia8/NANOAODSIM/130X_mcRun3_2022_realistic_postEE_v6-v2/2520000/405e766a-eba9-4463-b55b-268293b66f3f.root
/store/mc/Run3Summer22EENanoAODv12/DYto2L-2Jets_MLL-50_2J_TuneCP5_13p6TeV_amcatnloFXFX-pythia8/NANOAODSIM/130X_mcRun3_2022_realistic_postEE_v6-v2/2520000/6b5e1607-d576-4714-8cf2-c6caab19e744.root
/store/mc/Run3Summer22EENanoAODv12/DYto2L-2Jets_MLL-50_2J_TuneCP5_13p6TeV_amcatnloFXFX-pythia8/NANOAODSIM/130X_mcRun3_2022_realistic_postEE_v6-v2/2520000/8451b0bf-b4e0-46c6-802b-c5946ec4d9af.root
/store/mc/Run3Summer22EENanoAODv12/DYto2L-2Jets_MLL-50_2J_TuneCP5_13p6TeV_amcatnloFXFX-pythia8/NANOAODSIM/130X_mcRun3_2022_realistic_postEE_v6-v2/2520000/4f12806c-b739-4041-90a0-923752ac9ff1.root
/store/mc/Run3Summer22EENanoAODv12/DYto2L-2Jets_MLL-50_2J_TuneCP5_13p6TeV_amcatnloFXFX-pythia8/NANOAODSIM/130X_mcRun3_2022_realistic_postEE_v6-v2/2520000/d68ae573-7875-485c-a774-72975ee6cdf2.root
/store/mc/Run3Summer22EENanoAODv12/DYto2L-2Jets_MLL-50_2J_TuneCP5_13p6TeV_amcatnloFXFX-pythia8/NANOAODSIM/130X_mcRun3_2022_realistic_postEE_v6-v2/2520000/f659059f-ae9f-4695-9adf-1c0029b4bca3.root
/store/mc/Run3Summer22EENanoAODv12/DYto2L-2Jets_MLL-50_2J_TuneCP5_13p6TeV_amcatnloFXFX-pythia8/NANOAODSIM/130X_mcRun3_2022_realistic_postEE_v6-v2/2520000/bff9aa88-6012-4bed-a622-25738c3b6f23.root
/store/mc/Run3Summer22EENanoAODv12/DYto2L-2Jets_MLL-50_2J_TuneCP5_13p6TeV_amcatnloFXFX-pythia8/NANOAODSIM/130X_mcRun3_2022_realistic_postEE_v6-v2/2520000/8bf42185-9aed-49cc-924b-9f956581da15.root
/store/mc/Run3Summer22EENanoAODv12/DYto2L-2Jets_MLL-50_2J_TuneCP5_13p6TeV_amcatnloFXFX-pythia8/NANOAODSIM/130X_mcRun3_2022_realistic_postEE_v6-v2/2520000/2a20ceb9-b032-429c-a017-0961e05b841c.root
/store/mc/Run3Summer22EENanoAODv12/DYto2L-2Jets_MLL-50_2J_TuneCP5_13p6TeV_amcatnloFXFX-pythia8/NANOAODSIM/130X_mcRun3_2022_realistic_postEE_v6-v2/2520000/76698b71-3b32-478a-a705-89f1d3ebafd0.root
/store/mc/Run3Summer22EENanoAODv12/DYto2L-2Jets_MLL-50_2J_TuneCP5_13p6TeV_amcatnloFXFX-pythia8/NANOAODSIM/130X_mcRun3_2022_realistic_postEE_v6-v2/2520000/8ce197cf-24e1-4985-96df-07c9abaa980c.root
/store/mc/Run3Summer22EENanoAODv12/DYto2L-2Jets_MLL-50_2J_TuneCP5_13p6TeV_amcatnloFXFX-pythia8/NANOAODSIM/130X_mcRun3_2022_realistic_postEE_v6-v2/50000/23eb0fa3-d926-4bd0-abd0-33be5328bfd7.root
/store/mc/Run3Summer22EENanoAODv12/DYto2L-2Jets_MLL-50_2J_TuneCP5_13p6TeV_amcatnloFXFX-pythia8/NANOAODSIM/130X_mcRun3_2022_realistic_postEE_v6-v2/50000/ba179a59-20e8-4e08-86fb-0a5b5de1b727.root
/store/mc/Run3Summer22EENanoAODv12/DYto2L-2Jets_MLL-50_2J_TuneCP5_13p6TeV_amcatnloFXFX-pythia8/NANOAODSIM/130X_mcRun3_2022_realistic_postEE_v6-v2/50000/c0689c1e-c632-42ab-903b-e48c249a11c5.root
/store/mc/Run3Summer22EENanoAODv12/DYto2L-2Jets_MLL-50_2J_TuneCP5_13p6TeV_amcatnloFXFX-pythia8/NANOAODSIM/130X_mcRun3_2022_realistic_postEE_v6-v2/50000/cabef92a-4d82-429e-a260-e40fb98f566b.root
/store/mc/Run3Summer22EENanoAODv12/DYto2L-2Jets_MLL-50_2J_TuneCP5_13p6TeV_amcatnloFXFX-pythia8/NANOAODSIM/130X_mcRun3_2022_realistic_postEE_v6-v2/50000/242757da-f990-41c4-b542-0ff99800c055.root
/store/mc/Run3Summer22EENanoAODv12/DYto2L-2Jets_MLL-50_2J_TuneCP5_13p6TeV_amcatnloFXFX-pythia8/NANOAODSIM/130X_mcRun3_2022_realistic_postEE_v6-v2/50000/558a618d-00ca-4d18-a191-7ea19c019cee.root
/store/mc/Run3Summer22EENanoAODv12/DYto2L-2Jets_MLL-50_2J_TuneCP5_13p6TeV_amcatnloFXFX-pythia8/NANOAODSIM/130X_mcRun3_2022_realistic_postEE_v6-v2/50000/90ab72d7-21a3-4dbd-8686-2a72b87207e8.root
/store/mc/Run3Summer22EENanoAODv12/DYto2L-2Jets_MLL-50_2J_TuneCP5_13p6TeV_amcatnloFXFX-pythia8/NANOAODSIM/130X_mcRun3_2022_realistic_postEE_v6-v2/50000/27547479-a187-4eaf-807c-7b0a302d17a1.root
/store/mc/Run3Summer22EENanoAODv12/DYto2L-2Jets_MLL-50_2J_TuneCP5_13p6TeV_amcatnloFXFX-pythia8/NANOAODSIM/130X_mcRun3_2022_realistic_postEE_v6-v2/50000/0a533814-c81d-42a9-b276-d20fba7fd795.root
/store/mc/Run3Summer22EENanoAODv12/DYto2L-2Jets_MLL-50_2J_TuneCP5_13p6TeV_amcatnloFXFX-pythia8/NANOAODSIM/130X_mcRun3_2022_realistic_postEE_v6-v2/50000/33aeacb8-a5c6-4c63-a86a-71203364d852.root
/store/mc/Run3Summer22EENanoAODv12/DYto2L-2Jets_MLL-50_2J_TuneCP5_13p6TeV_amcatnloFXFX-pythia8/NANOAODSIM/130X_mcRun3_2022_realistic_postEE_v6-v2/50000/b68765d4-b719-4d46-a43b-48854a0b79f5.root
/store/mc/Run3Summer22EENanoAODv12/DYto2L-2Jets_MLL-50_2J_TuneCP5_13p6TeV_amcatnloFXFX-pythia8/NANOAODSIM/130X_mcRun3_2022_realistic_postEE_v6-v2/50000/42d31141-3a3a-4eea-a3a4-3efd72c66319.root
/store/mc/Run3Summer22EENanoAODv12/DYto2L-2Jets_MLL-50_2J_TuneCP5_13p6TeV_amcatnloFXFX-pythia8/NANOAODSIM/130X_mcRun3_2022_realistic_postEE_v6-v2/50000/76cf49e5-0a75-4349-b1b5-a9e57955beb6.root
/store/mc/Run3Summer22EENanoAODv12/DYto2L-2Jets_MLL-50_2J_TuneCP5_13p6TeV_amcatnloFXFX-pythia8/NANOAODSIM/130X_mcRun3_2022_realistic_postEE_v6-v2/50000/ed566cf1-dd54-429e-8965-2c352b2b1cf2.root
/store/mc/Run3Summer22EENanoAODv12/DYto2L-2Jets_MLL-50_2J_TuneCP5_13p6TeV_amcatnloFXFX-pythia8/NANOAODSIM/130X_mcRun3_2022_realistic_postEE_v6-v2/50000/ca77f760-68d8-4dd5-b031-1de52daa5e26.root
/store/mc/Run3Summer22EENanoAODv12/DYto2L-2Jets_MLL-50_2J_TuneCP5_13p6TeV_amcatnloFXFX-pythia8/NANOAODSIM/130X_mcRun3_2022_realistic_postEE_v6-v2/50000/8354c318-467e-44b4-9fad-06f74360a987.root
/store/mc/Run3Summer22EENanoAODv12/DYto2L-2Jets_MLL-50_2J_TuneCP5_13p6TeV_amcatnloFXFX-pythia8/NANOAODSIM/130X_mcRun3_2022_realistic_postEE_v6-v2/50000/89406bb3-4a03-4caa-916a-efb387c4bbc8.root
/store/mc/Run3Summer22EENanoAODv12/DYto2L-2Jets_MLL-50_2J_TuneCP5_13p6TeV_amcatnloFXFX-pythia8/NANOAODSIM/130X_mcRun3_2022_realistic_postEE_v6-v2/50000/753a9095-47de-49a9-94ec-5384991b9cc1.root
/store/mc/Run3Summer22EENanoAODv12/DYto2L-2Jets_MLL-50_2J_TuneCP5_13p6TeV_amcatnloFXFX-pythia8/NANOAODSIM/130X_mcRun3_2022_realistic_postEE_v6-v2/50000/4382931c-9975-4f7c-a61a-effd3d88497f.root
/store/mc/Run3Summer22EENanoAODv12/DYto2L-2Jets_MLL-50_2J_TuneCP5_13p6TeV_amcatnloFXFX-pythia8/NANOAODSIM/130X_mcRun3_2022_realistic_postEE_v6-v2/50000/acd5fd12-c842-4157-9926-1bc5e0990007.root
/store/mc/Run3Summer22EENanoAODv12/DYto2L-2Jets_MLL-50_2J_TuneCP5_13p6TeV_amcatnloFXFX-pythia8/NANOAODSIM/130X_mcRun3_2022_realistic_postEE_v6-v2/30000/81b54a38-fd8e-4376-a434-54a7154f6144.root
/store/mc/Run3Summer22EENanoAODv12/DYto2L-2Jets_MLL-50_2J_TuneCP5_13p6TeV_amcatnloFXFX-pythia8/NANOAODSIM/130X_mcRun3_2022_realistic_postEE_v6-v2/30000/1b6f4aba-7f57-4e24-bd1e-2417f26dab33.root
/store/mc/Run3Summer22EENanoAODv12/DYto2L-2Jets_MLL-50_2J_TuneCP5_13p6TeV_amcatnloFXFX-pythia8/NANOAODSIM/130X_mcRun3_2022_realistic_postEE_v6-v2/30000/80d28509-d5f9-4886-a3aa-36ff51c450d8.root
/store/mc/Run3Summer22EENanoAODv12/DYto2L-2Jets_MLL-50_2J_TuneCP5_13p6TeV_amcatnloFXFX-pythia8/NANOAODSIM/130X_mcRun3_2022_realistic_postEE_v6-v2/30000/e785e650-50f2-4f36-ab44-9664e1454e3d.root
/store/mc/Run3Summer22EENanoAODv12/DYto2L-2Jets_MLL-50_2J_TuneCP5_13p6TeV_amcatnloFXFX-pythia8/NANOAODSIM/130X_mcRun3_2022_realistic_postEE_v6-v2/30000/018e8937-cade-4d73-8154-5dc092fa6aac.root
/store/mc/Run3Summer22EENanoAODv12/DYto2L-2Jets_MLL-50_2J_TuneCP5_13p6TeV_amcatnloFXFX-pythia8/NANOAODSIM/130X_mcRun3_2022_realistic_postEE_v6-v2/30000/b783fe8b-10b3-4a57-88f3-ad8e3fdebd45.root
/store/mc/Run3Summer22EENanoAODv12/DYto2L-2Jets_MLL-50_2J_TuneCP5_13p6TeV_amcatnloFXFX-pythia8/NANOAODSIM/130X_mcRun3_2022_realistic_postEE_v6-v2/30000/e7d475cc-05c2-4aed-bbe3-16cc9da63499.root
/store/mc/Run3Summer22EENanoAODv12/DYto2L-2Jets_MLL-50_2J_TuneCP5_13p6TeV_amcatnloFXFX-pythia8/NANOAODSIM/130X_mcRun3_2022_realistic_postEE_v6-v2/30000/3ee6ae95-6e83-446d-8b27-0b70a2e6d8b3.root
/store/mc/Run3Summer22EENanoAODv12/DYto2L-2Jets_MLL-50_2J_TuneCP5_13p6TeV_amcatnloFXFX-pythia8/NANOAODSIM/130X_mcRun3_2022_realistic_postEE_v6-v2/30000/bbe5a0f4-1389-44b9-aaf4-0eea10639448.root
/store/mc/Run3Summer22EENanoAODv12/DYto2L-2Jets_MLL-50_2J_TuneCP5_13p6TeV_amcatnloFXFX-pythia8/NANOAODSIM/130X_mcRun3_2022_realistic_postEE_v6-v2/30000/6f0ef8a1-dd8d-4bc3-a798-e4f55a02f9d1.root
/store/mc/Run3Summer22EENanoAODv12/DYto2L-2Jets_MLL-50_2J_TuneCP5_13p6TeV_amcatnloFXFX-pythia8/NANOAODSIM/130X_mcRun3_2022_realistic_postEE_v6-v2/30000/1cd0336f-e527-4fa2-bbcd-b37bd82d9ce5.root
/store/mc/Run3Summer22EENanoAODv12/DYto2L-2Jets_MLL-50_2J_TuneCP5_13p6TeV_amcatnloFXFX-pythia8/NANOAODSIM/130X_mcRun3_2022_realistic_postEE_v6-v2/30000/8bf8980f-4609-4ccc-81b1-55e79df0f5b8.root
/store/mc/Run3Summer22EENanoAODv12/DYto2L-2Jets_MLL-50_2J_TuneCP5_13p6TeV_amcatnloFXFX-pythia8/NANOAODSIM/130X_mcRun3_2022_realistic_postEE_v6-v2/30000/11075d52-d747-480c-a0fe-0b23ee29ec0f.root
/store/mc/Run3Summer22EENanoAODv12/DYto2L-2Jets_MLL-50_2J_TuneCP5_13p6TeV_amcatnloFXFX-pythia8/NANOAODSIM/130X_mcRun3_2022_realistic_postEE_v6-v2/30000/700271ca-4a60-4b2b-b945-f50d8b7f63a0.root
/store/mc/Run3Summer22EENanoAODv12/DYto2L-2Jets_MLL-50_2J_TuneCP5_13p6TeV_amcatnloFXFX-pythia8/NANOAODSIM/130X_mcRun3_2022_realistic_postEE_v6-v2/30000/d3a2038a-14c8-4ba7-9446-24d4cb13ffda.root
/store/mc/Run3Summer22EENanoAODv12/DYto2L-2Jets_MLL-50_2J_TuneCP5_13p6TeV_amcatnloFXFX-pythia8/NANOAODSIM/130X_mcRun3_2022_realistic_postEE_v6-v2/30000/047c1cf6-d89d-4c77-a99e-ab0f57d3e3a3.root
/store/mc/Run3Summer22EENanoAODv12/DYto2L-2Jets_MLL-50_2J_TuneCP5_13p6TeV_amcatnloFXFX-pythia8/NANOAODSIM/130X_mcRun3_2022_realistic_postEE_v6-v2/30000/d0b39f2a-7d24-46de-8fcd-b6b37b7d5a53.root
/store/mc/Run3Summer22EENanoAODv12/DYto2L-2Jets_MLL-50_2J_TuneCP5_13p6TeV_amcatnloFXFX-pythia8/NANOAODSIM/130X_mcRun3_2022_realistic_postEE_v6-v2/30000/5e63b44c-b7cb-450e-b00a-b485f3b19866.root
/store/mc/Run3Summer22EENanoAODv12/DYto2L-2Jets_MLL-50_2J_TuneCP5_13p6TeV_amcatnloFXFX-pythia8/NANOAODSIM/130X_mcRun3_2022_realistic_postEE_v6-v2/2520000/9adc9d1f-b6ef-4c98-80c1-cfa7143f72e3.root
/store/mc/Run3Summer22EENanoAODv12/DYto2L-2Jets_MLL-50_2J_TuneCP5_13p6TeV_amcatnloFXFX-pythia8/NANOAODSIM/130X_mcRun3_2022_realistic_postEE_v6-v2/2520000/8977917b-8783-4f3e-8474-7d0e32e4c73b.root
/store/mc/Run3Summer22EENanoAODv12/DYto2L-2Jets_MLL-50_2J_TuneCP5_13p6TeV_amcatnloFXFX-pythia8/NANOAODSIM/130X_mcRun3_2022_realistic_postEE_v6-v2/2520000/47912e8a-686f-4bb4-8aea-86e9c9514eab.root
/store/mc/Run3Summer22EENanoAODv12/DYto2L-2Jets_MLL-50_2J_TuneCP5_13p6TeV_amcatnloFXFX-pythia8/NANOAODSIM/130X_mcRun3_2022_realistic_postEE_v6-v2/2520000/1d8bc5f3-37e7-4b3e-bb47-165cc63f89ab.root
/store/mc/Run3Summer22EENanoAODv12/DYto2L-2Jets_MLL-50_2J_TuneCP5_13p6TeV_amcatnloFXFX-pythia8/NANOAODSIM/130X_mcRun3_2022_realistic_postEE_v6-v2/2520000/afc894ac-82ff-4ec5-b734-ded8396c81c8.root
/store/mc/Run3Summer22EENanoAODv12/DYto2L-2Jets_MLL-50_2J_TuneCP5_13p6TeV_amcatnloFXFX-pythia8/NANOAODSIM/130X_mcRun3_2022_realistic_postEE_v6-v2/2520000/5f71f7c9-c32e-47c8-b7d6-4fcd560c0dd1.root
/store/mc/Run3Summer22EENanoAODv12/DYto2L-2Jets_MLL-50_2J_TuneCP5_13p6TeV_amcatnloFXFX-pythia8/NANOAODSIM/130X_mcRun3_2022_realistic_postEE_v6-v2/2520000/19ef4e23-61cd-4026-87fa-5b47523151f0.root
/store/mc/Run3Summer22EENanoAODv12/DYto2L-2Jets_MLL-50_2J_TuneCP5_13p6TeV_amcatnloFXFX-pythia8/NANOAODSIM/130X_mcRun3_2022_realistic_postEE_v6-v2/2520000/c7d36649-1365-4505-8648-2cc1e841f931.root
/store/mc/Run3Summer22EENanoAODv12/DYto2L-2Jets_MLL-50_2J_TuneCP5_13p6TeV_amcatnloFXFX-pythia8/NANOAODSIM/130X_mcRun3_2022_realistic_postEE_v6-v2/50000/a21b074e-7935-4b49-87de-7c46178b2295.root
/store/mc/Run3Summer22EENanoAODv12/DYto2L-2Jets_MLL-50_2J_TuneCP5_13p6TeV_amcatnloFXFX-pythia8/NANOAODSIM/130X_mcRun3_2022_realistic_postEE_v6-v2/50000/064242c7-96f9-4496-8b49-2c7eebc43ad6.root
/store/mc/Run3Summer22EENanoAODv12/DYto2L-2Jets_MLL-50_2J_TuneCP5_13p6TeV_amcatnloFXFX-pythia8/NANOAODSIM/130X_mcRun3_2022_realistic_postEE_v6-v2/50000/7bf90a86-6be7-475c-b702-3395abac5928.root
/store/mc/Run3Summer22EENanoAODv12/DYto2L-2Jets_MLL-50_2J_TuneCP5_13p6TeV_amcatnloFXFX-pythia8/NANOAODSIM/130X_mcRun3_2022_realistic_postEE_v6-v2/50000/4b7dd331-b3d2-4b62-9b05-9732e2b273de.root
/store/mc/Run3Summer22EENanoAODv12/DYto2L-2Jets_MLL-50_2J_TuneCP5_13p6TeV_amcatnloFXFX-pythia8/NANOAODSIM/130X_mcRun3_2022_realistic_postEE_v6-v2/50000/cda8b782-f70f-4030-bde1-a6694886d1bf.root
/store/mc/Run3Summer22EENanoAODv12/DYto2L-2Jets_MLL-50_2J_TuneCP5_13p6TeV_amcatnloFXFX-pythia8/NANOAODSIM/130X_mcRun3_2022_realistic_postEE_v6-v2/2520000/9e80cd49-fc30-4efb-bf1d-e3546f5fe4e5.root
/store/mc/Run3Summer22EENanoAODv12/DYto2L-2Jets_MLL-50_2J_TuneCP5_13p6TeV_amcatnloFXFX-pythia8/NANOAODSIM/130X_mcRun3_2022_realistic_postEE_v6-v2/40000/f949a613-c26c-45d6-86a2-83e30bde0d2c.root
/store/mc/Run3Summer22EENanoAODv12/DYto2L-2Jets_MLL-50_2J_TuneCP5_13p6TeV_amcatnloFXFX-pythia8/NANOAODSIM/130X_mcRun3_2022_realistic_postEE_v6-v2/2520000/d5f0bfeb-3967-4828-a71d-ad243b3c7b20.root
/store/mc/Run3Summer22EENanoAODv12/DYto2L-2Jets_MLL-50_2J_TuneCP5_13p6TeV_amcatnloFXFX-pythia8/NANOAODSIM/130X_mcRun3_2022_realistic_postEE_v6-v2/2530000/6f1cfe86-7994-4b1e-bcee-aafa0f75e995.root
/store/mc/Run3Summer22EENanoAODv12/DYto2L-2Jets_MLL-50_2J_TuneCP5_13p6TeV_amcatnloFXFX-pythia8/NANOAODSIM/130X_mcRun3_2022_realistic_postEE_v6-v2/50000/f5dc0400-81de-49f8-ab6a-4d2b44f01ae5.root
/store/mc/Run3Summer22EENanoAODv12/DYto2L-2Jets_MLL-50_2J_TuneCP5_13p6TeV_amcatnloFXFX-pythia8/NANOAODSIM/130X_mcRun3_2022_realistic_postEE_v6-v2/50000/178eb676-092b-4045-a6b6-0b4f817a4881.root
/store/mc/Run3Summer22EENanoAODv12/DYto2L-2Jets_MLL-50_2J_TuneCP5_13p6TeV_amcatnloFXFX-pythia8/NANOAODSIM/130X_mcRun3_2022_realistic_postEE_v6-v2/50000/e6bc55e4-620d-4377-876b-fdd5d27d5754.root
/store/mc/Run3Summer22EENanoAODv12/DYto2L-2Jets_MLL-50_2J_TuneCP5_13p6TeV_amcatnloFXFX-pythia8/NANOAODSIM/130X_mcRun3_2022_realistic_postEE_v6-v2/50000/efb96476-25d7-4e19-8dba-3a062bb2337c.root
/store/mc/Run3Summer22EENanoAODv12/DYto2L-2Jets_MLL-50_2J_TuneCP5_13p6TeV_amcatnloFXFX-pythia8/NANOAODSIM/130X_mcRun3_2022_realistic_postEE_v6-v2/50000/2e06890d-9655-4ee0-8427-a49b75b8a0ae.root
/store/mc/Run3Summer22EENanoAODv12/DYto2L-2Jets_MLL-50_2J_TuneCP5_13p6TeV_amcatnloFXFX-pythia8/NANOAODSIM/130X_mcRun3_2022_realistic_postEE_v6-v2/50000/9c30b705-7c0a-46e7-9f10-fc44b08ce074.root
/store/mc/Run3Summer22EENanoAODv12/DYto2L-2Jets_MLL-50_2J_TuneCP5_13p6TeV_amcatnloFXFX-pythia8/NANOAODSIM/130X_mcRun3_2022_realistic_postEE_v6-v2/50000/b0c7182f-d6fc-4b58-bb3e-c19337026731.root
/store/mc/Run3Summer22EENanoAODv12/DYto2L-2Jets_MLL-50_2J_TuneCP5_13p6TeV_amcatnloFXFX-pythia8/NANOAODSIM/130X_mcRun3_2022_realistic_postEE_v6-v2/50000/871701c1-9f4b-4f56-bacd-aa00e8d4ff47.root
/store/mc/Run3Summer22EENanoAODv12/DYto2L-2Jets_MLL-50_2J_TuneCP5_13p6TeV_amcatnloFXFX-pythia8/NANOAODSIM/130X_mcRun3_2022_realistic_postEE_v6-v2/50000/68d1cdb5-3b93-431c-83fc-17bddf2a8eec.root
/store/mc/Run3Summer22EENanoAODv12/DYto2L-2Jets_MLL-50_2J_TuneCP5_13p6TeV_amcatnloFXFX-pythia8/NANOAODSIM/130X_mcRun3_2022_realistic_postEE_v6-v2/50000/af88f299-cd29-40d3-bd57-072916624e43.root
/store/mc/Run3Summer22EENanoAODv12/DYto2L-2Jets_MLL-50_2J_TuneCP5_13p6TeV_amcatnloFXFX-pythia8/NANOAODSIM/130X_mcRun3_2022_realistic_postEE_v6-v2/50000/b9016f59-7e0c-4485-8b3e-1973a3a0da58.root
/store/mc/Run3Summer22EENanoAODv12/DYto2L-2Jets_MLL-50_2J_TuneCP5_13p6TeV_amcatnloFXFX-pythia8/NANOAODSIM/130X_mcRun3_2022_realistic_postEE_v6-v2/50000/89205728-51ae-4463-a85d-3a94415e78b0.root
/store/mc/Run3Summer22EENanoAODv12/DYto2L-2Jets_MLL-50_2J_TuneCP5_13p6TeV_amcatnloFXFX-pythia8/NANOAODSIM/130X_mcRun3_2022_realistic_postEE_v6-v2/50000/3103a49d-b058-4487-81f1-b6e0ab947203.root
/store/mc/Run3Summer22EENanoAODv12/DYto2L-2Jets_MLL-50_2J_TuneCP5_13p6TeV_amcatnloFXFX-pythia8/NANOAODSIM/130X_mcRun3_2022_realistic_postEE_v6-v2/50000/ea21171e-bb8a-46d3-b4b9-cedf3d4e9968.root
/store/mc/Run3Summer22EENanoAODv12/DYto2L-2Jets_MLL-50_2J_TuneCP5_13p6TeV_amcatnloFXFX-pythia8/NANOAODSIM/130X_mcRun3_2022_realistic_postEE_v6-v2/50000/0d51ed39-bca1-4327-a3ca-dc8d535ed14e.root
/store/mc/Run3Summer22EENanoAODv12/DYto2L-2Jets_MLL-50_2J_TuneCP5_13p6TeV_amcatnloFXFX-pythia8/NANOAODSIM/130X_mcRun3_2022_realistic_postEE_v6-v2/50000/173ad67d-44cf-4d14-a55f-397f40a025d6.root
/store/mc/Run3Summer22EENanoAODv12/DYto2L-2Jets_MLL-50_2J_TuneCP5_13p6TeV_amcatnloFXFX-pythia8/NANOAODSIM/130X_mcRun3_2022_realistic_postEE_v6-v2/50000/025d9c75-5fdb-400f-a0a7-6fff3639852e.root
/store/mc/Run3Summer22EENanoAODv12/DYto2L-2Jets_MLL-50_2J_TuneCP5_13p6TeV_amcatnloFXFX-pythia8/NANOAODSIM/130X_mcRun3_2022_realistic_postEE_v6-v2/50000/e4b04d51-91e8-40ea-b7ad-959a5c54ea34.root
/store/mc/Run3Summer22EENanoAODv12/DYto2L-2Jets_MLL-50_2J_TuneCP5_13p6TeV_amcatnloFXFX-pythia8/NANOAODSIM/130X_mcRun3_2022_realistic_postEE_v6-v2/50000/83006af2-5471-4838-aa35-b76ab5513d7e.root
/store/mc/Run3Summer22EENanoAODv12/DYto2L-2Jets_MLL-50_2J_TuneCP5_13p6TeV_amcatnloFXFX-pythia8/NANOAODSIM/130X_mcRun3_2022_realistic_postEE_v6-v2/50000/c79279a3-890d-4146-8d3b-c54ca2c1b5b5.root
/store/mc/Run3Summer22EENanoAODv12/DYto2L-2Jets_MLL-50_2J_TuneCP5_13p6TeV_amcatnloFXFX-pythia8/NANOAODSIM/130X_mcRun3_2022_realistic_postEE_v6-v2/50000/377da717-8018-499b-998a-5325856f85fc.root
/store/mc/Run3Summer22EENanoAODv12/DYto2L-2Jets_MLL-50_2J_TuneCP5_13p6TeV_amcatnloFXFX-pythia8/NANOAODSIM/130X_mcRun3_2022_realistic_postEE_v6-v2/50000/47cae38b-236e-44c2-9994-b5616e4ec410.root
/store/mc/Run3Summer22EENanoAODv12/DYto2L-2Jets_MLL-50_2J_TuneCP5_13p6TeV_amcatnloFXFX-pythia8/NANOAODSIM/130X_mcRun3_2022_realistic_postEE_v6-v2/50000/07efb970-8397-44a8-aaca-8e1a8090b2bc.root
/store/mc/Run3Summer22EENanoAODv12/DYto2L-2Jets_MLL-50_2J_TuneCP5_13p6TeV_amcatnloFXFX-pythia8/NANOAODSIM/130X_mcRun3_2022_realistic_postEE_v6-v2/50000/9c31f00d-2de8-40d8-80a3-67d0304d2df0.root
/store/mc/Run3Summer22EENanoAODv12/DYto2L-2Jets_MLL-50_2J_TuneCP5_13p6TeV_amcatnloFXFX-pythia8/NANOAODSIM/130X_mcRun3_2022_realistic_postEE_v6-v2/50000/d8699620-5be5-454c-a2d0-dabf92ac8695.root
/store/mc/Run3Summer22EENanoAODv12/DYto2L-2Jets_MLL-50_2J_TuneCP5_13p6TeV_amcatnloFXFX-pythia8/NANOAODSIM/130X_mcRun3_2022_realistic_postEE_v6-v2/50000/ecba8b7e-d025-402d-815d-2a8082860d13.root
/store/mc/Run3Summer22EENanoAODv12/DYto2L-2Jets_MLL-50_2J_TuneCP5_13p6TeV_amcatnloFXFX-pythia8/NANOAODSIM/130X_mcRun3_2022_realistic_postEE_v6-v2/50000/2907f55c-9423-40c2-a045-79cc94dddbab.root
/store/mc/Run3Summer22EENanoAODv12/DYto2L-2Jets_MLL-50_2J_TuneCP5_13p6TeV_amcatnloFXFX-pythia8/NANOAODSIM/130X_mcRun3_2022_realistic_postEE_v6-v2/50000/a276d70e-4747-42ac-bbdd-9079158c2911.root
/store/mc/Run3Summer22EENanoAODv12/DYto2L-2Jets_MLL-50_2J_TuneCP5_13p6TeV_amcatnloFXFX-pythia8/NANOAODSIM/130X_mcRun3_2022_realistic_postEE_v6-v2/50000/73ef1500-31bb-4c20-9bd3-13cb4b708b3b.root
/store/mc/Run3Summer22EENanoAODv12/DYto2L-2Jets_MLL-50_2J_TuneCP5_13p6TeV_amcatnloFXFX-pythia8/NANOAODSIM/130X_mcRun3_2022_realistic_postEE_v6-v2/50000/07f11f05-c9d1-4f31-8a6a-d5101997f140.root
/store/mc/Run3Summer22EENanoAODv12/DYto2L-2Jets_MLL-50_2J_TuneCP5_13p6TeV_amcatnloFXFX-pythia8/NANOAODSIM/130X_mcRun3_2022_realistic_postEE_v6-v2/50000/b1729315-8ead-4206-a625-1204c4e9be2a.root
/store/mc/Run3Summer22EENanoAODv12/DYto2L-2Jets_MLL-50_2J_TuneCP5_13p6TeV_amcatnloFXFX-pythia8/NANOAODSIM/130X_mcRun3_2022_realistic_postEE_v6-v2/50000/c170f133-f585-4a6e-9bd1-9aeb2199343a.root
/store/mc/Run3Summer22EENanoAODv12/DYto2L-2Jets_MLL-50_2J_TuneCP5_13p6TeV_amcatnloFXFX-pythia8/NANOAODSIM/130X_mcRun3_2022_realistic_postEE_v6-v2/50000/8a51464d-a8e9-4339-95b3-6a106162bce0.root
/store/mc/Run3Summer22EENanoAODv12/DYto2L-2Jets_MLL-50_2J_TuneCP5_13p6TeV_amcatnloFXFX-pythia8/NANOAODSIM/130X_mcRun3_2022_realistic_postEE_v6-v2/50000/5270f747-15e4-4854-a2e3-09136befe133.root
/store/mc/Run3Summer22EENanoAODv12/DYto2L-2Jets_MLL-50_2J_TuneCP5_13p6TeV_amcatnloFXFX-pythia8/NANOAODSIM/130X_mcRun3_2022_realistic_postEE_v6-v2/50000/434e7ffb-0c1f-4782-b113-4449ed564772.root
/store/mc/Run3Summer22EENanoAODv12/DYto2L-2Jets_MLL-50_2J_TuneCP5_13p6TeV_amcatnloFXFX-pythia8/NANOAODSIM/130X_mcRun3_2022_realistic_postEE_v6-v2/50000/9162df8d-2a99-4887-ab45-035957186d6b.root
/store/mc/Run3Summer22EENanoAODv12/DYto2L-2Jets_MLL-50_2J_TuneCP5_13p6TeV_amcatnloFXFX-pythia8/NANOAODSIM/130X_mcRun3_2022_realistic_postEE_v6-v2/50000/844ab8cc-641f-4425-b0ff-c7a4c90470b6.root
/store/mc/Run3Summer22EENanoAODv12/DYto2L-2Jets_MLL-50_2J_TuneCP5_13p6TeV_amcatnloFXFX-pythia8/NANOAODSIM/130X_mcRun3_2022_realistic_postEE_v6-v2/50000/573cbaeb-39a2-44eb-bf49-d6cd33da7c45.root
/store/mc/Run3Summer22EENanoAODv12/DYto2L-2Jets_MLL-50_2J_TuneCP5_13p6TeV_amcatnloFXFX-pythia8/NANOAODSIM/130X_mcRun3_2022_realistic_postEE_v6-v2/50000/46bc3ae7-bcaf-4173-b8cb-3802ed1595c5.root
/store/mc/Run3Summer22EENanoAODv12/DYto2L-2Jets_MLL-50_2J_TuneCP5_13p6TeV_amcatnloFXFX-pythia8/NANOAODSIM/130X_mcRun3_2022_realistic_postEE_v6-v2/50000/4d54799d-5873-4e54-abe9-bd912ef0ce96.root
/store/mc/Run3Summer22EENanoAODv12/DYto2L-2Jets_MLL-50_2J_TuneCP5_13p6TeV_amcatnloFXFX-pythia8/NANOAODSIM/130X_mcRun3_2022_realistic_postEE_v6-v2/50000/83abfb79-0ad8-41f0-9789-f1e6594106ce.root
/store/mc/Run3Summer22EENanoAODv12/DYto2L-2Jets_MLL-50_2J_TuneCP5_13p6TeV_amcatnloFXFX-pythia8/NANOAODSIM/130X_mcRun3_2022_realistic_postEE_v6-v2/50000/2b83c8ce-ea9f-4ad6-b28d-9c147e3c3648.root
/store/mc/Run3Summer22EENanoAODv12/DYto2L-2Jets_MLL-50_2J_TuneCP5_13p6TeV_amcatnloFXFX-pythia8/NANOAODSIM/130X_mcRun3_2022_realistic_postEE_v6-v2/50000/1ac2c5fd-0b4a-4ae3-9911-07af8d43c0c1.root
/store/mc/Run3Summer22EENanoAODv12/DYto2L-2Jets_MLL-50_2J_TuneCP5_13p6TeV_amcatnloFXFX-pythia8/NANOAODSIM/130X_mcRun3_2022_realistic_postEE_v6-v2/50000/5b12c5bd-c331-4b30-9c12-049932f488b4.root
/store/mc/Run3Summer22EENanoAODv12/DYto2L-2Jets_MLL-50_2J_TuneCP5_13p6TeV_amcatnloFXFX-pythia8/NANOAODSIM/130X_mcRun3_2022_realistic_postEE_v6-v2/50000/27d72f36-7117-411c-bbbc-02c1303bf41e.root
/store/mc/Run3Summer22EENanoAODv12/DYto2L-2Jets_MLL-50_2J_TuneCP5_13p6TeV_amcatnloFXFX-pythia8/NANOAODSIM/130X_mcRun3_2022_realistic_postEE_v6-v2/50000/783b71a4-74ea-4469-9fea-c8ff4299cd55.root
/store/mc/Run3Summer22EENanoAODv12/DYto2L-2Jets_MLL-50_2J_TuneCP5_13p6TeV_amcatnloFXFX-pythia8/NANOAODSIM/130X_mcRun3_2022_realistic_postEE_v6-v2/50000/08aee43a-2201-4c01-a32e-174563147c36.root
/store/mc/Run3Summer22EENanoAODv12/DYto2L-2Jets_MLL-50_2J_TuneCP5_13p6TeV_amcatnloFXFX-pythia8/NANOAODSIM/130X_mcRun3_2022_realistic_postEE_v6-v2/50000/9b607784-935e-4f4d-8cf2-f111535172ec.root
/store/mc/Run3Summer22EENanoAODv12/DYto2L-2Jets_MLL-50_2J_TuneCP5_13p6TeV_amcatnloFXFX-pythia8/NANOAODSIM/130X_mcRun3_2022_realistic_postEE_v6-v2/50000/fcb12f74-c76d-4c75-bc5b-f7e63d697ad2.root
/store/mc/Run3Summer22EENanoAODv12/DYto2L-2Jets_MLL-50_2J_TuneCP5_13p6TeV_amcatnloFXFX-pythia8/NANOAODSIM/130X_mcRun3_2022_realistic_postEE_v6-v2/50000/9e626d4d-84d7-4422-a984-4cc212b630dc.root
/store/mc/Run3Summer22EENanoAODv12/DYto2L-2Jets_MLL-50_2J_TuneCP5_13p6TeV_amcatnloFXFX-pythia8/NANOAODSIM/130X_mcRun3_2022_realistic_postEE_v6-v2/50000/50f3b7a5-b8c9-441b-9a5c-7b038483b9de.root
/store/mc/Run3Summer22EENanoAODv12/DYto2L-2Jets_MLL-50_2J_TuneCP5_13p6TeV_amcatnloFXFX-pythia8/NANOAODSIM/130X_mcRun3_2022_realistic_postEE_v6-v2/50000/51822dcb-32b5-45d3-bb91-7c58a47d0948.root
/store/mc/Run3Summer22EENanoAODv12/DYto2L-2Jets_MLL-50_2J_TuneCP5_13p6TeV_amcatnloFXFX-pythia8/NANOAODSIM/130X_mcRun3_2022_realistic_postEE_v6-v2/2520000/45b6e34a-5ef7-40b2-bb0e-9f2c41558a67.root
/store/mc/Run3Summer22EENanoAODv12/DYto2L-2Jets_MLL-50_2J_TuneCP5_13p6TeV_amcatnloFXFX-pythia8/NANOAODSIM/130X_mcRun3_2022_realistic_postEE_v6-v2/2520000/0612c864-0e24-4606-8bd5-dc9581b9158c.root
/store/mc/Run3Summer22EENanoAODv12/DYto2L-2Jets_MLL-50_2J_TuneCP5_13p6TeV_amcatnloFXFX-pythia8/NANOAODSIM/130X_mcRun3_2022_realistic_postEE_v6-v2/2520000/a3b7dc85-ad32-473c-8a4b-f6e0eb0ac68f.root
/store/mc/Run3Summer22EENanoAODv12/DYto2L-2Jets_MLL-50_2J_TuneCP5_13p6TeV_amcatnloFXFX-pythia8/NANOAODSIM/130X_mcRun3_2022_realistic_postEE_v6-v2/2530000/00f074eb-f8ea-4cca-a205-96b8ca13eb31.root
/store/mc/Run3Summer22EENanoAODv12/DYto2L-2Jets_MLL-50_2J_TuneCP5_13p6TeV_amcatnloFXFX-pythia8/NANOAODSIM/130X_mcRun3_2022_realistic_postEE_v6-v2/2530000/771b974b-6124-4261-84de-ff91a888bde9.root
/store/mc/Run3Summer22EENanoAODv12/DYto2L-2Jets_MLL-50_2J_TuneCP5_13p6TeV_amcatnloFXFX-pythia8/NANOAODSIM/130X_mcRun3_2022_realistic_postEE_v6-v2/2530000/9a7ae21d-f596-4ecb-9d47-654b44f43978.root
/store/mc/Run3Summer22EENanoAODv12/DYto2L-2Jets_MLL-50_2J_TuneCP5_13p6TeV_amcatnloFXFX-pythia8/NANOAODSIM/130X_mcRun3_2022_realistic_postEE_v6-v2/2530000/6d8dad0a-9839-4a83-a41e-50e652e56793.root
/store/mc/Run3Summer22EENanoAODv12/DYto2L-2Jets_MLL-50_2J_TuneCP5_13p6TeV_amcatnloFXFX-pythia8/NANOAODSIM/130X_mcRun3_2022_realistic_postEE_v6-v2/2530000/3a29d34d-ea86-4d53-8349-2ed2b0b7ac57.root
/store/mc/Run3Summer22EENanoAODv12/DYto2L-2Jets_MLL-50_2J_TuneCP5_13p6TeV_amcatnloFXFX-pythia8/NANOAODSIM/130X_mcRun3_2022_realistic_postEE_v6-v2/2530000/047cb43e-167b-4b6b-a0a4-e2acc3a1e026.root
/store/mc/Run3Summer22EENanoAODv12/DYto2L-2Jets_MLL-50_2J_TuneCP5_13p6TeV_amcatnloFXFX-pythia8/NANOAODSIM/130X_mcRun3_2022_realistic_postEE_v6-v2/2530000/f6ea65c6-2fdf-4cce-8956-41a0d28eabad.root
/store/mc/Run3Summer22EENanoAODv12/DYto2L-2Jets_MLL-50_2J_TuneCP5_13p6TeV_amcatnloFXFX-pythia8/NANOAODSIM/130X_mcRun3_2022_realistic_postEE_v6-v2/2530000/82cadc35-be71-48c0-9ec8-8bfb0d38005e.root
/store/mc/Run3Summer22EENanoAODv12/DYto2L-2Jets_MLL-50_2J_TuneCP5_13p6TeV_amcatnloFXFX-pythia8/NANOAODSIM/130X_mcRun3_2022_realistic_postEE_v6-v2/2530000/80d2915a-5c89-4b78-9e4e-e09cc5aa622b.root
/store/mc/Run3Summer22EENanoAODv12/DYto2L-2Jets_MLL-50_2J_TuneCP5_13p6TeV_amcatnloFXFX-pythia8/NANOAODSIM/130X_mcRun3_2022_realistic_postEE_v6-v2/2530000/dedfae41-8262-4d67-9b66-75acdcc5474b.root
/store/mc/Run3Summer22EENanoAODv12/DYto2L-2Jets_MLL-50_2J_TuneCP5_13p6TeV_amcatnloFXFX-pythia8/NANOAODSIM/130X_mcRun3_2022_realistic_postEE_v6-v2/2530000/47a3c756-3578-48b5-9550-e3dcc9dc3942.root
/store/mc/Run3Summer22EENanoAODv12/DYto2L-2Jets_MLL-50_2J_TuneCP5_13p6TeV_amcatnloFXFX-pythia8/NANOAODSIM/130X_mcRun3_2022_realistic_postEE_v6-v2/2530000/f18577a5-ccae-4027-8f5a-665857342c33.root
/store/mc/Run3Summer22EENanoAODv12/DYto2L-2Jets_MLL-50_2J_TuneCP5_13p6TeV_amcatnloFXFX-pythia8/NANOAODSIM/130X_mcRun3_2022_realistic_postEE_v6-v2/2520000/de023bae-09b3-464b-b270-4e72880c4255.root
/store/mc/Run3Summer22EENanoAODv12/DYto2L-2Jets_MLL-50_2J_TuneCP5_13p6TeV_amcatnloFXFX-pythia8/NANOAODSIM/130X_mcRun3_2022_realistic_postEE_v6-v2/2520000/7889e160-e232-45f8-bd08-548f58a6ae32.root
/store/mc/Run3Summer22EENanoAODv12/DYto2L-2Jets_MLL-50_2J_TuneCP5_13p6TeV_amcatnloFXFX-pythia8/NANOAODSIM/130X_mcRun3_2022_realistic_postEE_v6-v2/2520000/cdf0eb35-ec8b-4399-8fee-c40aa2c0d649.root
/store/mc/Run3Summer22EENanoAODv12/DYto2L-2Jets_MLL-50_2J_TuneCP5_13p6TeV_amcatnloFXFX-pythia8/NANOAODSIM/130X_mcRun3_2022_realistic_postEE_v6-v2/2520000/d53db83d-1122-4bd8-aa4e-301d8c54c2d2.root
/store/mc/Run3Summer22EENanoAODv12/DYto2L-2Jets_MLL-50_2J_TuneCP5_13p6TeV_amcatnloFXFX-pythia8/NANOAODSIM/130X_mcRun3_2022_realistic_postEE_v6-v2/2520000/ee650e5b-cd4b-4818-99a0-6fd0acd57371.root
/store/mc/Run3Summer22EENanoAODv12/DYto2L-2Jets_MLL-50_2J_TuneCP5_13p6TeV_amcatnloFXFX-pythia8/NANOAODSIM/130X_mcRun3_2022_realistic_postEE_v6-v2/2540000/a1358f4a-a12b-410b-b4cb-15520c40108e.root
/store/mc/Run3Summer22EENanoAODv12/DYto2L-2Jets_MLL-50_2J_TuneCP5_13p6TeV_amcatnloFXFX-pythia8/NANOAODSIM/130X_mcRun3_2022_realistic_postEE_v6-v2/2540000/05653460-b92d-4166-aeb9-480442084abd.root
/store/mc/Run3Summer22EENanoAODv12/DYto2L-2Jets_MLL-50_2J_TuneCP5_13p6TeV_amcatnloFXFX-pythia8/NANOAODSIM/130X_mcRun3_2022_realistic_postEE_v6-v2/2520000/bfa2de98-5e0e-483b-a315-4e055f60b78b.root
/store/mc/Run3Summer22EENanoAODv12/DYto2L-2Jets_MLL-50_2J_TuneCP5_13p6TeV_amcatnloFXFX-pythia8/NANOAODSIM/130X_mcRun3_2022_realistic_postEE_v6-v2/2520000/f00179f5-cc77-487c-a0f0-e663637ca3d7.root
/store/mc/Run3Summer22EENanoAODv12/DYto2L-2Jets_MLL-50_2J_TuneCP5_13p6TeV_amcatnloFXFX-pythia8/NANOAODSIM/130X_mcRun3_2022_realistic_postEE_v6-v2/2520000/1452cade-a4c9-4556-b4c0-0af33ba5ee45.root
/store/mc/Run3Summer22EENanoAODv12/DYto2L-2Jets_MLL-50_2J_TuneCP5_13p6TeV_amcatnloFXFX-pythia8/NANOAODSIM/130X_mcRun3_2022_realistic_postEE_v6-v2/2520000/56f735f3-4ba6-4c04-96c2-ed27cb51e964.root
/store/mc/Run3Summer22EENanoAODv12/DYto2L-2Jets_MLL-50_2J_TuneCP5_13p6TeV_amcatnloFXFX-pythia8/NANOAODSIM/130X_mcRun3_2022_realistic_postEE_v6-v2/2520000/44053b63-dea1-4b9b-9a6a-a8b142a8f817.root
/store/mc/Run3Summer22EENanoAODv12/DYto2L-2Jets_MLL-50_2J_TuneCP5_13p6TeV_amcatnloFXFX-pythia8/NANOAODSIM/130X_mcRun3_2022_realistic_postEE_v6-v2/2520000/b2c777b7-f869-43eb-945f-033620cb9ae3.root
/store/mc/Run3Summer22EENanoAODv12/DYto2L-2Jets_MLL-50_2J_TuneCP5_13p6TeV_amcatnloFXFX-pythia8/NANOAODSIM/130X_mcRun3_2022_realistic_postEE_v6-v2/2520000/524af2c1-2bb6-42bc-bb6b-a0225e313652.root
/store/mc/Run3Summer22EENanoAODv12/DYto2L-2Jets_MLL-50_2J_TuneCP5_13p6TeV_amcatnloFXFX-pythia8/NANOAODSIM/130X_mcRun3_2022_realistic_postEE_v6-v2/2520000/f625f8a8-3830-4486-82ff-206f4e883d76.root
/store/mc/Run3Summer22EENanoAODv12/DYto2L-2Jets_MLL-50_2J_TuneCP5_13p6TeV_amcatnloFXFX-pythia8/NANOAODSIM/130X_mcRun3_2022_realistic_postEE_v6-v2/50000/2805dbd5-fe4e-466e-a86b-9b795a8bda9e.root
/store/mc/Run3Summer22EENanoAODv12/DYto2L-2Jets_MLL-50_2J_TuneCP5_13p6TeV_amcatnloFXFX-pythia8/NANOAODSIM/130X_mcRun3_2022_realistic_postEE_v6-v2/40000/6b54a2b5-060a-4fcf-9dd6-fc74f202f66e.root
/store/mc/Run3Summer22EENanoAODv12/DYto2L-2Jets_MLL-50_2J_TuneCP5_13p6TeV_amcatnloFXFX-pythia8/NANOAODSIM/130X_mcRun3_2022_realistic_postEE_v6-v2/40000/29e56bcd-3e58-4d0d-9d68-4e4aaf5d056e.root
/store/mc/Run3Summer22EENanoAODv12/DYto2L-2Jets_MLL-50_2J_TuneCP5_13p6TeV_amcatnloFXFX-pythia8/NANOAODSIM/130X_mcRun3_2022_realistic_postEE_v6-v2/40000/94d39f9b-e719-45c2-b487-c2065fc63426.root
/store/mc/Run3Summer22EENanoAODv12/DYto2L-2Jets_MLL-50_2J_TuneCP5_13p6TeV_amcatnloFXFX-pythia8/NANOAODSIM/130X_mcRun3_2022_realistic_postEE_v6-v2/40000/ed551916-ae21-42dc-ab3f-65968e2faff2.root
/store/mc/Run3Summer22EENanoAODv12/DYto2L-2Jets_MLL-50_2J_TuneCP5_13p6TeV_amcatnloFXFX-pythia8/NANOAODSIM/130X_mcRun3_2022_realistic_postEE_v6-v2/30000/91def9d7-a696-4359-8059-86e48bfac8f2.root
/store/mc/Run3Summer22EENanoAODv12/DYto2L-2Jets_MLL-50_2J_TuneCP5_13p6TeV_amcatnloFXFX-pythia8/NANOAODSIM/130X_mcRun3_2022_realistic_postEE_v6-v2/40000/774b5c91-8fec-4847-9cb5-60bc9954020b.root
/store/mc/Run3Summer22EENanoAODv12/DYto2L-2Jets_MLL-50_2J_TuneCP5_13p6TeV_amcatnloFXFX-pythia8/NANOAODSIM/130X_mcRun3_2022_realistic_postEE_v6-v2/40000/5d223143-eac8-4291-9c0a-5b0fc866fdb9.root
/store/mc/Run3Summer22EENanoAODv12/DYto2L-2Jets_MLL-50_2J_TuneCP5_13p6TeV_amcatnloFXFX-pythia8/NANOAODSIM/130X_mcRun3_2022_realistic_postEE_v6-v2/40000/84062831-f76f-48d0-acc6-b34031d8ab23.root
/store/mc/Run3Summer22EENanoAODv12/DYto2L-2Jets_MLL-50_2J_TuneCP5_13p6TeV_amcatnloFXFX-pythia8/NANOAODSIM/130X_mcRun3_2022_realistic_postEE_v6-v2/50000/46ace416-94f9-420e-b9d6-3d6792323ae4.root
/store/mc/Run3Summer22EENanoAODv12/DYto2L-2Jets_MLL-50_2J_TuneCP5_13p6TeV_amcatnloFXFX-pythia8/NANOAODSIM/130X_mcRun3_2022_realistic_postEE_v6-v2/50000/c53ac4c3-d87a-4cf8-a63e-578c1f59f1c0.root
/store/mc/Run3Summer22EENanoAODv12/DYto2L-2Jets_MLL-50_2J_TuneCP5_13p6TeV_amcatnloFXFX-pythia8/NANOAODSIM/130X_mcRun3_2022_realistic_postEE_v6-v2/50000/081157e0-b51c-4629-91d4-779ad60c8eb6.root
/store/mc/Run3Summer22EENanoAODv12/DYto2L-2Jets_MLL-50_2J_TuneCP5_13p6TeV_amcatnloFXFX-pythia8/NANOAODSIM/130X_mcRun3_2022_realistic_postEE_v6-v2/50000/2fc21073-6d41-4b25-8dc1-ba0bc1464e2a.root
/store/mc/Run3Summer22EENanoAODv12/DYto2L-2Jets_MLL-50_2J_TuneCP5_13p6TeV_amcatnloFXFX-pythia8/NANOAODSIM/130X_mcRun3_2022_realistic_postEE_v6-v2/50000/e6e1088c-109b-49d4-a32e-62aea21aed3e.root
/store/mc/Run3Summer22EENanoAODv12/DYto2L-2Jets_MLL-50_2J_TuneCP5_13p6TeV_amcatnloFXFX-pythia8/NANOAODSIM/130X_mcRun3_2022_realistic_postEE_v6-v2/50000/e199a030-9ce1-48ad-a663-2532e956a5f0.root
/store/mc/Run3Summer22EENanoAODv12/DYto2L-2Jets_MLL-50_2J_TuneCP5_13p6TeV_amcatnloFXFX-pythia8/NANOAODSIM/130X_mcRun3_2022_realistic_postEE_v6-v2/50000/4b036537-f54b-42b5-8ddc-97877566cc13.root
/store/mc/Run3Summer22EENanoAODv12/DYto2L-2Jets_MLL-50_2J_TuneCP5_13p6TeV_amcatnloFXFX-pythia8/NANOAODSIM/130X_mcRun3_2022_realistic_postEE_v6-v2/40000/3c631688-e4bb-46a3-bab8-f6265ed6e285.root
/store/mc/Run3Summer22EENanoAODv12/DYto2L-2Jets_MLL-50_2J_TuneCP5_13p6TeV_amcatnloFXFX-pythia8/NANOAODSIM/130X_mcRun3_2022_realistic_postEE_v6-v2/40000/5bf8668f-97df-4a08-8720-f71f093c884e.root
/store/mc/Run3Summer22EENanoAODv12/DYto2L-2Jets_MLL-50_2J_TuneCP5_13p6TeV_amcatnloFXFX-pythia8/NANOAODSIM/130X_mcRun3_2022_realistic_postEE_v6-v2/40000/6884c5bd-54e6-4a98-a909-0c6fe169c895.root
/store/mc/Run3Summer22EENanoAODv12/DYto2L-2Jets_MLL-50_2J_TuneCP5_13p6TeV_amcatnloFXFX-pythia8/NANOAODSIM/130X_mcRun3_2022_realistic_postEE_v6-v2/40000/3180df6c-bf2f-4f8a-8e60-7bf7f66e82da.root
/store/mc/Run3Summer22EENanoAODv12/DYto2L-2Jets_MLL-50_2J_TuneCP5_13p6TeV_amcatnloFXFX-pythia8/NANOAODSIM/130X_mcRun3_2022_realistic_postEE_v6-v2/40000/44fe8c77-f5e5-4724-9ecc-9477c77ed830.root
/store/mc/Run3Summer22EENanoAODv12/DYto2L-2Jets_MLL-50_2J_TuneCP5_13p6TeV_amcatnloFXFX-pythia8/NANOAODSIM/130X_mcRun3_2022_realistic_postEE_v6-v2/40000/13bc106d-f9ce-455f-ae96-fba099fd5d1e.root
/store/mc/Run3Summer22EENanoAODv12/DYto2L-2Jets_MLL-50_2J_TuneCP5_13p6TeV_amcatnloFXFX-pythia8/NANOAODSIM/130X_mcRun3_2022_realistic_postEE_v6-v2/40000/5b7cf67e-2e66-473f-be60-f32ae95de528.root
/store/mc/Run3Summer22EENanoAODv12/DYto2L-2Jets_MLL-50_2J_TuneCP5_13p6TeV_amcatnloFXFX-pythia8/NANOAODSIM/130X_mcRun3_2022_realistic_postEE_v6-v2/30000/3c934a2c-b546-41cf-bb23-4e4442f45e1e.root
/store/mc/Run3Summer22EENanoAODv12/DYto2L-2Jets_MLL-50_2J_TuneCP5_13p6TeV_amcatnloFXFX-pythia8/NANOAODSIM/130X_mcRun3_2022_realistic_postEE_v6-v2/40000/f808b20c-91a3-423f-98c4-e5b56173e079.root
/store/mc/Run3Summer22EENanoAODv12/DYto2L-2Jets_MLL-50_2J_TuneCP5_13p6TeV_amcatnloFXFX-pythia8/NANOAODSIM/130X_mcRun3_2022_realistic_postEE_v6-v2/40000/9427fd32-1e58-471b-91a1-3392418b2854.root
/store/mc/Run3Summer22EENanoAODv12/DYto2L-2Jets_MLL-50_2J_TuneCP5_13p6TeV_amcatnloFXFX-pythia8/NANOAODSIM/130X_mcRun3_2022_realistic_postEE_v6-v2/40000/89230651-0dc7-4fb8-87bc-964f20c4800a.root
/store/mc/Run3Summer22EENanoAODv12/DYto2L-2Jets_MLL-50_2J_TuneCP5_13p6TeV_amcatnloFXFX-pythia8/NANOAODSIM/130X_mcRun3_2022_realistic_postEE_v6-v2/40000/134550b9-295f-47d1-b5c3-f08b23727ec5.root
/store/mc/Run3Summer22EENanoAODv12/DYto2L-2Jets_MLL-50_2J_TuneCP5_13p6TeV_amcatnloFXFX-pythia8/NANOAODSIM/130X_mcRun3_2022_realistic_postEE_v6-v2/40000/8d398a8e-1ea8-495c-ac29-fe8f1221fdf0.root
/store/mc/Run3Summer22EENanoAODv12/DYto2L-2Jets_MLL-50_2J_TuneCP5_13p6TeV_amcatnloFXFX-pythia8/NANOAODSIM/130X_mcRun3_2022_realistic_postEE_v6-v2/40000/967bd18b-62a2-4a1c-9c9e-1bb395d12a99.root
/store/mc/Run3Summer22EENanoAODv12/DYto2L-2Jets_MLL-50_2J_TuneCP5_13p6TeV_amcatnloFXFX-pythia8/NANOAODSIM/130X_mcRun3_2022_realistic_postEE_v6-v2/40000/0ff4d9e4-464b-4bd5-8fa7-1e2ea56be050.root
/store/mc/Run3Summer22EENanoAODv12/DYto2L-2Jets_MLL-50_2J_TuneCP5_13p6TeV_amcatnloFXFX-pythia8/NANOAODSIM/130X_mcRun3_2022_realistic_postEE_v6-v2/40000/895f4ca9-ad70-4b5f-be7f-299ce5e17be4.root
/store/mc/Run3Summer22EENanoAODv12/DYto2L-2Jets_MLL-50_2J_TuneCP5_13p6TeV_amcatnloFXFX-pythia8/NANOAODSIM/130X_mcRun3_2022_realistic_postEE_v6-v2/40000/49572079-f52f-4927-8275-2df753659cf4.root
/store/mc/Run3Summer22EENanoAODv12/DYto2L-2Jets_MLL-50_2J_TuneCP5_13p6TeV_amcatnloFXFX-pythia8/NANOAODSIM/130X_mcRun3_2022_realistic_postEE_v6-v2/40000/3b54e9ca-e796-4191-ad04-e045537a3fd4.root
/store/mc/Run3Summer22EENanoAODv12/DYto2L-2Jets_MLL-50_2J_TuneCP5_13p6TeV_amcatnloFXFX-pythia8/NANOAODSIM/130X_mcRun3_2022_realistic_postEE_v6-v2/40000/8fa2aa02-c8cf-4754-b54d-d497c983e3d5.root
/store/mc/Run3Summer22EENanoAODv12/DYto2L-2Jets_MLL-50_2J_TuneCP5_13p6TeV_amcatnloFXFX-pythia8/NANOAODSIM/130X_mcRun3_2022_realistic_postEE_v6-v2/40000/9e47117b-3f82-485d-a83a-ef649be478ed.root
/store/mc/Run3Summer22EENanoAODv12/DYto2L-2Jets_MLL-50_2J_TuneCP5_13p6TeV_amcatnloFXFX-pythia8/NANOAODSIM/130X_mcRun3_2022_realistic_postEE_v6-v2/40000/e518747f-83e6-4e71-88b3-8ccafb608db0.root
/store/mc/Run3Summer22EENanoAODv12/DYto2L-2Jets_MLL-50_2J_TuneCP5_13p6TeV_amcatnloFXFX-pythia8/NANOAODSIM/130X_mcRun3_2022_realistic_postEE_v6-v2/40000/fdb4f004-5a7d-4c0c-aced-5c3d3e50d523.root
/store/mc/Run3Summer22EENanoAODv12/DYto2L-2Jets_MLL-50_2J_TuneCP5_13p6TeV_amcatnloFXFX-pythia8/NANOAODSIM/130X_mcRun3_2022_realistic_postEE_v6-v2/40000/116971be-a3c3-4e17-8429-63a204b9c18f.root
/store/mc/Run3Summer22EENanoAODv12/DYto2L-2Jets_MLL-50_2J_TuneCP5_13p6TeV_amcatnloFXFX-pythia8/NANOAODSIM/130X_mcRun3_2022_realistic_postEE_v6-v2/40000/7460d3fc-cc1f-4afb-bae4-a13f19cd1831.root
/store/mc/Run3Summer22EENanoAODv12/DYto2L-2Jets_MLL-50_2J_TuneCP5_13p6TeV_amcatnloFXFX-pythia8/NANOAODSIM/130X_mcRun3_2022_realistic_postEE_v6-v2/30000/b6f01d3a-a583-4778-881d-c36745e911ef.root
/store/mc/Run3Summer22EENanoAODv12/DYto2L-2Jets_MLL-50_2J_TuneCP5_13p6TeV_amcatnloFXFX-pythia8/NANOAODSIM/130X_mcRun3_2022_realistic_postEE_v6-v2/30000/058b69aa-c94c-45e6-857c-fc331ad282bf.root
/store/mc/Run3Summer22EENanoAODv12/DYto2L-2Jets_MLL-50_2J_TuneCP5_13p6TeV_amcatnloFXFX-pythia8/NANOAODSIM/130X_mcRun3_2022_realistic_postEE_v6-v2/30000/ae866565-650b-4a86-9b24-61d26cb1e63c.root
/store/mc/Run3Summer22EENanoAODv12/DYto2L-2Jets_MLL-50_2J_TuneCP5_13p6TeV_amcatnloFXFX-pythia8/NANOAODSIM/130X_mcRun3_2022_realistic_postEE_v6-v2/30000/6326fee8-99af-4120-a5b2-28434fa03195.root
/store/mc/Run3Summer22EENanoAODv12/DYto2L-2Jets_MLL-50_2J_TuneCP5_13p6TeV_amcatnloFXFX-pythia8/NANOAODSIM/130X_mcRun3_2022_realistic_postEE_v6-v2/30000/80c1bad7-6bfa-48bf-82c1-d8a92060a1b5.root
/store/mc/Run3Summer22EENanoAODv12/DYto2L-2Jets_MLL-50_2J_TuneCP5_13p6TeV_amcatnloFXFX-pythia8/NANOAODSIM/130X_mcRun3_2022_realistic_postEE_v6-v2/30000/8b33082f-4d1a-4e13-aa4e-f7d7f688dfe7.root
/store/mc/Run3Summer22EENanoAODv12/DYto2L-2Jets_MLL-50_2J_TuneCP5_13p6TeV_amcatnloFXFX-pythia8/NANOAODSIM/130X_mcRun3_2022_realistic_postEE_v6-v2/30000/26bdaf1c-23a6-4556-992b-0019fc19dd80.root
/store/mc/Run3Summer22EENanoAODv12/DYto2L-2Jets_MLL-50_2J_TuneCP5_13p6TeV_amcatnloFXFX-pythia8/NANOAODSIM/130X_mcRun3_2022_realistic_postEE_v6-v2/30000/687a2b31-3fb7-4262-97c1-8d759ade4eff.root
/store/mc/Run3Summer22EENanoAODv12/DYto2L-2Jets_MLL-50_2J_TuneCP5_13p6TeV_amcatnloFXFX-pythia8/NANOAODSIM/130X_mcRun3_2022_realistic_postEE_v6-v2/30000/f7755fbe-d8fd-4002-a5f4-d406a524c08b.root
/store/mc/Run3Summer22EENanoAODv12/DYto2L-2Jets_MLL-50_2J_TuneCP5_13p6TeV_amcatnloFXFX-pythia8/NANOAODSIM/130X_mcRun3_2022_realistic_postEE_v6-v2/30000/749df006-3f31-4e53-a4a8-fe7d41ced574.root
/store/mc/Run3Summer22EENanoAODv12/DYto2L-2Jets_MLL-50_2J_TuneCP5_13p6TeV_amcatnloFXFX-pythia8/NANOAODSIM/130X_mcRun3_2022_realistic_postEE_v6-v2/30000/23c98656-dafd-4ade-804f-2f60aed81de8.root
/store/mc/Run3Summer22EENanoAODv12/DYto2L-2Jets_MLL-50_2J_TuneCP5_13p6TeV_amcatnloFXFX-pythia8/NANOAODSIM/130X_mcRun3_2022_realistic_postEE_v6-v2/30000/6fd9727a-fa58-42b0-b2af-03c26d0da5ea.root
/store/mc/Run3Summer22EENanoAODv12/DYto2L-2Jets_MLL-50_2J_TuneCP5_13p6TeV_amcatnloFXFX-pythia8/NANOAODSIM/130X_mcRun3_2022_realistic_postEE_v6-v2/30000/3eab8bb4-3718-4c89-a033-6dda40054394.root
/store/mc/Run3Summer22EENanoAODv12/DYto2L-2Jets_MLL-50_2J_TuneCP5_13p6TeV_amcatnloFXFX-pythia8/NANOAODSIM/130X_mcRun3_2022_realistic_postEE_v6-v2/30000/e12c5833-9700-4dd8-bdc6-84ff4970d096.root
/store/mc/Run3Summer22EENanoAODv12/DYto2L-2Jets_MLL-50_2J_TuneCP5_13p6TeV_amcatnloFXFX-pythia8/NANOAODSIM/130X_mcRun3_2022_realistic_postEE_v6-v2/30000/c5b2887b-6687-4eae-ab81-a96ffc4f280b.root
/store/mc/Run3Summer22EENanoAODv12/DYto2L-2Jets_MLL-50_2J_TuneCP5_13p6TeV_amcatnloFXFX-pythia8/NANOAODSIM/130X_mcRun3_2022_realistic_postEE_v6-v2/30000/4aae10f4-a2ae-430e-bb6d-64932ea3daa0.root
/store/mc/Run3Summer22EENanoAODv12/DYto2L-2Jets_MLL-50_2J_TuneCP5_13p6TeV_amcatnloFXFX-pythia8/NANOAODSIM/130X_mcRun3_2022_realistic_postEE_v6-v2/30000/661e1fef-6e8f-4f7d-889c-eeb5e1f6857c.root
/store/mc/Run3Summer22EENanoAODv12/DYto2L-2Jets_MLL-50_2J_TuneCP5_13p6TeV_amcatnloFXFX-pythia8/NANOAODSIM/130X_mcRun3_2022_realistic_postEE_v6-v2/30000/79a58f44-b60a-4ce5-ae3f-979caa78f791.root
/store/mc/Run3Summer22EENanoAODv12/DYto2L-2Jets_MLL-50_2J_TuneCP5_13p6TeV_amcatnloFXFX-pythia8/NANOAODSIM/130X_mcRun3_2022_realistic_postEE_v6-v2/30000/daf8ae0e-1806-487a-b051-e7f5788b2681.root
/store/mc/Run3Summer22EENanoAODv12/DYto2L-2Jets_MLL-50_2J_TuneCP5_13p6TeV_amcatnloFXFX-pythia8/NANOAODSIM/130X_mcRun3_2022_realistic_postEE_v6-v2/30000/d329b78b-33bf-4f52-8736-2f12fbddd13e.root
/store/mc/Run3Summer22EENanoAODv12/DYto2L-2Jets_MLL-50_2J_TuneCP5_13p6TeV_amcatnloFXFX-pythia8/NANOAODSIM/130X_mcRun3_2022_realistic_postEE_v6-v2/30000/b0e2b2a8-8823-4ea7-ae36-51b792cdd4da.root
/store/mc/Run3Summer22EENanoAODv12/DYto2L-2Jets_MLL-50_2J_TuneCP5_13p6TeV_amcatnloFXFX-pythia8/NANOAODSIM/130X_mcRun3_2022_realistic_postEE_v6-v2/30000/d25e0b44-14f7-4329-9d3e-cb696ef1a812.root
/store/mc/Run3Summer22EENanoAODv12/DYto2L-2Jets_MLL-50_2J_TuneCP5_13p6TeV_amcatnloFXFX-pythia8/NANOAODSIM/130X_mcRun3_2022_realistic_postEE_v6-v2/30000/d48041d8-2b4f-4587-aad4-355b482b0c12.root
/store/mc/Run3Summer22EENanoAODv12/DYto2L-2Jets_MLL-50_2J_TuneCP5_13p6TeV_amcatnloFXFX-pythia8/NANOAODSIM/130X_mcRun3_2022_realistic_postEE_v6-v2/30000/970c2949-04e3-4cb5-aecc-be144cf19709.root
/store/mc/Run3Summer22EENanoAODv12/DYto2L-2Jets_MLL-50_2J_TuneCP5_13p6TeV_amcatnloFXFX-pythia8/NANOAODSIM/130X_mcRun3_2022_realistic_postEE_v6-v2/30000/f9f42c5a-9e82-457e-9a8c-58d06ee9880c.root
/store/mc/Run3Summer22EENanoAODv12/DYto2L-2Jets_MLL-50_2J_TuneCP5_13p6TeV_amcatnloFXFX-pythia8/NANOAODSIM/130X_mcRun3_2022_realistic_postEE_v6-v2/30000/a6982197-962c-4dba-92b8-940dfb07f101.root
/store/mc/Run3Summer22EENanoAODv12/DYto2L-2Jets_MLL-50_2J_TuneCP5_13p6TeV_amcatnloFXFX-pythia8/NANOAODSIM/130X_mcRun3_2022_realistic_postEE_v6-v2/30000/0b80f716-98eb-46c3-8524-bc325aec9369.root
/store/mc/Run3Summer22EENanoAODv12/DYto2L-2Jets_MLL-50_2J_TuneCP5_13p6TeV_amcatnloFXFX-pythia8/NANOAODSIM/130X_mcRun3_2022_realistic_postEE_v6-v2/30000/effaf94f-1d2e-4d43-8e73-190831c251ce.root
/store/mc/Run3Summer22EENanoAODv12/DYto2L-2Jets_MLL-50_2J_TuneCP5_13p6TeV_amcatnloFXFX-pythia8/NANOAODSIM/130X_mcRun3_2022_realistic_postEE_v6-v2/30000/7f3fec77-669c-4611-b69f-92bb57c1a288.root
/store/mc/Run3Summer22EENanoAODv12/DYto2L-2Jets_MLL-50_2J_TuneCP5_13p6TeV_amcatnloFXFX-pythia8/NANOAODSIM/130X_mcRun3_2022_realistic_postEE_v6-v2/30000/43371b3c-9fe5-4443-b021-38262db4a370.root
/store/mc/Run3Summer22EENanoAODv12/DYto2L-2Jets_MLL-50_2J_TuneCP5_13p6TeV_amcatnloFXFX-pythia8/NANOAODSIM/130X_mcRun3_2022_realistic_postEE_v6-v2/30000/3cc05090-96c1-47d0-8cab-e963897a6f65.root