/store/mc/Run3Summer22EENanoAODv12/DYto2L-2Jets_MLL-50_PTLL-100to200_1J_TuneCP5_13p6TeV_amcatnloFXFX-pythia8/NANOAODSIM/130X_mcRun3_2022_realistic_postEE_v6-v1/2560000/b78ee0e6-4a55-4e1e-adfa-80d5f4c78eeb.root
/store/mc/Run3Summer22EENanoAODv12/DYto2L-2Jets_MLL-50_PTLL-100to200_1J_TuneCP5_13p6TeV_amcatnloFXFX-pythia8/NANOAODSIM/130X_mcRun3_2022_realistic_postEE_v6-v1/70000/d91f0e7d-6479-43bd-a71d-c560136f14e8.root
/store/mc/Run3Summer22EENanoAODv12/DYto2L-2Jets_MLL-50_PTLL-100to200_1J_TuneCP5_13p6TeV_amcatnloFXFX-pythia8/NANOAODSIM/130X_mcRun3_2022_realistic_postEE_v6-v1/70000/4ca260ca-dc38-410e-b0e0-e26ff067732e.root
/store/mc/Run3Summer22EENanoAODv12/DYto2L-2Jets_MLL-50_PTLL-100to200_1J_TuneCP5_13p6TeV_amcatnloFXFX-pythia8/NANOAODSIM/130X_mcRun3_2022_realistic_postEE_v6-v1/2560000/ff083ba8-1c1d-4436-a142-a8260ef335b4.root
/store/mc/Run3Summer22EENanoAODv12/DYto2L-2Jets_MLL-50_PTLL-100to200_1J_TuneCP5_13p6TeV_amcatnloFXFX-pythia8/NANOAODSIM/130X_mcRun3_2022_realistic_postEE_v6-v1/70000/8f0096fc-6f8f-4d1e-95b1-40da7b35ea1a.root
/store/mc/Run3Summer22EENanoAODv12/DYto2L-2Jets_MLL-50_PTLL-100to200_1J_TuneCP5_13p6TeV_amcatnloFXFX-pythia8/NANOAODSIM/130X_mcRun3_2022_realistic_postEE_v6-v1/70000/5aaa8a35-39f2-4240-9986-6243f3b08f17.root
/store/mc/Run3Summer22EENanoAODv12/DYto2L-2Jets_MLL-50_PTLL-100to200_1J_TuneCP5_13p6TeV_amcatnloFXFX-pythia8/NANOAODSIM/130X_mcRun3_2022_realistic_postEE_v6-v1/70000/cd1a0fa7-af01-46e4-9559-8946b3d32a97.root
/store/mc/Run3Summer22EENanoAODv12/DYto2L-2Jets_MLL-50_PTLL-100to200_1J_TuneCP5_13p6TeV_amcatnloFXFX-pythia8/NANOAODSIM/130X_mcRun3_2022_realistic_postEE_v6-v1/70000/7427ac0a-87d6-40f2-89d8-2d6fe421d8d6.root
/store/mc/Run3Summer22EENanoAODv12/DYto2L-2Jets_MLL-50_PTLL-100to200_1J_TuneCP5_13p6TeV_amcatnloFXFX-pythia8/NANOAODSIM/130X_mcRun3_2022_realistic_postEE_v6-v1/70000/2aaf00c4-cb35-4b23-8a62-5baba0941b95.root
/store/mc/Run3Summer22EENanoAODv12/DYto2L-2Jets_MLL-50_PTLL-100to200_1J_TuneCP5_13p6TeV_amcatnloFXFX-pythia8/NANOAODSIM/130X_mcRun3_2022_realistic_postEE_v6-v1/2560000/d4d7cb2c-b9f1-48c7-befd-0322096d9c4e.root
/store/mc/Run3Summer22EENanoAODv12/DYto2L-2Jets_MLL-50_PTLL-100to200_1J_TuneCP5_13p6TeV_amcatnloFXFX-pythia8/NANOAODSIM/130X_mcRun3_2022_realistic_postEE_v6-v1/2560000/2c0e60d4-8c1d-4394-aedf-2920b40b5fa5.root
/store/mc/Run3Summer22EENanoAODv12/DYto2L-2Jets_MLL-50_PTLL-100to200_1J_TuneCP5_13p6TeV_amcatnloFXFX-pythia8/NANOAODSIM/130X_mcRun3_2022_realistic_postEE_v6-v1/2560000/0f6afadd-ac3a-48cf-ab5e-d1e848c9f7bf.root
/store/mc/Run3Summer22EENanoAODv12/DYto2L-2Jets_MLL-50_PTLL-100to200_1J_TuneCP5_13p6TeV_amcatnloFXFX-pythia8/NANOAODSIM/130X_mcRun3_2022_realistic_postEE_v6-v1/2560000/b69188cd-e0dc-49a9-b923-cbdf9ffe0c97.root
/store/mc/Run3Summer22EENanoAODv12/DYto2L-2Jets_MLL-50_PTLL-100to200_1J_TuneCP5_13p6TeV_amcatnloFXFX-pythia8/NANOAODSIM/130X_mcRun3_2022_realistic_postEE_v6-v1/2560000/8b741091-853e-4077-91d4-df3605f27f0b.root
/store/mc/Run3Summer22EENanoAODv12/DYto2L-2Jets_MLL-50_PTLL-100to200_1J_TuneCP5_13p6TeV_amcatnloFXFX-pythia8/NANOAODSIM/130X_mcRun3_2022_realistic_postEE_v6-v1/70000/7871d2a3-8b72-440b-be30-162be2b8cf0d.root
/store/mc/Run3Summer22EENanoAODv12/DYto2L-2Jets_MLL-50_PTLL-100to200_1J_TuneCP5_13p6TeV_amcatnloFXFX-pythia8/NANOAODSIM/130X_mcRun3_2022_realistic_postEE_v6-v1/70000/682a289a-48ae-43d5-ae06-71f884043619.root
/store/mc/Run3Summer22EENanoAODv12/DYto2L-2Jets_MLL-50_PTLL-100to200_1J_TuneCP5_13p6TeV_amcatnloFXFX-pythia8/NANOAODSIM/130X_mcRun3_2022_realistic_postEE_v6-v1/70000/a00364a0-483b-45e1-8d0b-6bd7c5d883f0.root
/store/mc/Run3Summer22EENanoAODv12/DYto2L-2Jets_MLL-50_PTLL-100to200_1J_TuneCP5_13p6TeV_amcatnloFXFX-pythia8/NANOAODSIM/130X_mcRun3_2022_realistic_postEE_v6-v1/70000/004ae364-87fc-428e-afee-5e90fbe071e6.root
/store/mc/Run3Summer22EENanoAODv12/DYto2L-2Jets_MLL-50_PTLL-100to200_1J_TuneCP5_13p6TeV_amcatnloFXFX-pythia8/NANOAODSIM/130X_mcRun3_2022_realistic_postEE_v6-v1/2560000/9efeefb7-5d6f-47d9-9793-4b83711dc18a.root
/store/mc/Run3Summer22EENanoAODv12/DYto2L-2Jets_MLL-50_PTLL-100to200_1J_TuneCP5_13p6TeV_amcatnloFXFX-pythia8/NANOAODSIM/130X_mcRun3_2022_realistic_postEE_v6-v1/70000/96319718-15d2-474b-9ed6-3b8061c7eae4.root
/store/mc/Run3Summer22EENanoAODv12/DYto2L-2Jets_MLL-50_PTLL-100to200_1J_TuneCP5_13p6TeV_amcatnloFXFX-pythia8/NANOAODSIM/130X_mcRun3_2022_realistic_postEE_v6-v1/70000/43e8d5bb-1275-4fdd-a2b3-8f54b7f7209b.root
/store/mc/Run3Summer22EENanoAODv12/DYto2L-2Jets_MLL-50_PTLL-100to200_1J_TuneCP5_13p6TeV_amcatnloFXFX-pythia8/NANOAODSIM/130X_mcRun3_2022_realistic_postEE_v6-v1/60000/d55dcbc0-493b-44ff-b0b4-3590ed714a62.root
/store/mc/Run3Summer22EENanoAODv12/DYto2L-2Jets_MLL-50_PTLL-100to200_1J_TuneCP5_13p6TeV_amcatnloFXFX-pythia8/NANOAODSIM/130X_mcRun3_2022_realistic_postEE_v6-v1/60000/ba5e1026-4837-438d-9637-e6e42a938f92.root
/store/mc/Run3Summer22EENanoAODv12/DYto2L-2Jets_MLL-50_PTLL-100to200_1J_TuneCP5_13p6TeV_amcatnloFXFX-pythia8/NANOAODSIM/130X_mcRun3_2022_realistic_postEE_v6-v1/60000/9785ba03-1e2d-47ae-a9ea-ce87cd83f31b.root
/store/mc/Run3Summer22EENanoAODv12/DYto2L-2Jets_MLL-50_PTLL-100to200_1J_TuneCP5_13p6TeV_amcatnloFXFX-pythia8/NANOAODSIM/130X_mcRun3_2022_realistic_postEE_v6-v1/60000/437d1650-d30e-4417-bf14-b9340ccac313.root
/store/mc/Run3Summer22EENanoAODv12/DYto2L-2Jets_MLL-50_PTLL-100to200_1J_TuneCP5_13p6TeV_amcatnloFXFX-pythia8/NANOAODSIM/130X_mcRun3_2022_realistic_postEE_v6-v1/60000/6b9636e1-160c-4f65-a145-64b6cf31e8ae.root
/store/mc/Run3Summer22EENanoAODv12/DYto2L-2Jets_MLL-50_PTLL-100to200_1J_TuneCP5_13p6TeV_amcatnloFXFX-pythia8/NANOAODSIM/130X_mcRun3_2022_realistic_postEE_v6-v1/60000/0997a2ac-40cd-4701-8d4d-f1fd273c6756.root
/store/mc/Run3Summer22EENanoAODv12/DYto2L-2Jets_MLL-50_PTLL-100to200_1J_TuneCP5_13p6TeV_amcatnloFXFX-pythia8/NANOAODSIM/130X_mcRun3_2022_realistic_postEE_v6-v1/60000/9d180ad1-2a13-4f77-afd0-2cbb598aab97.root
/store/mc/Run3Summer22EENanoAODv12/DYto2L-2Jets_MLL-50_PTLL-100to200_1J_TuneCP5_13p6TeV_amcatnloFXFX-pythia8/NANOAODSIM/130X_mcRun3_2022_realistic_postEE_v6-v1/60000/a44b0156-d273-4cff-950b-9927be34d14a.root
/store/mc/Run3Summer22EENanoAODv12/DYto2L-2Jets_MLL-50_PTLL-100to200_1J_TuneCP5_13p6TeV_amcatnloFXFX-pythia8/NANOAODSIM/130X_mcRun3_2022_realistic_postEE_v6-v1/60000/4bb50407-c55a-4a9a-8b00-1af717371237.root
/store/mc/Run3Summer22EENanoAODv12/DYto2L-2Jets_MLL-50_PTLL-100to200_1J_TuneCP5_13p6TeV_amcatnloFXFX-pythia8/NANOAODSIM/130X_mcRun3_2022_realistic_postEE_v6-v1/60000/7b64d208-b66b-45ae-ab86-bc3cd687fbe3.root
/store/mc/Run3Summer22EENanoAODv12/DYto2L-2Jets_MLL-50_PTLL-100to200_1J_TuneCP5_13p6TeV_amcatnloFXFX-pythia8/NANOAODSIM/130X_mcRun3_2022_realistic_postEE_v6-v1/60000/c28b7569-c125-4941-9783-e291ac550924.root
/store/mc/Run3Summer22EENanoAODv12/DYto2L-2Jets_MLL-50_PTLL-100to200_1J_TuneCP5_13p6TeV_amcatnloFXFX-pythia8/NANOAODSIM/130X_mcRun3_2022_realistic_postEE_v6-v1/60000/7fd03c10-38cf-4c04-98ab-7e03a6cecbd5.root
/store/mc/Run3Summer22EENanoAODv12/DYto2L-2Jets_MLL-50_PTLL-100to200_1J_TuneCP5_13p6TeV_amcatnloFXFX-pythia8/NANOAODSIM/130X_mcRun3_2022_realistic_postEE_v6-v1/60000/50691cee-90cc-4f71-8464-df2526a55550.root
/store/mc/Run3Summer22EENanoAODv12/DYto2L-2Jets_MLL-50_PTLL-100to200_1J_TuneCP5_13p6TeV_amcatnloFXFX-pythia8/NANOAODSIM/130X_mcRun3_2022_realistic_postEE_v6-v1/60000/16822cf6-7234-40cc-8b34-c2a0639d992b.root
/store/mc/Run3Summer22EENanoAODv12/DYto2L-2Jets_MLL-50_PTLL-100to200_1J_TuneCP5_13p6TeV_amcatnloFXFX-pythia8/NANOAODSIM/130X_mcRun3_2022_realistic_postEE_v6-v1/60000/323e65e7-2bac-473b-ac57-619f9bdff8c2.root
/store/mc/Run3Summer22EENanoAODv12/DYto2L-2Jets_MLL-50_PTLL-100to200_1J_TuneCP5_13p6TeV_amcatnloFXFX-pythia8/NANOAODSIM/130X_mcRun3_2022_realistic_postEE_v6-v1/60000/43ef7ae2-3143-4177-a53e-f98ad85959b9.root
/store/mc/Run3Summer22EENanoAODv12/DYto2L-2Jets_MLL-50_PTLL-100to200_1J_TuneCP5_13p6TeV_amcatnloFXFX-pythia8/NANOAODSIM/130X_mcRun3_2022_realistic_postEE_v6-v1/60000/0bb66429-29fb-4caf-9f7b-de09fab65402.root
/store/mc/Run3Summer22EENanoAODv12/DYto2L-2Jets_MLL-50_PTLL-100to200_1J_TuneCP5_13p6TeV_amcatnloFXFX-pythia8/NANOAODSIM/130X_mcRun3_2022_realistic_postEE_v6-v1/60000/9b2a5b02-61f2-4a28-896a-8a4d2834ba8f.root
/store/mc/Run3Summer22EENanoAODv12/DYto2L-2Jets_MLL-50_PTLL-100to200_1J_TuneCP5_13p6TeV_amcatnloFXFX-pythia8/NANOAODSIM/130X_mcRun3_2022_realistic_postEE_v6-v1/60000/c4fede8f-0636-4323-9874-80c64d7d27a3.root
/store/mc/Run3Summer22EENanoAODv12/DYto2L-2Jets_MLL-50_PTLL-100to200_1J_TuneCP5_13p6TeV_amcatnloFXFX-pythia8/NANOAODSIM/130X_mcRun3_2022_realistic_postEE_v6-v1/60000/cfa5b944-214e-46a1-8b5c-d9ff84325dd5.root
/store/mc/Run3Summer22EENanoAODv12/DYto2L-2Jets_MLL-50_PTLL-100to200_1J_TuneCP5_13p6TeV_amcatnloFXFX-pythia8/NANOAODSIM/130X_mcRun3_2022_realistic_postEE_v6-v1/60000/2aab8c7e-d953-4902-9897-6f85036ac658.root
/store/mc/Run3Summer22EENanoAODv12/DYto2L-2Jets_MLL-50_PTLL-100to200_1J_TuneCP5_13p6TeV_amcatnloFXFX-pythia8/NANOAODSIM/130X_mcRun3_2022_realistic_postEE_v6-v1/60000/707000b7-6483-4eae-a279-bedda6aa9dd7.root
/store/mc/Run3Summer22EENanoAODv12/DYto2L-2Jets_MLL-50_PTLL-100to200_1J_TuneCP5_13p6TeV_amcatnloFXFX-pythia8/NANOAODSIM/130X_mcRun3_2022_realistic_postEE_v6-v1/60000/2fec4229-1a3d-4e0c-81c6-465ad90c5771.root
/store/mc/Run3Summer22EENanoAODv12/DYto2L-2Jets_MLL-50_PTLL-100to200_1J_TuneCP5_13p6TeV_amcatnloFXFX-pythia8/NANOAODSIM/130X_mcRun3_2022_realistic_postEE_v6-v1/60000/70b3af36-f063-4459-9623-799a751854ce.root
/store/mc/Run3Summer22EENanoAODv12/DYto2L-2Jets_MLL-50_PTLL-100to200_1J_TuneCP5_13p6TeV_amcatnloFXFX-pythia8/NANOAODSIM/130X_mcRun3_2022_realistic_postEE_v6-v1/60000/af0a6755-b7d4-4ab3-8bf5-bbb176175c97.root
/store/mc/Run3Summer22EENanoAODv12/DYto2L-2Jets_MLL-50_PTLL-100to200_1J_TuneCP5_13p6TeV_amcatnloFXFX-pythia8/NANOAODSIM/130X_mcRun3_2022_realistic_postEE_v6-v1/60000/208e21b5-0468-41fa-a639-a0f44215b5d0.root
/store/mc/Run3Summer22EENanoAODv12/DYto2L-2Jets_MLL-50_PTLL-100to200_1J_TuneCP5_13p6TeV_amcatnloFXFX-pythia8/NANOAODSIM/130X_mcRun3_2022_realistic_postEE_v6-v1/60000/b9b2fa6e-920c-408c-9148-f78e5e72a14c.root
/store/mc/Run3Summer22EENanoAODv12/DYto2L-2Jets_MLL-50_PTLL-100to200_1J_TuneCP5_13p6TeV_amcatnloFXFX-pythia8/NANOAODSIM/130X_mcRun3_2022_realistic_postEE_v6-v1/60000/8dc5a482-41ca-45cf-bcd1-e9fdfe8561a1.root
/store/mc/Run3Summer22EENanoAODv12/DYto2L-2Jets_MLL-50_PTLL-100to200_1J_TuneCP5_13p6TeV_amcatnloFXFX-pythia8/NANOAODSIM/130X_mcRun3_2022_realistic_postEE_v6-v1/60000/2dab1f4b-23d1-4dae-abca-a68b9c01c188.root
/store/mc/Run3Summer22EENanoAODv12/DYto2L-2Jets_MLL-50_PTLL-100to200_1J_TuneCP5_13p6TeV_amcatnloFXFX-pythia8/NANOAODSIM/130X_mcRun3_2022_realistic_postEE_v6-v1/60000/2eda325e-b039-4d33-80f6-99b38b4d2d93.root
/store/mc/Run3Summer22EENanoAODv12/DYto2L-2Jets_MLL-50_PTLL-100to200_1J_TuneCP5_13p6TeV_amcatnloFXFX-pythia8/NANOAODSIM/130X_mcRun3_2022_realistic_postEE_v6-v1/60000/d1f95c30-6f8f-4c30-abad-d29ee745bcbf.root
/store/mc/Run3Summer22EENanoAODv12/DYto2L-2Jets_MLL-50_PTLL-100to200_1J_TuneCP5_13p6TeV_amcatnloFXFX-pythia8/NANOAODSIM/130X_mcRun3_2022_realistic_postEE_v6-v1/60000/cd6e59ba-ea0c-4629-bc65-234400dc191d.root
/store/mc/Run3Summer22EENanoAODv12/DYto2L-2Jets_MLL-50_PTLL-100to200_1J_TuneCP5_13p6TeV_amcatnloFXFX-pythia8/NANOAODSIM/130X_mcRun3_2022_realistic_postEE_v6-v1/60000/1ef99a0f-e85f-4d49-926f-d6e18c4efe2d.root
/store/mc/Run3Summer22EENanoAODv12/DYto2L-2Jets_MLL-50_PTLL-100to200_1J_TuneCP5_13p6TeV_amcatnloFXFX-pythia8/NANOAODSIM/130X_mcRun3_2022_realistic_postEE_v6-v1/60000/418068a3-33c5-478f-8cb1-7589811d5f40.root
/store/mc/Run3Summer22EENanoAODv12/DYto2L-2Jets_MLL-50_PTLL-100to200_1J_TuneCP5_13p6TeV_amcatnloFXFX-pythia8/NANOAODSIM/130X_mcRun3_2022_realistic_postEE_v6-v1/60000/301ec5b1-4f3d-4bef-8263-b57ed9cbd1e7.root
/store/mc/Run3Summer22EENanoAODv12/DYto2L-2Jets_MLL-50_PTLL-100to200_1J_TuneCP5_13p6TeV_amcatnloFXFX-pythia8/NANOAODSIM/130X_mcRun3_2022_realistic_postEE_v6-v1/60000/ebcee238-9897-4046-b65c-e60cf7a1102b.root
/store/mc/Run3Summer22EENanoAODv12/DYto2L-2Jets_MLL-50_PTLL-100to200_1J_TuneCP5_13p6TeV_amcatnloFXFX-pythia8/NANOAODSIM/130X_mcRun3_2022_realistic_postEE_v6-v1/60000/712f3c14-bc30-4a57-858b-62cc3fc4af57.root
/store/mc/Run3Summer22EENanoAODv12/DYto2L-2Jets_MLL-50_PTLL-100to200_1J_TuneCP5_13p6TeV_amcatnloFXFX-pythia8/NANOAODSIM/130X_mcRun3_2022_realistic_postEE_v6-v1/60000/420fa883-720a-4b1c-b963-93f91b7141d7.root
/store/mc/Run3Summer22EENanoAODv12/DYto2L-2Jets_MLL-50_PTLL-100to200_1J_TuneCP5_13p6TeV_amcatnloFXFX-pythia8/NANOAODSIM/130X_mcRun3_2022_realistic_postEE_v6-v1/60000/edff10e1-c792-4815-9f7c-51d329f29d00.root
/store/mc/Run3Summer22EENanoAODv12/DYto2L-2Jets_MLL-50_PTLL-100to200_1J_TuneCP5_13p6TeV_amcatnloFXFX-pythia8/NANOAODSIM/130X_mcRun3_2022_realistic_postEE_v6-v1/60000/49fea377-4824-4de7-afc9-9da50a200a04.root
/store/mc/Run3Summer22EENanoAODv12/DYto2L-2Jets_MLL-50_PTLL-100to200_1J_TuneCP5_13p6TeV_amcatnloFXFX-pythia8/NANOAODSIM/130X_mcRun3_2022_realistic_postEE_v6-v1/60000/3bf139be-c002-4ffb-a8c0-465fb7d93b95.root
/store/mc/Run3Summer22EENanoAODv12/DYto2L-2Jets_MLL-50_PTLL-100to200_1J_TuneCP5_13p6TeV_amcatnloFXFX-pythia8/NANOAODSIM/130X_mcRun3_2022_realistic_postEE_v6-v1/60000/c4ce6f94-d4a5-41b0-b835-9e1764865651.root
/store/mc/Run3Summer22EENanoAODv12/DYto2L-2Jets_MLL-50_PTLL-100to200_1J_TuneCP5_13p6TeV_amcatnloFXFX-pythia8/NANOAODSIM/130X_mcRun3_2022_realistic_postEE_v6-v1/60000/a16cf2fc-895a-4d2b-9782-ddb8d3f7e625.root
/store/mc/Run3Summer22EENanoAODv12/DYto2L-2Jets_MLL-50_PTLL-100to200_1J_TuneCP5_13p6TeV_amcatnloFXFX-pythia8/NANOAODSIM/130X_mcRun3_2022_realistic_postEE_v6-v1/60000/81e82ee4-ae3e-4f96-bd9f-3b77ac060d46.root
/store/mc/Run3Summer22EENanoAODv12/DYto2L-2Jets_MLL-50_PTLL-100to200_1J_TuneCP5_13p6TeV_amcatnloFXFX-pythia8/NANOAODSIM/130X_mcRun3_2022_realistic_postEE_v6-v1/60000/b16375f4-69b8-4653-aaf1-9c0e8d3d9a2c.root
/store/mc/Run3Summer22EENanoAODv12/DYto2L-2Jets_MLL-50_PTLL-100to200_1J_TuneCP5_13p6TeV_amcatnloFXFX-pythia8/NANOAODSIM/130X_mcRun3_2022_realistic_postEE_v6-v1/60000/b4cc1dba-bcce-4acb-8b99-7262de292c73.root
/store/mc/Run3Summer22EENanoAODv12/DYto2L-2Jets_MLL-50_PTLL-100to200_1J_TuneCP5_13p6TeV_amcatnloFXFX-pythia8/NANOAODSIM/130X_mcRun3_2022_realistic_postEE_v6-v1/60000/6b1d3c23-9f4b-41c7-90d8-3ae4a5ac63f8.root
/store/mc/Run3Summer22EENanoAODv12/DYto2L-2Jets_MLL-50_PTLL-100to200_1J_TuneCP5_13p6TeV_amcatnloFXFX-pythia8/NANOAODSIM/130X_mcRun3_2022_realistic_postEE_v6-v1/60000/647777aa-cdfa-4ba9-9327-c005669c135a.root
/store/mc/Run3Summer22EENanoAODv12/DYto2L-2Jets_MLL-50_PTLL-100to200_1J_TuneCP5_13p6TeV_amcatnloFXFX-pythia8/NANOAODSIM/130X_mcRun3_2022_realistic_postEE_v6-v1/60000/25c4fbc9-2945-4a4a-b1de-8f4103a60094.root
/store/mc/Run3Summer22EENanoAODv12/DYto2L-2Jets_MLL-50_PTLL-100to200_1J_TuneCP5_13p6TeV_amcatnloFXFX-pythia8/NANOAODSIM/130X_mcRun3_2022_realistic_postEE_v6-v1/60000/de4b7ad0-4fa4-4b21-8335-fe1f5d84cba9.root
/store/mc/Run3Summer22EENanoAODv12/DYto2L-2Jets_MLL-50_PTLL-100to200_1J_TuneCP5_13p6TeV_amcatnloFXFX-pythia8/NANOAODSIM/130X_mcRun3_2022_realistic_postEE_v6-v1/60000/6f9f5220-f8ed-4938-a9c7-7ca374cfd189.root
/store/mc/Run3Summer22EENanoAODv12/DYto2L-2Jets_MLL-50_PTLL-100to200_1J_TuneCP5_13p6TeV_amcatnloFXFX-pythia8/NANOAODSIM/130X_mcRun3_2022_realistic_postEE_v6-v1/60000/3eed6470-5c92-4c85-b70d-ecc09260805e.root
/store/mc/Run3Summer22EENanoAODv12/DYto2L-2Jets_MLL-50_PTLL-100to200_1J_TuneCP5_13p6TeV_amcatnloFXFX-pythia8/NANOAODSIM/130X_mcRun3_2022_realistic_postEE_v6-v1/60000/6630d043-261b-4fb4-a8ec-3405f1b8e7d7.root
/store/mc/Run3Summer22EENanoAODv12/DYto2L-2Jets_MLL-50_PTLL-100to200_1J_TuneCP5_13p6TeV_amcatnloFXFX-pythia8/NANOAODSIM/130X_mcRun3_2022_realistic_postEE_v6-v1/60000/c0449e84-061d-4135-89e4-f344d6b763e4.root
/store/mc/Run3Summer22EENanoAODv12/DYto2L-2Jets_MLL-50_PTLL-100to200_1J_TuneCP5_13p6TeV_amcatnloFXFX-pythia8/NANOAODSIM/130X_mcRun3_2022_realistic_postEE_v6-v1/60000/9da3a7de-fc2f-4152-beae-9a759ac48b8e.root
/store/mc/Run3Summer22EENanoAODv12/DYto2L-2Jets_MLL-50_PTLL-100to200_1J_TuneCP5_13p6TeV_amcatnloFXFX-pythia8/NANOAODSIM/130X_mcRun3_2022_realistic_postEE_v6-v1/60000/aedc6915-ae34-43b4-b21c-7bdbcbbac350.root
/store/mc/Run3Summer22EENanoAODv12/DYto2L-2Jets_MLL-50_PTLL-100to200_1J_TuneCP5_13p6TeV_amcatnloFXFX-pythia8/NANOAODSIM/130X_mcRun3_2022_realistic_postEE_v6-v1/60000/d19bf85a-a466-4a6a-9ed5-502cc0234342.root
/store/mc/Run3Summer22EENanoAODv12/DYto2L-2Jets_MLL-50_PTLL-100to200_1J_TuneCP5_13p6TeV_amcatnloFXFX-pythia8/NANOAODSIM/130X_mcRun3_2022_realistic_postEE_v6-v1/60000/69b1e3da-075e-4e89-b059-e07762d97409.root
/store/mc/Run3Summer22EENanoAODv12/DYto2L-2Jets_MLL-50_PTLL-100to200_1J_TuneCP5_13p6TeV_amcatnloFXFX-pythia8/NANOAODSIM/130X_mcRun3_2022_realistic_postEE_v6-v1/60000/a941267c-579c-4b29-add8-dd99ecc690c0.root
/store/mc/Run3Summer22EENanoAODv12/DYto2L-2Jets_MLL-50_PTLL-100to200_1J_TuneCP5_13p6TeV_amcatnloFXFX-pythia8/NANOAODSIM/130X_mcRun3_2022_realistic_postEE_v6-v1/60000/63456ac2-e49a-4136-a272-0c56bee9b66d.root
/store/mc/Run3Summer22EENanoAODv12/DYto2L-2Jets_MLL-50_PTLL-100to200_1J_TuneCP5_13p6TeV_amcatnloFXFX-pythia8/NANOAODSIM/130X_mcRun3_2022_realistic_postEE_v6-v1/60000/63ce0b47-80c0-4363-9bc6-afc7a4002e16.root
/store/mc/Run3Summer22EENanoAODv12/DYto2L-2Jets_MLL-50_PTLL-100to200_1J_TuneCP5_13p6TeV_amcatnloFXFX-pythia8/NANOAODSIM/130X_mcRun3_2022_realistic_postEE_v6-v1/60000/df3137af-d66a-4204-9c5b-f7cc2180aeb1.root
/store/mc/Run3Summer22EENanoAODv12/DYto2L-2Jets_MLL-50_PTLL-100to200_1J_TuneCP5_13p6TeV_amcatnloFXFX-pythia8/NANOAODSIM/130X_mcRun3_2022_realistic_postEE_v6-v1/60000/6e7b3c5c-86e9-4ee1-b7d8-87f669681487.root
/store/mc/Run3Summer22EENanoAODv12/DYto2L-2Jets_MLL-50_PTLL-100to200_1J_TuneCP5_13p6TeV_amcatnloFXFX-pythia8/NANOAODSIM/130X_mcRun3_2022_realistic_postEE_v6-v1/60000/cc4c00fb-ce4f-4922-aa2f-a8efddb54963.root
/store/mc/Run3Summer22EENanoAODv12/DYto2L-2Jets_MLL-50_PTLL-100to200_1J_TuneCP5_13p6TeV_amcatnloFXFX-pythia8/NANOAODSIM/130X_mcRun3_2022_realistic_postEE_v6-v1/60000/c204d987-9b4f-4127-9c04-5fa0ae5cf142.root
/store/mc/Run3Summer22EENanoAODv12/DYto2L-2Jets_MLL-50_PTLL-100to200_1J_TuneCP5_13p6TeV_amcatnloFXFX-pythia8/NANOAODSIM/130X_mcRun3_2022_realistic_postEE_v6-v1/60000/7743cb91-3343-4bd0-8783-4af5b07a1d4d.root
/store/mc/Run3Summer22EENanoAODv12/DYto2L-2Jets_MLL-50_PTLL-100to200_1J_TuneCP5_13p6TeV_amcatnloFXFX-pythia8/NANOAODSIM/130X_mcRun3_2022_realistic_postEE_v6-v1/60000/97d41915-d28f-4b4e-9ee8-a5890d3b563d.root
/store/mc/Run3Summer22EENanoAODv12/DYto2L-2Jets_MLL-50_PTLL-100to200_1J_TuneCP5_13p6TeV_amcatnloFXFX-pythia8/NANOAODSIM/130X_mcRun3_2022_realistic_postEE_v6-v1/60000/8da76e1f-0b06-4ce0-871f-182e5c3af7e0.root
/store/mc/Run3Summer22EENanoAODv12/DYto2L-2Jets_MLL-50_PTLL-100to200_1J_TuneCP5_13p6TeV_amcatnloFXFX-pythia8/NANOAODSIM/130X_mcRun3_2022_realistic_postEE_v6-v1/60000/4e7db96b-4c01-4067-b802-7126edd79182.root
/store/mc/Run3Summer22EENanoAODv12/DYto2L-2Jets_MLL-50_PTLL-100to200_1J_TuneCP5_13p6TeV_amcatnloFXFX-pythia8/NANOAODSIM/130X_mcRun3_2022_realistic_postEE_v6-v1/60000/f53d56ea-8f01-4ca3-9519-8a67dd73c60d.root
/store/mc/Run3Summer22EENanoAODv12/DYto2L-2Jets_MLL-50_PTLL-100to200_1J_TuneCP5_13p6TeV_amcatnloFXFX-pythia8/NANOAODSIM/130X_mcRun3_2022_realistic_postEE_v6-v1/60000/8d6c5f4c-4cee-4ea3-a4e1-710c642f13f6.root
/store/mc/Run3Summer22EENanoAODv12/DYto2L-2Jets_MLL-50_PTLL-100to200_1J_TuneCP5_13p6TeV_amcatnloFXFX-pythia8/NANOAODSIM/130X_mcRun3_2022_realistic_postEE_v6-v1/60000/33092471-ee02-430d-b4c6-206de721e4b5.root
/store/mc/Run3Summer22EENanoAODv12/DYto2L-2Jets_MLL-50_PTLL-100to200_1J_TuneCP5_13p6TeV_amcatnloFXFX-pythia8/NANOAODSIM/130X_mcRun3_2022_realistic_postEE_v6-v1/60000/b1748d1e-68d7-4d7d-aab0-d93e001a35b6.root
/store/mc/Run3Summer22EENanoAODv12/DYto2L-2Jets_MLL-50_PTLL-100to200_1J_TuneCP5_13p6TeV_amcatnloFXFX-pythia8/NANOAODSIM/130X_mcRun3_2022_realistic_postEE_v6-v1/60000/bea8c1ae-14c5-486a-8f43-2fb4013f7528.root
/store/mc/Run3Summer22EENanoAODv12/DYto2L-2Jets_MLL-50_PTLL-100to200_1J_TuneCP5_13p6TeV_amcatnloFXFX-pythia8/NANOAODSIM/130X_mcRun3_2022_realistic_postEE_v6-v1/60000/b2a27dd0-1dd1-4c0d-87f3-f4f26bd4c90c.root
/store/mc/Run3Summer22EENanoAODv12/DYto2L-2Jets_MLL-50_PTLL-100to200_1J_TuneCP5_13p6TeV_amcatnloFXFX-pythia8/NANOAODSIM/130X_mcRun3_2022_realistic_postEE_v6-v1/60000/b6457514-c095-4302-aee3-c3041efb043e.root
/store/mc/Run3Summer22EENanoAODv12/DYto2L-2Jets_MLL-50_PTLL-100to200_1J_TuneCP5_13p6TeV_amcatnloFXFX-pythia8/NANOAODSIM/130X_mcRun3_2022_realistic_postEE_v6-v1/60000/2c055378-6819-4e7d-9dec-6962a17a05d9.root
/store/mc/Run3Summer22EENanoAODv12/DYto2L-2Jets_MLL-50_PTLL-100to200_1J_TuneCP5_13p6TeV_amcatnloFXFX-pythia8/NANOAODSIM/130X_mcRun3_2022_realistic_postEE_v6-v1/60000/95d965d1-11ad-46f7-bcee-1721d0f78664.root
/store/mc/Run3Summer22EENanoAODv12/DYto2L-2Jets_MLL-50_PTLL-100to200_1J_TuneCP5_13p6TeV_amcatnloFXFX-pythia8/NANOAODSIM/130X_mcRun3_2022_realistic_postEE_v6-v1/60000/69a9fea6-3033-4065-b8af-1f88c66be03f.root
/store/mc/Run3Summer22EENanoAODv12/DYto2L-2Jets_MLL-50_PTLL-100to200_1J_TuneCP5_13p6TeV_amcatnloFXFX-pythia8/NANOAODSIM/130X_mcRun3_2022_realistic_postEE_v6-v1/60000/2409889c-4bf1-43c7-b700-1fa495500258.root
/store/mc/Run3Summer22EENanoAODv12/DYto2L-2Jets_MLL-50_PTLL-100to200_1J_TuneCP5_13p6TeV_amcatnloFXFX-pythia8/NANOAODSIM/130X_mcRun3_2022_realistic_postEE_v6-v1/60000/b3821f20-1a2c-494d-861e-c06f49f64866.root
/store/mc/Run3Summer22EENanoAODv12/DYto2L-2Jets_MLL-50_PTLL-100to200_1J_TuneCP5_13p6TeV_amcatnloFXFX-pythia8/NANOAODSIM/130X_mcRun3_2022_realistic_postEE_v6-v1/60000/8f00548b-3e39-4be5-b09a-10fb93a321d7.root
/store/mc/Run3Summer22EENanoAODv12/DYto2L-2Jets_MLL-50_PTLL-100to200_1J_TuneCP5_13p6TeV_amcatnloFXFX-pythia8/NANOAODSIM/130X_mcRun3_2022_realistic_postEE_v6-v1/60000/1dea5e56-6f99-4e81-9c2d-a5e65035483b.root
/store/mc/Run3Summer22EENanoAODv12/DYto2L-2Jets_MLL-50_PTLL-100to200_1J_TuneCP5_13p6TeV_amcatnloFXFX-pythia8/NANOAODSIM/130X_mcRun3_2022_realistic_postEE_v6-v1/2560000/887f42c9-e091-461c-bbb0-4781cb5f7966.root
/store/mc/Run3Summer22EENanoAODv12/DYto2L-2Jets_MLL-50_PTLL-100to200_1J_TuneCP5_13p6TeV_amcatnloFXFX-pythia8/NANOAODSIM/130X_mcRun3_2022_realistic_postEE_v6-v1/2560000/b13cdd3b-40b6-4c9d-a33a-fac93c3e82a7.root
/store/mc/Run3Summer22EENanoAODv12/DYto2L-2Jets_MLL-50_PTLL-100to200_1J_TuneCP5_13p6TeV_amcatnloFXFX-pythia8/NANOAODSIM/130X_mcRun3_2022_realistic_postEE_v6-v1/2560000/c9bb00ef-d7fb-401c-b8d2-c5846ab06e94.root
/store/mc/Run3Summer22EENanoAODv12/DYto2L-2Jets_MLL-50_PTLL-100to200_1J_TuneCP5_13p6TeV_amcatnloFXFX-pythia8/NANOAODSIM/130X_mcRun3_2022_realistic_postEE_v6-v1/2560000/1df5237d-fe39-47df-996b-742553d2bed9.root
/store/mc/Run3Summer22EENanoAODv12/DYto2L-2Jets_MLL-50_PTLL-100to200_1J_TuneCP5_13p6TeV_amcatnloFXFX-pythia8/NANOAODSIM/130X_mcRun3_2022_realistic_postEE_v6-v1/2560000/1b1029ba-1d5c-4be4-b223-675b94b6dec2.root
/store/mc/Run3Summer22EENanoAODv12/DYto2L-2Jets_MLL-50_PTLL-100to200_1J_TuneCP5_13p6TeV_amcatnloFXFX-pythia8/NANOAODSIM/130X_mcRun3_2022_realistic_postEE_v6-v1/2560000/85cfbef8-5fa8-4dfc-9f2b-9cfcabe56b9e.root
/store/mc/Run3Summer22EENanoAODv12/DYto2L-2Jets_MLL-50_PTLL-100to200_1J_TuneCP5_13p6TeV_amcatnloFXFX-pythia8/NANOAODSIM/130X_mcRun3_2022_realistic_postEE_v6-v1/2560000/32529394-7423-48ba-b5b0-ec72c81755ae.root
/store/mc/Run3Summer22EENanoAODv12/DYto2L-2Jets_MLL-50_PTLL-100to200_1J_TuneCP5_13p6TeV_amcatnloFXFX-pythia8/NANOAODSIM/130X_mcRun3_2022_realistic_postEE_v6-v1/2560000/44e5d7f5-3b99-4859-b389-c90f4918a0cc.root
/store/mc/Run3Summer22EENanoAODv12/DYto2L-2Jets_MLL-50_PTLL-100to200_1J_TuneCP5_13p6TeV_amcatnloFXFX-pythia8/NANOAODSIM/130X_mcRun3_2022_realistic_postEE_v6-v1/2560000/b4c12489-128f-4c78-937c-a279e4cd7bff.root
/store/mc/Run3Summer22EENanoAODv12/DYto2L-2Jets_MLL-50_PTLL-100to200_1J_TuneCP5_13p6TeV_amcatnloFXFX-pythia8/NANOAODSIM/130X_mcRun3_2022_realistic_postEE_v6-v1/2560000/c615334d-b0d3-41df-966a-63d57d007167.root
/store/mc/Run3Summer22EENanoAODv12/DYto2L-2Jets_MLL-50_PTLL-100to200_1J_TuneCP5_13p6TeV_amcatnloFXFX-pythia8/NANOAODSIM/130X_mcRun3_2022_realistic_postEE_v6-v1/2560000/2c597b6f-a44a-48bf-a8c3-a05b45ed9f2f.root
/store/mc/Run3Summer22EENanoAODv12/DYto2L-2Jets_MLL-50_PTLL-100to200_1J_TuneCP5_13p6TeV_amcatnloFXFX-pythia8/NANOAODSIM/130X_mcRun3_2022_realistic_postEE_v6-v1/2560000/1d76de31-7e37-40fe-a6b8-95bf88f4008a.root
/store/mc/Run3Summer22EENanoAODv12/DYto2L-2Jets_MLL-50_PTLL-100to200_1J_TuneCP5_13p6TeV_amcatnloFXFX-pythia8/NANOAODSIM/130X_mcRun3_2022_realistic_postEE_v6-v1/2560000/04dcc134-1fa4-4926-bc95-46a60cc870d7.root
/store/mc/Run3Summer22EENanoAODv12/DYto2L-2Jets_MLL-50_PTLL-100to200_1J_TuneCP5_13p6TeV_amcatnloFXFX-pythia8/NANOAODSIM/130X_mcRun3_2022_realistic_postEE_v6-v1/2560000/fe9dcfb5-106a-423f-8161-569232a97fbf.root
/store/mc/Run3Summer22EENanoAODv12/DYto2L-2Jets_MLL-50_PTLL-100to200_1J_TuneCP5_13p6TeV_amcatnloFXFX-pythia8/NANOAODSIM/130X_mcRun3_2022_realistic_postEE_v6-v1/2560000/d3f1f272-2b11-49a2-a9ff-fe2c5d8a27c0.root
/store/mc/Run3Summer22EENanoAODv12/DYto2L-2Jets_MLL-50_PTLL-100to200_1J_TuneCP5_13p6TeV_amcatnloFXFX-pythia8/NANOAODSIM/130X_mcRun3_2022_realistic_postEE_v6-v1/2560000/4fbada52-c6f7-43e7-862d-e171d9b4dca3.root
/store/mc/Run3Summer22EENanoAODv12/DYto2L-2Jets_MLL-50_PTLL-100to200_1J_TuneCP5_13p6TeV_amcatnloFXFX-pythia8/NANOAODSIM/130X_mcRun3_2022_realistic_postEE_v6-v1/2560000/3f8bbd2e-d66e-4441-9d8e-50a968797dcd.root
/store/mc/Run3Summer22EENanoAODv12/DYto2L-2Jets_MLL-50_PTLL-100to200_1J_TuneCP5_13p6TeV_amcatnloFXFX-pythia8/NANOAODSIM/130X_mcRun3_2022_realistic_postEE_v6-v1/2560000/5eb39412-b863-4221-a039-7f7987c67b5b.root
/store/mc/Run3Summer22EENanoAODv12/DYto2L-2Jets_MLL-50_PTLL-100to200_1J_TuneCP5_13p6TeV_amcatnloFXFX-pythia8/NANOAODSIM/130X_mcRun3_2022_realistic_postEE_v6-v1/2560000/c33515c4-6164-4462-9ab9-ab8c149d016c.root
/store/mc/Run3Summer22EENanoAODv12/DYto2L-2Jets_MLL-50_PTLL-100to200_1J_TuneCP5_13p6TeV_amcatnloFXFX-pythia8/NANOAODSIM/130X_mcRun3_2022_realistic_postEE_v6-v1/2560000/424ef95b-9969-4e98-b89e-6038af4b58d7.root
/store/mc/Run3Summer22EENanoAODv12/DYto2L-2Jets_MLL-50_PTLL-100to200_1J_TuneCP5_13p6TeV_amcatnloFXFX-pythia8/NANOAODSIM/130X_mcRun3_2022_realistic_postEE_v6-v1/2560000/0a6e08c6-1d36-4096-a758-65caf0e14ebc.root
/store/mc/Run3Summer22EENanoAODv12/DYto2L-2Jets_MLL-50_PTLL-100to200_1J_TuneCP5_13p6TeV_amcatnloFXFX-pythia8/NANOAODSIM/130X_mcRun3_2022_realistic_postEE_v6-v1/2560000/e7e1cf7d-0daa-4499-9912-2ea56ed87432.root
/store/mc/Run3Summer22EENanoAODv12/DYto2L-2Jets_MLL-50_PTLL-100to200_1J_TuneCP5_13p6TeV_amcatnloFXFX-pythia8/NANOAODSIM/130X_mcRun3_2022_realistic_postEE_v6-v1/2560000/f2bb0714-417a-4be7-812d-573e2d561794.root
/store/mc/Run3Summer22EENanoAODv12/DYto2L-2Jets_MLL-50_PTLL-100to200_1J_TuneCP5_13p6TeV_amcatnloFXFX-pythia8/NANOAODSIM/130X_mcRun3_2022_realistic_postEE_v6-v1/2560000/a0899985-8c0d-48d1-bd93-9a57d285499e.root
/store/mc/Run3Summer22EENanoAODv12/DYto2L-2Jets_MLL-50_PTLL-100to200_1J_TuneCP5_13p6TeV_amcatnloFXFX-pythia8/NANOAODSIM/130X_mcRun3_2022_realistic_postEE_v6-v1/2560000/128d062e-21f6-44f0-8a25-9f55272d3010.root
/store/mc/Run3Summer22EENanoAODv12/DYto2L-2Jets_MLL-50_PTLL-100to200_1J_TuneCP5_13p6TeV_amcatnloFXFX-pythia8/NANOAODSIM/130X_mcRun3_2022_realistic_postEE_v6-v1/2560000/260400fb-cb96-4683-8464-16ed41d47cc2.root
/store/mc/Run3Summer22EENanoAODv12/DYto2L-2Jets_MLL-50_PTLL-100to200_1J_TuneCP5_13p6TeV_amcatnloFXFX-pythia8/NANOAODSIM/130X_mcRun3_2022_realistic_postEE_v6-v1/2560000/68610c9c-fdb6-4123-96e0-f876c3788a3e.root
/store/mc/Run3Summer22EENanoAODv12/DYto2L-2Jets_MLL-50_PTLL-100to200_1J_TuneCP5_13p6TeV_amcatnloFXFX-pythia8/NANOAODSIM/130X_mcRun3_2022_realistic_postEE_v6-v1/2560000/f7391267-3eae-4f60-9024-e3402e374d6c.root
/store/mc/Run3Summer22EENanoAODv12/DYto2L-2Jets_MLL-50_PTLL-100to200_1J_TuneCP5_13p6TeV_amcatnloFXFX-pythia8/NANOAODSIM/130X_mcRun3_2022_realistic_postEE_v6-v1/2560000/19795106-e4f0-43a5-adcf-7c1a3343d9c1.root
/store/mc/Run3Summer22EENanoAODv12/DYto2L-2Jets_MLL-50_PTLL-100to200_1J_TuneCP5_13p6TeV_amcatnloFXFX-pythia8/NANOAODSIM/130X_mcRun3_2022_realistic_postEE_v6-v1/2560000/0c16d55b-c2b2-4cde-a395-9d2246c67026.root
/store/mc/Run3Summer22EENanoAODv12/DYto2L-2Jets_MLL-50_PTLL-100to200_1J_TuneCP5_13p6TeV_amcatnloFXFX-pythia8/NANOAODSIM/130X_mcRun3_2022_realistic_postEE_v6-v1/2560000/2c24e0af-9923-4ffd-9fc0-94fcbdf9a0f3.root
/store/mc/Run3Summer22EENanoAODv12/DYto2L-2Jets_MLL-50_PTLL-100to200_1J_TuneCP5_13p6TeV_amcatnloFXFX-pythia8/NANOAODSIM/130X_mcRun3_2022_realistic_postEE_v6-v1/2560000/a899d10d-4d77-40c2-b20a-aaf1192498d5.root
/store/mc/Run3Summer22EENanoAODv12/DYto2L-2Jets_MLL-50_PTLL-100to200_1J_TuneCP5_13p6TeV_amcatnloFXFX-pythia8/NANOAODSIM/130X_mcRun3_2022_realistic_postEE_v6-v1/2560000/572752f3-b4b3-4af1-8e15-4bf7238d82cb.root
/store/mc/Run3Summer22EENanoAODv12/DYto2L-2Jets_MLL-50_PTLL-100to200_1J_TuneCP5_13p6TeV_amcatnloFXFX-pythia8/NANOAODSIM/130X_mcRun3_2022_realistic_postEE_v6-v1/2560000/01f15951-2d0b-421d-811c-61382c2aa6a1.root
/store/mc/Run3Summer22EENanoAODv12/DYto2L-2Jets_MLL-50_PTLL-100to200_1J_TuneCP5_13p6TeV_amcatnloFXFX-pythia8/NANOAODSIM/130X_mcRun3_2022_realistic_postEE_v6-v1/2560000/058f73a4-9ef7-4b59-9593-d3f84718a5b2.root
/store/mc/Run3Summer22EENanoAODv12/DYto2L-2Jets_MLL-50_PTLL-100to200_1J_TuneCP5_13p6TeV_amcatnloFXFX-pythia8/NANOAODSIM/130X_mcRun3_2022_realistic_postEE_v6-v1/2560000/648d4436-0fd7-4ac1-8106-eebcc88491c0.root
/store/mc/Run3Summer22EENanoAODv12/DYto2L-2Jets_MLL-50_PTLL-100to200_1J_TuneCP5_13p6TeV_amcatnloFXFX-pythia8/NANOAODSIM/130X_mcRun3_2022_realistic_postEE_v6-v1/2560000/daaa5810-5d89-4493-94be-f593bd3bc4a6.root
/store/mc/Run3Summer22EENanoAODv12/DYto2L-2Jets_MLL-50_PTLL-100to200_1J_TuneCP5_13p6TeV_amcatnloFXFX-pythia8/NANOAODSIM/130X_mcRun3_2022_realistic_postEE_v6-v1/2560000/9ffcdb07-612e-4aef-a229-b9c53a59eafe.root
/store/mc/Run3Summer22EENanoAODv12/DYto2L-2Jets_MLL-50_PTLL-100to200_1J_TuneCP5_13p6TeV_amcatnloFXFX-pythia8/NANOAODSIM/130X_mcRun3_2022_realistic_postEE_v6-v1/2560000/1938bca8-0202-4733-8606-79d189fb3a19.root
/store/mc/Run3Summer22EENanoAODv12/DYto2L-2Jets_MLL-50_PTLL-100to200_1J_TuneCP5_13p6TeV_amcatnloFXFX-pythia8/NANOAODSIM/130X_mcRun3_2022_realistic_postEE_v6-v1/2560000/0e0bf4fa-f556-4f1f-83a2-1c1eb6e9de00.root
/store/mc/Run3Summer22EENanoAODv12/DYto2L-2Jets_MLL-50_PTLL-100to200_1J_TuneCP5_13p6TeV_amcatnloFXFX-pythia8/NANOAODSIM/130X_mcRun3_2022_realistic_postEE_v6-v1/2560000/56e8d5b2-cc38-4439-8f63-3bcd653d4be4.root
/store/mc/Run3Summer22EENanoAODv12/DYto2L-2Jets_MLL-50_PTLL-100to200_1J_TuneCP5_13p6TeV_amcatnloFXFX-pythia8/NANOAODSIM/130X_mcRun3_2022_realistic_postEE_v6-v1/2560000/37d76b8f-fc79-4533-8dbb-09c99631ef47.root
/store/mc/Run3Summer22EENanoAODv12/DYto2L-2Jets_MLL-50_PTLL-100to200_1J_TuneCP5_13p6TeV_amcatnloFXFX-pythia8/NANOAODSIM/130X_mcRun3_2022_realistic_postEE_v6-v1/2560000/cb0f1d84-9736-4a76-9036-f93051e4b9e3.root
/store/mc/Run3Summer22EENanoAODv12/DYto2L-2Jets_MLL-50_PTLL-100to200_1J_TuneCP5_13p6TeV_amcatnloFXFX-pythia8/NANOAODSIM/130X_mcRun3_2022_realistic_postEE_v6-v1/2560000/a62519f9-8250-45bf-8f84-67322fcf1cad.root
/store/mc/Run3Summer22EENanoAODv12/DYto2L-2Jets_MLL-50_PTLL-100to200_1J_TuneCP5_13p6TeV_amcatnloFXFX-pythia8/NANOAODSIM/130X_mcRun3_2022_realistic_postEE_v6-v1/2560000/feb149a1-cbad-415a-bd1f-f3bd70a3ecc3.root
/store/mc/Run3Summer22EENanoAODv12/DYto2L-2Jets_MLL-50_PTLL-100to200_1J_TuneCP5_13p6TeV_amcatnloFXFX-pythia8/NANOAODSIM/130X_mcRun3_2022_realistic_postEE_v6-v1/2560000/18e928d3-16b2-4398-8cc2-d8d0f90ac63f.root
/store/mc/Run3Summer22EENanoAODv12/DYto2L-2Jets_MLL-50_PTLL-100to200_1J_TuneCP5_13p6TeV_amcatnloFXFX-pythia8/NANOAODSIM/130X_mcRun3_2022_realistic_postEE_v6-v1/2560000/64fff294-7ad9-4e12-a79c-c76b4c317eb8.root
/store/mc/Run3Summer22EENanoAODv12/DYto2L-2Jets_MLL-50_PTLL-100to200_1J_TuneCP5_13p6TeV_amcatnloFXFX-pythia8/NANOAODSIM/130X_mcRun3_2022_realistic_postEE_v6-v1/2560000/b06bcf49-1115-41df-8a29-dbd23a5128e1.root
/store/mc/Run3Summer22EENanoAODv12/DYto2L-2Jets_MLL-50_PTLL-100to200_1J_TuneCP5_13p6TeV_amcatnloFXFX-pythia8/NANOAODSIM/130X_mcRun3_2022_realistic_postEE_v6-v1/2560000/20e14b57-86bc-4175-8fcc-a9d6b3bd2bc9.root
/store/mc/Run3Summer22EENanoAODv12/DYto2L-2Jets_MLL-50_PTLL-100to200_1J_TuneCP5_13p6TeV_amcatnloFXFX-pythia8/NANOAODSIM/130X_mcRun3_2022_realistic_postEE_v6-v1/2560000/d0a6fcf6-df65-4fe6-8ad4-4d27e729fb84.root
/store/mc/Run3Summer22EENanoAODv12/DYto2L-2Jets_MLL-50_PTLL-100to200_1J_TuneCP5_13p6TeV_amcatnloFXFX-pythia8/NANOAODSIM/130X_mcRun3_2022_realistic_postEE_v6-v1/2560000/3d8f8abd-ed5e-4af4-8797-c6d5b0fba5bc.root
/store/mc/Run3Summer22EENanoAODv12/DYto2L-2Jets_MLL-50_PTLL-100to200_1J_TuneCP5_13p6TeV_amcatnloFXFX-pythia8/NANOAODSIM/130X_mcRun3_2022_realistic_postEE_v6-v1/2560000/4a8c7372-c9c9-4840-9886-00badd8987ac.root
/store/mc/Run3Summer22EENanoAODv12/DYto2L-2Jets_MLL-50_PTLL-100to200_1J_TuneCP5_13p6TeV_amcatnloFXFX-pythia8/NANOAODSIM/130X_mcRun3_2022_realistic_postEE_v6-v1/2560000/b4849c08-a106-4300-a15c-604892df8430.root
/store/mc/Run3Summer22EENanoAODv12/DYto2L-2Jets_MLL-50_PTLL-100to200_1J_TuneCP5_13p6TeV_amcatnloFXFX-pythia8/NANOAODSIM/130X_mcRun3_2022_realistic_postEE_v6-v1/2560000/4cdd904b-53ab-4c60-89d6-ed8cac067660.root
/store/mc/Run3Summer22EENanoAODv12/DYto2L-2Jets_MLL-50_PTLL-100to200_1J_TuneCP5_13p6TeV_amcatnloFXFX-pythia8/NANOAODSIM/130X_mcRun3_2022_realistic_postEE_v6-v1/2560000/a2c2fa7e-551f-4438-9e46-30df07af243c.root
/store/mc/Run3Summer22EENanoAODv12/DYto2L-2Jets_MLL-50_PTLL-100to200_1J_TuneCP5_13p6TeV_amcatnloFXFX-pythia8/NANOAODSIM/130X_mcRun3_2022_realistic_postEE_v6-v1/2560000/f8428f4c-09a5-4734-9ad0-c36e941dcc7e.root
/store/mc/Run3Summer22EENanoAODv12/DYto2L-2Jets_MLL-50_PTLL-100to200_1J_TuneCP5_13p6TeV_amcatnloFXFX-pythia8/NANOAODSIM/130X_mcRun3_2022_realistic_postEE_v6-v1/2560000/8bb1254f-3c52-447e-9a5d-72ae9ea93b60.root
/store/mc/Run3Summer22EENanoAODv12/DYto2L-2Jets_MLL-50_PTLL-100to200_1J_TuneCP5_13p6TeV_amcatnloFXFX-pythia8/NANOAODSIM/130X_mcRun3_2022_realistic_postEE_v6-v1/2560000/10ab2659-f9e4-4e5b-aa41-da9b4f84102d.root
/store/mc/Run3Summer22EENanoAODv12/DYto2L-2Jets_MLL-50_PTLL-100to200_1J_TuneCP5_13p6TeV_amcatnloFXFX-pythia8/NANOAODSIM/130X_mcRun3_2022_realistic_postEE_v6-v1/2560000/b4aa7102-8294-4ab1-810a-35870c562394.root
/store/mc/Run3Summer22EENanoAODv12/DYto2L-2Jets_MLL-50_PTLL-100to200_1J_TuneCP5_13p6TeV_amcatnloFXFX-pythia8/NANOAODSIM/130X_mcRun3_2022_realistic_postEE_v6-v1/2560000/fb6426fe-c339-4ba1-9833-8ffcdc7a2767.root
/store/mc/Run3Summer22EENanoAODv12/DYto2L-2Jets_MLL-50_PTLL-100to200_1J_TuneCP5_13p6TeV_amcatnloFXFX-pythia8/NANOAODSIM/130X_mcRun3_2022_realistic_postEE_v6-v1/2560000/9db67354-f129-47c5-b28b-3a4ffb29e981.root
/store/mc/Run3Summer22EENanoAODv12/DYto2L-2Jets_MLL-50_PTLL-100to200_1J_TuneCP5_13p6TeV_amcatnloFXFX-pythia8/NANOAODSIM/130X_mcRun3_2022_realistic_postEE_v6-v1/2560000/1e7a2a57-73f8-4a36-bd92-9c5f4324653b.root
/store/mc/Run3Summer22EENanoAODv12/DYto2L-2Jets_MLL-50_PTLL-100to200_1J_TuneCP5_13p6TeV_amcatnloFXFX-pythia8/NANOAODSIM/130X_mcRun3_2022_realistic_postEE_v6-v1/2560000/a7060675-f893-4100-9061-c4bfb5823cb4.root
/store/mc/Run3Summer22EENanoAODv12/DYto2L-2Jets_MLL-50_PTLL-100to200_1J_TuneCP5_13p6TeV_amcatnloFXFX-pythia8/NANOAODSIM/130X_mcRun3_2022_realistic_postEE_v6-v1/2560000/14bb37f1-6f1f-4139-972e-c475df5b7284.root
/store/mc/Run3Summer22EENanoAODv12/DYto2L-2Jets_MLL-50_PTLL-100to200_1J_TuneCP5_13p6TeV_amcatnloFXFX-pythia8/NANOAODSIM/130X_mcRun3_2022_realistic_postEE_v6-v1/2560000/c3e4fc30-67c0-46cd-9efe-0ce8903ead59.root
/store/mc/Run3Summer22EENanoAODv12/DYto2L-2Jets_MLL-50_PTLL-100to200_1J_TuneCP5_13p6TeV_amcatnloFXFX-pythia8/NANOAODSIM/130X_mcRun3_2022_realistic_postEE_v6-v1/2560000/d0b1f8c4-ae8c-477d-89c9-e9fb0d555f4c.root
/store/mc/Run3Summer22EENanoAODv12/DYto2L-2Jets_MLL-50_PTLL-100to200_1J_TuneCP5_13p6TeV_amcatnloFXFX-pythia8/NANOAODSIM/130X_mcRun3_2022_realistic_postEE_v6-v1/2560000/0cd3d31a-5a27-4b75-a576-2790d7720dce.root
/store/mc/Run3Summer22EENanoAODv12/DYto2L-2Jets_MLL-50_PTLL-100to200_1J_TuneCP5_13p6TeV_amcatnloFXFX-pythia8/NANOAODSIM/130X_mcRun3_2022_realistic_postEE_v6-v1/2560000/2a239d35-57e1-47ee-9295-f3df2be28218.root
/store/mc/Run3Summer22EENanoAODv12/DYto2L-2Jets_MLL-50_PTLL-100to200_1J_TuneCP5_13p6TeV_amcatnloFXFX-pythia8/NANOAODSIM/130X_mcRun3_2022_realistic_postEE_v6-v1/2560000/036469b8-752c-483b-a22c-d76ea797e3e4.root
/store/mc/Run3Summer22EENanoAODv12/DYto2L-2Jets_MLL-50_PTLL-100to200_1J_TuneCP5_13p6TeV_amcatnloFXFX-pythia8/NANOAODSIM/130X_mcRun3_2022_realistic_postEE_v6-v1/2560000/52072205-7ae5-4ed4-8299-bcdb0ce0d34a.root
/store/mc/Run3Summer22EENanoAODv12/DYto2L-2Jets_MLL-50_PTLL-100to200_1J_TuneCP5_13p6TeV_amcatnloFXFX-pythia8/NANOAODSIM/130X_mcRun3_2022_realistic_postEE_v6-v1/2560000/0b3549cf-f382-4b5f-9199-552039d10e87.root
/store/mc/Run3Summer22EENanoAODv12/DYto2L-2Jets_MLL-50_PTLL-100to200_1J_TuneCP5_13p6TeV_amcatnloFXFX-pythia8/NANOAODSIM/130X_mcRun3_2022_realistic_postEE_v6-v1/2560000/8c0aef31-ac98-42d8-a5a2-873470cd7ad2.root
/store/mc/Run3Summer22EENanoAODv12/DYto2L-2Jets_MLL-50_PTLL-100to200_1J_TuneCP5_13p6TeV_amcatnloFXFX-pythia8/NANOAODSIM/130X_mcRun3_2022_realistic_postEE_v6-v1/2560000/bafa09c2-82e3-4467-8d0e-ee4cb46e972c.root
/store/mc/Run3Summer22EENanoAODv12/DYto2L-2Jets_MLL-50_PTLL-100to200_1J_TuneCP5_13p6TeV_amcatnloFXFX-pythia8/NANOAODSIM/130X_mcRun3_2022_realistic_postEE_v6-v1/2560000/3c1a7797-6d21-4308-a902-e494eb249d7a.root
/store/mc/Run3Summer22EENanoAODv12/DYto2L-2Jets_MLL-50_PTLL-100to200_1J_TuneCP5_13p6TeV_amcatnloFXFX-pythia8/NANOAODSIM/130X_mcRun3_2022_realistic_postEE_v6-v1/2560000/f058eaf2-6a8e-4d30-b677-1fd2aee6d299.root
/store/mc/Run3Summer22EENanoAODv12/DYto2L-2Jets_MLL-50_PTLL-100to200_1J_TuneCP5_13p6TeV_amcatnloFXFX-pythia8/NANOAODSIM/130X_mcRun3_2022_realistic_postEE_v6-v1/2560000/7fe663ad-4617-480d-ab83-4b53b8cff2dd.root
/store/mc/Run3Summer22EENanoAODv12/DYto2L-2Jets_MLL-50_PTLL-100to200_1J_TuneCP5_13p6TeV_amcatnloFXFX-pythia8/NANOAODSIM/130X_mcRun3_2022_realistic_postEE_v6-v1/2560000/e0b8d1da-ebe4-403a-8592-6aa642b08e87.root
/store/mc/Run3Summer22EENanoAODv12/DYto2L-2Jets_MLL-50_PTLL-100to200_1J_TuneCP5_13p6TeV_amcatnloFXFX-pythia8/NANOAODSIM/130X_mcRun3_2022_realistic_postEE_v6-v1/2560000/f05476d8-c3f9-446c-aa57-10596a21228c.root
/store/mc/Run3Summer22EENanoAODv12/DYto2L-2Jets_MLL-50_PTLL-100to200_1J_TuneCP5_13p6TeV_amcatnloFXFX-pythia8/NANOAODSIM/130X_mcRun3_2022_realistic_postEE_v6-v1/2560000/4338095a-570a-4652-96b9-891473f072fb.root