/store/mc/Run3Summer22EENanoAODv13/GluGlutoHHto2B2Tau_kl-5p00_kt-1p00_c2-0p00_TuneCP5_13p6TeV_powheg-pythia8/NANOAODSIM/133X_mcRun3_2022_realistic_postEE_ForNanov13_v1-v3/2560000/b432d888-7c56-4f30-9e5b-3323c2e01f83.root
/store/mc/Run3Summer22EENanoAODv13/GluGlutoHHto2B2Tau_kl-5p00_kt-1p00_c2-0p00_TuneCP5_13p6TeV_powheg-pythia8/NANOAODSIM/133X_mcRun3_2022_realistic_postEE_ForNanov13_v1-v3/2560000/df076f22-1da3-49c4-a2ae-7d465530e0e1.root
/store/mc/Run3Summer22EENanoAODv13/GluGlutoHHto2B2Tau_kl-5p00_kt-1p00_c2-0p00_TuneCP5_13p6TeV_powheg-pythia8/NANOAODSIM/133X_mcRun3_2022_realistic_postEE_ForNanov13_v1-v3/130000/2696f62b-84ab-4674-8d08-5428f9c91cf6.root
/store/mc/Run3Summer22EENanoAODv13/GluGlutoHHto2B2Tau_kl-5p00_kt-1p00_c2-0p00_TuneCP5_13p6TeV_powheg-pythia8/NANOAODSIM/133X_mcRun3_2022_realistic_postEE_ForNanov13_v1-v3/130000/5343dd68-5934-4a4a-b263-bdbf4e73d20b.root
/store/mc/Run3Summer22EENanoAODv13/GluGlutoHHto2B2Tau_kl-5p00_kt-1p00_c2-0p00_TuneCP5_13p6TeV_powheg-pythia8/NANOAODSIM/133X_mcRun3_2022_realistic_postEE_ForNanov13_v1-v3/130000/9c4d9614-6fb3-40ea-ac5f-98129c749393.root
/store/mc/Run3Summer22EENanoAODv13/GluGlutoHHto2B2Tau_kl-5p00_kt-1p00_c2-0p00_TuneCP5_13p6TeV_powheg-pythia8/NANOAODSIM/133X_mcRun3_2022_realistic_postEE_ForNanov13_v1-v3/2560000/192bb1f4-5bee-4137-9dcd-fc39f913e8a0.root
/store/mc/Run3Summer22EENanoAODv13/GluGlutoHHto2B2Tau_kl-5p00_kt-1p00_c2-0p00_TuneCP5_13p6TeV_powheg-pythia8/NANOAODSIM/133X_mcRun3_2022_realistic_postEE_ForNanov13_v1-v3/2560000/5a60c94b-da5b-4bed-99a4-5d14735e7c83.root
/store/mc/Run3Summer22EENanoAODv13/GluGlutoHHto2B2Tau_kl-5p00_kt-1p00_c2-0p00_TuneCP5_13p6TeV_powheg-pythia8/NANOAODSIM/133X_mcRun3_2022_realistic_postEE_ForNanov13_v1-v3/130000/30c29a93-f5a1-487e-92c2-1cd49cfb8dfb.root
/store/mc/Run3Summer22EENanoAODv13/GluGlutoHHto2B2Tau_kl-5p00_kt-1p00_c2-0p00_TuneCP5_13p6TeV_powheg-pythia8/NANOAODSIM/133X_mcRun3_2022_realistic_postEE_ForNanov13_v1-v3/130000/38857f11-40d7-4d43-8e35-7c53443b834e.root
/store/mc/Run3Summer22EENanoAODv13/GluGlutoHHto2B2Tau_kl-5p00_kt-1p00_c2-0p00_TuneCP5_13p6TeV_powheg-pythia8/NANOAODSIM/133X_mcRun3_2022_realistic_postEE_ForNanov13_v1-v3/130000/16402c78-239d-4bf8-853f-656ec8dedf70.root
/store/mc/Run3Summer22EENanoAODv13/GluGlutoHHto2B2Tau_kl-5p00_kt-1p00_c2-0p00_TuneCP5_13p6TeV_powheg-pythia8/NANOAODSIM/133X_mcRun3_2022_realistic_postEE_ForNanov13_v1-v3/130000/0780ea28-0405-4ada-b180-382ac335b559.root
/store/mc/Run3Summer22EENanoAODv13/GluGlutoHHto2B2Tau_kl-5p00_kt-1p00_c2-0p00_TuneCP5_13p6TeV_powheg-pythia8/NANOAODSIM/133X_mcRun3_2022_realistic_postEE_ForNanov13_v1-v3/120000/0b974c90-3a89-4350-a927-da4ae3787d50.root
/store/mc/Run3Summer22EENanoAODv13/GluGlutoHHto2B2Tau_kl-5p00_kt-1p00_c2-0p00_TuneCP5_13p6TeV_powheg-pythia8/NANOAODSIM/133X_mcRun3_2022_realistic_postEE_ForNanov13_v1-v3/120000/0fd67782-f8ad-4637-a39a-43f130185126.root
/store/mc/Run3Summer22EENanoAODv13/GluGlutoHHto2B2Tau_kl-5p00_kt-1p00_c2-0p00_TuneCP5_13p6TeV_powheg-pythia8/NANOAODSIM/133X_mcRun3_2022_realistic_postEE_ForNanov13_v1-v3/120000/4af5b5b0-bd47-4138-9128-e500f7a4bd96.root
/store/mc/Run3Summer22EENanoAODv13/GluGlutoHHto2B2Tau_kl-5p00_kt-1p00_c2-0p00_TuneCP5_13p6TeV_powheg-pythia8/NANOAODSIM/133X_mcRun3_2022_realistic_postEE_ForNanov13_v1-v3/120000/e06b913e-dbc0-4afd-b0c5-c244a441ed43.root
/store/mc/Run3Summer22EENanoAODv13/GluGlutoHHto2B2Tau_kl-5p00_kt-1p00_c2-0p00_TuneCP5_13p6TeV_powheg-pythia8/NANOAODSIM/133X_mcRun3_2022_realistic_postEE_ForNanov13_v1-v3/2560000/28dc0d1a-6894-4c9a-b930-ca4468760486.root
/store/mc/Run3Summer22EENanoAODv13/GluGlutoHHto2B2Tau_kl-5p00_kt-1p00_c2-0p00_TuneCP5_13p6TeV_powheg-pythia8/NANOAODSIM/133X_mcRun3_2022_realistic_postEE_ForNanov13_v1-v3/2560000/05290602-543d-43d5-9a5a-c6b330aee8d8.root
/store/mc/Run3Summer22EENanoAODv13/GluGlutoHHto2B2Tau_kl-5p00_kt-1p00_c2-0p00_TuneCP5_13p6TeV_powheg-pythia8/NANOAODSIM/133X_mcRun3_2022_realistic_postEE_ForNanov13_v1-v3/2560000/33849ba7-1631-4231-be8a-4ecfaa726074.root
/store/mc/Run3Summer22EENanoAODv13/GluGlutoHHto2B2Tau_kl-5p00_kt-1p00_c2-0p00_TuneCP5_13p6TeV_powheg-pythia8/NANOAODSIM/133X_mcRun3_2022_realistic_postEE_ForNanov13_v1-v3/2560000/7bd9c393-fbbb-490b-9651-cd2d2b60b19b.root
/store/mc/Run3Summer22EENanoAODv13/GluGlutoHHto2B2Tau_kl-5p00_kt-1p00_c2-0p00_TuneCP5_13p6TeV_powheg-pythia8/NANOAODSIM/133X_mcRun3_2022_realistic_postEE_ForNanov13_v1-v3/2560000/245dbd0b-caa3-4980-ad82-35ea90234812.root
/store/mc/Run3Summer22EENanoAODv13/GluGlutoHHto2B2Tau_kl-5p00_kt-1p00_c2-0p00_TuneCP5_13p6TeV_powheg-pythia8/NANOAODSIM/133X_mcRun3_2022_realistic_postEE_ForNanov13_v1-v3/2560000/a2eca8a7-b70f-4116-abf0-f51e031fe60d.root
/store/mc/Run3Summer22EENanoAODv13/GluGlutoHHto2B2Tau_kl-5p00_kt-1p00_c2-0p00_TuneCP5_13p6TeV_powheg-pythia8/NANOAODSIM/133X_mcRun3_2022_realistic_postEE_ForNanov13_v1-v3/2560000/fa7bea5b-7e21-402c-b39b-72f2796710c8.root
/store/mc/Run3Summer22EENanoAODv13/GluGlutoHHto2B2Tau_kl-5p00_kt-1p00_c2-0p00_TuneCP5_13p6TeV_powheg-pythia8/NANOAODSIM/133X_mcRun3_2022_realistic_postEE_ForNanov13_v1-v3/2560000/e3834b67-26a6-495d-9571-60f0f7deae45.root
/store/mc/Run3Summer22EENanoAODv13/GluGlutoHHto2B2Tau_kl-5p00_kt-1p00_c2-0p00_TuneCP5_13p6TeV_powheg-pythia8/NANOAODSIM/133X_mcRun3_2022_realistic_postEE_ForNanov13_v1-v3/2560000/336fc982-d961-4d71-b894-11587eee68d0.root
/store/mc/Run3Summer22EENanoAODv13/GluGlutoHHto2B2Tau_kl-5p00_kt-1p00_c2-0p00_TuneCP5_13p6TeV_powheg-pythia8/NANOAODSIM/133X_mcRun3_2022_realistic_postEE_ForNanov13_v1-v3/2560000/11af7632-64ac-4fd1-b64a-3e8ad13dd4ec.root
/store/mc/Run3Summer22EENanoAODv13/GluGlutoHHto2B2Tau_kl-5p00_kt-1p00_c2-0p00_TuneCP5_13p6TeV_powheg-pythia8/NANOAODSIM/133X_mcRun3_2022_realistic_postEE_ForNanov13_v1-v3/2560000/6aeee8da-ce03-4394-9a42-c0ec959acc14.root
/store/mc/Run3Summer22EENanoAODv13/GluGlutoHHto2B2Tau_kl-5p00_kt-1p00_c2-0p00_TuneCP5_13p6TeV_powheg-pythia8/NANOAODSIM/133X_mcRun3_2022_realistic_postEE_ForNanov13_v1-v3/2560000/75336411-2083-44db-80f3-aca1564ce8fe.root
/store/mc/Run3Summer22EENanoAODv13/GluGlutoHHto2B2Tau_kl-5p00_kt-1p00_c2-0p00_TuneCP5_13p6TeV_powheg-pythia8/NANOAODSIM/133X_mcRun3_2022_realistic_postEE_ForNanov13_v1-v3/2560000/1b68d1d0-3b36-444d-b517-322b4d353b87.root
/store/mc/Run3Summer22EENanoAODv13/GluGlutoHHto2B2Tau_kl-5p00_kt-1p00_c2-0p00_TuneCP5_13p6TeV_powheg-pythia8/NANOAODSIM/133X_mcRun3_2022_realistic_postEE_ForNanov13_v1-v3/2560000/4a6b32b9-05d3-4bab-bb06-1aa4d5e21e40.root
/store/mc/Run3Summer22EENanoAODv13/GluGlutoHHto2B2Tau_kl-5p00_kt-1p00_c2-0p00_TuneCP5_13p6TeV_powheg-pythia8/NANOAODSIM/133X_mcRun3_2022_realistic_postEE_ForNanov13_v1-v3/2560000/9ad775bc-bd88-4165-80c0-9ab5a26e56fa.root
/store/mc/Run3Summer22EENanoAODv13/GluGlutoHHto2B2Tau_kl-5p00_kt-1p00_c2-0p00_TuneCP5_13p6TeV_powheg-pythia8/NANOAODSIM/133X_mcRun3_2022_realistic_postEE_ForNanov13_v1-v3/2560000/7c9e149d-696c-4991-8eff-d5d4cdee98fb.root
/store/mc/Run3Summer22EENanoAODv13/GluGlutoHHto2B2Tau_kl-5p00_kt-1p00_c2-0p00_TuneCP5_13p6TeV_powheg-pythia8/NANOAODSIM/133X_mcRun3_2022_realistic_postEE_ForNanov13_v1-v3/120000/035b08b4-4eac-45cf-94f3-f675ffce07b5.root
/store/mc/Run3Summer22EENanoAODv13/GluGlutoHHto2B2Tau_kl-5p00_kt-1p00_c2-0p00_TuneCP5_13p6TeV_powheg-pythia8/NANOAODSIM/133X_mcRun3_2022_realistic_postEE_ForNanov13_v1-v3/120000/df252768-cf3b-431d-865e-645a7d9b2f9a.root
/store/mc/Run3Summer22EENanoAODv13/GluGlutoHHto2B2Tau_kl-5p00_kt-1p00_c2-0p00_TuneCP5_13p6TeV_powheg-pythia8/NANOAODSIM/133X_mcRun3_2022_realistic_postEE_ForNanov13_v1-v3/2560000/8cf541c4-2250-46a9-bdf1-cea72ad83516.root
/store/mc/Run3Summer22EENanoAODv13/GluGlutoHHto2B2Tau_kl-5p00_kt-1p00_c2-0p00_TuneCP5_13p6TeV_powheg-pythia8/NANOAODSIM/133X_mcRun3_2022_realistic_postEE_ForNanov13_v1-v3/2560000/cc51a859-8cfc-4200-8957-018a469beec8.root
/store/mc/Run3Summer22EENanoAODv13/GluGlutoHHto2B2Tau_kl-5p00_kt-1p00_c2-0p00_TuneCP5_13p6TeV_powheg-pythia8/NANOAODSIM/133X_mcRun3_2022_realistic_postEE_ForNanov13_v1-v3/2560000/c1505200-7188-4c47-9216-7472161fc0db.root
/store/mc/Run3Summer22EENanoAODv13/GluGlutoHHto2B2Tau_kl-5p00_kt-1p00_c2-0p00_TuneCP5_13p6TeV_powheg-pythia8/NANOAODSIM/133X_mcRun3_2022_realistic_postEE_ForNanov13_v1-v3/2560000/573443ba-2e11-4b13-95ee-7f24b45fb56f.root
/store/mc/Run3Summer22EENanoAODv13/GluGlutoHHto2B2Tau_kl-5p00_kt-1p00_c2-0p00_TuneCP5_13p6TeV_powheg-pythia8/NANOAODSIM/133X_mcRun3_2022_realistic_postEE_ForNanov13_v1-v3/2560000/a808f74a-408a-44b0-a129-2a7945fb1352.root
/store/mc/Run3Summer22EENanoAODv13/GluGlutoHHto2B2Tau_kl-5p00_kt-1p00_c2-0p00_TuneCP5_13p6TeV_powheg-pythia8/NANOAODSIM/133X_mcRun3_2022_realistic_postEE_ForNanov13_v1-v3/130000/4a17bc56-03d2-46d4-b283-3e065913df81.root
/store/mc/Run3Summer22EENanoAODv13/GluGlutoHHto2B2Tau_kl-5p00_kt-1p00_c2-0p00_TuneCP5_13p6TeV_powheg-pythia8/NANOAODSIM/133X_mcRun3_2022_realistic_postEE_ForNanov13_v1-v3/130000/c460ad98-f76c-4cc3-a905-380fef2d767c.root
/store/mc/Run3Summer22EENanoAODv13/GluGlutoHHto2B2Tau_kl-5p00_kt-1p00_c2-0p00_TuneCP5_13p6TeV_powheg-pythia8/NANOAODSIM/133X_mcRun3_2022_realistic_postEE_ForNanov13_v1-v3/120000/fce34b2f-313b-4a95-b321-63bc162633fb.root
/store/mc/Run3Summer22EENanoAODv13/GluGlutoHHto2B2Tau_kl-5p00_kt-1p00_c2-0p00_TuneCP5_13p6TeV_powheg-pythia8/NANOAODSIM/133X_mcRun3_2022_realistic_postEE_ForNanov13_v1-v3/120000/4dff3cf4-1754-4960-a684-bcfe553f5ce3.root
/store/mc/Run3Summer22EENanoAODv13/GluGlutoHHto2B2Tau_kl-5p00_kt-1p00_c2-0p00_TuneCP5_13p6TeV_powheg-pythia8/NANOAODSIM/133X_mcRun3_2022_realistic_postEE_ForNanov13_v1-v3/120000/0d4c2b17-8461-4a09-aa1a-4098b33efd04.root
/store/mc/Run3Summer22EENanoAODv13/GluGlutoHHto2B2Tau_kl-5p00_kt-1p00_c2-0p00_TuneCP5_13p6TeV_powheg-pythia8/NANOAODSIM/133X_mcRun3_2022_realistic_postEE_ForNanov13_v1-v3/120000/0259cd03-33da-427d-b9f4-cd50e7e812ea.root
/store/mc/Run3Summer22EENanoAODv13/GluGlutoHHto2B2Tau_kl-5p00_kt-1p00_c2-0p00_TuneCP5_13p6TeV_powheg-pythia8/NANOAODSIM/133X_mcRun3_2022_realistic_postEE_ForNanov13_v1-v3/120000/3f47bdf8-b44b-4ba4-a785-cf5b6665a06d.root
/store/mc/Run3Summer22EENanoAODv13/GluGlutoHHto2B2Tau_kl-5p00_kt-1p00_c2-0p00_TuneCP5_13p6TeV_powheg-pythia8/NANOAODSIM/133X_mcRun3_2022_realistic_postEE_ForNanov13_v1-v3/120000/4ab99ef2-4bc7-443d-ac35-0594ac3eb7fc.root
/store/mc/Run3Summer22EENanoAODv13/GluGlutoHHto2B2Tau_kl-5p00_kt-1p00_c2-0p00_TuneCP5_13p6TeV_powheg-pythia8/NANOAODSIM/133X_mcRun3_2022_realistic_postEE_ForNanov13_v1-v3/120000/fdb0220c-5d58-4f6d-9170-7772414a3fdb.root
/store/mc/Run3Summer22EENanoAODv13/GluGlutoHHto2B2Tau_kl-5p00_kt-1p00_c2-0p00_TuneCP5_13p6TeV_powheg-pythia8/NANOAODSIM/133X_mcRun3_2022_realistic_postEE_ForNanov13_v1-v3/120000/101a8c9e-b94e-4715-aa71-30795c194725.root
/store/mc/Run3Summer22EENanoAODv13/GluGlutoHHto2B2Tau_kl-5p00_kt-1p00_c2-0p00_TuneCP5_13p6TeV_powheg-pythia8/NANOAODSIM/133X_mcRun3_2022_realistic_postEE_ForNanov13_v1-v3/130000/5b8b5f39-53f2-4c1f-b750-ebdef584f33d.root
/store/mc/Run3Summer22EENanoAODv13/GluGlutoHHto2B2Tau_kl-5p00_kt-1p00_c2-0p00_TuneCP5_13p6TeV_powheg-pythia8/NANOAODSIM/133X_mcRun3_2022_realistic_postEE_ForNanov13_v1-v3/130000/871b6494-8294-4b8c-ab73-7181b4d17dac.root
/store/mc/Run3Summer22EENanoAODv13/GluGlutoHHto2B2Tau_kl-5p00_kt-1p00_c2-0p00_TuneCP5_13p6TeV_powheg-pythia8/NANOAODSIM/133X_mcRun3_2022_realistic_postEE_ForNanov13_v1-v3/130000/2e1ddb60-44f2-4364-94ec-08e7d8cae256.root
/store/mc/Run3Summer22EENanoAODv13/GluGlutoHHto2B2Tau_kl-5p00_kt-1p00_c2-0p00_TuneCP5_13p6TeV_powheg-pythia8/NANOAODSIM/133X_mcRun3_2022_realistic_postEE_ForNanov13_v1-v3/130000/5619da68-907d-4dd1-8d8c-ac5b0520958d.root
/store/mc/Run3Summer22EENanoAODv13/GluGlutoHHto2B2Tau_kl-5p00_kt-1p00_c2-0p00_TuneCP5_13p6TeV_powheg-pythia8/NANOAODSIM/133X_mcRun3_2022_realistic_postEE_ForNanov13_v1-v3/130000/a2b4e34e-8359-4b58-ae36-61bab275c18e.root
/store/mc/Run3Summer22EENanoAODv13/GluGlutoHHto2B2Tau_kl-5p00_kt-1p00_c2-0p00_TuneCP5_13p6TeV_powheg-pythia8/NANOAODSIM/133X_mcRun3_2022_realistic_postEE_ForNanov13_v1-v3/130000/e1f80c05-5110-4e33-99e2-646757671a6c.root
/store/mc/Run3Summer22EENanoAODv13/GluGlutoHHto2B2Tau_kl-5p00_kt-1p00_c2-0p00_TuneCP5_13p6TeV_powheg-pythia8/NANOAODSIM/133X_mcRun3_2022_realistic_postEE_ForNanov13_v1-v3/130000/43b30635-39e9-4439-b388-39dc546de53e.root
/store/mc/Run3Summer22EENanoAODv13/GluGlutoHHto2B2Tau_kl-5p00_kt-1p00_c2-0p00_TuneCP5_13p6TeV_powheg-pythia8/NANOAODSIM/133X_mcRun3_2022_realistic_postEE_ForNanov13_v1-v3/130000/fefd7ded-668e-43f2-a1cd-35d31f6fb2f1.root
/store/mc/Run3Summer22EENanoAODv13/GluGlutoHHto2B2Tau_kl-5p00_kt-1p00_c2-0p00_TuneCP5_13p6TeV_powheg-pythia8/NANOAODSIM/133X_mcRun3_2022_realistic_postEE_ForNanov13_v1-v3/130000/e88ee691-236d-4f9d-9a5d-a539d00eecf4.root
/store/mc/Run3Summer22EENanoAODv13/GluGlutoHHto2B2Tau_kl-5p00_kt-1p00_c2-0p00_TuneCP5_13p6TeV_powheg-pythia8/NANOAODSIM/133X_mcRun3_2022_realistic_postEE_ForNanov13_v1-v3/130000/ebae90b6-3c9e-45c1-b72e-80511b8e8f25.root
/store/mc/Run3Summer22EENanoAODv13/GluGlutoHHto2B2Tau_kl-5p00_kt-1p00_c2-0p00_TuneCP5_13p6TeV_powheg-pythia8/NANOAODSIM/133X_mcRun3_2022_realistic_postEE_ForNanov13_v1-v3/130000/16df5f47-2d29-451b-be41-c007db10f479.root
/store/mc/Run3Summer22EENanoAODv13/GluGlutoHHto2B2Tau_kl-5p00_kt-1p00_c2-0p00_TuneCP5_13p6TeV_powheg-pythia8/NANOAODSIM/133X_mcRun3_2022_realistic_postEE_ForNanov13_v1-v3/130000/59eaaaa1-3d8c-4c79-9a86-35b4929f40a1.root
/store/mc/Run3Summer22EENanoAODv13/GluGlutoHHto2B2Tau_kl-5p00_kt-1p00_c2-0p00_TuneCP5_13p6TeV_powheg-pythia8/NANOAODSIM/133X_mcRun3_2022_realistic_postEE_ForNanov13_v1-v3/130000/9b871f44-a1d7-4601-a78d-2e9444151898.root
/store/mc/Run3Summer22EENanoAODv13/GluGlutoHHto2B2Tau_kl-5p00_kt-1p00_c2-0p00_TuneCP5_13p6TeV_powheg-pythia8/NANOAODSIM/133X_mcRun3_2022_realistic_postEE_ForNanov13_v1-v3/130000/805f7f21-7f73-48fa-91ee-af3b73573c99.root
/store/mc/Run3Summer22EENanoAODv13/GluGlutoHHto2B2Tau_kl-5p00_kt-1p00_c2-0p00_TuneCP5_13p6TeV_powheg-pythia8/NANOAODSIM/133X_mcRun3_2022_realistic_postEE_ForNanov13_v1-v3/130000/e9d016f0-2a45-4b5b-816d-49b546bed51e.root
/store/mc/Run3Summer22EENanoAODv13/GluGlutoHHto2B2Tau_kl-5p00_kt-1p00_c2-0p00_TuneCP5_13p6TeV_powheg-pythia8/NANOAODSIM/133X_mcRun3_2022_realistic_postEE_ForNanov13_v1-v3/120000/79958604-4e09-414f-a201-c95843d6a9e0.root
/store/mc/Run3Summer22EENanoAODv13/GluGlutoHHto2B2Tau_kl-5p00_kt-1p00_c2-0p00_TuneCP5_13p6TeV_powheg-pythia8/NANOAODSIM/133X_mcRun3_2022_realistic_postEE_ForNanov13_v1-v3/120000/1c1fda82-c3b5-4a7a-a003-1b7b1de501d9.root
/store/mc/Run3Summer22EENanoAODv13/GluGlutoHHto2B2Tau_kl-5p00_kt-1p00_c2-0p00_TuneCP5_13p6TeV_powheg-pythia8/NANOAODSIM/133X_mcRun3_2022_realistic_postEE_ForNanov13_v1-v3/130000/f91f15bd-a6ec-4411-8d6a-d64d542a641f.root
/store/mc/Run3Summer22EENanoAODv13/GluGlutoHHto2B2Tau_kl-5p00_kt-1p00_c2-0p00_TuneCP5_13p6TeV_powheg-pythia8/NANOAODSIM/133X_mcRun3_2022_realistic_postEE_ForNanov13_v1-v3/130000/18eda1a1-153a-4ddb-bba6-669f4b04c89e.root
/store/mc/Run3Summer22EENanoAODv13/GluGlutoHHto2B2Tau_kl-5p00_kt-1p00_c2-0p00_TuneCP5_13p6TeV_powheg-pythia8/NANOAODSIM/133X_mcRun3_2022_realistic_postEE_ForNanov13_v1-v3/130000/2f815d54-5039-4752-9683-5e8f5e4a9881.root
/store/mc/Run3Summer22EENanoAODv13/GluGlutoHHto2B2Tau_kl-5p00_kt-1p00_c2-0p00_TuneCP5_13p6TeV_powheg-pythia8/NANOAODSIM/133X_mcRun3_2022_realistic_postEE_ForNanov13_v1-v3/130000/a0a1846f-cc8d-4ce5-9df6-f3588849807e.root
/store/mc/Run3Summer22EENanoAODv13/GluGlutoHHto2B2Tau_kl-5p00_kt-1p00_c2-0p00_TuneCP5_13p6TeV_powheg-pythia8/NANOAODSIM/133X_mcRun3_2022_realistic_postEE_ForNanov13_v1-v3/130000/ecb2f5d2-de0b-4f80-9696-c61173572249.root
/store/mc/Run3Summer22EENanoAODv13/GluGlutoHHto2B2Tau_kl-5p00_kt-1p00_c2-0p00_TuneCP5_13p6TeV_powheg-pythia8/NANOAODSIM/133X_mcRun3_2022_realistic_postEE_ForNanov13_v1-v3/130000/f4d0e8c4-35ad-44a5-96d5-ff98eff72908.root
/store/mc/Run3Summer22EENanoAODv13/GluGlutoHHto2B2Tau_kl-5p00_kt-1p00_c2-0p00_TuneCP5_13p6TeV_powheg-pythia8/NANOAODSIM/133X_mcRun3_2022_realistic_postEE_ForNanov13_v1-v3/120000/f1172785-6bc7-482d-8f99-a3919e11f282.root
/store/mc/Run3Summer22EENanoAODv13/GluGlutoHHto2B2Tau_kl-5p00_kt-1p00_c2-0p00_TuneCP5_13p6TeV_powheg-pythia8/NANOAODSIM/133X_mcRun3_2022_realistic_postEE_ForNanov13_v1-v3/120000/f41316f2-96eb-48a1-a28a-7fbfba23d8b9.root
/store/mc/Run3Summer22EENanoAODv13/GluGlutoHHto2B2Tau_kl-5p00_kt-1p00_c2-0p00_TuneCP5_13p6TeV_powheg-pythia8/NANOAODSIM/133X_mcRun3_2022_realistic_postEE_ForNanov13_v1-v3/120000/7899b9f8-5958-47fd-9155-7f2209df3f90.root
/store/mc/Run3Summer22EENanoAODv13/GluGlutoHHto2B2Tau_kl-5p00_kt-1p00_c2-0p00_TuneCP5_13p6TeV_powheg-pythia8/NANOAODSIM/133X_mcRun3_2022_realistic_postEE_ForNanov13_v1-v3/120000/6725f248-2299-4fd7-8283-6cc50c820eab.root
/store/mc/Run3Summer22EENanoAODv13/GluGlutoHHto2B2Tau_kl-5p00_kt-1p00_c2-0p00_TuneCP5_13p6TeV_powheg-pythia8/NANOAODSIM/133X_mcRun3_2022_realistic_postEE_ForNanov13_v1-v3/2560000/2aecec68-22cb-48f1-b472-dd86e781496b.root
/store/mc/Run3Summer22EENanoAODv13/GluGlutoHHto2B2Tau_kl-5p00_kt-1p00_c2-0p00_TuneCP5_13p6TeV_powheg-pythia8/NANOAODSIM/133X_mcRun3_2022_realistic_postEE_ForNanov13_v1-v3/2560000/a3243aed-d3b2-4293-b514-bf865720b6de.root
/store/mc/Run3Summer22EENanoAODv13/GluGlutoHHto2B2Tau_kl-5p00_kt-1p00_c2-0p00_TuneCP5_13p6TeV_powheg-pythia8/NANOAODSIM/133X_mcRun3_2022_realistic_postEE_ForNanov13_v1-v3/120000/c21b469b-9acc-4d18-af4c-a1ae111f8374.root
/store/mc/Run3Summer22EENanoAODv13/GluGlutoHHto2B2Tau_kl-5p00_kt-1p00_c2-0p00_TuneCP5_13p6TeV_powheg-pythia8/NANOAODSIM/133X_mcRun3_2022_realistic_postEE_ForNanov13_v1-v3/120000/42ba5e42-3d19-4ca6-8338-f1a6cfd3a240.root
/store/mc/Run3Summer22EENanoAODv13/GluGlutoHHto2B2Tau_kl-5p00_kt-1p00_c2-0p00_TuneCP5_13p6TeV_powheg-pythia8/NANOAODSIM/133X_mcRun3_2022_realistic_postEE_ForNanov13_v1-v3/120000/5a72f212-c3f2-4fbe-b552-38cae504b37e.root
/store/mc/Run3Summer22EENanoAODv13/GluGlutoHHto2B2Tau_kl-5p00_kt-1p00_c2-0p00_TuneCP5_13p6TeV_powheg-pythia8/NANOAODSIM/133X_mcRun3_2022_realistic_postEE_ForNanov13_v1-v3/2560000/0aba2b12-4bce-4ba1-ab68-c3468b76e9d4.root
/store/mc/Run3Summer22EENanoAODv13/GluGlutoHHto2B2Tau_kl-5p00_kt-1p00_c2-0p00_TuneCP5_13p6TeV_powheg-pythia8/NANOAODSIM/133X_mcRun3_2022_realistic_postEE_ForNanov13_v1-v3/2560000/11e7556c-0fb7-48ae-a880-d455c18fd575.root
/store/mc/Run3Summer22EENanoAODv13/GluGlutoHHto2B2Tau_kl-5p00_kt-1p00_c2-0p00_TuneCP5_13p6TeV_powheg-pythia8/NANOAODSIM/133X_mcRun3_2022_realistic_postEE_ForNanov13_v1-v3/120000/1ab6c5ee-a5b4-468e-b604-4bb841c64dd2.root
/store/mc/Run3Summer22EENanoAODv13/GluGlutoHHto2B2Tau_kl-5p00_kt-1p00_c2-0p00_TuneCP5_13p6TeV_powheg-pythia8/NANOAODSIM/133X_mcRun3_2022_realistic_postEE_ForNanov13_v1-v3/130000/e8f5c1fc-55bc-43e2-9857-ea808bec578f.root
/store/mc/Run3Summer22EENanoAODv13/GluGlutoHHto2B2Tau_kl-5p00_kt-1p00_c2-0p00_TuneCP5_13p6TeV_powheg-pythia8/NANOAODSIM/133X_mcRun3_2022_realistic_postEE_ForNanov13_v1-v3/130000/615ec83f-dfa8-4b55-be8d-53428c1ca8f0.root
/store/mc/Run3Summer22EENanoAODv13/GluGlutoHHto2B2Tau_kl-5p00_kt-1p00_c2-0p00_TuneCP5_13p6TeV_powheg-pythia8/NANOAODSIM/133X_mcRun3_2022_realistic_postEE_ForNanov13_v1-v3/130000/681fc4de-db7e-4ad3-868f-4bd8c7db900f.root
/store/mc/Run3Summer22EENanoAODv13/GluGlutoHHto2B2Tau_kl-5p00_kt-1p00_c2-0p00_TuneCP5_13p6TeV_powheg-pythia8/NANOAODSIM/133X_mcRun3_2022_realistic_postEE_ForNanov13_v1-v3/2560000/db483704-5545-444c-ab82-2979d46bcb11.root
/store/mc/Run3Summer22EENanoAODv13/GluGlutoHHto2B2Tau_kl-5p00_kt-1p00_c2-0p00_TuneCP5_13p6TeV_powheg-pythia8/NANOAODSIM/133X_mcRun3_2022_realistic_postEE_ForNanov13_v1-v3/2560000/c456b644-849d-4b8d-bdd1-2a517059b3a4.root
/store/mc/Run3Summer22EENanoAODv13/GluGlutoHHto2B2Tau_kl-5p00_kt-1p00_c2-0p00_TuneCP5_13p6TeV_powheg-pythia8/NANOAODSIM/133X_mcRun3_2022_realistic_postEE_ForNanov13_v1-v3/2560000/ba2a048c-ac4a-4d10-a7e5-1fe24b6c0d0e.root
/store/mc/Run3Summer22EENanoAODv13/GluGlutoHHto2B2Tau_kl-5p00_kt-1p00_c2-0p00_TuneCP5_13p6TeV_powheg-pythia8/NANOAODSIM/133X_mcRun3_2022_realistic_postEE_ForNanov13_v1-v3/120000/6225b005-63bf-4e4b-a463-4ec22f76c5cc.root
/store/mc/Run3Summer22EENanoAODv13/GluGlutoHHto2B2Tau_kl-5p00_kt-1p00_c2-0p00_TuneCP5_13p6TeV_powheg-pythia8/NANOAODSIM/133X_mcRun3_2022_realistic_postEE_ForNanov13_v1-v3/120000/0a538b77-bc04-4fb1-bac7-f15fa00e64ca.root
/store/mc/Run3Summer22EENanoAODv13/GluGlutoHHto2B2Tau_kl-5p00_kt-1p00_c2-0p00_TuneCP5_13p6TeV_powheg-pythia8/NANOAODSIM/133X_mcRun3_2022_realistic_postEE_ForNanov13_v1-v3/120000/03805c55-ed08-4524-9764-7c69e40df187.root
/store/mc/Run3Summer22EENanoAODv13/GluGlutoHHto2B2Tau_kl-5p00_kt-1p00_c2-0p00_TuneCP5_13p6TeV_powheg-pythia8/NANOAODSIM/133X_mcRun3_2022_realistic_postEE_ForNanov13_v1-v3/2560000/62cb106a-9d7e-4e1f-ac4b-7d01b2dbc7ba.root
/store/mc/Run3Summer22EENanoAODv13/GluGlutoHHto2B2Tau_kl-5p00_kt-1p00_c2-0p00_TuneCP5_13p6TeV_powheg-pythia8/NANOAODSIM/133X_mcRun3_2022_realistic_postEE_ForNanov13_v1-v3/2560000/6a8ac811-4b4f-4a84-8cd5-fb399ad35d1e.root
/store/mc/Run3Summer22EENanoAODv13/GluGlutoHHto2B2Tau_kl-5p00_kt-1p00_c2-0p00_TuneCP5_13p6TeV_powheg-pythia8/NANOAODSIM/133X_mcRun3_2022_realistic_postEE_ForNanov13_v1-v3/2560000/93724e6a-5d45-44e7-8301-dbb9e84569a7.root
/store/mc/Run3Summer22EENanoAODv13/GluGlutoHHto2B2Tau_kl-5p00_kt-1p00_c2-0p00_TuneCP5_13p6TeV_powheg-pythia8/NANOAODSIM/133X_mcRun3_2022_realistic_postEE_ForNanov13_v1-v3/2560000/b9e01bd7-0fe2-4a4b-8d54-b708d6aaf9e2.root
/store/mc/Run3Summer22EENanoAODv13/GluGlutoHHto2B2Tau_kl-5p00_kt-1p00_c2-0p00_TuneCP5_13p6TeV_powheg-pythia8/NANOAODSIM/133X_mcRun3_2022_realistic_postEE_ForNanov13_v1-v3/130000/b1b98ede-2547-482c-809a-0fc485056f0f.root
/store/mc/Run3Summer22EENanoAODv13/GluGlutoHHto2B2Tau_kl-5p00_kt-1p00_c2-0p00_TuneCP5_13p6TeV_powheg-pythia8/NANOAODSIM/133X_mcRun3_2022_realistic_postEE_ForNanov13_v1-v3/2560000/08cc7532-b6c0-481a-b42e-ae0fca6b898d.root
/store/mc/Run3Summer22EENanoAODv13/GluGlutoHHto2B2Tau_kl-5p00_kt-1p00_c2-0p00_TuneCP5_13p6TeV_powheg-pythia8/NANOAODSIM/133X_mcRun3_2022_realistic_postEE_ForNanov13_v1-v3/2560000/3a6728f0-79ac-49af-8af0-9a96f4fc03ac.root
/store/mc/Run3Summer22EENanoAODv13/GluGlutoHHto2B2Tau_kl-5p00_kt-1p00_c2-0p00_TuneCP5_13p6TeV_powheg-pythia8/NANOAODSIM/133X_mcRun3_2022_realistic_postEE_ForNanov13_v1-v3/120000/c50a4ae6-2cee-40f5-8204-62c5b510c517.root
/store/mc/Run3Summer22EENanoAODv13/GluGlutoHHto2B2Tau_kl-5p00_kt-1p00_c2-0p00_TuneCP5_13p6TeV_powheg-pythia8/NANOAODSIM/133X_mcRun3_2022_realistic_postEE_ForNanov13_v1-v3/120000/1922dca1-63c3-47c2-afb7-d6a1dc06fa19.root
/store/mc/Run3Summer22EENanoAODv13/GluGlutoHHto2B2Tau_kl-5p00_kt-1p00_c2-0p00_TuneCP5_13p6TeV_powheg-pythia8/NANOAODSIM/133X_mcRun3_2022_realistic_postEE_ForNanov13_v1-v3/130000/65293ad8-c8c7-42d0-803d-6ff7e2f95fac.root
/store/mc/Run3Summer22EENanoAODv13/GluGlutoHHto2B2Tau_kl-5p00_kt-1p00_c2-0p00_TuneCP5_13p6TeV_powheg-pythia8/NANOAODSIM/133X_mcRun3_2022_realistic_postEE_ForNanov13_v1-v3/130000/b65f06a8-d2a1-40f7-a297-5b449c631973.root
/store/mc/Run3Summer22EENanoAODv13/GluGlutoHHto2B2Tau_kl-5p00_kt-1p00_c2-0p00_TuneCP5_13p6TeV_powheg-pythia8/NANOAODSIM/133X_mcRun3_2022_realistic_postEE_ForNanov13_v1-v3/130000/41348d42-2276-4229-8cdd-a25f48d0ef1b.root
/store/mc/Run3Summer22EENanoAODv13/GluGlutoHHto2B2Tau_kl-5p00_kt-1p00_c2-0p00_TuneCP5_13p6TeV_powheg-pythia8/NANOAODSIM/133X_mcRun3_2022_realistic_postEE_ForNanov13_v1-v3/130000/0d2da033-7e98-45ce-b7d0-0a780f8bf0cf.root
/store/mc/Run3Summer22EENanoAODv13/GluGlutoHHto2B2Tau_kl-5p00_kt-1p00_c2-0p00_TuneCP5_13p6TeV_powheg-pythia8/NANOAODSIM/133X_mcRun3_2022_realistic_postEE_ForNanov13_v1-v3/130000/26f6e7cd-7146-4c63-9b1b-2767f440c267.root
/store/mc/Run3Summer22EENanoAODv13/GluGlutoHHto2B2Tau_kl-5p00_kt-1p00_c2-0p00_TuneCP5_13p6TeV_powheg-pythia8/NANOAODSIM/133X_mcRun3_2022_realistic_postEE_ForNanov13_v1-v3/130000/a8d63d0c-b231-41e5-8cd0-e6688737b145.root
/store/mc/Run3Summer22EENanoAODv13/GluGlutoHHto2B2Tau_kl-5p00_kt-1p00_c2-0p00_TuneCP5_13p6TeV_powheg-pythia8/NANOAODSIM/133X_mcRun3_2022_realistic_postEE_ForNanov13_v1-v3/130000/7921df8e-de2e-4ea9-b31c-b4e63968e4c6.root
/store/mc/Run3Summer22EENanoAODv13/GluGlutoHHto2B2Tau_kl-5p00_kt-1p00_c2-0p00_TuneCP5_13p6TeV_powheg-pythia8/NANOAODSIM/133X_mcRun3_2022_realistic_postEE_ForNanov13_v1-v3/2560000/18b95862-b31f-4ca3-bb02-b0adae50ef44.root
/store/mc/Run3Summer22EENanoAODv13/GluGlutoHHto2B2Tau_kl-5p00_kt-1p00_c2-0p00_TuneCP5_13p6TeV_powheg-pythia8/NANOAODSIM/133X_mcRun3_2022_realistic_postEE_ForNanov13_v1-v3/2560000/a61871de-abbc-4d45-9a5e-ffd36eff8d90.root
/store/mc/Run3Summer22EENanoAODv13/GluGlutoHHto2B2Tau_kl-5p00_kt-1p00_c2-0p00_TuneCP5_13p6TeV_powheg-pythia8/NANOAODSIM/133X_mcRun3_2022_realistic_postEE_ForNanov13_v1-v3/2560000/43114c69-9669-4b4b-9f29-f175d9c4922a.root
/store/mc/Run3Summer22EENanoAODv13/GluGlutoHHto2B2Tau_kl-5p00_kt-1p00_c2-0p00_TuneCP5_13p6TeV_powheg-pythia8/NANOAODSIM/133X_mcRun3_2022_realistic_postEE_ForNanov13_v1-v3/2560000/aa38a974-0fa2-4a60-b49e-232e154fef5e.root
/store/mc/Run3Summer22EENanoAODv13/GluGlutoHHto2B2Tau_kl-5p00_kt-1p00_c2-0p00_TuneCP5_13p6TeV_powheg-pythia8/NANOAODSIM/133X_mcRun3_2022_realistic_postEE_ForNanov13_v1-v3/2560000/53e36546-2327-4ab9-bf14-3acb1a945935.root
/store/mc/Run3Summer22EENanoAODv13/GluGlutoHHto2B2Tau_kl-5p00_kt-1p00_c2-0p00_TuneCP5_13p6TeV_powheg-pythia8/NANOAODSIM/133X_mcRun3_2022_realistic_postEE_ForNanov13_v1-v3/2560000/f4d2de4c-e59e-43fb-a9b5-ae6bdc0d7897.root
/store/mc/Run3Summer22EENanoAODv13/GluGlutoHHto2B2Tau_kl-5p00_kt-1p00_c2-0p00_TuneCP5_13p6TeV_powheg-pythia8/NANOAODSIM/133X_mcRun3_2022_realistic_postEE_ForNanov13_v1-v3/2560000/a2c42c71-a286-48d9-8cb4-ad56568aa481.root
/store/mc/Run3Summer22EENanoAODv13/GluGlutoHHto2B2Tau_kl-5p00_kt-1p00_c2-0p00_TuneCP5_13p6TeV_powheg-pythia8/NANOAODSIM/133X_mcRun3_2022_realistic_postEE_ForNanov13_v1-v3/2560000/e2727354-8466-4026-955d-0a747894b49d.root
/store/mc/Run3Summer22EENanoAODv13/GluGlutoHHto2B2Tau_kl-5p00_kt-1p00_c2-0p00_TuneCP5_13p6TeV_powheg-pythia8/NANOAODSIM/133X_mcRun3_2022_realistic_postEE_ForNanov13_v1-v3/2560000/cc3dece3-48b0-4c16-8e3d-408327e71ed2.root
/store/mc/Run3Summer22EENanoAODv13/GluGlutoHHto2B2Tau_kl-5p00_kt-1p00_c2-0p00_TuneCP5_13p6TeV_powheg-pythia8/NANOAODSIM/133X_mcRun3_2022_realistic_postEE_ForNanov13_v1-v3/2560000/c2248d8e-ffff-461c-83db-dac466176ebe.root
/store/mc/Run3Summer22EENanoAODv13/GluGlutoHHto2B2Tau_kl-5p00_kt-1p00_c2-0p00_TuneCP5_13p6TeV_powheg-pythia8/NANOAODSIM/133X_mcRun3_2022_realistic_postEE_ForNanov13_v1-v3/2560000/ff547018-3d6f-48cc-b25f-ec206397235f.root
/store/mc/Run3Summer22EENanoAODv13/GluGlutoHHto2B2Tau_kl-5p00_kt-1p00_c2-0p00_TuneCP5_13p6TeV_powheg-pythia8/NANOAODSIM/133X_mcRun3_2022_realistic_postEE_ForNanov13_v1-v3/2560000/ff352bb1-b319-4131-8d07-3c752f22dc95.root
/store/mc/Run3Summer22EENanoAODv13/GluGlutoHHto2B2Tau_kl-5p00_kt-1p00_c2-0p00_TuneCP5_13p6TeV_powheg-pythia8/NANOAODSIM/133X_mcRun3_2022_realistic_postEE_ForNanov13_v1-v3/2560000/11be2b39-6a3c-44ae-b534-ae665fa47870.root
/store/mc/Run3Summer22EENanoAODv13/GluGlutoHHto2B2Tau_kl-5p00_kt-1p00_c2-0p00_TuneCP5_13p6TeV_powheg-pythia8/NANOAODSIM/133X_mcRun3_2022_realistic_postEE_ForNanov13_v1-v3/2560000/fba3d9fe-4915-4ac5-8aff-f61b756d69d7.root
/store/mc/Run3Summer22EENanoAODv13/GluGlutoHHto2B2Tau_kl-5p00_kt-1p00_c2-0p00_TuneCP5_13p6TeV_powheg-pythia8/NANOAODSIM/133X_mcRun3_2022_realistic_postEE_ForNanov13_v1-v3/2560000/2b053a66-663c-4e47-9f56-c25ac886ff11.root
/store/mc/Run3Summer22EENanoAODv13/GluGlutoHHto2B2Tau_kl-5p00_kt-1p00_c2-0p00_TuneCP5_13p6TeV_powheg-pythia8/NANOAODSIM/133X_mcRun3_2022_realistic_postEE_ForNanov13_v1-v3/2560000/f99e5dac-2851-45df-9838-698a4191f1ad.root
/store/mc/Run3Summer22EENanoAODv13/GluGlutoHHto2B2Tau_kl-5p00_kt-1p00_c2-0p00_TuneCP5_13p6TeV_powheg-pythia8/NANOAODSIM/133X_mcRun3_2022_realistic_postEE_ForNanov13_v1-v3/2560000/3404552e-44c3-49fd-8283-382b42d9fd31.root
/store/mc/Run3Summer22EENanoAODv13/GluGlutoHHto2B2Tau_kl-5p00_kt-1p00_c2-0p00_TuneCP5_13p6TeV_powheg-pythia8/NANOAODSIM/133X_mcRun3_2022_realistic_postEE_ForNanov13_v1-v3/2560000/13a3d972-b1b5-43ae-acb9-5958fe902a28.root
/store/mc/Run3Summer22EENanoAODv13/GluGlutoHHto2B2Tau_kl-5p00_kt-1p00_c2-0p00_TuneCP5_13p6TeV_powheg-pythia8/NANOAODSIM/133X_mcRun3_2022_realistic_postEE_ForNanov13_v1-v3/2560000/d3bbcc79-3964-487d-9bf4-50617d1cc32e.root
/store/mc/Run3Summer22EENanoAODv13/GluGlutoHHto2B2Tau_kl-5p00_kt-1p00_c2-0p00_TuneCP5_13p6TeV_powheg-pythia8/NANOAODSIM/133X_mcRun3_2022_realistic_postEE_ForNanov13_v1-v3/2560000/b9538efb-bcf5-41a1-bd87-abb196447cf3.root
/store/mc/Run3Summer22EENanoAODv13/GluGlutoHHto2B2Tau_kl-5p00_kt-1p00_c2-0p00_TuneCP5_13p6TeV_powheg-pythia8/NANOAODSIM/133X_mcRun3_2022_realistic_postEE_ForNanov13_v1-v3/2560000/748b3112-7357-4ce5-9c3d-b2d8fb10dee2.root
/store/mc/Run3Summer22EENanoAODv13/GluGlutoHHto2B2Tau_kl-5p00_kt-1p00_c2-0p00_TuneCP5_13p6TeV_powheg-pythia8/NANOAODSIM/133X_mcRun3_2022_realistic_postEE_ForNanov13_v1-v3/2560000/6dbeead2-1435-4c90-8e84-d78724a397ec.root
/store/mc/Run3Summer22EENanoAODv13/GluGlutoHHto2B2Tau_kl-5p00_kt-1p00_c2-0p00_TuneCP5_13p6TeV_powheg-pythia8/NANOAODSIM/133X_mcRun3_2022_realistic_postEE_ForNanov13_v1-v3/2560000/5cdb426d-dce5-4294-81e4-d87afaf8b658.root
/store/mc/Run3Summer22EENanoAODv13/GluGlutoHHto2B2Tau_kl-5p00_kt-1p00_c2-0p00_TuneCP5_13p6TeV_powheg-pythia8/NANOAODSIM/133X_mcRun3_2022_realistic_postEE_ForNanov13_v1-v3/2560000/ed772b0c-3aab-44ff-aea7-9312f602a90c.root
/store/mc/Run3Summer22EENanoAODv13/GluGlutoHHto2B2Tau_kl-5p00_kt-1p00_c2-0p00_TuneCP5_13p6TeV_powheg-pythia8/NANOAODSIM/133X_mcRun3_2022_realistic_postEE_ForNanov13_v1-v3/2560000/0a11c833-e352-49c6-b92b-7e98a40f5016.root
/store/mc/Run3Summer22EENanoAODv13/GluGlutoHHto2B2Tau_kl-5p00_kt-1p00_c2-0p00_TuneCP5_13p6TeV_powheg-pythia8/NANOAODSIM/133X_mcRun3_2022_realistic_postEE_ForNanov13_v1-v3/2560000/ca5daf8c-35b8-4846-8c01-f57e5a4bfebb.root
/store/mc/Run3Summer22EENanoAODv13/GluGlutoHHto2B2Tau_kl-5p00_kt-1p00_c2-0p00_TuneCP5_13p6TeV_powheg-pythia8/NANOAODSIM/133X_mcRun3_2022_realistic_postEE_ForNanov13_v1-v3/2560000/a817c126-543e-41b8-b701-7026daf220b7.root
/store/mc/Run3Summer22EENanoAODv13/GluGlutoHHto2B2Tau_kl-5p00_kt-1p00_c2-0p00_TuneCP5_13p6TeV_powheg-pythia8/NANOAODSIM/133X_mcRun3_2022_realistic_postEE_ForNanov13_v1-v3/2560000/5fbdbfa8-0e02-4a8f-9b13-f93191ee40bd.root
/store/mc/Run3Summer22EENanoAODv13/GluGlutoHHto2B2Tau_kl-5p00_kt-1p00_c2-0p00_TuneCP5_13p6TeV_powheg-pythia8/NANOAODSIM/133X_mcRun3_2022_realistic_postEE_ForNanov13_v1-v3/2810000/b77a509b-7913-481a-8da1-43e61103f5dc.root
/store/mc/Run3Summer22EENanoAODv13/GluGlutoHHto2B2Tau_kl-5p00_kt-1p00_c2-0p00_TuneCP5_13p6TeV_powheg-pythia8/NANOAODSIM/133X_mcRun3_2022_realistic_postEE_ForNanov13_v1-v3/2810000/934dd5fd-915a-42e5-afca-27f6a5738d81.root
/store/mc/Run3Summer22EENanoAODv13/GluGlutoHHto2B2Tau_kl-5p00_kt-1p00_c2-0p00_TuneCP5_13p6TeV_powheg-pythia8/NANOAODSIM/133X_mcRun3_2022_realistic_postEE_ForNanov13_v1-v3/2810000/c4e6f1b3-92c8-4931-a775-a5dc96b40f08.root
/store/mc/Run3Summer22EENanoAODv13/GluGlutoHHto2B2Tau_kl-5p00_kt-1p00_c2-0p00_TuneCP5_13p6TeV_powheg-pythia8/NANOAODSIM/133X_mcRun3_2022_realistic_postEE_ForNanov13_v1-v3/2810000/3d3dbe20-8144-4ad3-817e-70f5d5d26d38.root
/store/mc/Run3Summer22EENanoAODv13/GluGlutoHHto2B2Tau_kl-5p00_kt-1p00_c2-0p00_TuneCP5_13p6TeV_powheg-pythia8/NANOAODSIM/133X_mcRun3_2022_realistic_postEE_ForNanov13_v1-v3/2810000/bc62b8b1-5152-4265-9dbe-a9fe64b36763.root
/store/mc/Run3Summer22EENanoAODv13/GluGlutoHHto2B2Tau_kl-5p00_kt-1p00_c2-0p00_TuneCP5_13p6TeV_powheg-pythia8/NANOAODSIM/133X_mcRun3_2022_realistic_postEE_ForNanov13_v1-v3/2810000/9cdab98e-a224-4345-ae57-59f86dc201ac.root
/store/mc/Run3Summer22EENanoAODv13/GluGlutoHHto2B2Tau_kl-5p00_kt-1p00_c2-0p00_TuneCP5_13p6TeV_powheg-pythia8/NANOAODSIM/133X_mcRun3_2022_realistic_postEE_ForNanov13_v1-v3/2810000/7878c269-057e-4d16-a242-6bdfe6bbd4e7.root
/store/mc/Run3Summer22EENanoAODv13/GluGlutoHHto2B2Tau_kl-5p00_kt-1p00_c2-0p00_TuneCP5_13p6TeV_powheg-pythia8/NANOAODSIM/133X_mcRun3_2022_realistic_postEE_ForNanov13_v1-v3/2810000/a2c736bd-9ba8-4a78-9c66-083273b5b7bc.root
/store/mc/Run3Summer22EENanoAODv13/GluGlutoHHto2B2Tau_kl-5p00_kt-1p00_c2-0p00_TuneCP5_13p6TeV_powheg-pythia8/NANOAODSIM/133X_mcRun3_2022_realistic_postEE_ForNanov13_v1-v3/2810000/8d282262-4492-4f7e-8441-934f3e72da12.root
/store/mc/Run3Summer22EENanoAODv13/GluGlutoHHto2B2Tau_kl-5p00_kt-1p00_c2-0p00_TuneCP5_13p6TeV_powheg-pythia8/NANOAODSIM/133X_mcRun3_2022_realistic_postEE_ForNanov13_v1-v3/120000/819eb31d-6206-48e4-9750-fb5a7eafe8ba.root
/store/mc/Run3Summer22EENanoAODv13/GluGlutoHHto2B2Tau_kl-5p00_kt-1p00_c2-0p00_TuneCP5_13p6TeV_powheg-pythia8/NANOAODSIM/133X_mcRun3_2022_realistic_postEE_ForNanov13_v1-v3/2810000/de45a255-e769-4d0a-a073-ff84a30ad09c.root
/store/mc/Run3Summer22EENanoAODv13/GluGlutoHHto2B2Tau_kl-5p00_kt-1p00_c2-0p00_TuneCP5_13p6TeV_powheg-pythia8/NANOAODSIM/133X_mcRun3_2022_realistic_postEE_ForNanov13_v1-v3/2810000/df3bfd0c-2724-486c-b358-620f6a7292b5.root
/store/mc/Run3Summer22EENanoAODv13/GluGlutoHHto2B2Tau_kl-5p00_kt-1p00_c2-0p00_TuneCP5_13p6TeV_powheg-pythia8/NANOAODSIM/133X_mcRun3_2022_realistic_postEE_ForNanov13_v1-v3/2560000/f079a717-3b97-4179-adb3-681bfb4783ef.root
/store/mc/Run3Summer22EENanoAODv13/GluGlutoHHto2B2Tau_kl-5p00_kt-1p00_c2-0p00_TuneCP5_13p6TeV_powheg-pythia8/NANOAODSIM/133X_mcRun3_2022_realistic_postEE_ForNanov13_v1-v3/2810000/9868cf3d-e5db-4b3e-bee9-7f0c7db740f3.root
/store/mc/Run3Summer22EENanoAODv13/GluGlutoHHto2B2Tau_kl-5p00_kt-1p00_c2-0p00_TuneCP5_13p6TeV_powheg-pythia8/NANOAODSIM/133X_mcRun3_2022_realistic_postEE_ForNanov13_v1-v3/2810000/83d2a41c-a023-4d88-92df-91bc2c359aa9.root
/store/mc/Run3Summer22EENanoAODv13/GluGlutoHHto2B2Tau_kl-5p00_kt-1p00_c2-0p00_TuneCP5_13p6TeV_powheg-pythia8/NANOAODSIM/133X_mcRun3_2022_realistic_postEE_ForNanov13_v1-v3/2810000/2ab0b8c1-a21e-4672-9e7b-7a81ffd4bcbf.root
/store/mc/Run3Summer22EENanoAODv13/GluGlutoHHto2B2Tau_kl-5p00_kt-1p00_c2-0p00_TuneCP5_13p6TeV_powheg-pythia8/NANOAODSIM/133X_mcRun3_2022_realistic_postEE_ForNanov13_v1-v3/2810000/46c0e46a-8191-4bdf-804d-5778fa0fa01a.root
/store/mc/Run3Summer22EENanoAODv13/GluGlutoHHto2B2Tau_kl-5p00_kt-1p00_c2-0p00_TuneCP5_13p6TeV_powheg-pythia8/NANOAODSIM/133X_mcRun3_2022_realistic_postEE_ForNanov13_v1-v3/2810000/7fc807d6-1dd9-447e-94ac-c610fb74e566.root
/store/mc/Run3Summer22EENanoAODv13/GluGlutoHHto2B2Tau_kl-5p00_kt-1p00_c2-0p00_TuneCP5_13p6TeV_powheg-pythia8/NANOAODSIM/133X_mcRun3_2022_realistic_postEE_ForNanov13_v1-v3/2810000/0cce9539-e19a-4329-a85b-a4b3c49bf67f.root
/store/mc/Run3Summer22EENanoAODv13/GluGlutoHHto2B2Tau_kl-5p00_kt-1p00_c2-0p00_TuneCP5_13p6TeV_powheg-pythia8/NANOAODSIM/133X_mcRun3_2022_realistic_postEE_ForNanov13_v1-v3/2810000/6fca33cb-4438-4bd9-bc86-d09dec6357b8.root
/store/mc/Run3Summer22EENanoAODv13/GluGlutoHHto2B2Tau_kl-5p00_kt-1p00_c2-0p00_TuneCP5_13p6TeV_powheg-pythia8/NANOAODSIM/133X_mcRun3_2022_realistic_postEE_ForNanov13_v1-v3/2810000/f0698f56-d063-4165-81dc-9b16647bda76.root
/store/mc/Run3Summer22EENanoAODv13/GluGlutoHHto2B2Tau_kl-5p00_kt-1p00_c2-0p00_TuneCP5_13p6TeV_powheg-pythia8/NANOAODSIM/133X_mcRun3_2022_realistic_postEE_ForNanov13_v1-v3/2810000/4b8b961e-0091-4425-a5f9-d4b41bffd906.root
/store/mc/Run3Summer22EENanoAODv13/GluGlutoHHto2B2Tau_kl-5p00_kt-1p00_c2-0p00_TuneCP5_13p6TeV_powheg-pythia8/NANOAODSIM/133X_mcRun3_2022_realistic_postEE_ForNanov13_v1-v3/2810000/3f9a5d8b-6aa2-470b-9fc9-80bc618c3542.root
/store/mc/Run3Summer22EENanoAODv13/GluGlutoHHto2B2Tau_kl-5p00_kt-1p00_c2-0p00_TuneCP5_13p6TeV_powheg-pythia8/NANOAODSIM/133X_mcRun3_2022_realistic_postEE_ForNanov13_v1-v3/2810000/d5270fe4-3b86-4b27-9e31-b5f0f47ad5e8.root
/store/mc/Run3Summer22EENanoAODv13/GluGlutoHHto2B2Tau_kl-5p00_kt-1p00_c2-0p00_TuneCP5_13p6TeV_powheg-pythia8/NANOAODSIM/133X_mcRun3_2022_realistic_postEE_ForNanov13_v1-v3/2810000/e3864b66-c512-4955-8710-f3cf02f51b6c.root
/store/mc/Run3Summer22EENanoAODv13/GluGlutoHHto2B2Tau_kl-5p00_kt-1p00_c2-0p00_TuneCP5_13p6TeV_powheg-pythia8/NANOAODSIM/133X_mcRun3_2022_realistic_postEE_ForNanov13_v1-v3/2810000/c153df3b-4199-44bd-9600-dc12e79ecf6f.root
/store/mc/Run3Summer22EENanoAODv13/GluGlutoHHto2B2Tau_kl-5p00_kt-1p00_c2-0p00_TuneCP5_13p6TeV_powheg-pythia8/NANOAODSIM/133X_mcRun3_2022_realistic_postEE_ForNanov13_v1-v3/2810000/f4c01106-6343-4eee-9d4a-4276a1417433.root