/store/data/Run2022G/Muon/NANOAOD/22Sep2023-v1/30000/90390f8e-cb55-4507-8106-6e134d7fa259.root
/store/data/Run2022G/Muon/NANOAOD/22Sep2023-v1/30000/2e2d084a-e10a-4d26-a920-df3449c39bba.root
/store/data/Run2022G/Muon/NANOAOD/22Sep2023-v1/410000/e4cc8ccb-d6fb-4145-bc86-035d9d01f87f.root
/store/data/Run2022G/Muon/NANOAOD/22Sep2023-v1/30000/4aec5b1a-89dc-45be-95fb-33ebc4eba0ec.root
/store/data/Run2022G/Muon/NANOAOD/22Sep2023-v1/30000/ede81d67-0462-4f4d-91a1-865e3a4427a4.root
/store/data/Run2022G/Muon/NANOAOD/22Sep2023-v1/30000/3b5bb61b-b837-46a4-8b17-2e7be8e15b19.root
/store/data/Run2022G/Muon/NANOAOD/22Sep2023-v1/30000/fca0ed98-4d5f-46e7-b0ff-267b1f33f41f.root
/store/data/Run2022G/Muon/NANOAOD/22Sep2023-v1/30000/fc541fb8-743e-4b11-8621-fe6a48ea505e.root
/store/data/Run2022G/Muon/NANOAOD/22Sep2023-v1/30000/06a7f611-84f6-4180-8a75-fb351dfa578b.root
/store/data/Run2022G/Muon/NANOAOD/22Sep2023-v1/30000/7b3f4d7a-c7e4-4861-86df-efee9cea03cf.root
/store/data/Run2022G/Muon/NANOAOD/22Sep2023-v1/30000/e565e554-c7d0-4192-a045-19aefdf23b95.root
/store/data/Run2022G/Muon/NANOAOD/22Sep2023-v1/30000/b31b33bd-e8d0-45dd-878f-56262b481516.root
/store/data/Run2022G/Muon/NANOAOD/22Sep2023-v1/30000/13441c0a-d813-4425-b20a-b305c66ed1dc.root
/store/data/Run2022G/Muon/NANOAOD/22Sep2023-v1/30000/1db596ec-bbd7-48c8-8f1d-c8b0a6bcc9e9.root
/store/data/Run2022G/Muon/NANOAOD/22Sep2023-v1/30000/a2ae7d0d-bce3-427e-a053-114dd371e94f.root
/store/data/Run2022G/Muon/NANOAOD/22Sep2023-v1/30000/08aa1d11-7050-4940-9b69-d00f459d97b1.root
/store/data/Run2022G/Muon/NANOAOD/22Sep2023-v1/30000/ae965dd6-4677-4afc-9572-236cb29bdcf9.root
/store/data/Run2022G/Muon/NANOAOD/22Sep2023-v1/30000/6710ef2b-39d9-4ad5-b28b-22118b4d48ea.root
/store/data/Run2022G/Muon/NANOAOD/22Sep2023-v1/30000/383073f6-b06e-4f57-bef7-fc88bf54ea8f.root
/store/data/Run2022G/Muon/NANOAOD/22Sep2023-v1/30000/2ff8ae25-d83b-4433-886e-961edc4cffef.root
/store/data/Run2022G/Muon/NANOAOD/22Sep2023-v1/30000/45df6c4e-139f-4fde-b1e4-96a98c30cad8.root
/store/data/Run2022G/Muon/NANOAOD/22Sep2023-v1/30000/01bbf49f-9b90-40ad-b8e7-071ef0bfb3bb.root
/store/data/Run2022G/Muon/NANOAOD/22Sep2023-v1/30000/f841ee8c-b4a3-4399-9519-c78aabb929be.root
/store/data/Run2022G/Muon/NANOAOD/22Sep2023-v1/30000/87776785-1b4b-4b26-9e58-6a86d8640709.root
/store/data/Run2022G/Muon/NANOAOD/22Sep2023-v1/30000/3b9a95fb-9639-43d0-b98e-d4d1f976d8d6.root
/store/data/Run2022G/Muon/NANOAOD/22Sep2023-v1/30000/4dd466ee-c3ea-44e4-a680-6fb2d729acb1.root
/store/data/Run2022G/Muon/NANOAOD/22Sep2023-v1/30000/8b8b823f-8918-4729-ab82-dcccd43ba654.root
/store/data/Run2022G/Muon/NANOAOD/22Sep2023-v1/30000/e81537d4-611d-48a1-bd56-8a180ee282b5.root
/store/data/Run2022G/Muon/NANOAOD/22Sep2023-v1/30000/9c338649-1191-4663-a1c5-4e91f9bf6d83.root
/store/data/Run2022G/Muon/NANOAOD/22Sep2023-v1/30000/dc344ec4-47d9-4bec-8480-a93b346837ba.root
/store/data/Run2022G/Muon/NANOAOD/22Sep2023-v1/30000/c66f2f32-0ff0-4b00-a682-5f96907582d8.root
/store/data/Run2022G/Muon/NANOAOD/22Sep2023-v1/30000/e501358e-9abf-4e5e-a22b-eb41ed8af32e.root
/store/data/Run2022G/Muon/NANOAOD/22Sep2023-v1/30000/0f8c9977-9d75-4d5c-9b9e-998975089636.root
/store/data/Run2022G/Muon/NANOAOD/22Sep2023-v1/30000/5fd47341-183c-4e1b-ab59-f7e66bb24233.root
/store/data/Run2022G/Muon/NANOAOD/22Sep2023-v1/30000/a01aed05-0bc6-4add-8f59-48a865f67a20.root
/store/data/Run2022G/Muon/NANOAOD/22Sep2023-v1/30000/8e2a10e8-dba1-4961-8c36-337c68828cd9.root
/store/data/Run2022G/Muon/NANOAOD/22Sep2023-v1/30000/dcaf599f-7c85-4674-9ea2-1ce8a209dd1d.root
/store/data/Run2022G/Muon/NANOAOD/22Sep2023-v1/30000/f7dd8213-c0bb-42a6-a455-4cf0bd64f34b.root
/store/data/Run2022G/Muon/NANOAOD/22Sep2023-v1/30000/e8fc87af-b434-4019-ad2b-064e38f82393.root
/store/data/Run2022G/Muon/NANOAOD/22Sep2023-v1/30000/0994a4bc-21db-43d1-9c26-413adb6fb361.root
/store/data/Run2022G/Muon/NANOAOD/22Sep2023-v1/30000/aa0da6f5-fb84-4ce4-8463-fa906271b151.root
/store/data/Run2022G/Muon/NANOAOD/22Sep2023-v1/30000/2e206848-ab1a-40cb-990b-9b23b5888761.root
/store/data/Run2022G/Muon/NANOAOD/22Sep2023-v1/30000/c8c9f50e-0930-480b-927b-053764df0eae.root
/store/data/Run2022G/Muon/NANOAOD/22Sep2023-v1/30000/55e651d8-1ed3-465d-974b-1f5afe72ee59.root
/store/data/Run2022G/Muon/NANOAOD/22Sep2023-v1/30000/7c887099-39ea-4238-b2f6-32d393c229e9.root
/store/data/Run2022G/Muon/NANOAOD/22Sep2023-v1/30000/97a5e97e-d65d-4d03-a36e-b1d6ca253857.root
/store/data/Run2022G/Muon/NANOAOD/22Sep2023-v1/30000/0e190917-13c6-435c-a8c9-e1aa0fb183f6.root
/store/data/Run2022G/Muon/NANOAOD/22Sep2023-v1/30000/38908737-1e4a-49bf-8c8c-c37365009275.root
/store/data/Run2022G/Muon/NANOAOD/22Sep2023-v1/30000/7318e6b6-ab98-4485-9d1b-a4b499e7547b.root
/store/data/Run2022G/Muon/NANOAOD/22Sep2023-v1/30000/0e3e6aef-f5c8-4916-9785-227bc58feb03.root
/store/data/Run2022G/Muon/NANOAOD/22Sep2023-v1/30000/23725aef-56b3-46d6-a2fa-06b1b3f9ee0a.root
/store/data/Run2022G/Muon/NANOAOD/22Sep2023-v1/30000/ed07e2ee-5864-4cf8-a7d3-11ffbcc4d5fa.root
/store/data/Run2022G/Muon/NANOAOD/22Sep2023-v1/40000/2856ad1c-e520-4368-aac4-2fe38012b96f.root
/store/data/Run2022G/Muon/NANOAOD/22Sep2023-v1/40000/e1345568-3861-4238-aae2-1957524bf53b.root
/store/data/Run2022G/Muon/NANOAOD/22Sep2023-v1/40000/0916c89c-b5e7-4877-a428-659ce97e226f.root
/store/data/Run2022G/Muon/NANOAOD/22Sep2023-v1/30000/ad1b10a2-f562-44d7-91a2-1c27c2b14ee0.root
/store/data/Run2022G/Muon/NANOAOD/22Sep2023-v1/30000/c42b2f41-c1bb-442f-aac6-a5eeafcbab84.root
/store/data/Run2022G/Muon/NANOAOD/22Sep2023-v1/30000/c9622a23-7306-4821-85b9-c671b5f2eb12.root
/store/data/Run2022G/Muon/NANOAOD/22Sep2023-v1/30000/da658f76-629e-4b79-b322-9e17a7b8a72f.root
/store/data/Run2022G/Muon/NANOAOD/22Sep2023-v1/30000/a179600c-a961-44e7-987b-6760a351ffef.root
/store/data/Run2022G/Muon/NANOAOD/22Sep2023-v1/30000/2766fb80-abd2-444b-92b2-9c236a55efc0.root
/store/data/Run2022G/Muon/NANOAOD/22Sep2023-v1/30000/68b081b2-6b9e-4a3b-8705-0bdde6f3fc8b.root
/store/data/Run2022G/Muon/NANOAOD/22Sep2023-v1/30000/f72e8c02-1e5d-4ce5-869a-36ebc7231052.root
/store/data/Run2022G/Muon/NANOAOD/22Sep2023-v1/30000/7edf1f37-e094-40cc-ad83-a1841ea2a6f9.root
/store/data/Run2022G/Muon/NANOAOD/22Sep2023-v1/30000/9da118b5-7a1a-4f79-8e1a-916da9280394.root
/store/data/Run2022G/Muon/NANOAOD/22Sep2023-v1/30000/bf12641b-e647-426e-98f9-88fb123056eb.root
/store/data/Run2022G/Muon/NANOAOD/22Sep2023-v1/30000/235360cd-ced8-4697-874c-178bb28359b2.root
/store/data/Run2022G/Muon/NANOAOD/22Sep2023-v1/30000/23dec1fa-5908-402f-bc9a-65f804ce8cd7.root
/store/data/Run2022G/Muon/NANOAOD/22Sep2023-v1/30000/61444afa-b5c1-4699-894e-ec459207bfef.root
/store/data/Run2022G/Muon/NANOAOD/22Sep2023-v1/30000/1f1cbc44-db13-46ea-8cdb-945b15054000.root
/store/data/Run2022G/Muon/NANOAOD/22Sep2023-v1/30000/56a891f7-2315-429d-a445-da666bc13efb.root
/store/data/Run2022G/Muon/NANOAOD/22Sep2023-v1/30000/30f59cc3-505a-4baf-9dc4-6e66875169a6.root
/store/data/Run2022G/Muon/NANOAOD/22Sep2023-v1/30000/c8a57b44-7f0a-4dad-8e9b-5e23c40383c0.root
/store/data/Run2022G/Muon/NANOAOD/22Sep2023-v1/30000/a3001688-012e-44ce-a89e-cba14605324e.root
/store/data/Run2022G/Muon/NANOAOD/22Sep2023-v1/30000/0dce5ec1-7613-48a6-adfb-0f03d700f302.root
/store/data/Run2022G/Muon/NANOAOD/22Sep2023-v1/30000/4b2cb809-331c-440e-b5aa-f45152b781e0.root
/store/data/Run2022G/Muon/NANOAOD/22Sep2023-v1/30000/20f6b2ff-3908-4090-b928-98a168167c10.root
/store/data/Run2022G/Muon/NANOAOD/22Sep2023-v1/30000/6314b4f1-9a88-4a34-8ce9-86df6460a154.root
/store/data/Run2022G/Muon/NANOAOD/22Sep2023-v1/30000/d7cf8570-992f-4445-9f1a-250437c29ab9.root
/store/data/Run2022G/Muon/NANOAOD/22Sep2023-v1/30000/35753f1f-0aa0-4aa2-a451-e67406d7b99f.root
/store/data/Run2022G/Muon/NANOAOD/22Sep2023-v1/30000/822a34d7-7f2b-496d-a584-0ea331a23b35.root
/store/data/Run2022G/Muon/NANOAOD/22Sep2023-v1/30000/c9cc9079-72e7-4cf9-889d-3df1a6ea40e1.root
/store/data/Run2022G/Muon/NANOAOD/22Sep2023-v1/30000/b71935af-8245-4e81-a169-80a2b5b8f9bd.root
/store/data/Run2022G/Muon/NANOAOD/22Sep2023-v1/30000/7da91c1a-f2f0-485c-b9b9-2270b0e61b0c.root
/store/data/Run2022G/Muon/NANOAOD/22Sep2023-v1/30000/4f50f6c4-559f-4b49-86a3-225c35b0344b.root
/store/data/Run2022G/Muon/NANOAOD/22Sep2023-v1/30000/252efaaa-23d7-413a-919d-44976ba30937.root
/store/data/Run2022G/Muon/NANOAOD/22Sep2023-v1/30000/84090821-a0d2-4477-a332-21ec467d5186.root
/store/data/Run2022G/Muon/NANOAOD/22Sep2023-v1/30000/56fac115-461b-4533-8ea1-f2829582d6c7.root