/store/data/Run2022F/Tau/NANOAOD/22Sep2023-v1/2530000/27e87b83-a8e1-4d90-83ff-ef397fb0c2f2.root
/store/data/Run2022F/Tau/NANOAOD/22Sep2023-v1/2530000/18aa460f-3fc4-4404-a7a5-a1cc50a371db.root
/store/data/Run2022F/Tau/NANOAOD/22Sep2023-v1/2540000/37dd3f42-ce0c-4123-9561-482339ccbc44.root
/store/data/Run2022F/Tau/NANOAOD/22Sep2023-v1/2540000/78a2a437-4186-42fd-b28e-0365763a86ce.root
/store/data/Run2022F/Tau/NANOAOD/22Sep2023-v1/2540000/3adcf9b4-7a8c-4301-b3f9-8f39552649d2.root
/store/data/Run2022F/Tau/NANOAOD/22Sep2023-v1/30000/8cf271bf-3704-4630-afd6-b0bc7856085e.root
/store/data/Run2022F/Tau/NANOAOD/22Sep2023-v1/30000/97135170-98ae-4a0b-b7ef-3d5bab8eaed3.root
/store/data/Run2022F/Tau/NANOAOD/22Sep2023-v1/2520000/2ad9f297-6d97-4560-8635-47d178572cd5.root
/store/data/Run2022F/Tau/NANOAOD/22Sep2023-v1/2520000/4f249a80-f498-4ca4-ae3e-deb7179d9c6a.root
/store/data/Run2022F/Tau/NANOAOD/22Sep2023-v1/2520000/4fc335dc-cb33-4d58-80b3-2b056992821b.root
/store/data/Run2022F/Tau/NANOAOD/22Sep2023-v1/2520000/226570ee-495a-487b-be3d-983bd672e74a.root
/store/data/Run2022F/Tau/NANOAOD/22Sep2023-v1/2520000/ddd6291d-583a-43e4-927f-1f204ab112fd.root
/store/data/Run2022F/Tau/NANOAOD/22Sep2023-v1/2520000/98738eae-5d14-44a4-9220-12686efac2da.root
/store/data/Run2022F/Tau/NANOAOD/22Sep2023-v1/2520000/29adc93c-c6d7-4bef-905b-deb8b15fdc5e.root
/store/data/Run2022F/Tau/NANOAOD/22Sep2023-v1/2520000/97d838df-4c24-4b45-b222-825f927e4cec.root
/store/data/Run2022F/Tau/NANOAOD/22Sep2023-v1/2540000/002147d4-212f-4880-bd08-5dba5ba367a8.root
/store/data/Run2022F/Tau/NANOAOD/22Sep2023-v1/2530000/d5b43a9c-e435-40eb-a055-19d2d4d0ea26.root
/store/data/Run2022F/Tau/NANOAOD/22Sep2023-v1/2530000/d527165f-096e-4183-a2a8-2d15028b6e83.root
/store/data/Run2022F/Tau/NANOAOD/22Sep2023-v1/30000/cc756cc6-b37e-4fb1-b878-fc507321fcd3.root
/store/data/Run2022F/Tau/NANOAOD/22Sep2023-v1/2530000/3cc1b2ed-f43c-4454-b751-5281497f790e.root
/store/data/Run2022F/Tau/NANOAOD/22Sep2023-v1/30000/da292af8-c61c-4415-9db0-a9ced86ba07f.root
/store/data/Run2022F/Tau/NANOAOD/22Sep2023-v1/30000/84f443fe-4a99-4f4f-b5bc-c3a48b77a3dd.root
/store/data/Run2022F/Tau/NANOAOD/22Sep2023-v1/50000/25534d72-119a-43ef-a800-96fb3265d533.root
/store/data/Run2022F/Tau/NANOAOD/22Sep2023-v1/30000/f11d60ac-cbea-4c0a-8698-751d765c007c.root
/store/data/Run2022F/Tau/NANOAOD/22Sep2023-v1/50000/6aafa74a-0af8-44c2-b432-97c1f08ec112.root
/store/data/Run2022F/Tau/NANOAOD/22Sep2023-v1/50000/718f251f-b4b8-4f27-a46d-b1576d639098.root
/store/data/Run2022F/Tau/NANOAOD/22Sep2023-v1/2530000/545bedc8-82b8-4d4a-baf9-493e5ee927dd.root
/store/data/Run2022F/Tau/NANOAOD/22Sep2023-v1/2530000/0b17a625-7838-403a-9e30-5415010d4f8b.root
/store/data/Run2022F/Tau/NANOAOD/22Sep2023-v1/2530000/4b5cea10-dd0f-45fc-ba6a-a9ac043ff3e0.root
/store/data/Run2022F/Tau/NANOAOD/22Sep2023-v1/2540000/a81a9cb0-7ff2-4481-b53f-f938dedd1e7f.root
/store/data/Run2022F/Tau/NANOAOD/22Sep2023-v1/2540000/bba19d04-97ff-4ade-b3e6-507f80656eb0.root
/store/data/Run2022F/Tau/NANOAOD/22Sep2023-v1/2540000/3feca295-0932-4604-9718-327a62225788.root
/store/data/Run2022F/Tau/NANOAOD/22Sep2023-v1/2540000/855dc2db-822f-4d97-b2f3-4837e472979e.root
/store/data/Run2022F/Tau/NANOAOD/22Sep2023-v1/2540000/5a222736-618e-4405-84e9-d8651ded67ca.root
/store/data/Run2022F/Tau/NANOAOD/22Sep2023-v1/40000/2d0c0432-3c3c-4b06-8d9a-8dfbc640e67c.root
/store/data/Run2022F/Tau/NANOAOD/22Sep2023-v1/40000/0ef4f651-3394-4979-857b-7ff6477853fc.root
/store/data/Run2022F/Tau/NANOAOD/22Sep2023-v1/40000/5dba889e-908c-4750-8c4f-cd23ef5e4bef.root
/store/data/Run2022F/Tau/NANOAOD/22Sep2023-v1/40000/c497ec09-4273-41f7-a3cb-00cd094ec024.root
/store/data/Run2022F/Tau/NANOAOD/22Sep2023-v1/40000/10e598b3-c49e-4a49-bee6-d850984d86db.root
/store/data/Run2022F/Tau/NANOAOD/22Sep2023-v1/40000/da5aace0-12a3-4169-acea-033d96eb0c58.root
/store/data/Run2022F/Tau/NANOAOD/22Sep2023-v1/2540000/fe5dfb3e-eb11-4a95-a9f0-88cba7fce655.root
/store/data/Run2022F/Tau/NANOAOD/22Sep2023-v1/2540000/c1e13386-66d3-445a-9d58-c94b6bcf37e8.root
/store/data/Run2022F/Tau/NANOAOD/22Sep2023-v1/2540000/4ff1d3d2-8ef5-49f3-9191-1d4a6201e19b.root
/store/data/Run2022F/Tau/NANOAOD/22Sep2023-v1/40000/2b96235a-d8b0-405a-8f40-ebac22ce132c.root
/store/data/Run2022F/Tau/NANOAOD/22Sep2023-v1/2540000/cc43ebae-f1ce-41a1-98ec-1b6ead449c12.root
/store/data/Run2022F/Tau/NANOAOD/22Sep2023-v1/2540000/84492b36-39f6-4175-a45a-9ccef19ac21f.root
/store/data/Run2022F/Tau/NANOAOD/22Sep2023-v1/2540000/32e96dee-51c9-474b-8244-2c34bcc1a9fb.root
/store/data/Run2022F/Tau/NANOAOD/22Sep2023-v1/2540000/ca30bd7e-c096-4940-a2d5-e068e06268a6.root
/store/data/Run2022F/Tau/NANOAOD/22Sep2023-v1/2540000/f6e818fb-73c6-42e3-bc42-d49965c1c207.root
/store/data/Run2022F/Tau/NANOAOD/22Sep2023-v1/2540000/98900fc1-fa9d-49cf-b398-0eb4a2d1bba2.root
/store/data/Run2022F/Tau/NANOAOD/22Sep2023-v1/40000/e433d33a-6815-4e8b-8d1a-5fba3d6c56a1.root
/store/data/Run2022F/Tau/NANOAOD/22Sep2023-v1/40000/2f77408c-09f0-480a-9245-3a1ebb182a16.root
/store/data/Run2022F/Tau/NANOAOD/22Sep2023-v1/40000/ab91e13d-420c-433d-8a4c-d0dabb3391f7.root
/store/data/Run2022F/Tau/NANOAOD/22Sep2023-v1/40000/3f5548f0-759c-4c48-b358-c58b21dfd8c6.root
/store/data/Run2022F/Tau/NANOAOD/22Sep2023-v1/2530000/58488ee9-7bcb-49fe-b71f-ab00f53a9474.root
/store/data/Run2022F/Tau/NANOAOD/22Sep2023-v1/50000/1f654d30-674f-4002-9a71-b9407e0ee4bb.root
/store/data/Run2022F/Tau/NANOAOD/22Sep2023-v1/50000/0acc91d3-05b8-47cb-9a4a-047e63859300.root
/store/data/Run2022F/Tau/NANOAOD/22Sep2023-v1/50000/782943b6-09b6-465f-aeca-f416c92afa1c.root
/store/data/Run2022F/Tau/NANOAOD/22Sep2023-v1/50000/075c1a84-369c-434e-9411-fb407c09cb5d.root
/store/data/Run2022F/Tau/NANOAOD/22Sep2023-v1/40000/062461e9-c5cc-4f89-9a84-f731be73bbe2.root
/store/data/Run2022F/Tau/NANOAOD/22Sep2023-v1/40000/3ef36460-36f3-48cd-b13e-4345f4b45eb0.root
/store/data/Run2022F/Tau/NANOAOD/22Sep2023-v1/30000/dafc73f6-2120-4964-ae9f-f7490f5c500a.root
/store/data/Run2022F/Tau/NANOAOD/22Sep2023-v1/30000/e8cebd1a-5614-4993-81e2-29a726d40e38.root
/store/data/Run2022F/Tau/NANOAOD/22Sep2023-v1/2530000/5014303c-7182-4002-ab6e-c2be9311c0b5.root
/store/data/Run2022F/Tau/NANOAOD/22Sep2023-v1/2530000/e659c48d-e6b7-4b60-9ef4-303a2ff68431.root
/store/data/Run2022F/Tau/NANOAOD/22Sep2023-v1/2530000/234ab110-0278-4d8f-8d15-6b83708158bb.root
/store/data/Run2022F/Tau/NANOAOD/22Sep2023-v1/2530000/7b81a010-6a41-44a6-9d0d-c772aab2f288.root
/store/data/Run2022F/Tau/NANOAOD/22Sep2023-v1/2530000/9c8dc7fa-9c58-452c-8a20-b1db4c6d0608.root
/store/data/Run2022F/Tau/NANOAOD/22Sep2023-v1/2530000/db531766-cf9c-46d1-8f64-b888383209d5.root
/store/data/Run2022F/Tau/NANOAOD/22Sep2023-v1/2530000/925b4803-5e86-4632-9fb7-d877b99e744d.root
/store/data/Run2022F/Tau/NANOAOD/22Sep2023-v1/2530000/ae6b7605-1c34-4a24-bfa0-06e75fa744c2.root
/store/data/Run2022F/Tau/NANOAOD/22Sep2023-v1/2530000/cb4c1118-e9a6-4675-bc19-c46320bde8f4.root
/store/data/Run2022F/Tau/NANOAOD/22Sep2023-v1/2530000/abd4256a-a6f5-490a-9980-94e406589e2a.root
/store/data/Run2022F/Tau/NANOAOD/22Sep2023-v1/2530000/6de692cd-856b-45ea-a304-ff2a22deaea5.root
/store/data/Run2022F/Tau/NANOAOD/22Sep2023-v1/2530000/98dc82df-4a30-4a60-855f-04dd5978b51b.root
/store/data/Run2022F/Tau/NANOAOD/22Sep2023-v1/50000/e5107dbf-a00d-473c-ba33-879c658ccb32.root
/store/data/Run2022F/Tau/NANOAOD/22Sep2023-v1/50000/f827d9e4-23ae-4f74-af4a-a2d54b1da632.root
/store/data/Run2022F/Tau/NANOAOD/22Sep2023-v1/50000/beabf613-27bb-4182-bc69-900a2431a448.root
/store/data/Run2022F/Tau/NANOAOD/22Sep2023-v1/50000/0296d9c3-55b8-4c93-a733-0e44c2d6c1bf.root
/store/data/Run2022F/Tau/NANOAOD/22Sep2023-v1/50000/4d979f16-93f1-4718-8d8d-884af877d85b.root
/store/data/Run2022F/Tau/NANOAOD/22Sep2023-v1/50000/32fe1c24-2e22-416f-befa-66d8f9d88798.root
/store/data/Run2022F/Tau/NANOAOD/22Sep2023-v1/2530000/a89cd099-82fe-42e0-ac55-c2352a62dfcf.root
/store/data/Run2022F/Tau/NANOAOD/22Sep2023-v1/2530000/39885aae-4908-4df9-8c81-9c0cb00443b2.root
/store/data/Run2022F/Tau/NANOAOD/22Sep2023-v1/50000/095c4eb5-d915-4d2c-af36-bfcdb921b829.root
/store/data/Run2022F/Tau/NANOAOD/22Sep2023-v1/50000/49839a43-bad6-40d9-acc3-ea264be7e25a.root
/store/data/Run2022F/Tau/NANOAOD/22Sep2023-v1/50000/de912528-6cce-4d1b-98fc-4dbe194f9b3c.root
/store/data/Run2022F/Tau/NANOAOD/22Sep2023-v1/50000/95a41927-5aa0-4508-9623-c540f066b1fb.root
/store/data/Run2022F/Tau/NANOAOD/22Sep2023-v1/2540000/b19231d7-8bdb-4213-905b-b5a7b6fd5434.root
/store/data/Run2022F/Tau/NANOAOD/22Sep2023-v1/2540000/5fde8af3-1639-4954-b380-42794a7fbaac.root
/store/data/Run2022F/Tau/NANOAOD/22Sep2023-v1/2540000/f47fde90-9de9-48d9-b18e-65ea20c12657.root
/store/data/Run2022F/Tau/NANOAOD/22Sep2023-v1/2540000/6c3d6db8-c843-4616-bb24-1252a2b6f6a0.root
/store/data/Run2022F/Tau/NANOAOD/22Sep2023-v1/30000/9dab0eb6-1893-4c4e-bfa5-269bbc3b9257.root
/store/data/Run2022F/Tau/NANOAOD/22Sep2023-v1/30000/e8afc6a5-8871-4ec4-9c87-1872b565418d.root
/store/data/Run2022F/Tau/NANOAOD/22Sep2023-v1/2530000/d2f212fd-3920-450e-92b0-f26401e931a6.root
/store/data/Run2022F/Tau/NANOAOD/22Sep2023-v1/2530000/cb078edb-bc42-44e1-a93a-54f9281cbf14.root
/store/data/Run2022F/Tau/NANOAOD/22Sep2023-v1/2530000/9de43673-a41c-4f1a-8418-0cd9628cb10f.root
/store/data/Run2022F/Tau/NANOAOD/22Sep2023-v1/2530000/c8f9fa31-ebcd-4435-8c91-9dcf97f2f4f8.root
/store/data/Run2022F/Tau/NANOAOD/22Sep2023-v1/2540000/314ca6b9-cd9e-40d7-ae58-d395361ddd87.root
/store/data/Run2022F/Tau/NANOAOD/22Sep2023-v1/2540000/26aa4212-967e-42ee-b0e5-e15c37a7fb5b.root
/store/data/Run2022F/Tau/NANOAOD/22Sep2023-v1/2540000/a9fdf9b3-7e3b-4b5f-b8ba-113eef94a3eb.root
/store/data/Run2022F/Tau/NANOAOD/22Sep2023-v1/2540000/6fff096b-29b2-431a-913a-cb24e3f2f8fa.root
/store/data/Run2022F/Tau/NANOAOD/22Sep2023-v1/2540000/817ae779-bc21-4e38-9436-0f9ff68c16bd.root
/store/data/Run2022F/Tau/NANOAOD/22Sep2023-v1/2540000/9c6eee74-7a45-42af-8873-95369e0359c4.root
/store/data/Run2022F/Tau/NANOAOD/22Sep2023-v1/2540000/425cf76f-fc60-4539-97c6-bfc7bb42799a.root
/store/data/Run2022F/Tau/NANOAOD/22Sep2023-v1/2540000/f1de6f76-afe0-4216-8e48-55b4ee4dc269.root
/store/data/Run2022F/Tau/NANOAOD/22Sep2023-v1/2540000/ab269db0-2d29-4ecb-bf25-fde24dd21bc1.root
/store/data/Run2022F/Tau/NANOAOD/22Sep2023-v1/2540000/eef57b73-d8c0-44b4-ac23-33372a801fa9.root
/store/data/Run2022F/Tau/NANOAOD/22Sep2023-v1/2540000/c455c813-661f-4169-8769-3dffea9b3a79.root
/store/data/Run2022F/Tau/NANOAOD/22Sep2023-v1/30000/15830112-91fc-4912-b1ec-61cf8bcf083f.root
/store/data/Run2022F/Tau/NANOAOD/22Sep2023-v1/30000/b19a2d63-7866-4c64-bb67-a2179761dcb8.root
/store/data/Run2022F/Tau/NANOAOD/22Sep2023-v1/30000/3afe8fdc-8a29-4ff4-b26d-2675bdf34d9b.root
/store/data/Run2022F/Tau/NANOAOD/22Sep2023-v1/30000/07cc5fec-7d3d-420e-a5b2-b4f0477098a3.root
/store/data/Run2022F/Tau/NANOAOD/22Sep2023-v1/30000/13026b68-3dff-46a2-b324-09237ae863e0.root
/store/data/Run2022F/Tau/NANOAOD/22Sep2023-v1/2530000/d7888006-464d-4fe8-9cdf-dd8b843f39f3.root
/store/data/Run2022F/Tau/NANOAOD/22Sep2023-v1/2530000/b4211f4d-83f5-48e5-a1f7-4c1b8174e759.root
/store/data/Run2022F/Tau/NANOAOD/22Sep2023-v1/2530000/c9102977-7de5-4658-bf8b-b7a3bab79a7d.root
/store/data/Run2022F/Tau/NANOAOD/22Sep2023-v1/30000/515cbb40-83e8-4c91-821b-83edbe4d4411.root
/store/data/Run2022F/Tau/NANOAOD/22Sep2023-v1/30000/38baa420-f1d9-4501-ba85-a7a0be3c8321.root
/store/data/Run2022F/Tau/NANOAOD/22Sep2023-v1/30000/36a755d5-f30d-4236-92e9-ac90b1a22eb7.root
/store/data/Run2022F/Tau/NANOAOD/22Sep2023-v1/30000/a970ad52-3535-43e4-b11c-7e1a8ed6040f.root
/store/data/Run2022F/Tau/NANOAOD/22Sep2023-v1/40000/31b4bdc8-842b-432f-80c5-6870af182325.root
/store/data/Run2022F/Tau/NANOAOD/22Sep2023-v1/40000/ed14b8c5-59ee-466c-b28f-8d017518c22c.root
/store/data/Run2022F/Tau/NANOAOD/22Sep2023-v1/30000/19b0ce82-fec4-491f-8cd4-0b92f7c5a9b6.root
/store/data/Run2022F/Tau/NANOAOD/22Sep2023-v1/30000/ec4f5eff-e741-4e00-9417-b92bed95be6d.root
/store/data/Run2022F/Tau/NANOAOD/22Sep2023-v1/30000/bcee4329-d73e-4513-8d57-8982a74b5169.root
/store/data/Run2022F/Tau/NANOAOD/22Sep2023-v1/50000/448c552c-cc43-4c0f-b9b4-aad422d8730f.root
/store/data/Run2022F/Tau/NANOAOD/22Sep2023-v1/50000/f8ce99ef-2d04-418b-bde5-e660ccf3d252.root
/store/data/Run2022F/Tau/NANOAOD/22Sep2023-v1/50000/d28453a6-5256-48b4-b625-986efda2935f.root
/store/data/Run2022F/Tau/NANOAOD/22Sep2023-v1/30000/56c9662a-a8d2-4527-a38f-93b9b902c5f0.root
/store/data/Run2022F/Tau/NANOAOD/22Sep2023-v1/30000/a16eae83-b20b-4436-beb4-9b4aff9e7737.root
/store/data/Run2022F/Tau/NANOAOD/22Sep2023-v1/40000/030450a9-ee20-4abf-84f2-44d832f9f3ee.root
/store/data/Run2022F/Tau/NANOAOD/22Sep2023-v1/40000/ebd5d894-7875-479c-8705-017984d26d6f.root
/store/data/Run2022F/Tau/NANOAOD/22Sep2023-v1/40000/ce2af855-cef1-4840-8278-2798fffcb3b3.root
/store/data/Run2022F/Tau/NANOAOD/22Sep2023-v1/40000/b57c8333-0ac4-418a-b901-b821e94044f4.root
/store/data/Run2022F/Tau/NANOAOD/22Sep2023-v1/40000/be3a0e5d-4c0c-4d98-aa4c-25a0c25fc809.root
/store/data/Run2022F/Tau/NANOAOD/22Sep2023-v1/2540000/5f3f230d-0437-45fb-b87d-6515ce410f97.root
/store/data/Run2022F/Tau/NANOAOD/22Sep2023-v1/2540000/ab9952b1-a86d-4e2e-aec6-f7ad4e0fbf4a.root
/store/data/Run2022F/Tau/NANOAOD/22Sep2023-v1/2540000/51a1eb02-63a4-4de9-ba5d-9e55ccf42145.root
/store/data/Run2022F/Tau/NANOAOD/22Sep2023-v1/2540000/10950aba-1859-4da5-b9c7-dcb07f4aadde.root
/store/data/Run2022F/Tau/NANOAOD/22Sep2023-v1/2540000/d6f4d55f-8108-4fc7-b4e0-160c57cd9bc8.root
/store/data/Run2022F/Tau/NANOAOD/22Sep2023-v1/2540000/0698c05c-438a-4e71-be92-a536350ca43e.root
/store/data/Run2022F/Tau/NANOAOD/22Sep2023-v1/2540000/85b57f4a-714b-44b4-8875-e7e6f1147de5.root
/store/data/Run2022F/Tau/NANOAOD/22Sep2023-v1/2530000/2e0bd2cd-ba31-4c54-b106-7326d1f342b5.root
/store/data/Run2022F/Tau/NANOAOD/22Sep2023-v1/30000/f57d81d0-f83c-42dd-ad72-ed854eb79f91.root
/store/data/Run2022F/Tau/NANOAOD/22Sep2023-v1/30000/683510fa-e2f2-48d2-9924-96d1df73b9c6.root
/store/data/Run2022F/Tau/NANOAOD/22Sep2023-v1/50000/e6050af3-38a7-4a1f-8285-778c92e817a5.root
/store/data/Run2022F/Tau/NANOAOD/22Sep2023-v1/40000/fd31513b-6fc4-46eb-a1c9-847fb799ddbe.root
/store/data/Run2022F/Tau/NANOAOD/22Sep2023-v1/2540000/25b083fa-b0c2-47f5-abb3-d8b41d9e9983.root
/store/data/Run2022F/Tau/NANOAOD/22Sep2023-v1/50000/92a4d42c-dbad-40b1-9c2c-31ccbece8e69.root
/store/data/Run2022F/Tau/NANOAOD/22Sep2023-v1/50000/f224ac0b-8954-4df5-8c5a-a0a413fb808b.root
/store/data/Run2022F/Tau/NANOAOD/22Sep2023-v1/50000/e9ba6fd9-220e-4819-aeba-81ff5cd3c899.root
/store/data/Run2022F/Tau/NANOAOD/22Sep2023-v1/40000/ab06c4fb-e002-4e88-8e48-ef4cdf3ee5ca.root
/store/data/Run2022F/Tau/NANOAOD/22Sep2023-v1/2520000/e8cf1b6a-39dd-40a8-8c6d-a51352d40dab.root
/store/data/Run2022F/Tau/NANOAOD/22Sep2023-v1/2520000/a6c5b50f-065e-48a0-bb53-698e66eac924.root
/store/data/Run2022F/Tau/NANOAOD/22Sep2023-v1/2530000/37e95500-d710-4290-bdea-d82feefe24a1.root
/store/data/Run2022F/Tau/NANOAOD/22Sep2023-v1/2530000/3965534b-12a5-44b2-8aff-f8f8d6b572f3.root
/store/data/Run2022F/Tau/NANOAOD/22Sep2023-v1/50000/3b143b19-7fbd-4131-836a-150b3be3997d.root
/store/data/Run2022F/Tau/NANOAOD/22Sep2023-v1/30000/469f5d3d-270f-445c-bcb7-a05d4543bac0.root
/store/data/Run2022F/Tau/NANOAOD/22Sep2023-v1/2530000/ad17a04c-85cd-450e-a225-705f4790280e.root
/store/data/Run2022F/Tau/NANOAOD/22Sep2023-v1/30000/f4b932df-9998-41ed-94fd-1866f6eb0bb7.root
/store/data/Run2022F/Tau/NANOAOD/22Sep2023-v1/30000/e4aa0723-d5dd-478c-8a45-241c933842cb.root
/store/data/Run2022F/Tau/NANOAOD/22Sep2023-v1/2520000/a3bbed00-6da5-4852-8e88-ffdd134ce751.root
/store/data/Run2022F/Tau/NANOAOD/22Sep2023-v1/2540000/4e6d4157-1925-4d86-bab2-6a10c3faf386.root
/store/data/Run2022F/Tau/NANOAOD/22Sep2023-v1/2540000/df75e0b5-e578-464a-bfd9-c06181ae08db.root
/store/data/Run2022F/Tau/NANOAOD/22Sep2023-v1/2540000/0d712940-9600-4052-b335-96a06b088354.root
/store/data/Run2022F/Tau/NANOAOD/22Sep2023-v1/30000/db495ea3-4dab-430f-a0eb-3dccf31d3cdc.root
/store/data/Run2022F/Tau/NANOAOD/22Sep2023-v1/30000/5b8b65b7-c380-485e-b10e-6e5ef2ce43ae.root
/store/data/Run2022F/Tau/NANOAOD/22Sep2023-v1/30000/3f73c4f7-9f52-41df-ad7d-8ebc5c90568f.root
/store/data/Run2022F/Tau/NANOAOD/22Sep2023-v1/30000/9bb90633-61c1-437a-9e63-da783812ddb5.root
/store/data/Run2022F/Tau/NANOAOD/22Sep2023-v1/30000/36ac8998-4282-424f-9db1-6620a2837599.root
/store/data/Run2022F/Tau/NANOAOD/22Sep2023-v1/2520000/dd5d00d1-493a-430a-98cd-bdef62e27b3f.root
/store/data/Run2022F/Tau/NANOAOD/22Sep2023-v1/2540000/0f39992d-d9cb-4b47-90ab-3c124a95a6f1.root
/store/data/Run2022F/Tau/NANOAOD/22Sep2023-v1/2540000/7499142f-55b7-4194-8d05-6f598fef101e.root
/store/data/Run2022F/Tau/NANOAOD/22Sep2023-v1/2520000/27569869-cfec-411e-9d20-1cf5a7ac63c8.root
/store/data/Run2022F/Tau/NANOAOD/22Sep2023-v1/50000/fbc6406d-a79d-4f77-b0c6-10619db94ade.root
/store/data/Run2022F/Tau/NANOAOD/22Sep2023-v1/50000/1e46f59b-75b3-4b07-8563-428f5bcda0c3.root
/store/data/Run2022F/Tau/NANOAOD/22Sep2023-v1/50000/4d5d275f-d970-4f8d-9f3c-0f1c6cc9ea3f.root
/store/data/Run2022F/Tau/NANOAOD/22Sep2023-v1/50000/81293a46-47e9-4c70-84de-cde61abc5218.root
/store/data/Run2022F/Tau/NANOAOD/22Sep2023-v1/2540000/c3c1640a-5bc0-4db0-880f-f8887124987e.root
/store/data/Run2022F/Tau/NANOAOD/22Sep2023-v1/2540000/8fa3f213-49f2-4039-a45d-a4b2455ec3be.root
/store/data/Run2022F/Tau/NANOAOD/22Sep2023-v1/2540000/72d71196-48ef-4dd9-85cc-744da3d6ff9b.root
/store/data/Run2022F/Tau/NANOAOD/22Sep2023-v1/30000/1231b57a-857a-412b-b3df-16fee1b53251.root
/store/data/Run2022F/Tau/NANOAOD/22Sep2023-v1/2540000/b901f2b0-5e2c-4a1b-b696-2112c27b10cb.root
/store/data/Run2022F/Tau/NANOAOD/22Sep2023-v1/2540000/0de585cb-ac10-414a-91a5-78e8ebfb59c3.root
/store/data/Run2022F/Tau/NANOAOD/22Sep2023-v1/30000/7a251813-376d-45e1-a30c-b59b8abd0dfa.root
/store/data/Run2022F/Tau/NANOAOD/22Sep2023-v1/30000/c9bb13d3-3fbe-49df-afaa-e85b80ab06b6.root
/store/data/Run2022F/Tau/NANOAOD/22Sep2023-v1/2530000/bc195038-4801-4508-983d-0523139bbba7.root
/store/data/Run2022F/Tau/NANOAOD/22Sep2023-v1/2540000/a9c6034c-5e8f-497e-bfbe-f75d3a11110f.root
/store/data/Run2022F/Tau/NANOAOD/22Sep2023-v1/2530000/1f933015-38a5-4390-86cd-786738594639.root
/store/data/Run2022F/Tau/NANOAOD/22Sep2023-v1/2540000/c0d2079c-0a3f-4a15-ae9d-61a250d806c0.root
/store/data/Run2022F/Tau/NANOAOD/22Sep2023-v1/2540000/475dadb3-3fe7-4fb7-8889-fe030e58bf81.root
/store/data/Run2022F/Tau/NANOAOD/22Sep2023-v1/2540000/828211fd-b544-4f89-8f66-b40f5a12e30c.root
/store/data/Run2022F/Tau/NANOAOD/22Sep2023-v1/2540000/78855b36-5670-455b-80c0-3a161a1d6738.root
/store/data/Run2022F/Tau/NANOAOD/22Sep2023-v1/2540000/e151ed28-980c-4ba0-b619-2781c77d9bb0.root
/store/data/Run2022F/Tau/NANOAOD/22Sep2023-v1/50000/42367ed3-aaa0-4b9a-aa5d-31bd6314e0a7.root
/store/data/Run2022F/Tau/NANOAOD/22Sep2023-v1/2540000/b1a2c61c-6e7b-4302-92cb-6bce574bc6c7.root
/store/data/Run2022F/Tau/NANOAOD/22Sep2023-v1/2540000/d406654d-593e-495a-8844-fda5e37a00c6.root
/store/data/Run2022F/Tau/NANOAOD/22Sep2023-v1/2540000/d2783452-0665-46ec-ab1a-289d7c951622.root
/store/data/Run2022F/Tau/NANOAOD/22Sep2023-v1/2540000/c15ae5ee-4952-4ec6-8878-7f6e37ccd335.root
/store/data/Run2022F/Tau/NANOAOD/22Sep2023-v1/2530000/ec18f13f-e84e-4ad1-91fc-fbf3176516fe.root
/store/data/Run2022F/Tau/NANOAOD/22Sep2023-v1/2530000/2e62d6b6-1476-4671-84eb-c2b360d96119.root
/store/data/Run2022F/Tau/NANOAOD/22Sep2023-v1/2530000/ddcf0786-639f-47ef-91d1-20095eaf622e.root
/store/data/Run2022F/Tau/NANOAOD/22Sep2023-v1/2530000/6ec32c42-c87f-45af-9bab-4ee1c18919f0.root
/store/data/Run2022F/Tau/NANOAOD/22Sep2023-v1/2530000/1092cf93-7d42-4ce7-a457-286dfa9706b9.root
/store/data/Run2022F/Tau/NANOAOD/22Sep2023-v1/510000/25affdff-1bf7-482b-b724-1e68df620318.root
/store/data/Run2022F/Tau/NANOAOD/22Sep2023-v1/50000/35267be7-6f00-471b-9d23-98583fbf51a9.root
/store/data/Run2022F/Tau/NANOAOD/22Sep2023-v1/50000/3515e35f-da18-4d36-9e1d-e8414cfd261f.root
/store/data/Run2022F/Tau/NANOAOD/22Sep2023-v1/50000/4991f16c-c907-4681-9de2-c24d9e501304.root
/store/data/Run2022F/Tau/NANOAOD/22Sep2023-v1/50000/2f333e67-d9f6-4d78-81ad-0cb2d1ab8573.root
/store/data/Run2022F/Tau/NANOAOD/22Sep2023-v1/50000/860b2041-13d3-4078-947a-62c051ce4b13.root
/store/data/Run2022F/Tau/NANOAOD/22Sep2023-v1/50000/3ae5d798-71e5-4f97-9ee2-8e006896a205.root
/store/data/Run2022F/Tau/NANOAOD/22Sep2023-v1/50000/d70109f6-f5cd-4083-abb0-c80170013135.root
/store/data/Run2022F/Tau/NANOAOD/22Sep2023-v1/50000/ab60a330-813d-43f3-973f-996e365dc5d5.root
/store/data/Run2022F/Tau/NANOAOD/22Sep2023-v1/50000/e5ffa105-c0bc-4667-ba9d-306133ae795f.root
/store/data/Run2022F/Tau/NANOAOD/22Sep2023-v1/50000/a851ae94-1d0f-4248-a353-50b8553f7f15.root
/store/data/Run2022F/Tau/NANOAOD/22Sep2023-v1/50000/f5e10e67-7746-4796-8a2c-92ad828c25cd.root
/store/data/Run2022F/Tau/NANOAOD/22Sep2023-v1/50000/5ed23716-f3f6-4922-a241-59dc2e70a80f.root
/store/data/Run2022F/Tau/NANOAOD/22Sep2023-v1/50000/9f46ef70-5a1f-4ca7-bc7a-7b3aa80331e2.root
/store/data/Run2022F/Tau/NANOAOD/22Sep2023-v1/50000/53a5da6c-235f-4cbd-94f6-0e3298ff18da.root
/store/data/Run2022F/Tau/NANOAOD/22Sep2023-v1/50000/a6b3ea2a-2054-4a4c-a354-9467194ea7fa.root
/store/data/Run2022F/Tau/NANOAOD/22Sep2023-v1/50000/4a04428b-474f-4f95-985a-1c9e8deeb945.root
/store/data/Run2022F/Tau/NANOAOD/22Sep2023-v1/60000/73ac4d7a-1f70-42db-bbdb-16d052926114.root
/store/data/Run2022F/Tau/NANOAOD/22Sep2023-v1/60000/47e680fb-866e-44ad-8749-dc8183ad5e3d.root