/store/data/Run2022G/Tau/NANOAOD/22Sep2023-v1/30000/32fcdbb6-9a50-4998-8852-b104b57be4cd.root
/store/data/Run2022G/Tau/NANOAOD/22Sep2023-v1/30000/d6a94665-ff7f-4301-992d-3a053e58dd4e.root
/store/data/Run2022G/Tau/NANOAOD/22Sep2023-v1/30000/6afa1deb-c024-416e-9df9-58086b68e60a.root
/store/data/Run2022G/Tau/NANOAOD/22Sep2023-v1/30000/8e14cf87-c527-4f75-a733-dc9259ad199b.root
/store/data/Run2022G/Tau/NANOAOD/22Sep2023-v1/30000/3f0a3b15-0dff-41fc-9d86-7b432f77c4ae.root
/store/data/Run2022G/Tau/NANOAOD/22Sep2023-v1/30000/73db3d14-27af-4449-a205-a41864093490.root
/store/data/Run2022G/Tau/NANOAOD/22Sep2023-v1/30000/69210310-b017-41a8-bd74-228006bfd8a6.root
/store/data/Run2022G/Tau/NANOAOD/22Sep2023-v1/30000/3146812d-ac74-4468-996b-ffdc88deef82.root
/store/data/Run2022G/Tau/NANOAOD/22Sep2023-v1/30000/c2297d4b-9629-4f15-9050-5e8e089fd3b4.root
/store/data/Run2022G/Tau/NANOAOD/22Sep2023-v1/30000/e64b5245-220b-4d69-a40a-a3c98235dfb8.root
/store/data/Run2022G/Tau/NANOAOD/22Sep2023-v1/30000/be5891f5-efef-413b-b375-5ecfafa58901.root
/store/data/Run2022G/Tau/NANOAOD/22Sep2023-v1/30000/c8325da5-7003-40f1-b069-5986c2b8d7d2.root
/store/data/Run2022G/Tau/NANOAOD/22Sep2023-v1/30000/59b90a09-37b1-46a2-b24a-d18a07300554.root
/store/data/Run2022G/Tau/NANOAOD/22Sep2023-v1/30000/4351d1d6-b281-41e7-89c3-674d1c5e338b.root
/store/data/Run2022G/Tau/NANOAOD/22Sep2023-v1/30000/59fdc501-630c-41ea-8360-6fc7efc18002.root
/store/data/Run2022G/Tau/NANOAOD/22Sep2023-v1/30000/5439ee2c-481f-4dc2-b0da-8419adc0f7fb.root
/store/data/Run2022G/Tau/NANOAOD/22Sep2023-v1/30000/afa1bda2-b81e-470f-b3be-cab2f4c4e2e8.root
/store/data/Run2022G/Tau/NANOAOD/22Sep2023-v1/30000/441fc842-57be-42e0-bdb0-b028cf228153.root
/store/data/Run2022G/Tau/NANOAOD/22Sep2023-v1/30000/44ab96f0-e518-47f7-b807-d0ac7c04edf0.root
/store/data/Run2022G/Tau/NANOAOD/22Sep2023-v1/30000/bef247b5-ed4f-4129-b7bc-72a24ef82ac3.root
/store/data/Run2022G/Tau/NANOAOD/22Sep2023-v1/30000/50574fec-16b1-4303-bd22-e0cd461ee1b5.root
/store/data/Run2022G/Tau/NANOAOD/22Sep2023-v1/30000/707c3a85-b2af-43a7-9390-d3003e7312e7.root
/store/data/Run2022G/Tau/NANOAOD/22Sep2023-v1/30000/e755a0cd-4bdf-4f8c-981c-ce7f74058194.root
/store/data/Run2022G/Tau/NANOAOD/22Sep2023-v1/30000/d63fc47f-09e8-4647-aaa2-3be7a95ef974.root
/store/data/Run2022G/Tau/NANOAOD/22Sep2023-v1/30000/c3a2de4f-6e0c-483e-91d3-b7f0fb2d783d.root
/store/data/Run2022G/Tau/NANOAOD/22Sep2023-v1/30000/24a56eae-7446-4cd3-b553-8cf55bd68c65.root
/store/data/Run2022G/Tau/NANOAOD/22Sep2023-v1/30000/fc21212c-ca2b-4897-9cd7-ab848f1159d3.root
/store/data/Run2022G/Tau/NANOAOD/22Sep2023-v1/30000/2c03d9ac-4cc8-4dc9-821e-b8ad28778060.root
/store/data/Run2022G/Tau/NANOAOD/22Sep2023-v1/30000/9de76449-4a96-4dd7-a489-ff461a29f1cf.root
/store/data/Run2022G/Tau/NANOAOD/22Sep2023-v1/30000/3f7bc73f-d6c8-44a1-94c1-ec5a11c9a37d.root
/store/data/Run2022G/Tau/NANOAOD/22Sep2023-v1/30000/0a41778a-78c6-4e86-ae73-d8c0fdfb3414.root
/store/data/Run2022G/Tau/NANOAOD/22Sep2023-v1/30000/a7988b6b-3c66-46e1-a5f6-f9abd6a880c6.root
/store/data/Run2022G/Tau/NANOAOD/22Sep2023-v1/310000/cbec6bab-ba5e-45b3-a402-16913bb5e607.root
/store/data/Run2022G/Tau/NANOAOD/22Sep2023-v1/30000/fd5965e1-8c3b-4788-939e-bb7da6cbc8cb.root
/store/data/Run2022G/Tau/NANOAOD/22Sep2023-v1/30000/12b00981-eaec-4a3f-8963-7b757b7c3446.root