/store/mc/Run3Summer22EENanoAODv12/VBFHHto2B2Tau_CV-m1p60_C2V-2p72_C3-m1p36_TuneCP5_13p6TeV_madgraph-pythia8/NANOAODSIM/130X_mcRun3_2022_realistic_postEE_v6-v2/50000/3c45e20e-3364-4a7d-8003-b2557c45fd56.root
/store/mc/Run3Summer22EENanoAODv12/VBFHHto2B2Tau_CV-m1p60_C2V-2p72_C3-m1p36_TuneCP5_13p6TeV_madgraph-pythia8/NANOAODSIM/130X_mcRun3_2022_realistic_postEE_v6-v2/50000/52c99a05-c462-424d-81cc-7585e1ae10f9.root
/store/mc/Run3Summer22EENanoAODv12/VBFHHto2B2Tau_CV-m1p60_C2V-2p72_C3-m1p36_TuneCP5_13p6TeV_madgraph-pythia8/NANOAODSIM/130X_mcRun3_2022_realistic_postEE_v6-v2/50000/d73adc23-a25b-401f-ac9e-df33169b386a.root
/store/mc/Run3Summer22EENanoAODv12/VBFHHto2B2Tau_CV-m1p60_C2V-2p72_C3-m1p36_TuneCP5_13p6TeV_madgraph-pythia8/NANOAODSIM/130X_mcRun3_2022_realistic_postEE_v6-v2/50000/80758f0e-def2-41c6-ac5f-997882b7019f.root
/store/mc/Run3Summer22EENanoAODv12/VBFHHto2B2Tau_CV-m1p60_C2V-2p72_C3-m1p36_TuneCP5_13p6TeV_madgraph-pythia8/NANOAODSIM/130X_mcRun3_2022_realistic_postEE_v6-v2/50000/0b13dd5f-31a7-41a2-9f24-5e994fb7f151.root
/store/mc/Run3Summer22EENanoAODv12/VBFHHto2B2Tau_CV-m1p60_C2V-2p72_C3-m1p36_TuneCP5_13p6TeV_madgraph-pythia8/NANOAODSIM/130X_mcRun3_2022_realistic_postEE_v6-v2/50000/02055b97-60d0-4783-b559-9e5068adcf33.root
/store/mc/Run3Summer22EENanoAODv12/VBFHHto2B2Tau_CV-m1p60_C2V-2p72_C3-m1p36_TuneCP5_13p6TeV_madgraph-pythia8/NANOAODSIM/130X_mcRun3_2022_realistic_postEE_v6-v2/50000/5b55126f-00d7-4113-828e-1b374bf19187.root
/store/mc/Run3Summer22EENanoAODv12/VBFHHto2B2Tau_CV-m1p60_C2V-2p72_C3-m1p36_TuneCP5_13p6TeV_madgraph-pythia8/NANOAODSIM/130X_mcRun3_2022_realistic_postEE_v6-v2/50000/87530c1f-18f7-4b79-84c3-e011814a4f9e.root
/store/mc/Run3Summer22EENanoAODv12/VBFHHto2B2Tau_CV-m1p60_C2V-2p72_C3-m1p36_TuneCP5_13p6TeV_madgraph-pythia8/NANOAODSIM/130X_mcRun3_2022_realistic_postEE_v6-v2/50000/f1c71b27-a1af-43d9-9fb0-cc32c5b7da6c.root
/store/mc/Run3Summer22EENanoAODv12/VBFHHto2B2Tau_CV-m1p60_C2V-2p72_C3-m1p36_TuneCP5_13p6TeV_madgraph-pythia8/NANOAODSIM/130X_mcRun3_2022_realistic_postEE_v6-v2/50000/26287557-bfdb-454b-9aec-abefef48576c.root
/store/mc/Run3Summer22EENanoAODv12/VBFHHto2B2Tau_CV-m1p60_C2V-2p72_C3-m1p36_TuneCP5_13p6TeV_madgraph-pythia8/NANOAODSIM/130X_mcRun3_2022_realistic_postEE_v6-v2/50000/f8e05a9a-6b94-4951-8fce-34be4de664b5.root
/store/mc/Run3Summer22EENanoAODv12/VBFHHto2B2Tau_CV-m1p60_C2V-2p72_C3-m1p36_TuneCP5_13p6TeV_madgraph-pythia8/NANOAODSIM/130X_mcRun3_2022_realistic_postEE_v6-v2/50000/4c6c8712-423a-4600-80a9-24be27099612.root
/store/mc/Run3Summer22EENanoAODv12/VBFHHto2B2Tau_CV-m1p60_C2V-2p72_C3-m1p36_TuneCP5_13p6TeV_madgraph-pythia8/NANOAODSIM/130X_mcRun3_2022_realistic_postEE_v6-v2/50000/79a3e766-c89d-422d-9d20-17f1e4208bda.root
/store/mc/Run3Summer22EENanoAODv12/VBFHHto2B2Tau_CV-m1p60_C2V-2p72_C3-m1p36_TuneCP5_13p6TeV_madgraph-pythia8/NANOAODSIM/130X_mcRun3_2022_realistic_postEE_v6-v2/50000/ec410eb7-9f05-491a-8688-3d5494c49e2b.root
/store/mc/Run3Summer22EENanoAODv12/VBFHHto2B2Tau_CV-m1p60_C2V-2p72_C3-m1p36_TuneCP5_13p6TeV_madgraph-pythia8/NANOAODSIM/130X_mcRun3_2022_realistic_postEE_v6-v2/50000/27cdb0dd-9954-48dd-831e-b99af5149200.root
/store/mc/Run3Summer22EENanoAODv12/VBFHHto2B2Tau_CV-m1p60_C2V-2p72_C3-m1p36_TuneCP5_13p6TeV_madgraph-pythia8/NANOAODSIM/130X_mcRun3_2022_realistic_postEE_v6-v2/50000/167ce339-d6d9-4678-8c5e-079cbcd89fd9.root
/store/mc/Run3Summer22EENanoAODv12/VBFHHto2B2Tau_CV-m1p60_C2V-2p72_C3-m1p36_TuneCP5_13p6TeV_madgraph-pythia8/NANOAODSIM/130X_mcRun3_2022_realistic_postEE_v6-v2/50000/a9443ee6-a9fa-42d8-b60b-6d6302e89969.root
/store/mc/Run3Summer22EENanoAODv12/VBFHHto2B2Tau_CV-m1p60_C2V-2p72_C3-m1p36_TuneCP5_13p6TeV_madgraph-pythia8/NANOAODSIM/130X_mcRun3_2022_realistic_postEE_v6-v2/50000/8f168964-53e0-482b-b42b-737e50da8d5c.root
/store/mc/Run3Summer22EENanoAODv12/VBFHHto2B2Tau_CV-m1p60_C2V-2p72_C3-m1p36_TuneCP5_13p6TeV_madgraph-pythia8/NANOAODSIM/130X_mcRun3_2022_realistic_postEE_v6-v2/50000/0c31ac7d-4d2c-4f5d-adab-5222dfca392f.root
/store/mc/Run3Summer22EENanoAODv12/VBFHHto2B2Tau_CV-m1p60_C2V-2p72_C3-m1p36_TuneCP5_13p6TeV_madgraph-pythia8/NANOAODSIM/130X_mcRun3_2022_realistic_postEE_v6-v2/50000/d25ea173-e2d8-4061-a514-d8b852bb4f50.root
/store/mc/Run3Summer22EENanoAODv12/VBFHHto2B2Tau_CV-m1p60_C2V-2p72_C3-m1p36_TuneCP5_13p6TeV_madgraph-pythia8/NANOAODSIM/130X_mcRun3_2022_realistic_postEE_v6-v2/50000/cdcd3d96-2927-482a-a2a0-f5dc35fc8225.root
/store/mc/Run3Summer22EENanoAODv12/VBFHHto2B2Tau_CV-m1p60_C2V-2p72_C3-m1p36_TuneCP5_13p6TeV_madgraph-pythia8/NANOAODSIM/130X_mcRun3_2022_realistic_postEE_v6-v2/50000/e5e1aa06-9e3e-4c7a-a4df-e9f3ae781d48.root
/store/mc/Run3Summer22EENanoAODv12/VBFHHto2B2Tau_CV-m1p60_C2V-2p72_C3-m1p36_TuneCP5_13p6TeV_madgraph-pythia8/NANOAODSIM/130X_mcRun3_2022_realistic_postEE_v6-v2/50000/4db3a1f0-22c2-4a33-9dbe-cf7c3016af25.root
/store/mc/Run3Summer22EENanoAODv12/VBFHHto2B2Tau_CV-m1p60_C2V-2p72_C3-m1p36_TuneCP5_13p6TeV_madgraph-pythia8/NANOAODSIM/130X_mcRun3_2022_realistic_postEE_v6-v2/50000/10326718-01e9-4f9c-b096-1ef08582c5ef.root
/store/mc/Run3Summer22EENanoAODv12/VBFHHto2B2Tau_CV-m1p60_C2V-2p72_C3-m1p36_TuneCP5_13p6TeV_madgraph-pythia8/NANOAODSIM/130X_mcRun3_2022_realistic_postEE_v6-v2/2550000/e199b4c5-eab1-4dd3-b5c9-d519312f2288.root
/store/mc/Run3Summer22EENanoAODv12/VBFHHto2B2Tau_CV-m1p60_C2V-2p72_C3-m1p36_TuneCP5_13p6TeV_madgraph-pythia8/NANOAODSIM/130X_mcRun3_2022_realistic_postEE_v6-v2/2540000/68e67f82-fb46-4fbe-8931-2ea3a6d15d21.root
/store/mc/Run3Summer22EENanoAODv12/VBFHHto2B2Tau_CV-m1p60_C2V-2p72_C3-m1p36_TuneCP5_13p6TeV_madgraph-pythia8/NANOAODSIM/130X_mcRun3_2022_realistic_postEE_v6-v2/2540000/38c6c56a-cd81-4536-b07f-b65d6631f34b.root
/store/mc/Run3Summer22EENanoAODv12/VBFHHto2B2Tau_CV-m1p60_C2V-2p72_C3-m1p36_TuneCP5_13p6TeV_madgraph-pythia8/NANOAODSIM/130X_mcRun3_2022_realistic_postEE_v6-v2/2540000/899e0a41-67e9-420c-b3de-1d79c9954b6a.root
/store/mc/Run3Summer22EENanoAODv12/VBFHHto2B2Tau_CV-m1p60_C2V-2p72_C3-m1p36_TuneCP5_13p6TeV_madgraph-pythia8/NANOAODSIM/130X_mcRun3_2022_realistic_postEE_v6-v2/2550000/23f26be4-fce8-4f4a-83ed-34bab67775dc.root
/store/mc/Run3Summer22EENanoAODv12/VBFHHto2B2Tau_CV-m1p60_C2V-2p72_C3-m1p36_TuneCP5_13p6TeV_madgraph-pythia8/NANOAODSIM/130X_mcRun3_2022_realistic_postEE_v6-v2/2550000/ed592231-a157-458c-ae5a-288c4463faf6.root
/store/mc/Run3Summer22EENanoAODv12/VBFHHto2B2Tau_CV-m1p60_C2V-2p72_C3-m1p36_TuneCP5_13p6TeV_madgraph-pythia8/NANOAODSIM/130X_mcRun3_2022_realistic_postEE_v6-v2/2550000/09ad929c-02cf-4870-b986-bad75c65c444.root
/store/mc/Run3Summer22EENanoAODv12/VBFHHto2B2Tau_CV-m1p60_C2V-2p72_C3-m1p36_TuneCP5_13p6TeV_madgraph-pythia8/NANOAODSIM/130X_mcRun3_2022_realistic_postEE_v6-v2/2540000/83680a50-6e72-49eb-b66d-4fc8fa3fa469.root
/store/mc/Run3Summer22EENanoAODv12/VBFHHto2B2Tau_CV-m1p60_C2V-2p72_C3-m1p36_TuneCP5_13p6TeV_madgraph-pythia8/NANOAODSIM/130X_mcRun3_2022_realistic_postEE_v6-v2/2540000/4b667cae-e920-48a4-a0bb-21087cb51776.root
/store/mc/Run3Summer22EENanoAODv12/VBFHHto2B2Tau_CV-m1p60_C2V-2p72_C3-m1p36_TuneCP5_13p6TeV_madgraph-pythia8/NANOAODSIM/130X_mcRun3_2022_realistic_postEE_v6-v2/2540000/e9c79614-d342-4d62-9efa-d93f6927c8b2.root
/store/mc/Run3Summer22EENanoAODv12/VBFHHto2B2Tau_CV-m1p60_C2V-2p72_C3-m1p36_TuneCP5_13p6TeV_madgraph-pythia8/NANOAODSIM/130X_mcRun3_2022_realistic_postEE_v6-v2/2550000/b5392aa1-0caa-4117-8cb6-875abbf29945.root
/store/mc/Run3Summer22EENanoAODv12/VBFHHto2B2Tau_CV-m1p60_C2V-2p72_C3-m1p36_TuneCP5_13p6TeV_madgraph-pythia8/NANOAODSIM/130X_mcRun3_2022_realistic_postEE_v6-v2/2550000/0869314c-4012-47b0-8b48-5b2c7b9b98c7.root
/store/mc/Run3Summer22EENanoAODv12/VBFHHto2B2Tau_CV-m1p60_C2V-2p72_C3-m1p36_TuneCP5_13p6TeV_madgraph-pythia8/NANOAODSIM/130X_mcRun3_2022_realistic_postEE_v6-v2/2540000/2a9103a6-578a-42c7-8240-cd3e61af13b4.root
/store/mc/Run3Summer22EENanoAODv12/VBFHHto2B2Tau_CV-m1p60_C2V-2p72_C3-m1p36_TuneCP5_13p6TeV_madgraph-pythia8/NANOAODSIM/130X_mcRun3_2022_realistic_postEE_v6-v2/2540000/b20d0c82-832f-45b7-8666-5f2014cf4bf2.root
/store/mc/Run3Summer22EENanoAODv12/VBFHHto2B2Tau_CV-m1p60_C2V-2p72_C3-m1p36_TuneCP5_13p6TeV_madgraph-pythia8/NANOAODSIM/130X_mcRun3_2022_realistic_postEE_v6-v2/2540000/15082149-7a47-4ebf-a4f7-0a327e1577a9.root
/store/mc/Run3Summer22EENanoAODv12/VBFHHto2B2Tau_CV-m1p60_C2V-2p72_C3-m1p36_TuneCP5_13p6TeV_madgraph-pythia8/NANOAODSIM/130X_mcRun3_2022_realistic_postEE_v6-v2/2540000/6b234494-f302-4986-b823-ad126f3afd68.root
/store/mc/Run3Summer22EENanoAODv12/VBFHHto2B2Tau_CV-m1p60_C2V-2p72_C3-m1p36_TuneCP5_13p6TeV_madgraph-pythia8/NANOAODSIM/130X_mcRun3_2022_realistic_postEE_v6-v2/2540000/c62b22e9-c12c-450a-b93e-a355877f181f.root
/store/mc/Run3Summer22EENanoAODv12/VBFHHto2B2Tau_CV-m1p60_C2V-2p72_C3-m1p36_TuneCP5_13p6TeV_madgraph-pythia8/NANOAODSIM/130X_mcRun3_2022_realistic_postEE_v6-v2/2540000/5f084798-72d5-4440-b555-eeb51077f1cf.root
/store/mc/Run3Summer22EENanoAODv12/VBFHHto2B2Tau_CV-m1p60_C2V-2p72_C3-m1p36_TuneCP5_13p6TeV_madgraph-pythia8/NANOAODSIM/130X_mcRun3_2022_realistic_postEE_v6-v2/2540000/8957904b-05bb-47b9-b63d-add940153267.root
/store/mc/Run3Summer22EENanoAODv12/VBFHHto2B2Tau_CV-m1p60_C2V-2p72_C3-m1p36_TuneCP5_13p6TeV_madgraph-pythia8/NANOAODSIM/130X_mcRun3_2022_realistic_postEE_v6-v2/2550000/ff9515be-1f20-45b1-838a-8044f6cabd49.root
/store/mc/Run3Summer22EENanoAODv12/VBFHHto2B2Tau_CV-m1p60_C2V-2p72_C3-m1p36_TuneCP5_13p6TeV_madgraph-pythia8/NANOAODSIM/130X_mcRun3_2022_realistic_postEE_v6-v2/2550000/679f6104-edcf-4829-9743-7ce0765e7abe.root
/store/mc/Run3Summer22EENanoAODv12/VBFHHto2B2Tau_CV-m1p60_C2V-2p72_C3-m1p36_TuneCP5_13p6TeV_madgraph-pythia8/NANOAODSIM/130X_mcRun3_2022_realistic_postEE_v6-v2/2550000/a85495ab-ab9c-4352-acf1-416b27dfcb64.root
/store/mc/Run3Summer22EENanoAODv12/VBFHHto2B2Tau_CV-m1p60_C2V-2p72_C3-m1p36_TuneCP5_13p6TeV_madgraph-pythia8/NANOAODSIM/130X_mcRun3_2022_realistic_postEE_v6-v2/2550000/7ed2d3be-5112-4a7c-81b7-b7b875b7dcbc.root
/store/mc/Run3Summer22EENanoAODv12/VBFHHto2B2Tau_CV-m1p60_C2V-2p72_C3-m1p36_TuneCP5_13p6TeV_madgraph-pythia8/NANOAODSIM/130X_mcRun3_2022_realistic_postEE_v6-v2/2550000/fc828f1c-d136-48a8-ad65-c20bf294940b.root
/store/mc/Run3Summer22EENanoAODv12/VBFHHto2B2Tau_CV-m1p60_C2V-2p72_C3-m1p36_TuneCP5_13p6TeV_madgraph-pythia8/NANOAODSIM/130X_mcRun3_2022_realistic_postEE_v6-v2/2550000/898bb889-c159-4b75-9021-707f0bf8d272.root
/store/mc/Run3Summer22EENanoAODv12/VBFHHto2B2Tau_CV-m1p60_C2V-2p72_C3-m1p36_TuneCP5_13p6TeV_madgraph-pythia8/NANOAODSIM/130X_mcRun3_2022_realistic_postEE_v6-v2/2550000/e57683ae-cb80-4e01-a681-60a827a1ab94.root
/store/mc/Run3Summer22EENanoAODv12/VBFHHto2B2Tau_CV-m1p60_C2V-2p72_C3-m1p36_TuneCP5_13p6TeV_madgraph-pythia8/NANOAODSIM/130X_mcRun3_2022_realistic_postEE_v6-v2/2540000/94500055-6414-40d6-81dc-04d6c241016c.root
/store/mc/Run3Summer22EENanoAODv12/VBFHHto2B2Tau_CV-m1p60_C2V-2p72_C3-m1p36_TuneCP5_13p6TeV_madgraph-pythia8/NANOAODSIM/130X_mcRun3_2022_realistic_postEE_v6-v2/2540000/fbc62a88-305f-43be-9134-65b228fc96aa.root
/store/mc/Run3Summer22EENanoAODv12/VBFHHto2B2Tau_CV-m1p60_C2V-2p72_C3-m1p36_TuneCP5_13p6TeV_madgraph-pythia8/NANOAODSIM/130X_mcRun3_2022_realistic_postEE_v6-v2/2540000/2d0bc3aa-55ec-4072-bcb2-c3be6d462212.root
/store/mc/Run3Summer22EENanoAODv12/VBFHHto2B2Tau_CV-m1p60_C2V-2p72_C3-m1p36_TuneCP5_13p6TeV_madgraph-pythia8/NANOAODSIM/130X_mcRun3_2022_realistic_postEE_v6-v2/2540000/236f92ad-dd2b-4c8d-a085-c548ee3bac85.root
/store/mc/Run3Summer22EENanoAODv12/VBFHHto2B2Tau_CV-m1p60_C2V-2p72_C3-m1p36_TuneCP5_13p6TeV_madgraph-pythia8/NANOAODSIM/130X_mcRun3_2022_realistic_postEE_v6-v2/2540000/1712720c-c8fa-4922-b77f-89eb489e67ff.root
/store/mc/Run3Summer22EENanoAODv12/VBFHHto2B2Tau_CV-m1p60_C2V-2p72_C3-m1p36_TuneCP5_13p6TeV_madgraph-pythia8/NANOAODSIM/130X_mcRun3_2022_realistic_postEE_v6-v2/2540000/d6e136ae-51c3-43d4-80f1-c526d03af3f7.root
/store/mc/Run3Summer22EENanoAODv12/VBFHHto2B2Tau_CV-m1p60_C2V-2p72_C3-m1p36_TuneCP5_13p6TeV_madgraph-pythia8/NANOAODSIM/130X_mcRun3_2022_realistic_postEE_v6-v2/2540000/b09e8355-6be2-454a-bbd0-272b883f7cde.root
/store/mc/Run3Summer22EENanoAODv12/VBFHHto2B2Tau_CV-m1p60_C2V-2p72_C3-m1p36_TuneCP5_13p6TeV_madgraph-pythia8/NANOAODSIM/130X_mcRun3_2022_realistic_postEE_v6-v2/2550000/a5293d74-df6f-4f1d-95ea-bce2b1a235eb.root
/store/mc/Run3Summer22EENanoAODv12/VBFHHto2B2Tau_CV-m1p60_C2V-2p72_C3-m1p36_TuneCP5_13p6TeV_madgraph-pythia8/NANOAODSIM/130X_mcRun3_2022_realistic_postEE_v6-v2/2540000/d0030c44-17df-442b-95ba-2b82150cae55.root
/store/mc/Run3Summer22EENanoAODv12/VBFHHto2B2Tau_CV-m1p60_C2V-2p72_C3-m1p36_TuneCP5_13p6TeV_madgraph-pythia8/NANOAODSIM/130X_mcRun3_2022_realistic_postEE_v6-v2/2540000/5bddddee-3255-42ae-9d17-17b83fe441f6.root
/store/mc/Run3Summer22EENanoAODv12/VBFHHto2B2Tau_CV-m1p60_C2V-2p72_C3-m1p36_TuneCP5_13p6TeV_madgraph-pythia8/NANOAODSIM/130X_mcRun3_2022_realistic_postEE_v6-v2/2540000/0bc4dca2-65c9-44b3-aa71-2db224af488b.root
/store/mc/Run3Summer22EENanoAODv12/VBFHHto2B2Tau_CV-m1p60_C2V-2p72_C3-m1p36_TuneCP5_13p6TeV_madgraph-pythia8/NANOAODSIM/130X_mcRun3_2022_realistic_postEE_v6-v2/2550000/af965a2d-040c-4436-ae20-6b7416bb1471.root
/store/mc/Run3Summer22EENanoAODv12/VBFHHto2B2Tau_CV-m1p60_C2V-2p72_C3-m1p36_TuneCP5_13p6TeV_madgraph-pythia8/NANOAODSIM/130X_mcRun3_2022_realistic_postEE_v6-v2/2540000/7588cad3-5367-480c-9c6e-214c17419162.root
/store/mc/Run3Summer22EENanoAODv12/VBFHHto2B2Tau_CV-m1p60_C2V-2p72_C3-m1p36_TuneCP5_13p6TeV_madgraph-pythia8/NANOAODSIM/130X_mcRun3_2022_realistic_postEE_v6-v2/2550000/025b973f-e372-4169-9e0e-c44a2f562f68.root
/store/mc/Run3Summer22EENanoAODv12/VBFHHto2B2Tau_CV-m1p60_C2V-2p72_C3-m1p36_TuneCP5_13p6TeV_madgraph-pythia8/NANOAODSIM/130X_mcRun3_2022_realistic_postEE_v6-v2/2550000/44ec63d8-080d-4904-b0f1-40de9aea77ba.root
/store/mc/Run3Summer22EENanoAODv12/VBFHHto2B2Tau_CV-m1p60_C2V-2p72_C3-m1p36_TuneCP5_13p6TeV_madgraph-pythia8/NANOAODSIM/130X_mcRun3_2022_realistic_postEE_v6-v2/2550000/d1fca537-6c65-4ec8-831e-ab6c934ecfb5.root
/store/mc/Run3Summer22EENanoAODv12/VBFHHto2B2Tau_CV-m1p60_C2V-2p72_C3-m1p36_TuneCP5_13p6TeV_madgraph-pythia8/NANOAODSIM/130X_mcRun3_2022_realistic_postEE_v6-v2/2540000/2e608b7b-e4e6-4ff6-b3a5-8ea702487679.root
/store/mc/Run3Summer22EENanoAODv12/VBFHHto2B2Tau_CV-m1p60_C2V-2p72_C3-m1p36_TuneCP5_13p6TeV_madgraph-pythia8/NANOAODSIM/130X_mcRun3_2022_realistic_postEE_v6-v2/2540000/ff694416-3fbf-4837-b774-eb56ccebb186.root
/store/mc/Run3Summer22EENanoAODv12/VBFHHto2B2Tau_CV-m1p60_C2V-2p72_C3-m1p36_TuneCP5_13p6TeV_madgraph-pythia8/NANOAODSIM/130X_mcRun3_2022_realistic_postEE_v6-v2/2540000/4d7aab1e-08f7-480b-a5d4-fa5a8561f028.root
/store/mc/Run3Summer22EENanoAODv12/VBFHHto2B2Tau_CV-m1p60_C2V-2p72_C3-m1p36_TuneCP5_13p6TeV_madgraph-pythia8/NANOAODSIM/130X_mcRun3_2022_realistic_postEE_v6-v2/2540000/3fdf383e-d363-467b-8b37-092d1fa8819f.root
/store/mc/Run3Summer22EENanoAODv12/VBFHHto2B2Tau_CV-m1p60_C2V-2p72_C3-m1p36_TuneCP5_13p6TeV_madgraph-pythia8/NANOAODSIM/130X_mcRun3_2022_realistic_postEE_v6-v2/2540000/7e304133-387e-474c-b6af-e33fc3601344.root
/store/mc/Run3Summer22EENanoAODv12/VBFHHto2B2Tau_CV-m1p60_C2V-2p72_C3-m1p36_TuneCP5_13p6TeV_madgraph-pythia8/NANOAODSIM/130X_mcRun3_2022_realistic_postEE_v6-v2/2540000/4de19278-37ff-4c43-beed-ca67cd075bd7.root
/store/mc/Run3Summer22EENanoAODv12/VBFHHto2B2Tau_CV-m1p60_C2V-2p72_C3-m1p36_TuneCP5_13p6TeV_madgraph-pythia8/NANOAODSIM/130X_mcRun3_2022_realistic_postEE_v6-v2/2550000/355467b4-fbba-43b4-806c-21be2d775e56.root
/store/mc/Run3Summer22EENanoAODv12/VBFHHto2B2Tau_CV-m1p60_C2V-2p72_C3-m1p36_TuneCP5_13p6TeV_madgraph-pythia8/NANOAODSIM/130X_mcRun3_2022_realistic_postEE_v6-v2/2550000/c149a0e1-0cc7-42cc-9557-c7f049caf004.root
/store/mc/Run3Summer22EENanoAODv12/VBFHHto2B2Tau_CV-m1p60_C2V-2p72_C3-m1p36_TuneCP5_13p6TeV_madgraph-pythia8/NANOAODSIM/130X_mcRun3_2022_realistic_postEE_v6-v2/2550000/eb64e18c-fa4c-4150-a987-38d4578a6ca7.root
/store/mc/Run3Summer22EENanoAODv12/VBFHHto2B2Tau_CV-m1p60_C2V-2p72_C3-m1p36_TuneCP5_13p6TeV_madgraph-pythia8/NANOAODSIM/130X_mcRun3_2022_realistic_postEE_v6-v2/2550000/77ef93e2-a417-45ce-830e-6151876fe4a7.root
/store/mc/Run3Summer22EENanoAODv12/VBFHHto2B2Tau_CV-m1p60_C2V-2p72_C3-m1p36_TuneCP5_13p6TeV_madgraph-pythia8/NANOAODSIM/130X_mcRun3_2022_realistic_postEE_v6-v2/2550000/f00eebac-d202-4c7f-8feb-6d448e4bcf95.root