/store/mc/Run3Summer22EENanoAODv12/VBFHHto2B2Tau_CV-1p74_C2V-1p37_C3-14p4_TuneCP5_13p6TeV_madgraph-pythia8/NANOAODSIM/130X_mcRun3_2022_realistic_postEE_v6-v2/2540000/4b9bd951-3226-428c-9f45-a933c8605d83.root
/store/mc/Run3Summer22EENanoAODv12/VBFHHto2B2Tau_CV-1p74_C2V-1p37_C3-14p4_TuneCP5_13p6TeV_madgraph-pythia8/NANOAODSIM/130X_mcRun3_2022_realistic_postEE_v6-v2/50000/8e41d8b9-8e14-49f0-86cd-fcd803795cc5.root
/store/mc/Run3Summer22EENanoAODv12/VBFHHto2B2Tau_CV-1p74_C2V-1p37_C3-14p4_TuneCP5_13p6TeV_madgraph-pythia8/NANOAODSIM/130X_mcRun3_2022_realistic_postEE_v6-v2/50000/a3b87761-5772-449e-a795-ff7e75d4e98a.root
/store/mc/Run3Summer22EENanoAODv12/VBFHHto2B2Tau_CV-1p74_C2V-1p37_C3-14p4_TuneCP5_13p6TeV_madgraph-pythia8/NANOAODSIM/130X_mcRun3_2022_realistic_postEE_v6-v2/50000/d9f84847-bfb4-400d-bdf5-a60711dd871d.root
/store/mc/Run3Summer22EENanoAODv12/VBFHHto2B2Tau_CV-1p74_C2V-1p37_C3-14p4_TuneCP5_13p6TeV_madgraph-pythia8/NANOAODSIM/130X_mcRun3_2022_realistic_postEE_v6-v2/50000/faba0fc8-039b-4cbd-a85c-164511dd34f6.root
/store/mc/Run3Summer22EENanoAODv12/VBFHHto2B2Tau_CV-1p74_C2V-1p37_C3-14p4_TuneCP5_13p6TeV_madgraph-pythia8/NANOAODSIM/130X_mcRun3_2022_realistic_postEE_v6-v2/50000/6d57a721-128f-4f35-b438-347542bdb444.root
/store/mc/Run3Summer22EENanoAODv12/VBFHHto2B2Tau_CV-1p74_C2V-1p37_C3-14p4_TuneCP5_13p6TeV_madgraph-pythia8/NANOAODSIM/130X_mcRun3_2022_realistic_postEE_v6-v2/50000/30736a3d-f7be-4b07-9983-c1de96cebae2.root
/store/mc/Run3Summer22EENanoAODv12/VBFHHto2B2Tau_CV-1p74_C2V-1p37_C3-14p4_TuneCP5_13p6TeV_madgraph-pythia8/NANOAODSIM/130X_mcRun3_2022_realistic_postEE_v6-v2/50000/7af8353d-f12c-4335-800b-cddce7f083e6.root
/store/mc/Run3Summer22EENanoAODv12/VBFHHto2B2Tau_CV-1p74_C2V-1p37_C3-14p4_TuneCP5_13p6TeV_madgraph-pythia8/NANOAODSIM/130X_mcRun3_2022_realistic_postEE_v6-v2/50000/73e0a16e-bfea-4020-9918-1194fe72ffe9.root
/store/mc/Run3Summer22EENanoAODv12/VBFHHto2B2Tau_CV-1p74_C2V-1p37_C3-14p4_TuneCP5_13p6TeV_madgraph-pythia8/NANOAODSIM/130X_mcRun3_2022_realistic_postEE_v6-v2/50000/dd89eba7-550f-42c2-a4bc-34fb2de0636b.root
/store/mc/Run3Summer22EENanoAODv12/VBFHHto2B2Tau_CV-1p74_C2V-1p37_C3-14p4_TuneCP5_13p6TeV_madgraph-pythia8/NANOAODSIM/130X_mcRun3_2022_realistic_postEE_v6-v2/50000/8660c85b-2f91-4d31-ad4c-ac3b97075caa.root
/store/mc/Run3Summer22EENanoAODv12/VBFHHto2B2Tau_CV-1p74_C2V-1p37_C3-14p4_TuneCP5_13p6TeV_madgraph-pythia8/NANOAODSIM/130X_mcRun3_2022_realistic_postEE_v6-v2/50000/a73f9868-5761-43eb-8a88-220d6d00572e.root
/store/mc/Run3Summer22EENanoAODv12/VBFHHto2B2Tau_CV-1p74_C2V-1p37_C3-14p4_TuneCP5_13p6TeV_madgraph-pythia8/NANOAODSIM/130X_mcRun3_2022_realistic_postEE_v6-v2/50000/812130fd-242c-4767-b1ec-55352d067b7b.root
/store/mc/Run3Summer22EENanoAODv12/VBFHHto2B2Tau_CV-1p74_C2V-1p37_C3-14p4_TuneCP5_13p6TeV_madgraph-pythia8/NANOAODSIM/130X_mcRun3_2022_realistic_postEE_v6-v2/50000/c5ef644c-cb14-43f0-ab01-40156182593d.root
/store/mc/Run3Summer22EENanoAODv12/VBFHHto2B2Tau_CV-1p74_C2V-1p37_C3-14p4_TuneCP5_13p6TeV_madgraph-pythia8/NANOAODSIM/130X_mcRun3_2022_realistic_postEE_v6-v2/50000/d912e822-033e-4fae-9475-15a4c5b399e0.root
/store/mc/Run3Summer22EENanoAODv12/VBFHHto2B2Tau_CV-1p74_C2V-1p37_C3-14p4_TuneCP5_13p6TeV_madgraph-pythia8/NANOAODSIM/130X_mcRun3_2022_realistic_postEE_v6-v2/50000/1a4a925b-e58a-4c0e-93d7-f43bc5f4a752.root
/store/mc/Run3Summer22EENanoAODv12/VBFHHto2B2Tau_CV-1p74_C2V-1p37_C3-14p4_TuneCP5_13p6TeV_madgraph-pythia8/NANOAODSIM/130X_mcRun3_2022_realistic_postEE_v6-v2/50000/219bbc32-9725-410e-8ad4-ae081a04e419.root
/store/mc/Run3Summer22EENanoAODv12/VBFHHto2B2Tau_CV-1p74_C2V-1p37_C3-14p4_TuneCP5_13p6TeV_madgraph-pythia8/NANOAODSIM/130X_mcRun3_2022_realistic_postEE_v6-v2/50000/69df41a4-90e3-4c7e-a4f0-91f791850177.root
/store/mc/Run3Summer22EENanoAODv12/VBFHHto2B2Tau_CV-1p74_C2V-1p37_C3-14p4_TuneCP5_13p6TeV_madgraph-pythia8/NANOAODSIM/130X_mcRun3_2022_realistic_postEE_v6-v2/50000/9249d41c-a1f4-4d7a-8c1c-81f4cd98d03a.root
/store/mc/Run3Summer22EENanoAODv12/VBFHHto2B2Tau_CV-1p74_C2V-1p37_C3-14p4_TuneCP5_13p6TeV_madgraph-pythia8/NANOAODSIM/130X_mcRun3_2022_realistic_postEE_v6-v2/50000/78c2b807-b4ae-48ea-9554-d64f1a004d3e.root
/store/mc/Run3Summer22EENanoAODv12/VBFHHto2B2Tau_CV-1p74_C2V-1p37_C3-14p4_TuneCP5_13p6TeV_madgraph-pythia8/NANOAODSIM/130X_mcRun3_2022_realistic_postEE_v6-v2/50000/c5ddecbd-15cf-4ad3-b1af-94f326ae9973.root
/store/mc/Run3Summer22EENanoAODv12/VBFHHto2B2Tau_CV-1p74_C2V-1p37_C3-14p4_TuneCP5_13p6TeV_madgraph-pythia8/NANOAODSIM/130X_mcRun3_2022_realistic_postEE_v6-v2/50000/51646b91-a221-4f2c-9d73-847f3f786428.root
/store/mc/Run3Summer22EENanoAODv12/VBFHHto2B2Tau_CV-1p74_C2V-1p37_C3-14p4_TuneCP5_13p6TeV_madgraph-pythia8/NANOAODSIM/130X_mcRun3_2022_realistic_postEE_v6-v2/50000/a4dfd2e8-9490-427f-94a2-df5f4606675e.root
/store/mc/Run3Summer22EENanoAODv12/VBFHHto2B2Tau_CV-1p74_C2V-1p37_C3-14p4_TuneCP5_13p6TeV_madgraph-pythia8/NANOAODSIM/130X_mcRun3_2022_realistic_postEE_v6-v2/50000/3cd678b4-91da-4283-a163-95f694d8868a.root
/store/mc/Run3Summer22EENanoAODv12/VBFHHto2B2Tau_CV-1p74_C2V-1p37_C3-14p4_TuneCP5_13p6TeV_madgraph-pythia8/NANOAODSIM/130X_mcRun3_2022_realistic_postEE_v6-v2/50000/0b66ae01-ebda-4f13-bf30-b89d18a3a2f3.root
/store/mc/Run3Summer22EENanoAODv12/VBFHHto2B2Tau_CV-1p74_C2V-1p37_C3-14p4_TuneCP5_13p6TeV_madgraph-pythia8/NANOAODSIM/130X_mcRun3_2022_realistic_postEE_v6-v2/50000/d65c7219-47b4-4fd4-9a74-069bc0695f6a.root
/store/mc/Run3Summer22EENanoAODv12/VBFHHto2B2Tau_CV-1p74_C2V-1p37_C3-14p4_TuneCP5_13p6TeV_madgraph-pythia8/NANOAODSIM/130X_mcRun3_2022_realistic_postEE_v6-v2/50000/2b8939c9-57dc-43c8-84a9-8140796a23c6.root
/store/mc/Run3Summer22EENanoAODv12/VBFHHto2B2Tau_CV-1p74_C2V-1p37_C3-14p4_TuneCP5_13p6TeV_madgraph-pythia8/NANOAODSIM/130X_mcRun3_2022_realistic_postEE_v6-v2/2540000/0f0fd132-6fa6-4b29-9d25-517f00601ccd.root
/store/mc/Run3Summer22EENanoAODv12/VBFHHto2B2Tau_CV-1p74_C2V-1p37_C3-14p4_TuneCP5_13p6TeV_madgraph-pythia8/NANOAODSIM/130X_mcRun3_2022_realistic_postEE_v6-v2/50000/762b8787-bb22-42cd-87bc-1c0fe5a71873.root
/store/mc/Run3Summer22EENanoAODv12/VBFHHto2B2Tau_CV-1p74_C2V-1p37_C3-14p4_TuneCP5_13p6TeV_madgraph-pythia8/NANOAODSIM/130X_mcRun3_2022_realistic_postEE_v6-v2/50000/71997ecd-134c-4936-a1f3-a9bf648d9e1f.root
/store/mc/Run3Summer22EENanoAODv12/VBFHHto2B2Tau_CV-1p74_C2V-1p37_C3-14p4_TuneCP5_13p6TeV_madgraph-pythia8/NANOAODSIM/130X_mcRun3_2022_realistic_postEE_v6-v2/50000/df5ab62a-4fd0-458c-aa6b-7e84d3d41891.root
/store/mc/Run3Summer22EENanoAODv12/VBFHHto2B2Tau_CV-1p74_C2V-1p37_C3-14p4_TuneCP5_13p6TeV_madgraph-pythia8/NANOAODSIM/130X_mcRun3_2022_realistic_postEE_v6-v2/2550000/554ab767-a9a0-42a1-afb5-bfd63a9b22b3.root
/store/mc/Run3Summer22EENanoAODv12/VBFHHto2B2Tau_CV-1p74_C2V-1p37_C3-14p4_TuneCP5_13p6TeV_madgraph-pythia8/NANOAODSIM/130X_mcRun3_2022_realistic_postEE_v6-v2/2550000/cf920240-12c0-442f-9675-d695664d57c7.root
/store/mc/Run3Summer22EENanoAODv12/VBFHHto2B2Tau_CV-1p74_C2V-1p37_C3-14p4_TuneCP5_13p6TeV_madgraph-pythia8/NANOAODSIM/130X_mcRun3_2022_realistic_postEE_v6-v2/2550000/73e874fe-a855-49e1-89d4-e89ecf8e32e8.root
/store/mc/Run3Summer22EENanoAODv12/VBFHHto2B2Tau_CV-1p74_C2V-1p37_C3-14p4_TuneCP5_13p6TeV_madgraph-pythia8/NANOAODSIM/130X_mcRun3_2022_realistic_postEE_v6-v2/2550000/ab84ce7f-0e80-4da3-9dad-4d06d3ba4d9f.root
/store/mc/Run3Summer22EENanoAODv12/VBFHHto2B2Tau_CV-1p74_C2V-1p37_C3-14p4_TuneCP5_13p6TeV_madgraph-pythia8/NANOAODSIM/130X_mcRun3_2022_realistic_postEE_v6-v2/2550000/21dc2ca6-8a02-4d6e-839c-ed0ce0779168.root
/store/mc/Run3Summer22EENanoAODv12/VBFHHto2B2Tau_CV-1p74_C2V-1p37_C3-14p4_TuneCP5_13p6TeV_madgraph-pythia8/NANOAODSIM/130X_mcRun3_2022_realistic_postEE_v6-v2/2550000/da2f347d-9995-459d-99b3-0efe4652334a.root
/store/mc/Run3Summer22EENanoAODv12/VBFHHto2B2Tau_CV-1p74_C2V-1p37_C3-14p4_TuneCP5_13p6TeV_madgraph-pythia8/NANOAODSIM/130X_mcRun3_2022_realistic_postEE_v6-v2/2550000/6e362077-3cd3-4ac7-bf68-ee49737311d5.root
/store/mc/Run3Summer22EENanoAODv12/VBFHHto2B2Tau_CV-1p74_C2V-1p37_C3-14p4_TuneCP5_13p6TeV_madgraph-pythia8/NANOAODSIM/130X_mcRun3_2022_realistic_postEE_v6-v2/2550000/8d466994-aa4d-4852-84b9-cc2bb978264a.root
/store/mc/Run3Summer22EENanoAODv12/VBFHHto2B2Tau_CV-1p74_C2V-1p37_C3-14p4_TuneCP5_13p6TeV_madgraph-pythia8/NANOAODSIM/130X_mcRun3_2022_realistic_postEE_v6-v2/2550000/6f91ad94-f3bc-4739-8fdf-c2fb3548ede3.root
/store/mc/Run3Summer22EENanoAODv12/VBFHHto2B2Tau_CV-1p74_C2V-1p37_C3-14p4_TuneCP5_13p6TeV_madgraph-pythia8/NANOAODSIM/130X_mcRun3_2022_realistic_postEE_v6-v2/2550000/4828093b-cd6c-4346-8aa0-d61a55b37a6f.root
/store/mc/Run3Summer22EENanoAODv12/VBFHHto2B2Tau_CV-1p74_C2V-1p37_C3-14p4_TuneCP5_13p6TeV_madgraph-pythia8/NANOAODSIM/130X_mcRun3_2022_realistic_postEE_v6-v2/2550000/7f2521db-fdeb-444e-a98a-753424745918.root
/store/mc/Run3Summer22EENanoAODv12/VBFHHto2B2Tau_CV-1p74_C2V-1p37_C3-14p4_TuneCP5_13p6TeV_madgraph-pythia8/NANOAODSIM/130X_mcRun3_2022_realistic_postEE_v6-v2/2550000/28952210-0bd6-4287-a99f-097ec94b99d9.root
/store/mc/Run3Summer22EENanoAODv12/VBFHHto2B2Tau_CV-1p74_C2V-1p37_C3-14p4_TuneCP5_13p6TeV_madgraph-pythia8/NANOAODSIM/130X_mcRun3_2022_realistic_postEE_v6-v2/2550000/f0337f02-c549-4edf-af54-2295e432adf5.root
/store/mc/Run3Summer22EENanoAODv12/VBFHHto2B2Tau_CV-1p74_C2V-1p37_C3-14p4_TuneCP5_13p6TeV_madgraph-pythia8/NANOAODSIM/130X_mcRun3_2022_realistic_postEE_v6-v2/2550000/4acddb42-be3f-4014-8d67-686f1db164c0.root
/store/mc/Run3Summer22EENanoAODv12/VBFHHto2B2Tau_CV-1p74_C2V-1p37_C3-14p4_TuneCP5_13p6TeV_madgraph-pythia8/NANOAODSIM/130X_mcRun3_2022_realistic_postEE_v6-v2/2550000/83beefa6-5bb5-4900-862e-36725767423d.root
/store/mc/Run3Summer22EENanoAODv12/VBFHHto2B2Tau_CV-1p74_C2V-1p37_C3-14p4_TuneCP5_13p6TeV_madgraph-pythia8/NANOAODSIM/130X_mcRun3_2022_realistic_postEE_v6-v2/2550000/415c208b-533b-4c91-9873-086fc2c6fcd1.root
/store/mc/Run3Summer22EENanoAODv12/VBFHHto2B2Tau_CV-1p74_C2V-1p37_C3-14p4_TuneCP5_13p6TeV_madgraph-pythia8/NANOAODSIM/130X_mcRun3_2022_realistic_postEE_v6-v2/2550000/05535daf-78af-432a-8072-154f4bafc094.root
/store/mc/Run3Summer22EENanoAODv12/VBFHHto2B2Tau_CV-1p74_C2V-1p37_C3-14p4_TuneCP5_13p6TeV_madgraph-pythia8/NANOAODSIM/130X_mcRun3_2022_realistic_postEE_v6-v2/2550000/8ee599c5-ea2b-4125-8fb9-21489b64439d.root
/store/mc/Run3Summer22EENanoAODv12/VBFHHto2B2Tau_CV-1p74_C2V-1p37_C3-14p4_TuneCP5_13p6TeV_madgraph-pythia8/NANOAODSIM/130X_mcRun3_2022_realistic_postEE_v6-v2/2550000/aeec0ecf-ba5c-428b-9617-711e226de84d.root
/store/mc/Run3Summer22EENanoAODv12/VBFHHto2B2Tau_CV-1p74_C2V-1p37_C3-14p4_TuneCP5_13p6TeV_madgraph-pythia8/NANOAODSIM/130X_mcRun3_2022_realistic_postEE_v6-v2/2550000/505295ca-5f5a-45d4-9675-4c05a27c6aa0.root
/store/mc/Run3Summer22EENanoAODv12/VBFHHto2B2Tau_CV-1p74_C2V-1p37_C3-14p4_TuneCP5_13p6TeV_madgraph-pythia8/NANOAODSIM/130X_mcRun3_2022_realistic_postEE_v6-v2/2550000/973b54f2-75d1-4eca-a2fe-ee65a583e6dc.root
/store/mc/Run3Summer22EENanoAODv12/VBFHHto2B2Tau_CV-1p74_C2V-1p37_C3-14p4_TuneCP5_13p6TeV_madgraph-pythia8/NANOAODSIM/130X_mcRun3_2022_realistic_postEE_v6-v2/2550000/0b62b154-775a-45cf-bdb5-91c97d794b59.root
/store/mc/Run3Summer22EENanoAODv12/VBFHHto2B2Tau_CV-1p74_C2V-1p37_C3-14p4_TuneCP5_13p6TeV_madgraph-pythia8/NANOAODSIM/130X_mcRun3_2022_realistic_postEE_v6-v2/2550000/93389aca-ecd6-4a69-abd6-7047ea85beff.root
/store/mc/Run3Summer22EENanoAODv12/VBFHHto2B2Tau_CV-1p74_C2V-1p37_C3-14p4_TuneCP5_13p6TeV_madgraph-pythia8/NANOAODSIM/130X_mcRun3_2022_realistic_postEE_v6-v2/2550000/25e14fdb-7e06-4743-bf32-40cca97daefc.root
/store/mc/Run3Summer22EENanoAODv12/VBFHHto2B2Tau_CV-1p74_C2V-1p37_C3-14p4_TuneCP5_13p6TeV_madgraph-pythia8/NANOAODSIM/130X_mcRun3_2022_realistic_postEE_v6-v2/2550000/547721bb-fab5-47af-9be6-8ef9f09da8bf.root
/store/mc/Run3Summer22EENanoAODv12/VBFHHto2B2Tau_CV-1p74_C2V-1p37_C3-14p4_TuneCP5_13p6TeV_madgraph-pythia8/NANOAODSIM/130X_mcRun3_2022_realistic_postEE_v6-v2/2550000/c674899a-5d09-46e3-a4d2-f34e5206b081.root
/store/mc/Run3Summer22EENanoAODv12/VBFHHto2B2Tau_CV-1p74_C2V-1p37_C3-14p4_TuneCP5_13p6TeV_madgraph-pythia8/NANOAODSIM/130X_mcRun3_2022_realistic_postEE_v6-v2/2550000/3cc17f85-e4d2-4cb0-8c82-c6e238476e49.root
/store/mc/Run3Summer22EENanoAODv12/VBFHHto2B2Tau_CV-1p74_C2V-1p37_C3-14p4_TuneCP5_13p6TeV_madgraph-pythia8/NANOAODSIM/130X_mcRun3_2022_realistic_postEE_v6-v2/2550000/b6fac734-c780-4000-a68d-9df8efd7a2a7.root