/store/mc/Run3Summer22EENanoAODv12/VBFHHto2B2Tau_CV-m0p962_C2V-0p959_C3-m1p43_TuneCP5_13p6TeV_madgraph-pythia8/NANOAODSIM/130X_mcRun3_2022_realistic_postEE_v6-v2/50000/73a9063f-5ece-4004-a4f8-bc0f262692b0.root
/store/mc/Run3Summer22EENanoAODv12/VBFHHto2B2Tau_CV-m0p962_C2V-0p959_C3-m1p43_TuneCP5_13p6TeV_madgraph-pythia8/NANOAODSIM/130X_mcRun3_2022_realistic_postEE_v6-v2/50000/298510db-84e0-4204-9514-ab928b864541.root
/store/mc/Run3Summer22EENanoAODv12/VBFHHto2B2Tau_CV-m0p962_C2V-0p959_C3-m1p43_TuneCP5_13p6TeV_madgraph-pythia8/NANOAODSIM/130X_mcRun3_2022_realistic_postEE_v6-v2/50000/6b0af3d6-36b0-48fb-8a9e-66946683f960.root
/store/mc/Run3Summer22EENanoAODv12/VBFHHto2B2Tau_CV-m0p962_C2V-0p959_C3-m1p43_TuneCP5_13p6TeV_madgraph-pythia8/NANOAODSIM/130X_mcRun3_2022_realistic_postEE_v6-v2/50000/38b576c2-1c69-4091-8251-cbb4a2ea969e.root
/store/mc/Run3Summer22EENanoAODv12/VBFHHto2B2Tau_CV-m0p962_C2V-0p959_C3-m1p43_TuneCP5_13p6TeV_madgraph-pythia8/NANOAODSIM/130X_mcRun3_2022_realistic_postEE_v6-v2/50000/7ca792ae-a45c-4207-8ef8-f3a7bb6fc3de.root
/store/mc/Run3Summer22EENanoAODv12/VBFHHto2B2Tau_CV-m0p962_C2V-0p959_C3-m1p43_TuneCP5_13p6TeV_madgraph-pythia8/NANOAODSIM/130X_mcRun3_2022_realistic_postEE_v6-v2/50000/512f8c28-5812-459c-888a-4d88b44d531c.root
/store/mc/Run3Summer22EENanoAODv12/VBFHHto2B2Tau_CV-m0p962_C2V-0p959_C3-m1p43_TuneCP5_13p6TeV_madgraph-pythia8/NANOAODSIM/130X_mcRun3_2022_realistic_postEE_v6-v2/50000/53610fac-16f7-4aea-a974-647f6ff3c70a.root
/store/mc/Run3Summer22EENanoAODv12/VBFHHto2B2Tau_CV-m0p962_C2V-0p959_C3-m1p43_TuneCP5_13p6TeV_madgraph-pythia8/NANOAODSIM/130X_mcRun3_2022_realistic_postEE_v6-v2/50000/92e58a17-7740-450f-af5e-b797a26bf588.root
/store/mc/Run3Summer22EENanoAODv12/VBFHHto2B2Tau_CV-m0p962_C2V-0p959_C3-m1p43_TuneCP5_13p6TeV_madgraph-pythia8/NANOAODSIM/130X_mcRun3_2022_realistic_postEE_v6-v2/50000/77261937-7e7d-445d-90c6-36a0bc7c1925.root
/store/mc/Run3Summer22EENanoAODv12/VBFHHto2B2Tau_CV-m0p962_C2V-0p959_C3-m1p43_TuneCP5_13p6TeV_madgraph-pythia8/NANOAODSIM/130X_mcRun3_2022_realistic_postEE_v6-v2/50000/ca89d549-07eb-4a22-8866-88df03c338e1.root
/store/mc/Run3Summer22EENanoAODv12/VBFHHto2B2Tau_CV-m0p962_C2V-0p959_C3-m1p43_TuneCP5_13p6TeV_madgraph-pythia8/NANOAODSIM/130X_mcRun3_2022_realistic_postEE_v6-v2/50000/4b1560b4-ad22-458f-abba-9f116a24017b.root
/store/mc/Run3Summer22EENanoAODv12/VBFHHto2B2Tau_CV-m0p962_C2V-0p959_C3-m1p43_TuneCP5_13p6TeV_madgraph-pythia8/NANOAODSIM/130X_mcRun3_2022_realistic_postEE_v6-v2/50000/78130314-e2e8-474a-a7ee-bf30c2ec5acd.root
/store/mc/Run3Summer22EENanoAODv12/VBFHHto2B2Tau_CV-m0p962_C2V-0p959_C3-m1p43_TuneCP5_13p6TeV_madgraph-pythia8/NANOAODSIM/130X_mcRun3_2022_realistic_postEE_v6-v2/50000/3c831b82-53a6-46ee-99f3-916397a1508c.root
/store/mc/Run3Summer22EENanoAODv12/VBFHHto2B2Tau_CV-m0p962_C2V-0p959_C3-m1p43_TuneCP5_13p6TeV_madgraph-pythia8/NANOAODSIM/130X_mcRun3_2022_realistic_postEE_v6-v2/50000/09d2c7d1-0dcd-4e35-9f54-6c8c1c18ddb4.root
/store/mc/Run3Summer22EENanoAODv12/VBFHHto2B2Tau_CV-m0p962_C2V-0p959_C3-m1p43_TuneCP5_13p6TeV_madgraph-pythia8/NANOAODSIM/130X_mcRun3_2022_realistic_postEE_v6-v2/50000/d9507b13-3644-42a1-abf0-7c86f485edf4.root
/store/mc/Run3Summer22EENanoAODv12/VBFHHto2B2Tau_CV-m0p962_C2V-0p959_C3-m1p43_TuneCP5_13p6TeV_madgraph-pythia8/NANOAODSIM/130X_mcRun3_2022_realistic_postEE_v6-v2/50000/ba23f096-705f-4093-b24c-51e442ca62fc.root
/store/mc/Run3Summer22EENanoAODv12/VBFHHto2B2Tau_CV-m0p962_C2V-0p959_C3-m1p43_TuneCP5_13p6TeV_madgraph-pythia8/NANOAODSIM/130X_mcRun3_2022_realistic_postEE_v6-v2/50000/0ba3a003-cada-468b-ada6-7c3521cc0c6c.root
/store/mc/Run3Summer22EENanoAODv12/VBFHHto2B2Tau_CV-m0p962_C2V-0p959_C3-m1p43_TuneCP5_13p6TeV_madgraph-pythia8/NANOAODSIM/130X_mcRun3_2022_realistic_postEE_v6-v2/50000/649b2803-4ea8-4cc5-8875-b3e82edb04d7.root
/store/mc/Run3Summer22EENanoAODv12/VBFHHto2B2Tau_CV-m0p962_C2V-0p959_C3-m1p43_TuneCP5_13p6TeV_madgraph-pythia8/NANOAODSIM/130X_mcRun3_2022_realistic_postEE_v6-v2/50000/9d58cd0a-8c9d-4e6b-8ae1-f5be4a1963ff.root
/store/mc/Run3Summer22EENanoAODv12/VBFHHto2B2Tau_CV-m0p962_C2V-0p959_C3-m1p43_TuneCP5_13p6TeV_madgraph-pythia8/NANOAODSIM/130X_mcRun3_2022_realistic_postEE_v6-v2/50000/9c6b4be3-8581-4a9f-8d6b-92f75a82bc15.root
/store/mc/Run3Summer22EENanoAODv12/VBFHHto2B2Tau_CV-m0p962_C2V-0p959_C3-m1p43_TuneCP5_13p6TeV_madgraph-pythia8/NANOAODSIM/130X_mcRun3_2022_realistic_postEE_v6-v2/50000/50bee7e9-3933-4530-8196-0ca1e4818224.root
/store/mc/Run3Summer22EENanoAODv12/VBFHHto2B2Tau_CV-m0p962_C2V-0p959_C3-m1p43_TuneCP5_13p6TeV_madgraph-pythia8/NANOAODSIM/130X_mcRun3_2022_realistic_postEE_v6-v2/50000/2e6bc284-99af-4e05-8144-6b830ccedbe3.root
/store/mc/Run3Summer22EENanoAODv12/VBFHHto2B2Tau_CV-m0p962_C2V-0p959_C3-m1p43_TuneCP5_13p6TeV_madgraph-pythia8/NANOAODSIM/130X_mcRun3_2022_realistic_postEE_v6-v2/50000/aaab8908-bff9-4321-9bdb-18a03535986e.root
/store/mc/Run3Summer22EENanoAODv12/VBFHHto2B2Tau_CV-m0p962_C2V-0p959_C3-m1p43_TuneCP5_13p6TeV_madgraph-pythia8/NANOAODSIM/130X_mcRun3_2022_realistic_postEE_v6-v2/50000/f031ede5-4854-4274-8aa7-ef8cc7b74ddd.root
/store/mc/Run3Summer22EENanoAODv12/VBFHHto2B2Tau_CV-m0p962_C2V-0p959_C3-m1p43_TuneCP5_13p6TeV_madgraph-pythia8/NANOAODSIM/130X_mcRun3_2022_realistic_postEE_v6-v2/50000/9f68d109-edeb-4b5a-a8f3-5e70a9aa3451.root
/store/mc/Run3Summer22EENanoAODv12/VBFHHto2B2Tau_CV-m0p962_C2V-0p959_C3-m1p43_TuneCP5_13p6TeV_madgraph-pythia8/NANOAODSIM/130X_mcRun3_2022_realistic_postEE_v6-v2/50000/b81294f5-c72b-407e-82c8-27e6d37a0151.root
/store/mc/Run3Summer22EENanoAODv12/VBFHHto2B2Tau_CV-m0p962_C2V-0p959_C3-m1p43_TuneCP5_13p6TeV_madgraph-pythia8/NANOAODSIM/130X_mcRun3_2022_realistic_postEE_v6-v2/50000/9b74d819-b6a5-4f8c-868b-ae813bd98c31.root
/store/mc/Run3Summer22EENanoAODv12/VBFHHto2B2Tau_CV-m0p962_C2V-0p959_C3-m1p43_TuneCP5_13p6TeV_madgraph-pythia8/NANOAODSIM/130X_mcRun3_2022_realistic_postEE_v6-v2/50000/dc4f1a47-0fd6-4273-85c4-e9ba9b810535.root
/store/mc/Run3Summer22EENanoAODv12/VBFHHto2B2Tau_CV-m0p962_C2V-0p959_C3-m1p43_TuneCP5_13p6TeV_madgraph-pythia8/NANOAODSIM/130X_mcRun3_2022_realistic_postEE_v6-v2/50000/757f2b09-3e54-474e-b538-eac0dff51ac2.root
/store/mc/Run3Summer22EENanoAODv12/VBFHHto2B2Tau_CV-m0p962_C2V-0p959_C3-m1p43_TuneCP5_13p6TeV_madgraph-pythia8/NANOAODSIM/130X_mcRun3_2022_realistic_postEE_v6-v2/50000/36a83a7d-2d86-4009-b19a-95a3b0ad2a1a.root
/store/mc/Run3Summer22EENanoAODv12/VBFHHto2B2Tau_CV-m0p962_C2V-0p959_C3-m1p43_TuneCP5_13p6TeV_madgraph-pythia8/NANOAODSIM/130X_mcRun3_2022_realistic_postEE_v6-v2/50000/6b912dcf-dc5a-41d9-b025-5885c5626cc2.root
/store/mc/Run3Summer22EENanoAODv12/VBFHHto2B2Tau_CV-m0p962_C2V-0p959_C3-m1p43_TuneCP5_13p6TeV_madgraph-pythia8/NANOAODSIM/130X_mcRun3_2022_realistic_postEE_v6-v2/50000/c4d2b809-927f-4de8-9f44-4bd68de69977.root
/store/mc/Run3Summer22EENanoAODv12/VBFHHto2B2Tau_CV-m0p962_C2V-0p959_C3-m1p43_TuneCP5_13p6TeV_madgraph-pythia8/NANOAODSIM/130X_mcRun3_2022_realistic_postEE_v6-v2/50000/0c419585-50c2-439e-8f91-09cddb70bb09.root
/store/mc/Run3Summer22EENanoAODv12/VBFHHto2B2Tau_CV-m0p962_C2V-0p959_C3-m1p43_TuneCP5_13p6TeV_madgraph-pythia8/NANOAODSIM/130X_mcRun3_2022_realistic_postEE_v6-v2/50000/832fac1f-5f00-4925-8a00-c81e03e5ffd6.root
/store/mc/Run3Summer22EENanoAODv12/VBFHHto2B2Tau_CV-m0p962_C2V-0p959_C3-m1p43_TuneCP5_13p6TeV_madgraph-pythia8/NANOAODSIM/130X_mcRun3_2022_realistic_postEE_v6-v2/2550000/477cd432-3bcc-4ecf-8313-6a3e019de254.root
/store/mc/Run3Summer22EENanoAODv12/VBFHHto2B2Tau_CV-m0p962_C2V-0p959_C3-m1p43_TuneCP5_13p6TeV_madgraph-pythia8/NANOAODSIM/130X_mcRun3_2022_realistic_postEE_v6-v2/2550000/f4716a55-39e4-4a9d-b1c0-dd320be39817.root
/store/mc/Run3Summer22EENanoAODv12/VBFHHto2B2Tau_CV-m0p962_C2V-0p959_C3-m1p43_TuneCP5_13p6TeV_madgraph-pythia8/NANOAODSIM/130X_mcRun3_2022_realistic_postEE_v6-v2/2550000/c420d8c3-5db0-40da-8ad4-2595a67eebbd.root
/store/mc/Run3Summer22EENanoAODv12/VBFHHto2B2Tau_CV-m0p962_C2V-0p959_C3-m1p43_TuneCP5_13p6TeV_madgraph-pythia8/NANOAODSIM/130X_mcRun3_2022_realistic_postEE_v6-v2/2550000/e59e4bda-01d6-41fe-9ede-4e3619015997.root
/store/mc/Run3Summer22EENanoAODv12/VBFHHto2B2Tau_CV-m0p962_C2V-0p959_C3-m1p43_TuneCP5_13p6TeV_madgraph-pythia8/NANOAODSIM/130X_mcRun3_2022_realistic_postEE_v6-v2/2550000/019335a1-45f5-471e-b461-5a601e3743a8.root
/store/mc/Run3Summer22EENanoAODv12/VBFHHto2B2Tau_CV-m0p962_C2V-0p959_C3-m1p43_TuneCP5_13p6TeV_madgraph-pythia8/NANOAODSIM/130X_mcRun3_2022_realistic_postEE_v6-v2/2550000/43ccaf19-e4d7-4bbc-9324-111df4bb896c.root
/store/mc/Run3Summer22EENanoAODv12/VBFHHto2B2Tau_CV-m0p962_C2V-0p959_C3-m1p43_TuneCP5_13p6TeV_madgraph-pythia8/NANOAODSIM/130X_mcRun3_2022_realistic_postEE_v6-v2/2550000/2ab52041-b2ba-4822-897a-b3887e49aa73.root
/store/mc/Run3Summer22EENanoAODv12/VBFHHto2B2Tau_CV-m0p962_C2V-0p959_C3-m1p43_TuneCP5_13p6TeV_madgraph-pythia8/NANOAODSIM/130X_mcRun3_2022_realistic_postEE_v6-v2/2550000/d032706b-ac3c-45c4-82fd-13f5e094ec17.root
/store/mc/Run3Summer22EENanoAODv12/VBFHHto2B2Tau_CV-m0p962_C2V-0p959_C3-m1p43_TuneCP5_13p6TeV_madgraph-pythia8/NANOAODSIM/130X_mcRun3_2022_realistic_postEE_v6-v2/2550000/32c76bad-63f5-45c7-9bbd-b7da40ee5135.root
/store/mc/Run3Summer22EENanoAODv12/VBFHHto2B2Tau_CV-m0p962_C2V-0p959_C3-m1p43_TuneCP5_13p6TeV_madgraph-pythia8/NANOAODSIM/130X_mcRun3_2022_realistic_postEE_v6-v2/2550000/85d345f3-a704-489b-8574-0bb683da340e.root
/store/mc/Run3Summer22EENanoAODv12/VBFHHto2B2Tau_CV-m0p962_C2V-0p959_C3-m1p43_TuneCP5_13p6TeV_madgraph-pythia8/NANOAODSIM/130X_mcRun3_2022_realistic_postEE_v6-v2/2550000/586c027d-de95-4004-9a68-f9412b957fba.root
/store/mc/Run3Summer22EENanoAODv12/VBFHHto2B2Tau_CV-m0p962_C2V-0p959_C3-m1p43_TuneCP5_13p6TeV_madgraph-pythia8/NANOAODSIM/130X_mcRun3_2022_realistic_postEE_v6-v2/2550000/b35f905f-4550-44c6-929a-6537d24f0f5a.root
/store/mc/Run3Summer22EENanoAODv12/VBFHHto2B2Tau_CV-m0p962_C2V-0p959_C3-m1p43_TuneCP5_13p6TeV_madgraph-pythia8/NANOAODSIM/130X_mcRun3_2022_realistic_postEE_v6-v2/2550000/c4a015c3-1a95-4f44-b3c1-4fbb0d2b851c.root
/store/mc/Run3Summer22EENanoAODv12/VBFHHto2B2Tau_CV-m0p962_C2V-0p959_C3-m1p43_TuneCP5_13p6TeV_madgraph-pythia8/NANOAODSIM/130X_mcRun3_2022_realistic_postEE_v6-v2/2550000/ece0d5cd-2876-4540-8f43-f8a0df2dbcc0.root
/store/mc/Run3Summer22EENanoAODv12/VBFHHto2B2Tau_CV-m0p962_C2V-0p959_C3-m1p43_TuneCP5_13p6TeV_madgraph-pythia8/NANOAODSIM/130X_mcRun3_2022_realistic_postEE_v6-v2/2550000/e8d8a761-6ccb-4374-915c-5224b870ab1e.root
/store/mc/Run3Summer22EENanoAODv12/VBFHHto2B2Tau_CV-m0p962_C2V-0p959_C3-m1p43_TuneCP5_13p6TeV_madgraph-pythia8/NANOAODSIM/130X_mcRun3_2022_realistic_postEE_v6-v2/2550000/8d443a67-ba05-43a0-b74f-4154f5b8273b.root
/store/mc/Run3Summer22EENanoAODv12/VBFHHto2B2Tau_CV-m0p962_C2V-0p959_C3-m1p43_TuneCP5_13p6TeV_madgraph-pythia8/NANOAODSIM/130X_mcRun3_2022_realistic_postEE_v6-v2/2550000/604cd0c7-228e-44f0-80bc-412c447feef9.root
/store/mc/Run3Summer22EENanoAODv12/VBFHHto2B2Tau_CV-m0p962_C2V-0p959_C3-m1p43_TuneCP5_13p6TeV_madgraph-pythia8/NANOAODSIM/130X_mcRun3_2022_realistic_postEE_v6-v2/2550000/e7930922-91d0-44f6-bfde-303396c43570.root
/store/mc/Run3Summer22EENanoAODv12/VBFHHto2B2Tau_CV-m0p962_C2V-0p959_C3-m1p43_TuneCP5_13p6TeV_madgraph-pythia8/NANOAODSIM/130X_mcRun3_2022_realistic_postEE_v6-v2/2550000/08e6725b-4151-43c8-8b04-b642638d21bf.root
/store/mc/Run3Summer22EENanoAODv12/VBFHHto2B2Tau_CV-m0p962_C2V-0p959_C3-m1p43_TuneCP5_13p6TeV_madgraph-pythia8/NANOAODSIM/130X_mcRun3_2022_realistic_postEE_v6-v2/2550000/0b3a4d12-f626-403a-8f95-66ce18e19ab5.root
/store/mc/Run3Summer22EENanoAODv12/VBFHHto2B2Tau_CV-m0p962_C2V-0p959_C3-m1p43_TuneCP5_13p6TeV_madgraph-pythia8/NANOAODSIM/130X_mcRun3_2022_realistic_postEE_v6-v2/2550000/01a88dda-a2f3-42d7-b117-26052136c9c2.root
/store/mc/Run3Summer22EENanoAODv12/VBFHHto2B2Tau_CV-m0p962_C2V-0p959_C3-m1p43_TuneCP5_13p6TeV_madgraph-pythia8/NANOAODSIM/130X_mcRun3_2022_realistic_postEE_v6-v2/2550000/a59fc605-a514-4770-85c6-268f61b4a717.root
/store/mc/Run3Summer22EENanoAODv12/VBFHHto2B2Tau_CV-m0p962_C2V-0p959_C3-m1p43_TuneCP5_13p6TeV_madgraph-pythia8/NANOAODSIM/130X_mcRun3_2022_realistic_postEE_v6-v2/2550000/32345979-aeb9-4fd5-908d-f743342a4ede.root
/store/mc/Run3Summer22EENanoAODv12/VBFHHto2B2Tau_CV-m0p962_C2V-0p959_C3-m1p43_TuneCP5_13p6TeV_madgraph-pythia8/NANOAODSIM/130X_mcRun3_2022_realistic_postEE_v6-v2/2550000/39006d58-9846-4245-a249-58ba7e5ffe8b.root
/store/mc/Run3Summer22EENanoAODv12/VBFHHto2B2Tau_CV-m0p962_C2V-0p959_C3-m1p43_TuneCP5_13p6TeV_madgraph-pythia8/NANOAODSIM/130X_mcRun3_2022_realistic_postEE_v6-v2/2550000/fa30c590-c30f-4dd6-ae41-56c594b0868f.root
/store/mc/Run3Summer22EENanoAODv12/VBFHHto2B2Tau_CV-m0p962_C2V-0p959_C3-m1p43_TuneCP5_13p6TeV_madgraph-pythia8/NANOAODSIM/130X_mcRun3_2022_realistic_postEE_v6-v2/2550000/4ab409c2-230e-4716-b15c-be39e8249496.root