/store/mc/Run3Summer22EENanoAODv12/VBFHHto2B2Tau_CV-m2p12_C2V-3p87_C3-m5p96_TuneCP5_13p6TeV_madgraph-pythia8/NANOAODSIM/130X_mcRun3_2022_realistic_postEE_v6-v2/50000/95e23135-48a8-4aea-bb3b-9fce60dedc98.root
/store/mc/Run3Summer22EENanoAODv12/VBFHHto2B2Tau_CV-m2p12_C2V-3p87_C3-m5p96_TuneCP5_13p6TeV_madgraph-pythia8/NANOAODSIM/130X_mcRun3_2022_realistic_postEE_v6-v2/50000/65e82bf7-49c9-4b5f-9b57-226d092e384b.root
/store/mc/Run3Summer22EENanoAODv12/VBFHHto2B2Tau_CV-m2p12_C2V-3p87_C3-m5p96_TuneCP5_13p6TeV_madgraph-pythia8/NANOAODSIM/130X_mcRun3_2022_realistic_postEE_v6-v2/50000/a2f424ce-e2ed-44c3-b98a-1fd6670a0d0c.root
/store/mc/Run3Summer22EENanoAODv12/VBFHHto2B2Tau_CV-m2p12_C2V-3p87_C3-m5p96_TuneCP5_13p6TeV_madgraph-pythia8/NANOAODSIM/130X_mcRun3_2022_realistic_postEE_v6-v2/50000/c8c2503f-35c1-4272-a287-6e21ccd32e22.root
/store/mc/Run3Summer22EENanoAODv12/VBFHHto2B2Tau_CV-m2p12_C2V-3p87_C3-m5p96_TuneCP5_13p6TeV_madgraph-pythia8/NANOAODSIM/130X_mcRun3_2022_realistic_postEE_v6-v2/50000/d1e7c6cd-365a-4442-a01a-cccf05e95522.root
/store/mc/Run3Summer22EENanoAODv12/VBFHHto2B2Tau_CV-m2p12_C2V-3p87_C3-m5p96_TuneCP5_13p6TeV_madgraph-pythia8/NANOAODSIM/130X_mcRun3_2022_realistic_postEE_v6-v2/50000/86860c2b-b539-479f-863a-c1d77f538b01.root
/store/mc/Run3Summer22EENanoAODv12/VBFHHto2B2Tau_CV-m2p12_C2V-3p87_C3-m5p96_TuneCP5_13p6TeV_madgraph-pythia8/NANOAODSIM/130X_mcRun3_2022_realistic_postEE_v6-v2/50000/09662840-5905-46c0-ac27-2d4a9f3d1b0c.root
/store/mc/Run3Summer22EENanoAODv12/VBFHHto2B2Tau_CV-m2p12_C2V-3p87_C3-m5p96_TuneCP5_13p6TeV_madgraph-pythia8/NANOAODSIM/130X_mcRun3_2022_realistic_postEE_v6-v2/50000/a15e0bb9-8754-4d17-b150-4811b891b8ef.root
/store/mc/Run3Summer22EENanoAODv12/VBFHHto2B2Tau_CV-m2p12_C2V-3p87_C3-m5p96_TuneCP5_13p6TeV_madgraph-pythia8/NANOAODSIM/130X_mcRun3_2022_realistic_postEE_v6-v2/50000/0c89d24b-2146-467c-9d3f-34e3865e2913.root
/store/mc/Run3Summer22EENanoAODv12/VBFHHto2B2Tau_CV-m2p12_C2V-3p87_C3-m5p96_TuneCP5_13p6TeV_madgraph-pythia8/NANOAODSIM/130X_mcRun3_2022_realistic_postEE_v6-v2/50000/a363a060-e1c2-46de-b7cd-5be273b5bf15.root
/store/mc/Run3Summer22EENanoAODv12/VBFHHto2B2Tau_CV-m2p12_C2V-3p87_C3-m5p96_TuneCP5_13p6TeV_madgraph-pythia8/NANOAODSIM/130X_mcRun3_2022_realistic_postEE_v6-v2/50000/a63fcfbf-96ca-4249-a1f8-8c8b4f19fd91.root
/store/mc/Run3Summer22EENanoAODv12/VBFHHto2B2Tau_CV-m2p12_C2V-3p87_C3-m5p96_TuneCP5_13p6TeV_madgraph-pythia8/NANOAODSIM/130X_mcRun3_2022_realistic_postEE_v6-v2/50000/3bd1224d-c4bc-416f-a176-668479400ecb.root
/store/mc/Run3Summer22EENanoAODv12/VBFHHto2B2Tau_CV-m2p12_C2V-3p87_C3-m5p96_TuneCP5_13p6TeV_madgraph-pythia8/NANOAODSIM/130X_mcRun3_2022_realistic_postEE_v6-v2/50000/16ad41e8-482c-4382-a4be-22d835403874.root
/store/mc/Run3Summer22EENanoAODv12/VBFHHto2B2Tau_CV-m2p12_C2V-3p87_C3-m5p96_TuneCP5_13p6TeV_madgraph-pythia8/NANOAODSIM/130X_mcRun3_2022_realistic_postEE_v6-v2/50000/5132df60-039f-4923-8546-975e7bfa30a5.root
/store/mc/Run3Summer22EENanoAODv12/VBFHHto2B2Tau_CV-m2p12_C2V-3p87_C3-m5p96_TuneCP5_13p6TeV_madgraph-pythia8/NANOAODSIM/130X_mcRun3_2022_realistic_postEE_v6-v2/50000/98277d47-a801-448d-9bc3-a2d93d93322c.root
/store/mc/Run3Summer22EENanoAODv12/VBFHHto2B2Tau_CV-m2p12_C2V-3p87_C3-m5p96_TuneCP5_13p6TeV_madgraph-pythia8/NANOAODSIM/130X_mcRun3_2022_realistic_postEE_v6-v2/50000/eb415e6d-13f5-4459-9e3d-efeb9aec73b9.root
/store/mc/Run3Summer22EENanoAODv12/VBFHHto2B2Tau_CV-m2p12_C2V-3p87_C3-m5p96_TuneCP5_13p6TeV_madgraph-pythia8/NANOAODSIM/130X_mcRun3_2022_realistic_postEE_v6-v2/50000/1d580b43-691f-4992-8e46-6a5cce0cafae.root
/store/mc/Run3Summer22EENanoAODv12/VBFHHto2B2Tau_CV-m2p12_C2V-3p87_C3-m5p96_TuneCP5_13p6TeV_madgraph-pythia8/NANOAODSIM/130X_mcRun3_2022_realistic_postEE_v6-v2/50000/cf7cb446-d042-4413-b60d-f221a3e3324c.root
/store/mc/Run3Summer22EENanoAODv12/VBFHHto2B2Tau_CV-m2p12_C2V-3p87_C3-m5p96_TuneCP5_13p6TeV_madgraph-pythia8/NANOAODSIM/130X_mcRun3_2022_realistic_postEE_v6-v2/50000/24444d58-f7aa-4fc1-859c-f57a7d6635cb.root
/store/mc/Run3Summer22EENanoAODv12/VBFHHto2B2Tau_CV-m2p12_C2V-3p87_C3-m5p96_TuneCP5_13p6TeV_madgraph-pythia8/NANOAODSIM/130X_mcRun3_2022_realistic_postEE_v6-v2/50000/8bb18a42-b5e1-4ebf-92aa-5187fb5caaf8.root
/store/mc/Run3Summer22EENanoAODv12/VBFHHto2B2Tau_CV-m2p12_C2V-3p87_C3-m5p96_TuneCP5_13p6TeV_madgraph-pythia8/NANOAODSIM/130X_mcRun3_2022_realistic_postEE_v6-v2/50000/fc3ee868-a08f-42db-ae01-29c91255ba6d.root
/store/mc/Run3Summer22EENanoAODv12/VBFHHto2B2Tau_CV-m2p12_C2V-3p87_C3-m5p96_TuneCP5_13p6TeV_madgraph-pythia8/NANOAODSIM/130X_mcRun3_2022_realistic_postEE_v6-v2/50000/d17c624d-f520-4b40-8e70-ee2192815a63.root
/store/mc/Run3Summer22EENanoAODv12/VBFHHto2B2Tau_CV-m2p12_C2V-3p87_C3-m5p96_TuneCP5_13p6TeV_madgraph-pythia8/NANOAODSIM/130X_mcRun3_2022_realistic_postEE_v6-v2/50000/62eaafc4-1771-4bfa-a485-e66c2624ea58.root
/store/mc/Run3Summer22EENanoAODv12/VBFHHto2B2Tau_CV-m2p12_C2V-3p87_C3-m5p96_TuneCP5_13p6TeV_madgraph-pythia8/NANOAODSIM/130X_mcRun3_2022_realistic_postEE_v6-v2/50000/3934fe77-5f72-4755-9872-a3d76e787c00.root
/store/mc/Run3Summer22EENanoAODv12/VBFHHto2B2Tau_CV-m2p12_C2V-3p87_C3-m5p96_TuneCP5_13p6TeV_madgraph-pythia8/NANOAODSIM/130X_mcRun3_2022_realistic_postEE_v6-v2/50000/734d4eaf-54c8-41a1-b554-74055d9ee47c.root
/store/mc/Run3Summer22EENanoAODv12/VBFHHto2B2Tau_CV-m2p12_C2V-3p87_C3-m5p96_TuneCP5_13p6TeV_madgraph-pythia8/NANOAODSIM/130X_mcRun3_2022_realistic_postEE_v6-v2/50000/fa441f92-996f-4fa8-9e54-ef45f16896f3.root
/store/mc/Run3Summer22EENanoAODv12/VBFHHto2B2Tau_CV-m2p12_C2V-3p87_C3-m5p96_TuneCP5_13p6TeV_madgraph-pythia8/NANOAODSIM/130X_mcRun3_2022_realistic_postEE_v6-v2/50000/1e5a24ec-dfc0-4484-b816-a450227f746b.root
/store/mc/Run3Summer22EENanoAODv12/VBFHHto2B2Tau_CV-m2p12_C2V-3p87_C3-m5p96_TuneCP5_13p6TeV_madgraph-pythia8/NANOAODSIM/130X_mcRun3_2022_realistic_postEE_v6-v2/50000/b76e0188-b060-4c2f-b85c-5bf66533631f.root
/store/mc/Run3Summer22EENanoAODv12/VBFHHto2B2Tau_CV-m2p12_C2V-3p87_C3-m5p96_TuneCP5_13p6TeV_madgraph-pythia8/NANOAODSIM/130X_mcRun3_2022_realistic_postEE_v6-v2/50000/76d16c59-8837-4a94-b2b6-42657814112f.root
/store/mc/Run3Summer22EENanoAODv12/VBFHHto2B2Tau_CV-m2p12_C2V-3p87_C3-m5p96_TuneCP5_13p6TeV_madgraph-pythia8/NANOAODSIM/130X_mcRun3_2022_realistic_postEE_v6-v2/50000/92c2e21e-f9a3-40f5-9ada-7b667c385bb2.root
/store/mc/Run3Summer22EENanoAODv12/VBFHHto2B2Tau_CV-m2p12_C2V-3p87_C3-m5p96_TuneCP5_13p6TeV_madgraph-pythia8/NANOAODSIM/130X_mcRun3_2022_realistic_postEE_v6-v2/50000/471b0354-76d9-4c33-9250-2ec75fb036a5.root
/store/mc/Run3Summer22EENanoAODv12/VBFHHto2B2Tau_CV-m2p12_C2V-3p87_C3-m5p96_TuneCP5_13p6TeV_madgraph-pythia8/NANOAODSIM/130X_mcRun3_2022_realistic_postEE_v6-v2/50000/7f26bff0-f028-4365-a3d5-efb122f5bc70.root
/store/mc/Run3Summer22EENanoAODv12/VBFHHto2B2Tau_CV-m2p12_C2V-3p87_C3-m5p96_TuneCP5_13p6TeV_madgraph-pythia8/NANOAODSIM/130X_mcRun3_2022_realistic_postEE_v6-v2/50000/0faaeed9-0032-41e4-beab-9b9dc363b8d3.root
/store/mc/Run3Summer22EENanoAODv12/VBFHHto2B2Tau_CV-m2p12_C2V-3p87_C3-m5p96_TuneCP5_13p6TeV_madgraph-pythia8/NANOAODSIM/130X_mcRun3_2022_realistic_postEE_v6-v2/50000/74e26e4c-011d-461f-ab66-0f4b67c5d320.root
/store/mc/Run3Summer22EENanoAODv12/VBFHHto2B2Tau_CV-m2p12_C2V-3p87_C3-m5p96_TuneCP5_13p6TeV_madgraph-pythia8/NANOAODSIM/130X_mcRun3_2022_realistic_postEE_v6-v2/50000/537ecaf9-1372-4393-b3ec-1b6685d351c6.root