/store/mc/Run3Summer22EENanoAODv12/WtoLNu-2Jets_PTLNu-200to400_2J_TuneCP5_13p6TeV_amcatnloFXFX-pythia8/NANOAODSIM/130X_mcRun3_2022_realistic_postEE_v6-v1/2550000/5c834757-6c42-413f-bd5a-72b893d3e00f.root
/store/mc/Run3Summer22EENanoAODv12/WtoLNu-2Jets_PTLNu-200to400_2J_TuneCP5_13p6TeV_amcatnloFXFX-pythia8/NANOAODSIM/130X_mcRun3_2022_realistic_postEE_v6-v1/2550000/a3d54ee6-b120-474e-a633-750dd6e61009.root
/store/mc/Run3Summer22EENanoAODv12/WtoLNu-2Jets_PTLNu-200to400_2J_TuneCP5_13p6TeV_amcatnloFXFX-pythia8/NANOAODSIM/130X_mcRun3_2022_realistic_postEE_v6-v1/2550000/bccf6ef6-cb05-4061-a133-8ebac8bc465b.root
/store/mc/Run3Summer22EENanoAODv12/WtoLNu-2Jets_PTLNu-200to400_2J_TuneCP5_13p6TeV_amcatnloFXFX-pythia8/NANOAODSIM/130X_mcRun3_2022_realistic_postEE_v6-v1/2550000/4a809c89-6835-4e43-a280-0b1eab12966c.root
/store/mc/Run3Summer22EENanoAODv12/WtoLNu-2Jets_PTLNu-200to400_2J_TuneCP5_13p6TeV_amcatnloFXFX-pythia8/NANOAODSIM/130X_mcRun3_2022_realistic_postEE_v6-v1/2550000/60280f76-fe9d-44dd-9b88-1530815026e9.root
/store/mc/Run3Summer22EENanoAODv12/WtoLNu-2Jets_PTLNu-200to400_2J_TuneCP5_13p6TeV_amcatnloFXFX-pythia8/NANOAODSIM/130X_mcRun3_2022_realistic_postEE_v6-v1/70000/30e4e9e8-a44c-433f-8525-b2a67588fd38.root
/store/mc/Run3Summer22EENanoAODv12/WtoLNu-2Jets_PTLNu-200to400_2J_TuneCP5_13p6TeV_amcatnloFXFX-pythia8/NANOAODSIM/130X_mcRun3_2022_realistic_postEE_v6-v1/70000/961876bd-3ea1-4855-adc4-6b343bd77ea7.root
/store/mc/Run3Summer22EENanoAODv12/WtoLNu-2Jets_PTLNu-200to400_2J_TuneCP5_13p6TeV_amcatnloFXFX-pythia8/NANOAODSIM/130X_mcRun3_2022_realistic_postEE_v6-v1/70000/3e1c7101-b6a2-4e94-bbb6-2851da33350f.root
/store/mc/Run3Summer22EENanoAODv12/WtoLNu-2Jets_PTLNu-200to400_2J_TuneCP5_13p6TeV_amcatnloFXFX-pythia8/NANOAODSIM/130X_mcRun3_2022_realistic_postEE_v6-v1/70000/b1d6223f-20f4-41e3-aacb-fa27ade865ec.root
/store/mc/Run3Summer22EENanoAODv12/WtoLNu-2Jets_PTLNu-200to400_2J_TuneCP5_13p6TeV_amcatnloFXFX-pythia8/NANOAODSIM/130X_mcRun3_2022_realistic_postEE_v6-v1/70000/0f9324de-9b22-4df8-b18a-08f18d372b50.root
/store/mc/Run3Summer22EENanoAODv12/WtoLNu-2Jets_PTLNu-200to400_2J_TuneCP5_13p6TeV_amcatnloFXFX-pythia8/NANOAODSIM/130X_mcRun3_2022_realistic_postEE_v6-v1/70000/8173b44b-3096-4a77-895a-2349b0180382.root
/store/mc/Run3Summer22EENanoAODv12/WtoLNu-2Jets_PTLNu-200to400_2J_TuneCP5_13p6TeV_amcatnloFXFX-pythia8/NANOAODSIM/130X_mcRun3_2022_realistic_postEE_v6-v1/80000/97c4306b-9ad2-45b5-b831-591a5538d350.root
/store/mc/Run3Summer22EENanoAODv12/WtoLNu-2Jets_PTLNu-200to400_2J_TuneCP5_13p6TeV_amcatnloFXFX-pythia8/NANOAODSIM/130X_mcRun3_2022_realistic_postEE_v6-v1/80000/756e1581-db31-49df-a3b1-ed3de3a9eb3d.root
/store/mc/Run3Summer22EENanoAODv12/WtoLNu-2Jets_PTLNu-200to400_2J_TuneCP5_13p6TeV_amcatnloFXFX-pythia8/NANOAODSIM/130X_mcRun3_2022_realistic_postEE_v6-v1/80000/cf73418c-1a18-4087-99b9-7ebfaeaf9d32.root
/store/mc/Run3Summer22EENanoAODv12/WtoLNu-2Jets_PTLNu-200to400_2J_TuneCP5_13p6TeV_amcatnloFXFX-pythia8/NANOAODSIM/130X_mcRun3_2022_realistic_postEE_v6-v1/80000/85e16a0e-e20b-4444-8b7f-181ab0f3f87b.root
/store/mc/Run3Summer22EENanoAODv12/WtoLNu-2Jets_PTLNu-200to400_2J_TuneCP5_13p6TeV_amcatnloFXFX-pythia8/NANOAODSIM/130X_mcRun3_2022_realistic_postEE_v6-v1/80000/9e0a7057-1a3d-4958-a704-a049424d26ef.root
/store/mc/Run3Summer22EENanoAODv12/WtoLNu-2Jets_PTLNu-200to400_2J_TuneCP5_13p6TeV_amcatnloFXFX-pythia8/NANOAODSIM/130X_mcRun3_2022_realistic_postEE_v6-v1/80000/e40dfb4d-5f75-4de5-b4bb-7866dc953ecb.root
/store/mc/Run3Summer22EENanoAODv12/WtoLNu-2Jets_PTLNu-200to400_2J_TuneCP5_13p6TeV_amcatnloFXFX-pythia8/NANOAODSIM/130X_mcRun3_2022_realistic_postEE_v6-v1/80000/036389ea-ab09-4e44-94f1-d6d87c7c029f.root
/store/mc/Run3Summer22EENanoAODv12/WtoLNu-2Jets_PTLNu-200to400_2J_TuneCP5_13p6TeV_amcatnloFXFX-pythia8/NANOAODSIM/130X_mcRun3_2022_realistic_postEE_v6-v1/80000/56994c67-32f9-4302-a899-bffd5db908f0.root
/store/mc/Run3Summer22EENanoAODv12/WtoLNu-2Jets_PTLNu-200to400_2J_TuneCP5_13p6TeV_amcatnloFXFX-pythia8/NANOAODSIM/130X_mcRun3_2022_realistic_postEE_v6-v1/80000/19985e75-7be6-4985-a8f2-d9ce2f3b3573.root
/store/mc/Run3Summer22EENanoAODv12/WtoLNu-2Jets_PTLNu-200to400_2J_TuneCP5_13p6TeV_amcatnloFXFX-pythia8/NANOAODSIM/130X_mcRun3_2022_realistic_postEE_v6-v1/80000/ce114a93-4736-4d6e-b52e-6fee77735e00.root
/store/mc/Run3Summer22EENanoAODv12/WtoLNu-2Jets_PTLNu-200to400_2J_TuneCP5_13p6TeV_amcatnloFXFX-pythia8/NANOAODSIM/130X_mcRun3_2022_realistic_postEE_v6-v1/80000/0dc40759-9d4b-427b-a374-a6e4cf3731b4.root
/store/mc/Run3Summer22EENanoAODv12/WtoLNu-2Jets_PTLNu-200to400_2J_TuneCP5_13p6TeV_amcatnloFXFX-pythia8/NANOAODSIM/130X_mcRun3_2022_realistic_postEE_v6-v1/80000/f26973a3-e26e-453f-87c6-61e8c12793a2.root
/store/mc/Run3Summer22EENanoAODv12/WtoLNu-2Jets_PTLNu-200to400_2J_TuneCP5_13p6TeV_amcatnloFXFX-pythia8/NANOAODSIM/130X_mcRun3_2022_realistic_postEE_v6-v1/80000/7ed84fb6-c9b2-43c2-bc0c-f93bc3fde8f6.root
/store/mc/Run3Summer22EENanoAODv12/WtoLNu-2Jets_PTLNu-200to400_2J_TuneCP5_13p6TeV_amcatnloFXFX-pythia8/NANOAODSIM/130X_mcRun3_2022_realistic_postEE_v6-v1/80000/c31bd04d-a88d-4b16-b7b3-f09305c78146.root
/store/mc/Run3Summer22EENanoAODv12/WtoLNu-2Jets_PTLNu-200to400_2J_TuneCP5_13p6TeV_amcatnloFXFX-pythia8/NANOAODSIM/130X_mcRun3_2022_realistic_postEE_v6-v1/80000/85b1707f-b8e6-4764-aec8-a9a4cfbf262f.root
/store/mc/Run3Summer22EENanoAODv12/WtoLNu-2Jets_PTLNu-200to400_2J_TuneCP5_13p6TeV_amcatnloFXFX-pythia8/NANOAODSIM/130X_mcRun3_2022_realistic_postEE_v6-v1/80000/f3b97089-0578-4cd9-b0fc-bd6d133fd54c.root
/store/mc/Run3Summer22EENanoAODv12/WtoLNu-2Jets_PTLNu-200to400_2J_TuneCP5_13p6TeV_amcatnloFXFX-pythia8/NANOAODSIM/130X_mcRun3_2022_realistic_postEE_v6-v1/80000/d53bcabe-ea9d-40d9-881c-c862d477eb4e.root
/store/mc/Run3Summer22EENanoAODv12/WtoLNu-2Jets_PTLNu-200to400_2J_TuneCP5_13p6TeV_amcatnloFXFX-pythia8/NANOAODSIM/130X_mcRun3_2022_realistic_postEE_v6-v1/80000/c5dd19f6-d972-4f00-a25c-590466c864d6.root
/store/mc/Run3Summer22EENanoAODv12/WtoLNu-2Jets_PTLNu-200to400_2J_TuneCP5_13p6TeV_amcatnloFXFX-pythia8/NANOAODSIM/130X_mcRun3_2022_realistic_postEE_v6-v1/80000/defe3d3f-3573-4fe3-b524-d5bb9d99626f.root
/store/mc/Run3Summer22EENanoAODv12/WtoLNu-2Jets_PTLNu-200to400_2J_TuneCP5_13p6TeV_amcatnloFXFX-pythia8/NANOAODSIM/130X_mcRun3_2022_realistic_postEE_v6-v1/80000/e3119e2e-b038-4c3c-9d6e-5e4a92c5f7f5.root
/store/mc/Run3Summer22EENanoAODv12/WtoLNu-2Jets_PTLNu-200to400_2J_TuneCP5_13p6TeV_amcatnloFXFX-pythia8/NANOAODSIM/130X_mcRun3_2022_realistic_postEE_v6-v1/80000/86e34bb5-13ce-4aff-a00e-82b9ed29726e.root
/store/mc/Run3Summer22EENanoAODv12/WtoLNu-2Jets_PTLNu-200to400_2J_TuneCP5_13p6TeV_amcatnloFXFX-pythia8/NANOAODSIM/130X_mcRun3_2022_realistic_postEE_v6-v1/80000/b66e3d43-4b3e-481e-bb14-482b7d8c834f.root
/store/mc/Run3Summer22EENanoAODv12/WtoLNu-2Jets_PTLNu-200to400_2J_TuneCP5_13p6TeV_amcatnloFXFX-pythia8/NANOAODSIM/130X_mcRun3_2022_realistic_postEE_v6-v1/80000/8da0797b-0a72-4d48-8f45-75ceee816d36.root
/store/mc/Run3Summer22EENanoAODv12/WtoLNu-2Jets_PTLNu-200to400_2J_TuneCP5_13p6TeV_amcatnloFXFX-pythia8/NANOAODSIM/130X_mcRun3_2022_realistic_postEE_v6-v1/80000/965a9423-6b31-4d0a-a7cd-a9a763b8f13c.root
/store/mc/Run3Summer22EENanoAODv12/WtoLNu-2Jets_PTLNu-200to400_2J_TuneCP5_13p6TeV_amcatnloFXFX-pythia8/NANOAODSIM/130X_mcRun3_2022_realistic_postEE_v6-v1/80000/da3a706f-a770-4bce-a1e4-fc48071eb7c9.root
/store/mc/Run3Summer22EENanoAODv12/WtoLNu-2Jets_PTLNu-200to400_2J_TuneCP5_13p6TeV_amcatnloFXFX-pythia8/NANOAODSIM/130X_mcRun3_2022_realistic_postEE_v6-v1/80000/f41ccbbb-a70e-426c-a7b7-8d63d3011c69.root
/store/mc/Run3Summer22EENanoAODv12/WtoLNu-2Jets_PTLNu-200to400_2J_TuneCP5_13p6TeV_amcatnloFXFX-pythia8/NANOAODSIM/130X_mcRun3_2022_realistic_postEE_v6-v1/80000/cbba4c9d-8ca0-40eb-9437-4c28a01e2046.root
/store/mc/Run3Summer22EENanoAODv12/WtoLNu-2Jets_PTLNu-200to400_2J_TuneCP5_13p6TeV_amcatnloFXFX-pythia8/NANOAODSIM/130X_mcRun3_2022_realistic_postEE_v6-v1/80000/449ed455-454e-4c26-8784-a3e8cb6cc50c.root
/store/mc/Run3Summer22EENanoAODv12/WtoLNu-2Jets_PTLNu-200to400_2J_TuneCP5_13p6TeV_amcatnloFXFX-pythia8/NANOAODSIM/130X_mcRun3_2022_realistic_postEE_v6-v1/80000/ca9230b8-2bf7-4156-b93a-b623dbf8f88c.root
/store/mc/Run3Summer22EENanoAODv12/WtoLNu-2Jets_PTLNu-200to400_2J_TuneCP5_13p6TeV_amcatnloFXFX-pythia8/NANOAODSIM/130X_mcRun3_2022_realistic_postEE_v6-v1/80000/da7826e0-63d1-4a41-804a-22ae211db44b.root
/store/mc/Run3Summer22EENanoAODv12/WtoLNu-2Jets_PTLNu-200to400_2J_TuneCP5_13p6TeV_amcatnloFXFX-pythia8/NANOAODSIM/130X_mcRun3_2022_realistic_postEE_v6-v1/80000/baab52ef-fbb9-49bb-adfa-fcd616bb091e.root
/store/mc/Run3Summer22EENanoAODv12/WtoLNu-2Jets_PTLNu-200to400_2J_TuneCP5_13p6TeV_amcatnloFXFX-pythia8/NANOAODSIM/130X_mcRun3_2022_realistic_postEE_v6-v1/80000/d9a32ce6-cf3c-4769-a76d-2b15a3fbc267.root
/store/mc/Run3Summer22EENanoAODv12/WtoLNu-2Jets_PTLNu-200to400_2J_TuneCP5_13p6TeV_amcatnloFXFX-pythia8/NANOAODSIM/130X_mcRun3_2022_realistic_postEE_v6-v1/80000/be7af13d-af82-4df9-8132-c96302fff256.root
/store/mc/Run3Summer22EENanoAODv12/WtoLNu-2Jets_PTLNu-200to400_2J_TuneCP5_13p6TeV_amcatnloFXFX-pythia8/NANOAODSIM/130X_mcRun3_2022_realistic_postEE_v6-v1/80000/c8d4f0f4-37e7-41f9-8b2d-0d5fef9893b5.root
/store/mc/Run3Summer22EENanoAODv12/WtoLNu-2Jets_PTLNu-200to400_2J_TuneCP5_13p6TeV_amcatnloFXFX-pythia8/NANOAODSIM/130X_mcRun3_2022_realistic_postEE_v6-v1/80000/70fb0131-53cf-4f1a-87ac-46826ce053a1.root
/store/mc/Run3Summer22EENanoAODv12/WtoLNu-2Jets_PTLNu-200to400_2J_TuneCP5_13p6TeV_amcatnloFXFX-pythia8/NANOAODSIM/130X_mcRun3_2022_realistic_postEE_v6-v1/80000/6e9eac45-1030-4ebb-a149-f984dfa74933.root
/store/mc/Run3Summer22EENanoAODv12/WtoLNu-2Jets_PTLNu-200to400_2J_TuneCP5_13p6TeV_amcatnloFXFX-pythia8/NANOAODSIM/130X_mcRun3_2022_realistic_postEE_v6-v1/80000/38fc0384-d8ab-4945-a307-6039fcb45c20.root
/store/mc/Run3Summer22EENanoAODv12/WtoLNu-2Jets_PTLNu-200to400_2J_TuneCP5_13p6TeV_amcatnloFXFX-pythia8/NANOAODSIM/130X_mcRun3_2022_realistic_postEE_v6-v1/80000/8ed286bf-0cff-4f78-903a-e5527e5b470b.root
/store/mc/Run3Summer22EENanoAODv12/WtoLNu-2Jets_PTLNu-200to400_2J_TuneCP5_13p6TeV_amcatnloFXFX-pythia8/NANOAODSIM/130X_mcRun3_2022_realistic_postEE_v6-v1/80000/9afb3c42-89ed-4e95-82cc-bd7b10dd3251.root
/store/mc/Run3Summer22EENanoAODv12/WtoLNu-2Jets_PTLNu-200to400_2J_TuneCP5_13p6TeV_amcatnloFXFX-pythia8/NANOAODSIM/130X_mcRun3_2022_realistic_postEE_v6-v1/80000/c7290b96-e68a-4194-85c8-0869a7a535c4.root
/store/mc/Run3Summer22EENanoAODv12/WtoLNu-2Jets_PTLNu-200to400_2J_TuneCP5_13p6TeV_amcatnloFXFX-pythia8/NANOAODSIM/130X_mcRun3_2022_realistic_postEE_v6-v1/80000/c5dc4f0a-84e6-472c-99fd-1141b8281faf.root
/store/mc/Run3Summer22EENanoAODv12/WtoLNu-2Jets_PTLNu-200to400_2J_TuneCP5_13p6TeV_amcatnloFXFX-pythia8/NANOAODSIM/130X_mcRun3_2022_realistic_postEE_v6-v1/80000/e80d4cc8-5af9-4eb0-9281-e3cdef5a67c9.root
/store/mc/Run3Summer22EENanoAODv12/WtoLNu-2Jets_PTLNu-200to400_2J_TuneCP5_13p6TeV_amcatnloFXFX-pythia8/NANOAODSIM/130X_mcRun3_2022_realistic_postEE_v6-v1/80000/289115d0-76f0-4423-891b-dbbb4e518c4c.root
/store/mc/Run3Summer22EENanoAODv12/WtoLNu-2Jets_PTLNu-200to400_2J_TuneCP5_13p6TeV_amcatnloFXFX-pythia8/NANOAODSIM/130X_mcRun3_2022_realistic_postEE_v6-v1/80000/242ca038-1c21-408c-b119-f24a4fe81b44.root
/store/mc/Run3Summer22EENanoAODv12/WtoLNu-2Jets_PTLNu-200to400_2J_TuneCP5_13p6TeV_amcatnloFXFX-pythia8/NANOAODSIM/130X_mcRun3_2022_realistic_postEE_v6-v1/80000/29c347d3-9105-40bb-a873-53471f20ae09.root
/store/mc/Run3Summer22EENanoAODv12/WtoLNu-2Jets_PTLNu-200to400_2J_TuneCP5_13p6TeV_amcatnloFXFX-pythia8/NANOAODSIM/130X_mcRun3_2022_realistic_postEE_v6-v1/30000/c8170e01-b4e0-4573-acdc-0393d001db30.root
/store/mc/Run3Summer22EENanoAODv12/WtoLNu-2Jets_PTLNu-200to400_2J_TuneCP5_13p6TeV_amcatnloFXFX-pythia8/NANOAODSIM/130X_mcRun3_2022_realistic_postEE_v6-v1/2820000/0bce599b-75fa-4cf8-86dc-6fd1575e3b32.root
/store/mc/Run3Summer22EENanoAODv12/WtoLNu-2Jets_PTLNu-200to400_2J_TuneCP5_13p6TeV_amcatnloFXFX-pythia8/NANOAODSIM/130X_mcRun3_2022_realistic_postEE_v6-v1/2820000/a28160cf-d9cf-4fe1-bc51-851406f4810d.root
/store/mc/Run3Summer22EENanoAODv12/WtoLNu-2Jets_PTLNu-200to400_2J_TuneCP5_13p6TeV_amcatnloFXFX-pythia8/NANOAODSIM/130X_mcRun3_2022_realistic_postEE_v6-v1/2820000/87dc7b3d-97ca-428a-9091-44f92f4c3baf.root
/store/mc/Run3Summer22EENanoAODv12/WtoLNu-2Jets_PTLNu-200to400_2J_TuneCP5_13p6TeV_amcatnloFXFX-pythia8/NANOAODSIM/130X_mcRun3_2022_realistic_postEE_v6-v1/2820000/929b44ae-cf2a-470e-99e7-04dcb689ea63.root
/store/mc/Run3Summer22EENanoAODv12/WtoLNu-2Jets_PTLNu-200to400_2J_TuneCP5_13p6TeV_amcatnloFXFX-pythia8/NANOAODSIM/130X_mcRun3_2022_realistic_postEE_v6-v1/2820000/9b0b0faf-aa09-42ce-a3f3-9482976dd0c9.root
/store/mc/Run3Summer22EENanoAODv12/WtoLNu-2Jets_PTLNu-200to400_2J_TuneCP5_13p6TeV_amcatnloFXFX-pythia8/NANOAODSIM/130X_mcRun3_2022_realistic_postEE_v6-v1/2820000/9090e0e7-a70f-4a74-a734-d47b5c741c83.root
/store/mc/Run3Summer22EENanoAODv12/WtoLNu-2Jets_PTLNu-200to400_2J_TuneCP5_13p6TeV_amcatnloFXFX-pythia8/NANOAODSIM/130X_mcRun3_2022_realistic_postEE_v6-v1/2820000/1eae7e24-1b94-4002-8008-02358a92b9c1.root
/store/mc/Run3Summer22EENanoAODv12/WtoLNu-2Jets_PTLNu-200to400_2J_TuneCP5_13p6TeV_amcatnloFXFX-pythia8/NANOAODSIM/130X_mcRun3_2022_realistic_postEE_v6-v1/2820000/563f2252-eec4-493f-bafd-1ba541eb760a.root
/store/mc/Run3Summer22EENanoAODv12/WtoLNu-2Jets_PTLNu-200to400_2J_TuneCP5_13p6TeV_amcatnloFXFX-pythia8/NANOAODSIM/130X_mcRun3_2022_realistic_postEE_v6-v1/2820000/93d57c44-7cc5-453e-a8e5-6c0c54470201.root
/store/mc/Run3Summer22EENanoAODv12/WtoLNu-2Jets_PTLNu-200to400_2J_TuneCP5_13p6TeV_amcatnloFXFX-pythia8/NANOAODSIM/130X_mcRun3_2022_realistic_postEE_v6-v1/2820000/a9fa9448-38d6-449e-a1cb-9ee77f7a79cb.root
/store/mc/Run3Summer22EENanoAODv12/WtoLNu-2Jets_PTLNu-200to400_2J_TuneCP5_13p6TeV_amcatnloFXFX-pythia8/NANOAODSIM/130X_mcRun3_2022_realistic_postEE_v6-v1/2810000/924fc61e-71ba-4396-86f0-580a7ec506a5.root
/store/mc/Run3Summer22EENanoAODv12/WtoLNu-2Jets_PTLNu-200to400_2J_TuneCP5_13p6TeV_amcatnloFXFX-pythia8/NANOAODSIM/130X_mcRun3_2022_realistic_postEE_v6-v1/2810000/99d0862f-c3e2-436a-bdd2-209694bdbf31.root
/store/mc/Run3Summer22EENanoAODv12/WtoLNu-2Jets_PTLNu-200to400_2J_TuneCP5_13p6TeV_amcatnloFXFX-pythia8/NANOAODSIM/130X_mcRun3_2022_realistic_postEE_v6-v1/2810000/789f1842-78de-4465-bfdf-c4255fe01bd5.root
/store/mc/Run3Summer22EENanoAODv12/WtoLNu-2Jets_PTLNu-200to400_2J_TuneCP5_13p6TeV_amcatnloFXFX-pythia8/NANOAODSIM/130X_mcRun3_2022_realistic_postEE_v6-v1/2810000/95873210-fb53-42ba-9de6-7cae86f190f8.root
/store/mc/Run3Summer22EENanoAODv12/WtoLNu-2Jets_PTLNu-200to400_2J_TuneCP5_13p6TeV_amcatnloFXFX-pythia8/NANOAODSIM/130X_mcRun3_2022_realistic_postEE_v6-v1/2810000/7d38e9f9-07cb-470b-917f-bcc640f5a05a.root
/store/mc/Run3Summer22EENanoAODv12/WtoLNu-2Jets_PTLNu-200to400_2J_TuneCP5_13p6TeV_amcatnloFXFX-pythia8/NANOAODSIM/130X_mcRun3_2022_realistic_postEE_v6-v1/2810000/9009eb0d-3759-469f-99d4-dcf994fc5cb4.root
/store/mc/Run3Summer22EENanoAODv12/WtoLNu-2Jets_PTLNu-200to400_2J_TuneCP5_13p6TeV_amcatnloFXFX-pythia8/NANOAODSIM/130X_mcRun3_2022_realistic_postEE_v6-v1/2810000/054bfe8b-146d-446f-81de-11fed81940a7.root
/store/mc/Run3Summer22EENanoAODv12/WtoLNu-2Jets_PTLNu-200to400_2J_TuneCP5_13p6TeV_amcatnloFXFX-pythia8/NANOAODSIM/130X_mcRun3_2022_realistic_postEE_v6-v1/2810000/8228bd8e-0b89-483b-8d69-831f146d46e2.root
/store/mc/Run3Summer22EENanoAODv12/WtoLNu-2Jets_PTLNu-200to400_2J_TuneCP5_13p6TeV_amcatnloFXFX-pythia8/NANOAODSIM/130X_mcRun3_2022_realistic_postEE_v6-v1/2810000/dfb030b0-3aab-4b62-a44a-5a5fbdb4e401.root
/store/mc/Run3Summer22EENanoAODv12/WtoLNu-2Jets_PTLNu-200to400_2J_TuneCP5_13p6TeV_amcatnloFXFX-pythia8/NANOAODSIM/130X_mcRun3_2022_realistic_postEE_v6-v1/2810000/0fed7e98-c426-4e6f-bfae-47017f6c2327.root
/store/mc/Run3Summer22EENanoAODv12/WtoLNu-2Jets_PTLNu-200to400_2J_TuneCP5_13p6TeV_amcatnloFXFX-pythia8/NANOAODSIM/130X_mcRun3_2022_realistic_postEE_v6-v1/2810000/da9f8eef-1977-4e3a-9615-923dda4cf324.root
/store/mc/Run3Summer22EENanoAODv12/WtoLNu-2Jets_PTLNu-200to400_2J_TuneCP5_13p6TeV_amcatnloFXFX-pythia8/NANOAODSIM/130X_mcRun3_2022_realistic_postEE_v6-v1/2810000/d9827ba5-2d96-4722-ae64-3657c12b3153.root
/store/mc/Run3Summer22EENanoAODv12/WtoLNu-2Jets_PTLNu-200to400_2J_TuneCP5_13p6TeV_amcatnloFXFX-pythia8/NANOAODSIM/130X_mcRun3_2022_realistic_postEE_v6-v1/2810000/e4c8be60-b6cb-4cd3-868d-400e841fb896.root
/store/mc/Run3Summer22EENanoAODv12/WtoLNu-2Jets_PTLNu-200to400_2J_TuneCP5_13p6TeV_amcatnloFXFX-pythia8/NANOAODSIM/130X_mcRun3_2022_realistic_postEE_v6-v1/2810000/776d18b6-3ecb-43b0-acd1-3ec4b4e6b164.root
/store/mc/Run3Summer22EENanoAODv12/WtoLNu-2Jets_PTLNu-200to400_2J_TuneCP5_13p6TeV_amcatnloFXFX-pythia8/NANOAODSIM/130X_mcRun3_2022_realistic_postEE_v6-v1/2810000/6b404c62-2917-4f6f-9acb-4babb2fcbb27.root
/store/mc/Run3Summer22EENanoAODv12/WtoLNu-2Jets_PTLNu-200to400_2J_TuneCP5_13p6TeV_amcatnloFXFX-pythia8/NANOAODSIM/130X_mcRun3_2022_realistic_postEE_v6-v1/2810000/d7056c35-1c1b-4e78-ae94-0c562a02ff5f.root
/store/mc/Run3Summer22EENanoAODv12/WtoLNu-2Jets_PTLNu-200to400_2J_TuneCP5_13p6TeV_amcatnloFXFX-pythia8/NANOAODSIM/130X_mcRun3_2022_realistic_postEE_v6-v1/2810000/57d43e27-4360-4596-9baa-3b0cfd575c24.root