/store/mc/Run3Summer22EENanoAODv12/WtoLNu-2Jets_PTLNu-400to600_1J_TuneCP5_13p6TeV_amcatnloFXFX-pythia8/NANOAODSIM/130X_mcRun3_2022_realistic_postEE_v6-v1/2550000/20fbd234-73e1-49d8-bc02-45034c29c23d.root
/store/mc/Run3Summer22EENanoAODv12/WtoLNu-2Jets_PTLNu-400to600_1J_TuneCP5_13p6TeV_amcatnloFXFX-pythia8/NANOAODSIM/130X_mcRun3_2022_realistic_postEE_v6-v1/2550000/38c24433-31e8-467d-9557-caed45b5c10d.root
/store/mc/Run3Summer22EENanoAODv12/WtoLNu-2Jets_PTLNu-400to600_1J_TuneCP5_13p6TeV_amcatnloFXFX-pythia8/NANOAODSIM/130X_mcRun3_2022_realistic_postEE_v6-v1/2550000/1c7c969d-e6cd-4252-abf0-5a9bbde9e00b.root
/store/mc/Run3Summer22EENanoAODv12/WtoLNu-2Jets_PTLNu-400to600_1J_TuneCP5_13p6TeV_amcatnloFXFX-pythia8/NANOAODSIM/130X_mcRun3_2022_realistic_postEE_v6-v1/80000/acb05f03-c15d-4584-a421-64a346bf752b.root
/store/mc/Run3Summer22EENanoAODv12/WtoLNu-2Jets_PTLNu-400to600_1J_TuneCP5_13p6TeV_amcatnloFXFX-pythia8/NANOAODSIM/130X_mcRun3_2022_realistic_postEE_v6-v1/80000/1c982b58-0e79-4385-90cd-963a0c58951e.root
/store/mc/Run3Summer22EENanoAODv12/WtoLNu-2Jets_PTLNu-400to600_1J_TuneCP5_13p6TeV_amcatnloFXFX-pythia8/NANOAODSIM/130X_mcRun3_2022_realistic_postEE_v6-v1/80000/8133064f-0969-417a-932e-1932d9845a13.root
/store/mc/Run3Summer22EENanoAODv12/WtoLNu-2Jets_PTLNu-400to600_1J_TuneCP5_13p6TeV_amcatnloFXFX-pythia8/NANOAODSIM/130X_mcRun3_2022_realistic_postEE_v6-v1/80000/20cacea1-431c-468f-85ad-7b2da8c31124.root
/store/mc/Run3Summer22EENanoAODv12/WtoLNu-2Jets_PTLNu-400to600_1J_TuneCP5_13p6TeV_amcatnloFXFX-pythia8/NANOAODSIM/130X_mcRun3_2022_realistic_postEE_v6-v1/80000/3cc9d720-f64b-42b7-92a7-697eae655ebe.root
/store/mc/Run3Summer22EENanoAODv12/WtoLNu-2Jets_PTLNu-400to600_1J_TuneCP5_13p6TeV_amcatnloFXFX-pythia8/NANOAODSIM/130X_mcRun3_2022_realistic_postEE_v6-v1/80000/30de0c03-8346-4527-a654-36ba6e56bbd6.root
/store/mc/Run3Summer22EENanoAODv12/WtoLNu-2Jets_PTLNu-400to600_1J_TuneCP5_13p6TeV_amcatnloFXFX-pythia8/NANOAODSIM/130X_mcRun3_2022_realistic_postEE_v6-v1/80000/363bb987-b55a-4e6d-99b2-a58985a4a859.root
/store/mc/Run3Summer22EENanoAODv12/WtoLNu-2Jets_PTLNu-400to600_1J_TuneCP5_13p6TeV_amcatnloFXFX-pythia8/NANOAODSIM/130X_mcRun3_2022_realistic_postEE_v6-v1/80000/baf64031-5167-48d2-a4f6-259fb5684b93.root
/store/mc/Run3Summer22EENanoAODv12/WtoLNu-2Jets_PTLNu-400to600_1J_TuneCP5_13p6TeV_amcatnloFXFX-pythia8/NANOAODSIM/130X_mcRun3_2022_realistic_postEE_v6-v1/80000/cec6277e-9eb0-427c-aef5-b7fd21900b66.root
/store/mc/Run3Summer22EENanoAODv12/WtoLNu-2Jets_PTLNu-400to600_1J_TuneCP5_13p6TeV_amcatnloFXFX-pythia8/NANOAODSIM/130X_mcRun3_2022_realistic_postEE_v6-v1/80000/bac661b3-89d2-4d5d-8944-ce26f6218ac5.root
/store/mc/Run3Summer22EENanoAODv12/WtoLNu-2Jets_PTLNu-400to600_1J_TuneCP5_13p6TeV_amcatnloFXFX-pythia8/NANOAODSIM/130X_mcRun3_2022_realistic_postEE_v6-v1/80000/bddb3eaf-b990-4fe8-8355-1753bf1cb921.root
/store/mc/Run3Summer22EENanoAODv12/WtoLNu-2Jets_PTLNu-400to600_1J_TuneCP5_13p6TeV_amcatnloFXFX-pythia8/NANOAODSIM/130X_mcRun3_2022_realistic_postEE_v6-v1/50000/e58f0407-be37-435b-9f8d-e25538af596f.root
/store/mc/Run3Summer22EENanoAODv12/WtoLNu-2Jets_PTLNu-400to600_1J_TuneCP5_13p6TeV_amcatnloFXFX-pythia8/NANOAODSIM/130X_mcRun3_2022_realistic_postEE_v6-v1/50000/ba978665-409e-4954-9ba5-7d1c9e3e1ecd.root