/store/mc/Run3Summer23BPixNanoAODv12/DYto2L-2Jets_MLL-50_PTLL-100to200_2J_TuneCP5_13p6TeV_amcatnloFXFX-pythia8/NANOAODSIM/130X_mcRun3_2023_realistic_postBPix_v2-v1/2560000/7b57e389-2f7a-4df2-8c3a-38709102b3cc.root
/store/mc/Run3Summer23BPixNanoAODv12/DYto2L-2Jets_MLL-50_PTLL-100to200_2J_TuneCP5_13p6TeV_amcatnloFXFX-pythia8/NANOAODSIM/130X_mcRun3_2023_realistic_postBPix_v2-v1/2560000/80152f32-64b4-4e8f-a5b4-e104b161e191.root
/store/mc/Run3Summer23BPixNanoAODv12/DYto2L-2Jets_MLL-50_PTLL-100to200_2J_TuneCP5_13p6TeV_amcatnloFXFX-pythia8/NANOAODSIM/130X_mcRun3_2023_realistic_postBPix_v2-v1/2560000/3f6e5d38-e036-479e-ab17-d30f49170b64.root
/store/mc/Run3Summer23BPixNanoAODv12/DYto2L-2Jets_MLL-50_PTLL-100to200_2J_TuneCP5_13p6TeV_amcatnloFXFX-pythia8/NANOAODSIM/130X_mcRun3_2023_realistic_postBPix_v2-v1/2560000/54ae8bca-ffe2-4784-b227-6210f81113f3.root
/store/mc/Run3Summer23BPixNanoAODv12/DYto2L-2Jets_MLL-50_PTLL-100to200_2J_TuneCP5_13p6TeV_amcatnloFXFX-pythia8/NANOAODSIM/130X_mcRun3_2023_realistic_postBPix_v2-v1/2560000/a85a2d44-79f0-4c6f-a86a-aaeabd4f2822.root
/store/mc/Run3Summer23BPixNanoAODv12/DYto2L-2Jets_MLL-50_PTLL-100to200_2J_TuneCP5_13p6TeV_amcatnloFXFX-pythia8/NANOAODSIM/130X_mcRun3_2023_realistic_postBPix_v2-v1/2560000/530bc48b-a52e-45b8-901f-dac236bdd17b.root
/store/mc/Run3Summer23BPixNanoAODv12/DYto2L-2Jets_MLL-50_PTLL-100to200_2J_TuneCP5_13p6TeV_amcatnloFXFX-pythia8/NANOAODSIM/130X_mcRun3_2023_realistic_postBPix_v2-v1/2560000/75eea5d1-c993-4534-bc09-ebae0d4c6b7b.root
/store/mc/Run3Summer23BPixNanoAODv12/DYto2L-2Jets_MLL-50_PTLL-100to200_2J_TuneCP5_13p6TeV_amcatnloFXFX-pythia8/NANOAODSIM/130X_mcRun3_2023_realistic_postBPix_v2-v1/2560000/863b8a95-b480-4358-b543-22fce2954d69.root
/store/mc/Run3Summer23BPixNanoAODv12/DYto2L-2Jets_MLL-50_PTLL-100to200_2J_TuneCP5_13p6TeV_amcatnloFXFX-pythia8/NANOAODSIM/130X_mcRun3_2023_realistic_postBPix_v2-v1/2560000/881c4d71-286c-430e-8ef5-0da0b8e73391.root
/store/mc/Run3Summer23BPixNanoAODv12/DYto2L-2Jets_MLL-50_PTLL-100to200_2J_TuneCP5_13p6TeV_amcatnloFXFX-pythia8/NANOAODSIM/130X_mcRun3_2023_realistic_postBPix_v2-v1/2560000/3888bb14-bd64-4c09-a666-aafde03a00d1.root
/store/mc/Run3Summer23BPixNanoAODv12/DYto2L-2Jets_MLL-50_PTLL-100to200_2J_TuneCP5_13p6TeV_amcatnloFXFX-pythia8/NANOAODSIM/130X_mcRun3_2023_realistic_postBPix_v2-v1/2560000/aae03327-2204-409b-b135-074a64e57caa.root
/store/mc/Run3Summer23BPixNanoAODv12/DYto2L-2Jets_MLL-50_PTLL-100to200_2J_TuneCP5_13p6TeV_amcatnloFXFX-pythia8/NANOAODSIM/130X_mcRun3_2023_realistic_postBPix_v2-v1/2560000/d6624817-3973-4fac-8cc2-70886fb426a0.root
/store/mc/Run3Summer23BPixNanoAODv12/DYto2L-2Jets_MLL-50_PTLL-100to200_2J_TuneCP5_13p6TeV_amcatnloFXFX-pythia8/NANOAODSIM/130X_mcRun3_2023_realistic_postBPix_v2-v1/2560000/9528bb81-3101-4dc7-b607-52eb138b1302.root
/store/mc/Run3Summer23BPixNanoAODv12/DYto2L-2Jets_MLL-50_PTLL-100to200_2J_TuneCP5_13p6TeV_amcatnloFXFX-pythia8/NANOAODSIM/130X_mcRun3_2023_realistic_postBPix_v2-v1/2560000/cb4e6f17-50e9-435c-83aa-c3bf9d455a51.root
/store/mc/Run3Summer23BPixNanoAODv12/DYto2L-2Jets_MLL-50_PTLL-100to200_2J_TuneCP5_13p6TeV_amcatnloFXFX-pythia8/NANOAODSIM/130X_mcRun3_2023_realistic_postBPix_v2-v1/2560000/1d717f24-bb59-4685-9fe0-2fcbc3f1c763.root
/store/mc/Run3Summer23BPixNanoAODv12/DYto2L-2Jets_MLL-50_PTLL-100to200_2J_TuneCP5_13p6TeV_amcatnloFXFX-pythia8/NANOAODSIM/130X_mcRun3_2023_realistic_postBPix_v2-v1/2560000/408bedab-a00d-4f03-93e4-778e8febef57.root
/store/mc/Run3Summer23BPixNanoAODv12/DYto2L-2Jets_MLL-50_PTLL-100to200_2J_TuneCP5_13p6TeV_amcatnloFXFX-pythia8/NANOAODSIM/130X_mcRun3_2023_realistic_postBPix_v2-v1/2560000/f166c974-8a4e-4939-a73d-8894c1f24c9c.root
/store/mc/Run3Summer23BPixNanoAODv12/DYto2L-2Jets_MLL-50_PTLL-100to200_2J_TuneCP5_13p6TeV_amcatnloFXFX-pythia8/NANOAODSIM/130X_mcRun3_2023_realistic_postBPix_v2-v1/2560000/c247e2ba-2b0e-4a9c-b18b-18dbfd72ff03.root
/store/mc/Run3Summer23BPixNanoAODv12/DYto2L-2Jets_MLL-50_PTLL-100to200_2J_TuneCP5_13p6TeV_amcatnloFXFX-pythia8/NANOAODSIM/130X_mcRun3_2023_realistic_postBPix_v2-v1/2560000/20996880-7e83-408b-ae42-0d3f5fc75461.root
/store/mc/Run3Summer23BPixNanoAODv12/DYto2L-2Jets_MLL-50_PTLL-100to200_2J_TuneCP5_13p6TeV_amcatnloFXFX-pythia8/NANOAODSIM/130X_mcRun3_2023_realistic_postBPix_v2-v1/2560000/f816ec43-bace-48a7-9557-c5165f980f37.root
/store/mc/Run3Summer23BPixNanoAODv12/DYto2L-2Jets_MLL-50_PTLL-100to200_2J_TuneCP5_13p6TeV_amcatnloFXFX-pythia8/NANOAODSIM/130X_mcRun3_2023_realistic_postBPix_v2-v1/2560000/348753b0-180e-404f-8983-d8e1079ae1a7.root
/store/mc/Run3Summer23BPixNanoAODv12/DYto2L-2Jets_MLL-50_PTLL-100to200_2J_TuneCP5_13p6TeV_amcatnloFXFX-pythia8/NANOAODSIM/130X_mcRun3_2023_realistic_postBPix_v2-v1/2560000/6e87d889-2779-419c-86e4-c6885c25e768.root
/store/mc/Run3Summer23BPixNanoAODv12/DYto2L-2Jets_MLL-50_PTLL-100to200_2J_TuneCP5_13p6TeV_amcatnloFXFX-pythia8/NANOAODSIM/130X_mcRun3_2023_realistic_postBPix_v2-v1/2560000/079d88cd-dfc2-419a-b2c5-284494a61ee5.root
/store/mc/Run3Summer23BPixNanoAODv12/DYto2L-2Jets_MLL-50_PTLL-100to200_2J_TuneCP5_13p6TeV_amcatnloFXFX-pythia8/NANOAODSIM/130X_mcRun3_2023_realistic_postBPix_v2-v1/2560000/7ce6014d-805f-4c3a-bbec-9f8dc451989f.root
/store/mc/Run3Summer23BPixNanoAODv12/DYto2L-2Jets_MLL-50_PTLL-100to200_2J_TuneCP5_13p6TeV_amcatnloFXFX-pythia8/NANOAODSIM/130X_mcRun3_2023_realistic_postBPix_v2-v1/2560000/6c4d654f-88e4-481f-a0d6-f37376041fe4.root
/store/mc/Run3Summer23BPixNanoAODv12/DYto2L-2Jets_MLL-50_PTLL-100to200_2J_TuneCP5_13p6TeV_amcatnloFXFX-pythia8/NANOAODSIM/130X_mcRun3_2023_realistic_postBPix_v2-v1/2560000/70bac93d-31ce-439f-b069-e021321bd3f9.root
/store/mc/Run3Summer23BPixNanoAODv12/DYto2L-2Jets_MLL-50_PTLL-100to200_2J_TuneCP5_13p6TeV_amcatnloFXFX-pythia8/NANOAODSIM/130X_mcRun3_2023_realistic_postBPix_v2-v1/2560000/4f427e73-a977-4b93-989a-8ffebbad277b.root
/store/mc/Run3Summer23BPixNanoAODv12/DYto2L-2Jets_MLL-50_PTLL-100to200_2J_TuneCP5_13p6TeV_amcatnloFXFX-pythia8/NANOAODSIM/130X_mcRun3_2023_realistic_postBPix_v2-v1/2560000/2b3f9659-e6d7-4767-aa1c-0897f4678dd3.root
/store/mc/Run3Summer23BPixNanoAODv12/DYto2L-2Jets_MLL-50_PTLL-100to200_2J_TuneCP5_13p6TeV_amcatnloFXFX-pythia8/NANOAODSIM/130X_mcRun3_2023_realistic_postBPix_v2-v1/2560000/aaea9c14-9b99-414a-914b-2cef1b339129.root
/store/mc/Run3Summer23BPixNanoAODv12/DYto2L-2Jets_MLL-50_PTLL-100to200_2J_TuneCP5_13p6TeV_amcatnloFXFX-pythia8/NANOAODSIM/130X_mcRun3_2023_realistic_postBPix_v2-v1/2560000/a85c0966-3d44-4364-b6ba-053aed61bf20.root
/store/mc/Run3Summer23BPixNanoAODv12/DYto2L-2Jets_MLL-50_PTLL-100to200_2J_TuneCP5_13p6TeV_amcatnloFXFX-pythia8/NANOAODSIM/130X_mcRun3_2023_realistic_postBPix_v2-v1/2560000/105d6b27-3a34-4c83-8124-30a771e63f0d.root
/store/mc/Run3Summer23BPixNanoAODv12/DYto2L-2Jets_MLL-50_PTLL-100to200_2J_TuneCP5_13p6TeV_amcatnloFXFX-pythia8/NANOAODSIM/130X_mcRun3_2023_realistic_postBPix_v2-v1/2560000/fcbdd3ce-1bea-4cb9-8da6-aa837bd94bae.root
/store/mc/Run3Summer23BPixNanoAODv12/DYto2L-2Jets_MLL-50_PTLL-100to200_2J_TuneCP5_13p6TeV_amcatnloFXFX-pythia8/NANOAODSIM/130X_mcRun3_2023_realistic_postBPix_v2-v1/2550000/1309cd15-af3b-4766-b760-b9a5792e3e3a.root
/store/mc/Run3Summer23BPixNanoAODv12/DYto2L-2Jets_MLL-50_PTLL-100to200_2J_TuneCP5_13p6TeV_amcatnloFXFX-pythia8/NANOAODSIM/130X_mcRun3_2023_realistic_postBPix_v2-v1/2550000/607c0fc6-f1b4-4695-b9ee-4d2e81c32683.root
/store/mc/Run3Summer23BPixNanoAODv12/DYto2L-2Jets_MLL-50_PTLL-100to200_2J_TuneCP5_13p6TeV_amcatnloFXFX-pythia8/NANOAODSIM/130X_mcRun3_2023_realistic_postBPix_v2-v1/2550000/be1e93be-11e5-4cca-b996-8afd61d99e8a.root
/store/mc/Run3Summer23BPixNanoAODv12/DYto2L-2Jets_MLL-50_PTLL-100to200_2J_TuneCP5_13p6TeV_amcatnloFXFX-pythia8/NANOAODSIM/130X_mcRun3_2023_realistic_postBPix_v2-v1/2550000/9667f89f-089d-4207-9ab9-4d7c19fba7f6.root
/store/mc/Run3Summer23BPixNanoAODv12/DYto2L-2Jets_MLL-50_PTLL-100to200_2J_TuneCP5_13p6TeV_amcatnloFXFX-pythia8/NANOAODSIM/130X_mcRun3_2023_realistic_postBPix_v2-v1/2550000/c83568a0-a59d-4b20-b55e-10238c11c843.root
/store/mc/Run3Summer23BPixNanoAODv12/DYto2L-2Jets_MLL-50_PTLL-100to200_2J_TuneCP5_13p6TeV_amcatnloFXFX-pythia8/NANOAODSIM/130X_mcRun3_2023_realistic_postBPix_v2-v1/2550000/c2d4a259-1c13-4a6a-9cd8-866cd9b0f7c8.root
/store/mc/Run3Summer23BPixNanoAODv12/DYto2L-2Jets_MLL-50_PTLL-100to200_2J_TuneCP5_13p6TeV_amcatnloFXFX-pythia8/NANOAODSIM/130X_mcRun3_2023_realistic_postBPix_v2-v1/2550000/331d745f-e1a3-4fc8-a1a8-0cdf982cf3ab.root
/store/mc/Run3Summer23BPixNanoAODv12/DYto2L-2Jets_MLL-50_PTLL-100to200_2J_TuneCP5_13p6TeV_amcatnloFXFX-pythia8/NANOAODSIM/130X_mcRun3_2023_realistic_postBPix_v2-v1/2550000/f36831f1-f4aa-4f3b-beb1-5b905e4dc8db.root
/store/mc/Run3Summer23BPixNanoAODv12/DYto2L-2Jets_MLL-50_PTLL-100to200_2J_TuneCP5_13p6TeV_amcatnloFXFX-pythia8/NANOAODSIM/130X_mcRun3_2023_realistic_postBPix_v2-v1/2550000/c5e7e774-eef4-4ebd-9f26-8fda90cd44fe.root
/store/mc/Run3Summer23BPixNanoAODv12/DYto2L-2Jets_MLL-50_PTLL-100to200_2J_TuneCP5_13p6TeV_amcatnloFXFX-pythia8/NANOAODSIM/130X_mcRun3_2023_realistic_postBPix_v2-v1/2550000/4951a369-3667-4c30-bc34-dcc9893421c2.root
/store/mc/Run3Summer23BPixNanoAODv12/DYto2L-2Jets_MLL-50_PTLL-100to200_2J_TuneCP5_13p6TeV_amcatnloFXFX-pythia8/NANOAODSIM/130X_mcRun3_2023_realistic_postBPix_v2-v1/2550000/4d5e1764-e72f-487a-8320-154e4aebda89.root
/store/mc/Run3Summer23BPixNanoAODv12/DYto2L-2Jets_MLL-50_PTLL-100to200_2J_TuneCP5_13p6TeV_amcatnloFXFX-pythia8/NANOAODSIM/130X_mcRun3_2023_realistic_postBPix_v2-v1/2550000/ec77916b-3c30-4140-9be4-4f360042a953.root
/store/mc/Run3Summer23BPixNanoAODv12/DYto2L-2Jets_MLL-50_PTLL-100to200_2J_TuneCP5_13p6TeV_amcatnloFXFX-pythia8/NANOAODSIM/130X_mcRun3_2023_realistic_postBPix_v2-v1/2550000/85b1fd98-7d7c-4958-9198-7056a8759213.root
/store/mc/Run3Summer23BPixNanoAODv12/DYto2L-2Jets_MLL-50_PTLL-100to200_2J_TuneCP5_13p6TeV_amcatnloFXFX-pythia8/NANOAODSIM/130X_mcRun3_2023_realistic_postBPix_v2-v1/2550000/18e314c4-acb4-4fe9-a3de-5c2454b97944.root
/store/mc/Run3Summer23BPixNanoAODv12/DYto2L-2Jets_MLL-50_PTLL-100to200_2J_TuneCP5_13p6TeV_amcatnloFXFX-pythia8/NANOAODSIM/130X_mcRun3_2023_realistic_postBPix_v2-v1/2550000/a378f5e5-9d25-47f3-8604-78bff996fc8f.root
/store/mc/Run3Summer23BPixNanoAODv12/DYto2L-2Jets_MLL-50_PTLL-100to200_2J_TuneCP5_13p6TeV_amcatnloFXFX-pythia8/NANOAODSIM/130X_mcRun3_2023_realistic_postBPix_v2-v1/2550000/c4620ecb-7b72-4c3e-97a0-d78108a20479.root
/store/mc/Run3Summer23BPixNanoAODv12/DYto2L-2Jets_MLL-50_PTLL-100to200_2J_TuneCP5_13p6TeV_amcatnloFXFX-pythia8/NANOAODSIM/130X_mcRun3_2023_realistic_postBPix_v2-v1/2550000/7bfce943-d261-484f-929c-0461c9820134.root
/store/mc/Run3Summer23BPixNanoAODv12/DYto2L-2Jets_MLL-50_PTLL-100to200_2J_TuneCP5_13p6TeV_amcatnloFXFX-pythia8/NANOAODSIM/130X_mcRun3_2023_realistic_postBPix_v2-v1/2550000/bacb19f1-86d7-44f6-8965-b210ba3171a1.root
/store/mc/Run3Summer23BPixNanoAODv12/DYto2L-2Jets_MLL-50_PTLL-100to200_2J_TuneCP5_13p6TeV_amcatnloFXFX-pythia8/NANOAODSIM/130X_mcRun3_2023_realistic_postBPix_v2-v1/2550000/6f8dd4b6-bfa9-4f40-9263-937e2bedbb44.root
/store/mc/Run3Summer23BPixNanoAODv12/DYto2L-2Jets_MLL-50_PTLL-100to200_2J_TuneCP5_13p6TeV_amcatnloFXFX-pythia8/NANOAODSIM/130X_mcRun3_2023_realistic_postBPix_v2-v1/2550000/7b97589f-2464-4b57-8fa2-8567e3fb8dee.root
/store/mc/Run3Summer23BPixNanoAODv12/DYto2L-2Jets_MLL-50_PTLL-100to200_2J_TuneCP5_13p6TeV_amcatnloFXFX-pythia8/NANOAODSIM/130X_mcRun3_2023_realistic_postBPix_v2-v1/2550000/1ad30d5d-2d15-4e23-951e-50c4fca8905f.root
/store/mc/Run3Summer23BPixNanoAODv12/DYto2L-2Jets_MLL-50_PTLL-100to200_2J_TuneCP5_13p6TeV_amcatnloFXFX-pythia8/NANOAODSIM/130X_mcRun3_2023_realistic_postBPix_v2-v1/2550000/69367bb0-7a10-4e4d-b54c-2d6e85b87a9f.root
/store/mc/Run3Summer23BPixNanoAODv12/DYto2L-2Jets_MLL-50_PTLL-100to200_2J_TuneCP5_13p6TeV_amcatnloFXFX-pythia8/NANOAODSIM/130X_mcRun3_2023_realistic_postBPix_v2-v1/2550000/01437dda-fa30-4db7-9594-e5951d91d9f1.root
/store/mc/Run3Summer23BPixNanoAODv12/DYto2L-2Jets_MLL-50_PTLL-100to200_2J_TuneCP5_13p6TeV_amcatnloFXFX-pythia8/NANOAODSIM/130X_mcRun3_2023_realistic_postBPix_v2-v1/2550000/b98eb687-81f1-4f73-b82f-a7411a5a24c4.root
/store/mc/Run3Summer23BPixNanoAODv12/DYto2L-2Jets_MLL-50_PTLL-100to200_2J_TuneCP5_13p6TeV_amcatnloFXFX-pythia8/NANOAODSIM/130X_mcRun3_2023_realistic_postBPix_v2-v1/2550000/8d6d918a-b659-4a2d-9be5-a9d6bc6bd915.root
/store/mc/Run3Summer23BPixNanoAODv12/DYto2L-2Jets_MLL-50_PTLL-100to200_2J_TuneCP5_13p6TeV_amcatnloFXFX-pythia8/NANOAODSIM/130X_mcRun3_2023_realistic_postBPix_v2-v1/2550000/a7cf0e24-d12f-4ac4-9fce-09e1a1271da9.root
/store/mc/Run3Summer23BPixNanoAODv12/DYto2L-2Jets_MLL-50_PTLL-100to200_2J_TuneCP5_13p6TeV_amcatnloFXFX-pythia8/NANOAODSIM/130X_mcRun3_2023_realistic_postBPix_v2-v1/2550000/bbe4748d-5f81-4fa3-a7a7-aa9a2ab71f23.root
/store/mc/Run3Summer23BPixNanoAODv12/DYto2L-2Jets_MLL-50_PTLL-100to200_2J_TuneCP5_13p6TeV_amcatnloFXFX-pythia8/NANOAODSIM/130X_mcRun3_2023_realistic_postBPix_v2-v1/2550000/f3d996ca-98bf-4d68-ac64-ebe6553bc48b.root
/store/mc/Run3Summer23BPixNanoAODv12/DYto2L-2Jets_MLL-50_PTLL-100to200_2J_TuneCP5_13p6TeV_amcatnloFXFX-pythia8/NANOAODSIM/130X_mcRun3_2023_realistic_postBPix_v2-v1/2550000/f5efd924-4ffb-45d4-ab1c-361856a5bfc5.root
/store/mc/Run3Summer23BPixNanoAODv12/DYto2L-2Jets_MLL-50_PTLL-100to200_2J_TuneCP5_13p6TeV_amcatnloFXFX-pythia8/NANOAODSIM/130X_mcRun3_2023_realistic_postBPix_v2-v1/2550000/249c8cea-708f-470c-8006-1ed04a02c982.root
/store/mc/Run3Summer23BPixNanoAODv12/DYto2L-2Jets_MLL-50_PTLL-100to200_2J_TuneCP5_13p6TeV_amcatnloFXFX-pythia8/NANOAODSIM/130X_mcRun3_2023_realistic_postBPix_v2-v1/2550000/9324dc6d-982b-4073-b181-c5b374c00d2b.root
/store/mc/Run3Summer23BPixNanoAODv12/DYto2L-2Jets_MLL-50_PTLL-100to200_2J_TuneCP5_13p6TeV_amcatnloFXFX-pythia8/NANOAODSIM/130X_mcRun3_2023_realistic_postBPix_v2-v1/2550000/e3f380f3-251d-4eab-b101-6646f56b4f5c.root
/store/mc/Run3Summer23BPixNanoAODv12/DYto2L-2Jets_MLL-50_PTLL-100to200_2J_TuneCP5_13p6TeV_amcatnloFXFX-pythia8/NANOAODSIM/130X_mcRun3_2023_realistic_postBPix_v2-v1/2550000/8756cf80-4bba-49d0-b5c9-344afc9ce392.root
/store/mc/Run3Summer23BPixNanoAODv12/DYto2L-2Jets_MLL-50_PTLL-100to200_2J_TuneCP5_13p6TeV_amcatnloFXFX-pythia8/NANOAODSIM/130X_mcRun3_2023_realistic_postBPix_v2-v1/2550000/da4401b0-a6d6-42f4-bb81-ca2985f15bda.root
/store/mc/Run3Summer23BPixNanoAODv12/DYto2L-2Jets_MLL-50_PTLL-100to200_2J_TuneCP5_13p6TeV_amcatnloFXFX-pythia8/NANOAODSIM/130X_mcRun3_2023_realistic_postBPix_v2-v1/2550000/957f24a8-3d2c-48ba-a829-cd61d49f3db0.root
/store/mc/Run3Summer23BPixNanoAODv12/DYto2L-2Jets_MLL-50_PTLL-100to200_2J_TuneCP5_13p6TeV_amcatnloFXFX-pythia8/NANOAODSIM/130X_mcRun3_2023_realistic_postBPix_v2-v1/2550000/03666633-144e-469b-960a-7d308f40546b.root
/store/mc/Run3Summer23BPixNanoAODv12/DYto2L-2Jets_MLL-50_PTLL-100to200_2J_TuneCP5_13p6TeV_amcatnloFXFX-pythia8/NANOAODSIM/130X_mcRun3_2023_realistic_postBPix_v2-v1/2550000/5bb86beb-2988-4e0d-8792-066c5052046b.root
/store/mc/Run3Summer23BPixNanoAODv12/DYto2L-2Jets_MLL-50_PTLL-100to200_2J_TuneCP5_13p6TeV_amcatnloFXFX-pythia8/NANOAODSIM/130X_mcRun3_2023_realistic_postBPix_v2-v1/2550000/2bf093e5-e814-4f95-a602-3335bb961294.root
/store/mc/Run3Summer23BPixNanoAODv12/DYto2L-2Jets_MLL-50_PTLL-100to200_2J_TuneCP5_13p6TeV_amcatnloFXFX-pythia8/NANOAODSIM/130X_mcRun3_2023_realistic_postBPix_v2-v1/2550000/5c7a2eb9-4a54-4134-9695-a2ba434c538c.root
/store/mc/Run3Summer23BPixNanoAODv12/DYto2L-2Jets_MLL-50_PTLL-100to200_2J_TuneCP5_13p6TeV_amcatnloFXFX-pythia8/NANOAODSIM/130X_mcRun3_2023_realistic_postBPix_v2-v1/2550000/26bcaa67-a731-457d-a9d2-c57214ca4c8f.root
/store/mc/Run3Summer23BPixNanoAODv12/DYto2L-2Jets_MLL-50_PTLL-100to200_2J_TuneCP5_13p6TeV_amcatnloFXFX-pythia8/NANOAODSIM/130X_mcRun3_2023_realistic_postBPix_v2-v1/2550000/bd717cb2-6168-4097-b289-9f8e0d4d117e.root
/store/mc/Run3Summer23BPixNanoAODv12/DYto2L-2Jets_MLL-50_PTLL-100to200_2J_TuneCP5_13p6TeV_amcatnloFXFX-pythia8/NANOAODSIM/130X_mcRun3_2023_realistic_postBPix_v2-v1/2550000/710fb551-8363-4d1b-b7d0-8559f3096773.root
/store/mc/Run3Summer23BPixNanoAODv12/DYto2L-2Jets_MLL-50_PTLL-100to200_2J_TuneCP5_13p6TeV_amcatnloFXFX-pythia8/NANOAODSIM/130X_mcRun3_2023_realistic_postBPix_v2-v1/2550000/0a5bfd79-332d-4fbc-9d58-be702f0cd4b8.root
/store/mc/Run3Summer23BPixNanoAODv12/DYto2L-2Jets_MLL-50_PTLL-100to200_2J_TuneCP5_13p6TeV_amcatnloFXFX-pythia8/NANOAODSIM/130X_mcRun3_2023_realistic_postBPix_v2-v1/2550000/3d7748e8-5389-431b-8ba4-cc6077e42f61.root
/store/mc/Run3Summer23BPixNanoAODv12/DYto2L-2Jets_MLL-50_PTLL-100to200_2J_TuneCP5_13p6TeV_amcatnloFXFX-pythia8/NANOAODSIM/130X_mcRun3_2023_realistic_postBPix_v2-v1/2550000/6b554fac-e0ab-426e-98cb-3b5e5edef837.root
/store/mc/Run3Summer23BPixNanoAODv12/DYto2L-2Jets_MLL-50_PTLL-100to200_2J_TuneCP5_13p6TeV_amcatnloFXFX-pythia8/NANOAODSIM/130X_mcRun3_2023_realistic_postBPix_v2-v1/2550000/bc678981-9519-42f4-b9d6-77e3d507cb17.root
/store/mc/Run3Summer23BPixNanoAODv12/DYto2L-2Jets_MLL-50_PTLL-100to200_2J_TuneCP5_13p6TeV_amcatnloFXFX-pythia8/NANOAODSIM/130X_mcRun3_2023_realistic_postBPix_v2-v1/2550000/1bb0e799-a8f0-4a04-a9e5-7f49faeca20c.root
/store/mc/Run3Summer23BPixNanoAODv12/DYto2L-2Jets_MLL-50_PTLL-100to200_2J_TuneCP5_13p6TeV_amcatnloFXFX-pythia8/NANOAODSIM/130X_mcRun3_2023_realistic_postBPix_v2-v1/2550000/9df46224-d781-44d6-a035-23d8fdcd624c.root
/store/mc/Run3Summer23BPixNanoAODv12/DYto2L-2Jets_MLL-50_PTLL-100to200_2J_TuneCP5_13p6TeV_amcatnloFXFX-pythia8/NANOAODSIM/130X_mcRun3_2023_realistic_postBPix_v2-v1/2550000/ef02e756-075d-4308-96c2-809fcb4581db.root
/store/mc/Run3Summer23BPixNanoAODv12/DYto2L-2Jets_MLL-50_PTLL-100to200_2J_TuneCP5_13p6TeV_amcatnloFXFX-pythia8/NANOAODSIM/130X_mcRun3_2023_realistic_postBPix_v2-v1/2550000/acdb2b89-4f0c-4563-8d06-79219f921739.root
/store/mc/Run3Summer23BPixNanoAODv12/DYto2L-2Jets_MLL-50_PTLL-100to200_2J_TuneCP5_13p6TeV_amcatnloFXFX-pythia8/NANOAODSIM/130X_mcRun3_2023_realistic_postBPix_v2-v1/2550000/e6e44386-eb44-458f-90cd-7a5f4867e2e7.root
/store/mc/Run3Summer23BPixNanoAODv12/DYto2L-2Jets_MLL-50_PTLL-100to200_2J_TuneCP5_13p6TeV_amcatnloFXFX-pythia8/NANOAODSIM/130X_mcRun3_2023_realistic_postBPix_v2-v1/2550000/11d4ee9a-ad4b-4643-a192-bff5979cc989.root
/store/mc/Run3Summer23BPixNanoAODv12/DYto2L-2Jets_MLL-50_PTLL-100to200_2J_TuneCP5_13p6TeV_amcatnloFXFX-pythia8/NANOAODSIM/130X_mcRun3_2023_realistic_postBPix_v2-v1/2550000/dc977a03-0523-404c-ac95-86a20371f331.root
/store/mc/Run3Summer23BPixNanoAODv12/DYto2L-2Jets_MLL-50_PTLL-100to200_2J_TuneCP5_13p6TeV_amcatnloFXFX-pythia8/NANOAODSIM/130X_mcRun3_2023_realistic_postBPix_v2-v1/2550000/98fc116c-c8bf-43fc-9da6-8d057530c801.root
/store/mc/Run3Summer23BPixNanoAODv12/DYto2L-2Jets_MLL-50_PTLL-100to200_2J_TuneCP5_13p6TeV_amcatnloFXFX-pythia8/NANOAODSIM/130X_mcRun3_2023_realistic_postBPix_v2-v1/80000/08ddad33-b248-4763-b704-b17a80db1048.root
/store/mc/Run3Summer23BPixNanoAODv12/DYto2L-2Jets_MLL-50_PTLL-100to200_2J_TuneCP5_13p6TeV_amcatnloFXFX-pythia8/NANOAODSIM/130X_mcRun3_2023_realistic_postBPix_v2-v1/80000/5e6b821f-ebe3-471d-886b-f88241e7fb23.root
/store/mc/Run3Summer23BPixNanoAODv12/DYto2L-2Jets_MLL-50_PTLL-100to200_2J_TuneCP5_13p6TeV_amcatnloFXFX-pythia8/NANOAODSIM/130X_mcRun3_2023_realistic_postBPix_v2-v1/80000/22879d61-c7b3-4ab1-9ddb-9a844a1077b9.root
/store/mc/Run3Summer23BPixNanoAODv12/DYto2L-2Jets_MLL-50_PTLL-100to200_2J_TuneCP5_13p6TeV_amcatnloFXFX-pythia8/NANOAODSIM/130X_mcRun3_2023_realistic_postBPix_v2-v1/50000/261193c3-deff-4d35-9f9f-81ba876d9569.root
/store/mc/Run3Summer23BPixNanoAODv12/DYto2L-2Jets_MLL-50_PTLL-100to200_2J_TuneCP5_13p6TeV_amcatnloFXFX-pythia8/NANOAODSIM/130X_mcRun3_2023_realistic_postBPix_v2-v1/50000/2d2ef1f8-79d8-4244-9a49-512a260deba3.root
/store/mc/Run3Summer23BPixNanoAODv12/DYto2L-2Jets_MLL-50_PTLL-100to200_2J_TuneCP5_13p6TeV_amcatnloFXFX-pythia8/NANOAODSIM/130X_mcRun3_2023_realistic_postBPix_v2-v1/50000/c040bf07-89ad-4f5e-8ffc-86b0e70fb738.root
/store/mc/Run3Summer23BPixNanoAODv12/DYto2L-2Jets_MLL-50_PTLL-100to200_2J_TuneCP5_13p6TeV_amcatnloFXFX-pythia8/NANOAODSIM/130X_mcRun3_2023_realistic_postBPix_v2-v1/50000/bb4dfd2f-9ed2-4c1d-9442-dc33f973a3c4.root
/store/mc/Run3Summer23BPixNanoAODv12/DYto2L-2Jets_MLL-50_PTLL-100to200_2J_TuneCP5_13p6TeV_amcatnloFXFX-pythia8/NANOAODSIM/130X_mcRun3_2023_realistic_postBPix_v2-v1/50000/58eebc09-ba92-45eb-b2b3-2b637e25e8bf.root
/store/mc/Run3Summer23BPixNanoAODv12/DYto2L-2Jets_MLL-50_PTLL-100to200_2J_TuneCP5_13p6TeV_amcatnloFXFX-pythia8/NANOAODSIM/130X_mcRun3_2023_realistic_postBPix_v2-v1/50000/23d7ef9b-a71c-4c82-8b4f-5136fce5f39b.root
/store/mc/Run3Summer23BPixNanoAODv12/DYto2L-2Jets_MLL-50_PTLL-100to200_2J_TuneCP5_13p6TeV_amcatnloFXFX-pythia8/NANOAODSIM/130X_mcRun3_2023_realistic_postBPix_v2-v1/50000/f4dbabea-b8f2-4879-a54b-a2cd851b3f16.root
/store/mc/Run3Summer23BPixNanoAODv12/DYto2L-2Jets_MLL-50_PTLL-100to200_2J_TuneCP5_13p6TeV_amcatnloFXFX-pythia8/NANOAODSIM/130X_mcRun3_2023_realistic_postBPix_v2-v1/50000/746b1dca-d89d-4dc4-a9f3-6ab3ae8371c0.root
/store/mc/Run3Summer23BPixNanoAODv12/DYto2L-2Jets_MLL-50_PTLL-100to200_2J_TuneCP5_13p6TeV_amcatnloFXFX-pythia8/NANOAODSIM/130X_mcRun3_2023_realistic_postBPix_v2-v1/50000/cdceb15a-e4ad-4540-b180-aac74c6c411a.root
/store/mc/Run3Summer23BPixNanoAODv12/DYto2L-2Jets_MLL-50_PTLL-100to200_2J_TuneCP5_13p6TeV_amcatnloFXFX-pythia8/NANOAODSIM/130X_mcRun3_2023_realistic_postBPix_v2-v1/50000/7b31e883-c2dd-4380-8af4-6ae263a3f7e0.root
/store/mc/Run3Summer23BPixNanoAODv12/DYto2L-2Jets_MLL-50_PTLL-100to200_2J_TuneCP5_13p6TeV_amcatnloFXFX-pythia8/NANOAODSIM/130X_mcRun3_2023_realistic_postBPix_v2-v1/50000/c9c8532e-e6b7-4089-90ac-7f7cd673160a.root
/store/mc/Run3Summer23BPixNanoAODv12/DYto2L-2Jets_MLL-50_PTLL-100to200_2J_TuneCP5_13p6TeV_amcatnloFXFX-pythia8/NANOAODSIM/130X_mcRun3_2023_realistic_postBPix_v2-v1/50000/a1507bc2-0584-4b20-9e84-29c449473e9b.root
/store/mc/Run3Summer23BPixNanoAODv12/DYto2L-2Jets_MLL-50_PTLL-100to200_2J_TuneCP5_13p6TeV_amcatnloFXFX-pythia8/NANOAODSIM/130X_mcRun3_2023_realistic_postBPix_v2-v1/50000/2392dd07-e617-4529-ae6a-57eb4d074a10.root
/store/mc/Run3Summer23BPixNanoAODv12/DYto2L-2Jets_MLL-50_PTLL-100to200_2J_TuneCP5_13p6TeV_amcatnloFXFX-pythia8/NANOAODSIM/130X_mcRun3_2023_realistic_postBPix_v2-v1/50000/06346850-35b8-4eb9-bcb7-46a2dddb4e62.root
/store/mc/Run3Summer23BPixNanoAODv12/DYto2L-2Jets_MLL-50_PTLL-100to200_2J_TuneCP5_13p6TeV_amcatnloFXFX-pythia8/NANOAODSIM/130X_mcRun3_2023_realistic_postBPix_v2-v1/50000/c24c0812-7b1e-4f66-af09-8f0fecf172db.root
/store/mc/Run3Summer23BPixNanoAODv12/DYto2L-2Jets_MLL-50_PTLL-100to200_2J_TuneCP5_13p6TeV_amcatnloFXFX-pythia8/NANOAODSIM/130X_mcRun3_2023_realistic_postBPix_v2-v1/50000/54e98cce-5a25-4242-a9b3-b11e7ff6bb56.root
/store/mc/Run3Summer23BPixNanoAODv12/DYto2L-2Jets_MLL-50_PTLL-100to200_2J_TuneCP5_13p6TeV_amcatnloFXFX-pythia8/NANOAODSIM/130X_mcRun3_2023_realistic_postBPix_v2-v1/50000/bdea3c46-c238-46a4-bc49-46450312d8bb.root
/store/mc/Run3Summer23BPixNanoAODv12/DYto2L-2Jets_MLL-50_PTLL-100to200_2J_TuneCP5_13p6TeV_amcatnloFXFX-pythia8/NANOAODSIM/130X_mcRun3_2023_realistic_postBPix_v2-v1/50000/003a236c-633e-405f-8c6b-6a46e1a56edd.root
/store/mc/Run3Summer23BPixNanoAODv12/DYto2L-2Jets_MLL-50_PTLL-100to200_2J_TuneCP5_13p6TeV_amcatnloFXFX-pythia8/NANOAODSIM/130X_mcRun3_2023_realistic_postBPix_v2-v1/50000/43d30ecb-f8b8-4131-9c3e-27cf16d187f7.root
/store/mc/Run3Summer23BPixNanoAODv12/DYto2L-2Jets_MLL-50_PTLL-100to200_2J_TuneCP5_13p6TeV_amcatnloFXFX-pythia8/NANOAODSIM/130X_mcRun3_2023_realistic_postBPix_v2-v1/50000/1324f47e-6457-48ef-b901-c9552b1dbb44.root
/store/mc/Run3Summer23BPixNanoAODv12/DYto2L-2Jets_MLL-50_PTLL-100to200_2J_TuneCP5_13p6TeV_amcatnloFXFX-pythia8/NANOAODSIM/130X_mcRun3_2023_realistic_postBPix_v2-v1/50000/89256c16-d941-484c-b770-c8406d22bc1c.root
/store/mc/Run3Summer23BPixNanoAODv12/DYto2L-2Jets_MLL-50_PTLL-100to200_2J_TuneCP5_13p6TeV_amcatnloFXFX-pythia8/NANOAODSIM/130X_mcRun3_2023_realistic_postBPix_v2-v1/50000/ba272216-bb6d-4088-aa05-53480034b1ef.root
/store/mc/Run3Summer23BPixNanoAODv12/DYto2L-2Jets_MLL-50_PTLL-100to200_2J_TuneCP5_13p6TeV_amcatnloFXFX-pythia8/NANOAODSIM/130X_mcRun3_2023_realistic_postBPix_v2-v1/50000/5ff4b909-3d81-42c1-aa43-2b147945f2c1.root
/store/mc/Run3Summer23BPixNanoAODv12/DYto2L-2Jets_MLL-50_PTLL-100to200_2J_TuneCP5_13p6TeV_amcatnloFXFX-pythia8/NANOAODSIM/130X_mcRun3_2023_realistic_postBPix_v2-v1/50000/b1c6bf53-a36d-499e-b2a6-b8cf86d9d6d4.root
/store/mc/Run3Summer23BPixNanoAODv12/DYto2L-2Jets_MLL-50_PTLL-100to200_2J_TuneCP5_13p6TeV_amcatnloFXFX-pythia8/NANOAODSIM/130X_mcRun3_2023_realistic_postBPix_v2-v1/50000/351c6356-cd74-4a47-aaac-c15b9a9915ba.root
/store/mc/Run3Summer23BPixNanoAODv12/DYto2L-2Jets_MLL-50_PTLL-100to200_2J_TuneCP5_13p6TeV_amcatnloFXFX-pythia8/NANOAODSIM/130X_mcRun3_2023_realistic_postBPix_v2-v1/50000/57d04e5f-0278-4ba4-b857-4e80a057fd2c.root
/store/mc/Run3Summer23BPixNanoAODv12/DYto2L-2Jets_MLL-50_PTLL-100to200_2J_TuneCP5_13p6TeV_amcatnloFXFX-pythia8/NANOAODSIM/130X_mcRun3_2023_realistic_postBPix_v2-v1/50000/43a1f04c-38d2-4368-bb2a-c2c6dbcd5a0d.root
/store/mc/Run3Summer23BPixNanoAODv12/DYto2L-2Jets_MLL-50_PTLL-100to200_2J_TuneCP5_13p6TeV_amcatnloFXFX-pythia8/NANOAODSIM/130X_mcRun3_2023_realistic_postBPix_v2-v1/50000/817ea3ff-320c-4dbc-8fef-d95b948f90b1.root