/store/data/Run2023D/ParkingHH/NANOAOD/22Sep2023_v2-v1/2560000/c493171c-63f5-4906-b09a-ac5684089bb0.root
/store/data/Run2023D/ParkingHH/NANOAOD/22Sep2023_v2-v1/2560000/daaaa128-8131-41c4-8cdc-710bd8b98f02.root
/store/data/Run2023D/ParkingHH/NANOAOD/22Sep2023_v2-v1/2560000/6526663d-20d6-41b4-939e-5335dc0f399c.root
/store/data/Run2023D/ParkingHH/NANOAOD/22Sep2023_v2-v1/2560000/14a80b83-cd4d-4a61-ac60-74d97e74c9b6.root
/store/data/Run2023D/ParkingHH/NANOAOD/22Sep2023_v2-v1/2560000/fbd89247-1234-4e49-bc5c-abe7929e84da.root
/store/data/Run2023D/ParkingHH/NANOAOD/22Sep2023_v2-v1/2560000/4f50efa2-889f-4202-b430-cdcb10d1b880.root
/store/data/Run2023D/ParkingHH/NANOAOD/22Sep2023_v2-v1/2560000/380fdcef-36a3-43d9-896e-08faba863d60.root
/store/data/Run2023D/ParkingHH/NANOAOD/22Sep2023_v2-v1/2560000/db3dc695-676c-437c-b304-55353dbdee67.root
/store/data/Run2023D/ParkingHH/NANOAOD/22Sep2023_v2-v1/60000/aeda6cde-57aa-4b49-8e3a-41f9414c586c.root
/store/data/Run2023D/ParkingHH/NANOAOD/22Sep2023_v2-v1/60000/1956d358-9c78-4238-ae37-95216cbb87f5.root
/store/data/Run2023D/ParkingHH/NANOAOD/22Sep2023_v2-v1/60000/4bd0cd7d-bd3e-45fa-b2f0-da12e7ff7daf.root
/store/data/Run2023D/ParkingHH/NANOAOD/22Sep2023_v2-v1/60000/ebe5f25a-111e-4a6e-9128-264a25aaf2bc.root
/store/data/Run2023D/ParkingHH/NANOAOD/22Sep2023_v2-v1/60000/6d86c5b6-bb22-4d67-822e-1bfafb4fff71.root
/store/data/Run2023D/ParkingHH/NANOAOD/22Sep2023_v2-v1/60000/d367cd08-c0cc-487f-9caa-493f66358adb.root
/store/data/Run2023D/ParkingHH/NANOAOD/22Sep2023_v2-v1/60000/00610529-4346-40a1-95ff-be5eeaaaea8c.root
/store/data/Run2023D/ParkingHH/NANOAOD/22Sep2023_v2-v1/60000/bddb87d6-8085-47f5-b827-1d864000a128.root
/store/data/Run2023D/ParkingHH/NANOAOD/22Sep2023_v2-v1/60000/1fe7016e-94b2-4092-8d24-ee6862eddbc4.root
/store/data/Run2023D/ParkingHH/NANOAOD/22Sep2023_v2-v1/60000/c8ac6112-5c9e-4db2-a2d3-293ff48d8864.root
/store/data/Run2023D/ParkingHH/NANOAOD/22Sep2023_v2-v1/60000/506b6d1d-bd78-43cd-b770-f234d8dfecbf.root
/store/data/Run2023D/ParkingHH/NANOAOD/22Sep2023_v2-v1/60000/2a2cb6e2-99ac-407b-a9bf-55980bb0ec71.root
/store/data/Run2023D/ParkingHH/NANOAOD/22Sep2023_v2-v1/60000/d01dfe24-9bfd-4323-bdb5-a266172806c7.root
/store/data/Run2023D/ParkingHH/NANOAOD/22Sep2023_v2-v1/60000/69155626-c909-4645-b8e4-31e5024d609a.root
/store/data/Run2023D/ParkingHH/NANOAOD/22Sep2023_v2-v1/60000/d03102e6-bdd0-453f-9921-e88cada6cf65.root
/store/data/Run2023D/ParkingHH/NANOAOD/22Sep2023_v2-v1/60000/aadd5006-fcb1-45c3-bd6f-7778a81fc830.root
/store/data/Run2023D/ParkingHH/NANOAOD/22Sep2023_v2-v1/60000/184bebb8-5e35-41d2-86b6-cc02c0307489.root
/store/data/Run2023D/ParkingHH/NANOAOD/22Sep2023_v2-v1/60000/769f342b-70cc-4f6f-bede-4154ed4a7816.root
/store/data/Run2023D/ParkingHH/NANOAOD/22Sep2023_v2-v1/60000/ff2c1df5-129f-457b-83f9-5e2b88b91eb3.root