/store/data/Run2023D/Tau/NANOAOD/22Sep2023_v1-v1/40000/f21db601-1164-44d1-880b-ea5db84ec71d.root
/store/data/Run2023D/Tau/NANOAOD/22Sep2023_v1-v1/40000/12d67ca7-98c9-4236-b4dd-4c52064de778.root
/store/data/Run2023D/Tau/NANOAOD/22Sep2023_v1-v1/40000/2bf1dd6d-aa3b-4119-9823-ff68dc78848c.root
/store/data/Run2023D/Tau/NANOAOD/22Sep2023_v1-v1/40000/7261af4b-48b5-409b-9309-76135d0c27af.root
/store/data/Run2023D/Tau/NANOAOD/22Sep2023_v1-v1/40000/05a1a968-5640-4b5f-993d-29602a7a91ef.root
/store/data/Run2023D/Tau/NANOAOD/22Sep2023_v1-v1/40000/2e49f90b-d9e3-4abb-bdc1-803f617e1c7a.root
/store/data/Run2023D/Tau/NANOAOD/22Sep2023_v1-v1/40000/f96f259a-1678-477c-88b7-4d8066a8b81e.root
/store/data/Run2023D/Tau/NANOAOD/22Sep2023_v1-v1/40000/6060668b-0ae5-4de9-9e4e-82b64c94edd8.root
/store/data/Run2023D/Tau/NANOAOD/22Sep2023_v1-v1/40000/848191fa-8066-4a47-8a03-cfdb81b26e20.root
/store/data/Run2023D/Tau/NANOAOD/22Sep2023_v1-v1/40000/670ff403-7105-4bd0-b8ca-346dbd05799b.root
/store/data/Run2023D/Tau/NANOAOD/22Sep2023_v1-v1/40000/0e156127-de82-4028-bff6-e081f3adb550.root
/store/data/Run2023D/Tau/NANOAOD/22Sep2023_v1-v1/40000/7b33fceb-4e92-4005-a697-1c95e40c59c0.root
/store/data/Run2023D/Tau/NANOAOD/22Sep2023_v1-v1/40000/d5a541bc-d745-4ed3-a0d3-af59962f73ea.root
/store/data/Run2023D/Tau/NANOAOD/22Sep2023_v1-v1/2530000/b67c30b6-48f8-4c1d-84c0-5af295efa9e5.root
/store/data/Run2023D/Tau/NANOAOD/22Sep2023_v1-v1/2530000/abb5a07d-b8fd-4bb2-a62e-890ad00dba20.root
/store/data/Run2023D/Tau/NANOAOD/22Sep2023_v1-v1/40000/dde37072-cf13-43a7-937c-b50d99cb0be9.root
/store/data/Run2023D/Tau/NANOAOD/22Sep2023_v1-v1/40000/536d6b9b-9ab3-4b2e-832b-93bdf862d232.root
/store/data/Run2023D/Tau/NANOAOD/22Sep2023_v1-v1/40000/d21e9826-145c-45a7-836f-2565716e7f46.root
/store/data/Run2023D/Tau/NANOAOD/22Sep2023_v1-v1/40000/cf024359-9ad3-48e8-b7ce-946f4abfe02c.root
/store/data/Run2023D/Tau/NANOAOD/22Sep2023_v1-v1/40000/7af1db32-0e79-4fae-81fc-a093f2336962.root
/store/data/Run2023D/Tau/NANOAOD/22Sep2023_v1-v1/2530000/4725c3b7-cd38-44bb-bacb-4bb3dfe93e25.root
/store/data/Run2023D/Tau/NANOAOD/22Sep2023_v1-v1/2530000/2422fc54-09eb-41d7-bcc7-535c89cb4427.root
/store/data/Run2023D/Tau/NANOAOD/22Sep2023_v1-v1/2530000/b948d460-8d9d-400b-a633-140c0f34b0f3.root
/store/data/Run2023D/Tau/NANOAOD/22Sep2023_v1-v1/2530000/cbd3263d-12c7-466c-a93f-1237c7fd4789.root
/store/data/Run2023D/Tau/NANOAOD/22Sep2023_v1-v1/2530000/1fc9d803-bd28-44d3-969c-6d78e6ed6ae0.root
/store/data/Run2023D/Tau/NANOAOD/22Sep2023_v1-v1/2530000/3e2f213f-43a7-4687-956b-25cb36d42d00.root
/store/data/Run2023D/Tau/NANOAOD/22Sep2023_v1-v1/2530000/7aba7bd5-60c0-40d5-a9c9-0a30b0dce7f3.root
/store/data/Run2023D/Tau/NANOAOD/22Sep2023_v1-v1/2530000/aa8dabb8-95f2-4f7e-a824-b195d7539e04.root
/store/data/Run2023D/Tau/NANOAOD/22Sep2023_v1-v1/2530000/17c6501d-4885-4f39-90d9-e2b5ea7a4656.root
/store/data/Run2023D/Tau/NANOAOD/22Sep2023_v1-v1/2530000/52c28818-8df2-43fd-b3c6-2beb8de3e0f7.root
/store/data/Run2023D/Tau/NANOAOD/22Sep2023_v1-v1/2530000/3ff7df02-792a-437d-b62f-9705aff19ec3.root
/store/data/Run2023D/Tau/NANOAOD/22Sep2023_v1-v1/2530000/13fabfb6-c57e-442f-992c-94d0ebdb70cd.root
/store/data/Run2023D/Tau/NANOAOD/22Sep2023_v1-v1/2530000/942c4818-cb48-48f9-8899-23d830bcb5af.root
/store/data/Run2023D/Tau/NANOAOD/22Sep2023_v1-v1/40000/1f134e69-ffde-4a38-8357-922bd4895f21.root
/store/data/Run2023D/Tau/NANOAOD/22Sep2023_v1-v1/40000/0eb105c3-e079-4c33-ba9a-f4216df6191e.root
/store/data/Run2023D/Tau/NANOAOD/22Sep2023_v1-v1/2530000/1e40f12f-91a3-4824-9fae-06fced6c0228.root
/store/data/Run2023D/Tau/NANOAOD/22Sep2023_v1-v1/2530000/f2ed3735-5b57-4d96-85e0-347b821c2a3b.root
/store/data/Run2023D/Tau/NANOAOD/22Sep2023_v1-v1/2530000/a42503a6-ab2b-4929-89a4-fdc3a545a7d0.root
/store/data/Run2023D/Tau/NANOAOD/22Sep2023_v1-v1/2530000/3486e212-757b-42e9-97be-56105625ed68.root
/store/data/Run2023D/Tau/NANOAOD/22Sep2023_v1-v1/2530000/a6e080e5-4de2-47ae-b138-757e965d3a11.root
/store/data/Run2023D/Tau/NANOAOD/22Sep2023_v1-v1/2530000/7dd8ad6a-51dc-4632-8642-404e42818876.root
/store/data/Run2023D/Tau/NANOAOD/22Sep2023_v1-v1/2530000/8c454c30-300d-48b3-aa42-76b9c141ed62.root