/store/mc/Run3Summer23BPixNanoAODv12/TTto4Q_TuneCP5_13p6TeV_powheg-pythia8/NANOAODSIM/130X_mcRun3_2023_realistic_postBPix_v2-v3/2540000/25e4b585-96bf-4148-b206-8cd6880ffe3d.root
/store/mc/Run3Summer23BPixNanoAODv12/TTto4Q_TuneCP5_13p6TeV_powheg-pythia8/NANOAODSIM/130X_mcRun3_2023_realistic_postBPix_v2-v3/50000/d136346e-fd38-4ad5-ac6d-2547c382d444.root
/store/mc/Run3Summer23BPixNanoAODv12/TTto4Q_TuneCP5_13p6TeV_powheg-pythia8/NANOAODSIM/130X_mcRun3_2023_realistic_postBPix_v2-v3/50000/ac0cb559-f4fd-4280-974c-821004fa5077.root
/store/mc/Run3Summer23BPixNanoAODv12/TTto4Q_TuneCP5_13p6TeV_powheg-pythia8/NANOAODSIM/130X_mcRun3_2023_realistic_postBPix_v2-v3/50000/fc746b47-64a8-40ce-87a2-393d2f22c094.root
/store/mc/Run3Summer23BPixNanoAODv12/TTto4Q_TuneCP5_13p6TeV_powheg-pythia8/NANOAODSIM/130X_mcRun3_2023_realistic_postBPix_v2-v3/50000/c29b3534-c54c-45e7-bf33-bd9484e5201c.root
/store/mc/Run3Summer23BPixNanoAODv12/TTto4Q_TuneCP5_13p6TeV_powheg-pythia8/NANOAODSIM/130X_mcRun3_2023_realistic_postBPix_v2-v3/50000/73b73c22-74c6-4f17-96ea-ba35256a44e3.root
/store/mc/Run3Summer23BPixNanoAODv12/TTto4Q_TuneCP5_13p6TeV_powheg-pythia8/NANOAODSIM/130X_mcRun3_2023_realistic_postBPix_v2-v3/50000/6b885f68-abb8-4cdc-a430-5ce18feb1571.root
/store/mc/Run3Summer23BPixNanoAODv12/TTto4Q_TuneCP5_13p6TeV_powheg-pythia8/NANOAODSIM/130X_mcRun3_2023_realistic_postBPix_v2-v3/50000/a64652a1-2567-4113-982c-5624701deff9.root
/store/mc/Run3Summer23BPixNanoAODv12/TTto4Q_TuneCP5_13p6TeV_powheg-pythia8/NANOAODSIM/130X_mcRun3_2023_realistic_postBPix_v2-v3/50000/30c487aa-2329-4a49-843e-35de5c8dc074.root
/store/mc/Run3Summer23BPixNanoAODv12/TTto4Q_TuneCP5_13p6TeV_powheg-pythia8/NANOAODSIM/130X_mcRun3_2023_realistic_postBPix_v2-v3/50000/b6a4c684-67ef-4b8a-8f13-db5652d683fc.root
/store/mc/Run3Summer23BPixNanoAODv12/TTto4Q_TuneCP5_13p6TeV_powheg-pythia8/NANOAODSIM/130X_mcRun3_2023_realistic_postBPix_v2-v3/50000/80bcaa87-9da1-45b2-980e-f629ecf88fe4.root
/store/mc/Run3Summer23BPixNanoAODv12/TTto4Q_TuneCP5_13p6TeV_powheg-pythia8/NANOAODSIM/130X_mcRun3_2023_realistic_postBPix_v2-v3/50000/fc9735ed-1acb-4527-8c61-490ab6559fee.root
/store/mc/Run3Summer23BPixNanoAODv12/TTto4Q_TuneCP5_13p6TeV_powheg-pythia8/NANOAODSIM/130X_mcRun3_2023_realistic_postBPix_v2-v3/50000/b48cc420-113c-4b3e-97de-334891159b06.root
/store/mc/Run3Summer23BPixNanoAODv12/TTto4Q_TuneCP5_13p6TeV_powheg-pythia8/NANOAODSIM/130X_mcRun3_2023_realistic_postBPix_v2-v3/50000/5054a950-12ab-42e7-8287-95c1a5b6816a.root
/store/mc/Run3Summer23BPixNanoAODv12/TTto4Q_TuneCP5_13p6TeV_powheg-pythia8/NANOAODSIM/130X_mcRun3_2023_realistic_postBPix_v2-v3/50000/054cf68a-efac-4406-96cf-f63232f9614f.root
/store/mc/Run3Summer23BPixNanoAODv12/TTto4Q_TuneCP5_13p6TeV_powheg-pythia8/NANOAODSIM/130X_mcRun3_2023_realistic_postBPix_v2-v3/50000/06297701-8e50-42c2-9496-5300d94b9bbd.root
/store/mc/Run3Summer23BPixNanoAODv12/TTto4Q_TuneCP5_13p6TeV_powheg-pythia8/NANOAODSIM/130X_mcRun3_2023_realistic_postBPix_v2-v3/50000/00f089ae-3bb8-4f9c-9425-d33c33d7e97d.root
/store/mc/Run3Summer23BPixNanoAODv12/TTto4Q_TuneCP5_13p6TeV_powheg-pythia8/NANOAODSIM/130X_mcRun3_2023_realistic_postBPix_v2-v3/50000/217d5faf-b0d1-48fd-87d0-683dd55c7669.root
/store/mc/Run3Summer23BPixNanoAODv12/TTto4Q_TuneCP5_13p6TeV_powheg-pythia8/NANOAODSIM/130X_mcRun3_2023_realistic_postBPix_v2-v3/50000/02d4cf36-f5b1-4f2d-990a-b00c00d904b4.root
/store/mc/Run3Summer23BPixNanoAODv12/TTto4Q_TuneCP5_13p6TeV_powheg-pythia8/NANOAODSIM/130X_mcRun3_2023_realistic_postBPix_v2-v3/50000/897018ae-9437-41d8-a53d-f22470e06296.root
/store/mc/Run3Summer23BPixNanoAODv12/TTto4Q_TuneCP5_13p6TeV_powheg-pythia8/NANOAODSIM/130X_mcRun3_2023_realistic_postBPix_v2-v3/50000/e1dca961-15e9-4719-b23e-9d7b26101d59.root
/store/mc/Run3Summer23BPixNanoAODv12/TTto4Q_TuneCP5_13p6TeV_powheg-pythia8/NANOAODSIM/130X_mcRun3_2023_realistic_postBPix_v2-v3/50000/17d03a5b-77ad-4439-ba8c-664f12ba3eab.root
/store/mc/Run3Summer23BPixNanoAODv12/TTto4Q_TuneCP5_13p6TeV_powheg-pythia8/NANOAODSIM/130X_mcRun3_2023_realistic_postBPix_v2-v3/50000/526da3c2-4c69-495a-9495-9db947b67c30.root
/store/mc/Run3Summer23BPixNanoAODv12/TTto4Q_TuneCP5_13p6TeV_powheg-pythia8/NANOAODSIM/130X_mcRun3_2023_realistic_postBPix_v2-v3/50000/483ee854-a843-458b-8599-530ce1fd1771.root
/store/mc/Run3Summer23BPixNanoAODv12/TTto4Q_TuneCP5_13p6TeV_powheg-pythia8/NANOAODSIM/130X_mcRun3_2023_realistic_postBPix_v2-v3/50000/3b76f67c-71d1-48f3-8a1d-aef7ce07b157.root
/store/mc/Run3Summer23BPixNanoAODv12/TTto4Q_TuneCP5_13p6TeV_powheg-pythia8/NANOAODSIM/130X_mcRun3_2023_realistic_postBPix_v2-v3/50000/1933efb7-8f2e-4e13-a84b-d2cd9754d4ec.root
/store/mc/Run3Summer23BPixNanoAODv12/TTto4Q_TuneCP5_13p6TeV_powheg-pythia8/NANOAODSIM/130X_mcRun3_2023_realistic_postBPix_v2-v3/50000/a43d351a-1534-48f6-a6a2-ab0b09016a4c.root
/store/mc/Run3Summer23BPixNanoAODv12/TTto4Q_TuneCP5_13p6TeV_powheg-pythia8/NANOAODSIM/130X_mcRun3_2023_realistic_postBPix_v2-v3/50000/7cb3487a-1456-4e07-a89b-338923342847.root
/store/mc/Run3Summer23BPixNanoAODv12/TTto4Q_TuneCP5_13p6TeV_powheg-pythia8/NANOAODSIM/130X_mcRun3_2023_realistic_postBPix_v2-v3/50000/1e793379-e305-4870-8075-0a8f783197fb.root
/store/mc/Run3Summer23BPixNanoAODv12/TTto4Q_TuneCP5_13p6TeV_powheg-pythia8/NANOAODSIM/130X_mcRun3_2023_realistic_postBPix_v2-v3/50000/c0fac910-0b2c-4441-bc31-c2abb9c2b86f.root
/store/mc/Run3Summer23BPixNanoAODv12/TTto4Q_TuneCP5_13p6TeV_powheg-pythia8/NANOAODSIM/130X_mcRun3_2023_realistic_postBPix_v2-v3/50000/d6cda5d8-bf68-489e-b824-609b55a03434.root
/store/mc/Run3Summer23BPixNanoAODv12/TTto4Q_TuneCP5_13p6TeV_powheg-pythia8/NANOAODSIM/130X_mcRun3_2023_realistic_postBPix_v2-v3/50000/7f6cb9c5-cabb-4eae-96c8-fd80a2705c95.root
/store/mc/Run3Summer23BPixNanoAODv12/TTto4Q_TuneCP5_13p6TeV_powheg-pythia8/NANOAODSIM/130X_mcRun3_2023_realistic_postBPix_v2-v3/50000/a162d4fa-03a7-465e-aaee-1586c541694e.root
/store/mc/Run3Summer23BPixNanoAODv12/TTto4Q_TuneCP5_13p6TeV_powheg-pythia8/NANOAODSIM/130X_mcRun3_2023_realistic_postBPix_v2-v3/50000/f240a52d-c6b4-448a-8ad2-ea239e1dcdbd.root
/store/mc/Run3Summer23BPixNanoAODv12/TTto4Q_TuneCP5_13p6TeV_powheg-pythia8/NANOAODSIM/130X_mcRun3_2023_realistic_postBPix_v2-v3/50000/7ac74dec-72bf-44ce-9df3-bb0306d23dba.root
/store/mc/Run3Summer23BPixNanoAODv12/TTto4Q_TuneCP5_13p6TeV_powheg-pythia8/NANOAODSIM/130X_mcRun3_2023_realistic_postBPix_v2-v3/50000/cad1e35c-7cfe-4b30-9b19-1d203e48da81.root
/store/mc/Run3Summer23BPixNanoAODv12/TTto4Q_TuneCP5_13p6TeV_powheg-pythia8/NANOAODSIM/130X_mcRun3_2023_realistic_postBPix_v2-v3/50000/8cc87ffb-1e1f-41e6-b5eb-2255a70fdfb3.root
/store/mc/Run3Summer23BPixNanoAODv12/TTto4Q_TuneCP5_13p6TeV_powheg-pythia8/NANOAODSIM/130X_mcRun3_2023_realistic_postBPix_v2-v3/50000/e2b69081-6f6c-4b96-a1ca-6323b1a9acd2.root
/store/mc/Run3Summer23BPixNanoAODv12/TTto4Q_TuneCP5_13p6TeV_powheg-pythia8/NANOAODSIM/130X_mcRun3_2023_realistic_postBPix_v2-v3/50000/569e75de-0341-4fc8-a64e-6de263386012.root
/store/mc/Run3Summer23BPixNanoAODv12/TTto4Q_TuneCP5_13p6TeV_powheg-pythia8/NANOAODSIM/130X_mcRun3_2023_realistic_postBPix_v2-v3/50000/482f1507-563c-4545-8135-5eec70a5c487.root
/store/mc/Run3Summer23BPixNanoAODv12/TTto4Q_TuneCP5_13p6TeV_powheg-pythia8/NANOAODSIM/130X_mcRun3_2023_realistic_postBPix_v2-v3/50000/0d3deee2-1f5a-45ea-9926-d0567d59cefa.root
/store/mc/Run3Summer23BPixNanoAODv12/TTto4Q_TuneCP5_13p6TeV_powheg-pythia8/NANOAODSIM/130X_mcRun3_2023_realistic_postBPix_v2-v3/50000/cb2c8236-5222-4c53-a27b-f5c39aefa7b6.root
/store/mc/Run3Summer23BPixNanoAODv12/TTto4Q_TuneCP5_13p6TeV_powheg-pythia8/NANOAODSIM/130X_mcRun3_2023_realistic_postBPix_v2-v3/50000/1983c1bc-f771-446a-9b81-a5eec5a56f0b.root
/store/mc/Run3Summer23BPixNanoAODv12/TTto4Q_TuneCP5_13p6TeV_powheg-pythia8/NANOAODSIM/130X_mcRun3_2023_realistic_postBPix_v2-v3/50000/235acbb2-1af3-4434-b390-0c886a6342dc.root
/store/mc/Run3Summer23BPixNanoAODv12/TTto4Q_TuneCP5_13p6TeV_powheg-pythia8/NANOAODSIM/130X_mcRun3_2023_realistic_postBPix_v2-v3/50000/77237547-4486-4f1f-a548-da09df500875.root
/store/mc/Run3Summer23BPixNanoAODv12/TTto4Q_TuneCP5_13p6TeV_powheg-pythia8/NANOAODSIM/130X_mcRun3_2023_realistic_postBPix_v2-v3/50000/9e821833-b0f7-4c8d-bfb4-3e63b9787199.root
/store/mc/Run3Summer23BPixNanoAODv12/TTto4Q_TuneCP5_13p6TeV_powheg-pythia8/NANOAODSIM/130X_mcRun3_2023_realistic_postBPix_v2-v3/50000/eca91f8e-e940-462c-b694-2bc97a14d18c.root
/store/mc/Run3Summer23BPixNanoAODv12/TTto4Q_TuneCP5_13p6TeV_powheg-pythia8/NANOAODSIM/130X_mcRun3_2023_realistic_postBPix_v2-v3/50000/32cf60e2-612f-40b7-83e8-2fb001f4c582.root
/store/mc/Run3Summer23BPixNanoAODv12/TTto4Q_TuneCP5_13p6TeV_powheg-pythia8/NANOAODSIM/130X_mcRun3_2023_realistic_postBPix_v2-v3/40000/bd453fd1-e34d-4b4f-bf6c-0bd54fbd4f35.root
/store/mc/Run3Summer23BPixNanoAODv12/TTto4Q_TuneCP5_13p6TeV_powheg-pythia8/NANOAODSIM/130X_mcRun3_2023_realistic_postBPix_v2-v3/40000/5948d68d-47f9-4708-b456-5e1536ef1dba.root
/store/mc/Run3Summer23BPixNanoAODv12/TTto4Q_TuneCP5_13p6TeV_powheg-pythia8/NANOAODSIM/130X_mcRun3_2023_realistic_postBPix_v2-v3/50000/69ae48a5-fc54-4dab-91a7-11eb62f8d97c.root
/store/mc/Run3Summer23BPixNanoAODv12/TTto4Q_TuneCP5_13p6TeV_powheg-pythia8/NANOAODSIM/130X_mcRun3_2023_realistic_postBPix_v2-v3/40000/76f2edab-755a-4205-b12d-b8f29b20c6be.root
/store/mc/Run3Summer23BPixNanoAODv12/TTto4Q_TuneCP5_13p6TeV_powheg-pythia8/NANOAODSIM/130X_mcRun3_2023_realistic_postBPix_v2-v3/40000/83692592-ed7c-4d60-bf3f-8b21afaf2f69.root
/store/mc/Run3Summer23BPixNanoAODv12/TTto4Q_TuneCP5_13p6TeV_powheg-pythia8/NANOAODSIM/130X_mcRun3_2023_realistic_postBPix_v2-v3/40000/5be7d202-88ee-4781-8d2f-696b3c4c867f.root
/store/mc/Run3Summer23BPixNanoAODv12/TTto4Q_TuneCP5_13p6TeV_powheg-pythia8/NANOAODSIM/130X_mcRun3_2023_realistic_postBPix_v2-v3/40000/af54c756-f131-47f8-a6cf-fe0015627a8d.root
/store/mc/Run3Summer23BPixNanoAODv12/TTto4Q_TuneCP5_13p6TeV_powheg-pythia8/NANOAODSIM/130X_mcRun3_2023_realistic_postBPix_v2-v3/40000/74119a8a-fbbe-4e8c-af0d-183f8b89cc59.root
/store/mc/Run3Summer23BPixNanoAODv12/TTto4Q_TuneCP5_13p6TeV_powheg-pythia8/NANOAODSIM/130X_mcRun3_2023_realistic_postBPix_v2-v3/40000/7a812df0-df2f-48cb-86f1-81aeb6ae6ac6.root
/store/mc/Run3Summer23BPixNanoAODv12/TTto4Q_TuneCP5_13p6TeV_powheg-pythia8/NANOAODSIM/130X_mcRun3_2023_realistic_postBPix_v2-v3/40000/e410d806-1c1b-4ce8-8a40-ea6a88c7b073.root
/store/mc/Run3Summer23BPixNanoAODv12/TTto4Q_TuneCP5_13p6TeV_powheg-pythia8/NANOAODSIM/130X_mcRun3_2023_realistic_postBPix_v2-v3/40000/b474c5bc-188f-4663-ab4d-bc18d8f693cd.root
/store/mc/Run3Summer23BPixNanoAODv12/TTto4Q_TuneCP5_13p6TeV_powheg-pythia8/NANOAODSIM/130X_mcRun3_2023_realistic_postBPix_v2-v3/40000/b4e55f50-d8b9-4470-b5ee-d54b719b2328.root
/store/mc/Run3Summer23BPixNanoAODv12/TTto4Q_TuneCP5_13p6TeV_powheg-pythia8/NANOAODSIM/130X_mcRun3_2023_realistic_postBPix_v2-v3/50000/6a37e505-9bb0-46d6-8845-4febb5cd3509.root
/store/mc/Run3Summer23BPixNanoAODv12/TTto4Q_TuneCP5_13p6TeV_powheg-pythia8/NANOAODSIM/130X_mcRun3_2023_realistic_postBPix_v2-v3/40000/5657b6cf-4fb9-4009-9a48-5d3729e92ab8.root
/store/mc/Run3Summer23BPixNanoAODv12/TTto4Q_TuneCP5_13p6TeV_powheg-pythia8/NANOAODSIM/130X_mcRun3_2023_realistic_postBPix_v2-v3/40000/70eba23d-839e-46aa-98f5-84063a704f22.root
/store/mc/Run3Summer23BPixNanoAODv12/TTto4Q_TuneCP5_13p6TeV_powheg-pythia8/NANOAODSIM/130X_mcRun3_2023_realistic_postBPix_v2-v3/40000/6acd0c60-74c1-45d5-97d6-86f221a53e74.root
/store/mc/Run3Summer23BPixNanoAODv12/TTto4Q_TuneCP5_13p6TeV_powheg-pythia8/NANOAODSIM/130X_mcRun3_2023_realistic_postBPix_v2-v3/40000/57b22cd3-fb0a-4874-b748-a6460c447e32.root
/store/mc/Run3Summer23BPixNanoAODv12/TTto4Q_TuneCP5_13p6TeV_powheg-pythia8/NANOAODSIM/130X_mcRun3_2023_realistic_postBPix_v2-v3/40000/74945b35-ac76-4b51-a0de-c51b5285c973.root
/store/mc/Run3Summer23BPixNanoAODv12/TTto4Q_TuneCP5_13p6TeV_powheg-pythia8/NANOAODSIM/130X_mcRun3_2023_realistic_postBPix_v2-v3/40000/ae58e96d-2a71-4fde-b84e-e6a080775034.root
/store/mc/Run3Summer23BPixNanoAODv12/TTto4Q_TuneCP5_13p6TeV_powheg-pythia8/NANOAODSIM/130X_mcRun3_2023_realistic_postBPix_v2-v3/40000/1ea75c05-cd94-4327-b620-d05dc1abf8a8.root
/store/mc/Run3Summer23BPixNanoAODv12/TTto4Q_TuneCP5_13p6TeV_powheg-pythia8/NANOAODSIM/130X_mcRun3_2023_realistic_postBPix_v2-v3/40000/d4dd25de-1cfe-4f16-8963-92020b7f90ba.root
/store/mc/Run3Summer23BPixNanoAODv12/TTto4Q_TuneCP5_13p6TeV_powheg-pythia8/NANOAODSIM/130X_mcRun3_2023_realistic_postBPix_v2-v3/50000/a781e954-7143-40f2-bf1a-0ba445243b8e.root
/store/mc/Run3Summer23BPixNanoAODv12/TTto4Q_TuneCP5_13p6TeV_powheg-pythia8/NANOAODSIM/130X_mcRun3_2023_realistic_postBPix_v2-v3/40000/37049161-548e-47b9-8ac2-e4e1b90c68d9.root
/store/mc/Run3Summer23BPixNanoAODv12/TTto4Q_TuneCP5_13p6TeV_powheg-pythia8/NANOAODSIM/130X_mcRun3_2023_realistic_postBPix_v2-v3/40000/fdf09483-ad4f-48c0-a762-98682e238b81.root
/store/mc/Run3Summer23BPixNanoAODv12/TTto4Q_TuneCP5_13p6TeV_powheg-pythia8/NANOAODSIM/130X_mcRun3_2023_realistic_postBPix_v2-v3/40000/169b4051-16ab-4f16-9898-f164a0dde481.root
/store/mc/Run3Summer23BPixNanoAODv12/TTto4Q_TuneCP5_13p6TeV_powheg-pythia8/NANOAODSIM/130X_mcRun3_2023_realistic_postBPix_v2-v3/40000/7d04ae5a-2b75-4529-80ba-772203051eb3.root
/store/mc/Run3Summer23BPixNanoAODv12/TTto4Q_TuneCP5_13p6TeV_powheg-pythia8/NANOAODSIM/130X_mcRun3_2023_realistic_postBPix_v2-v3/40000/c915ae55-7e48-4b92-a875-73f99686ed16.root
/store/mc/Run3Summer23BPixNanoAODv12/TTto4Q_TuneCP5_13p6TeV_powheg-pythia8/NANOAODSIM/130X_mcRun3_2023_realistic_postBPix_v2-v3/40000/1bcfe591-c8b5-4f22-a564-59dfa05d145a.root
/store/mc/Run3Summer23BPixNanoAODv12/TTto4Q_TuneCP5_13p6TeV_powheg-pythia8/NANOAODSIM/130X_mcRun3_2023_realistic_postBPix_v2-v3/40000/1fd039f8-1306-43cc-98f0-38b3839acc81.root
/store/mc/Run3Summer23BPixNanoAODv12/TTto4Q_TuneCP5_13p6TeV_powheg-pythia8/NANOAODSIM/130X_mcRun3_2023_realistic_postBPix_v2-v3/40000/18828c96-8d00-48ef-8d9d-e2e55cb17129.root
/store/mc/Run3Summer23BPixNanoAODv12/TTto4Q_TuneCP5_13p6TeV_powheg-pythia8/NANOAODSIM/130X_mcRun3_2023_realistic_postBPix_v2-v3/40000/1393b91f-cf9a-46d7-8680-c7d390e197bb.root
/store/mc/Run3Summer23BPixNanoAODv12/TTto4Q_TuneCP5_13p6TeV_powheg-pythia8/NANOAODSIM/130X_mcRun3_2023_realistic_postBPix_v2-v3/40000/6353f13c-bdb8-494a-bada-6264a6d66dd6.root
/store/mc/Run3Summer23BPixNanoAODv12/TTto4Q_TuneCP5_13p6TeV_powheg-pythia8/NANOAODSIM/130X_mcRun3_2023_realistic_postBPix_v2-v3/40000/c84a6694-09ce-4e26-9e18-9ca290d155a2.root
/store/mc/Run3Summer23BPixNanoAODv12/TTto4Q_TuneCP5_13p6TeV_powheg-pythia8/NANOAODSIM/130X_mcRun3_2023_realistic_postBPix_v2-v3/40000/8d59b7cf-6aa5-49a0-a1a1-25eb2909c7c4.root
/store/mc/Run3Summer23BPixNanoAODv12/TTto4Q_TuneCP5_13p6TeV_powheg-pythia8/NANOAODSIM/130X_mcRun3_2023_realistic_postBPix_v2-v3/40000/0c18f8da-e806-4079-8acd-a8fba527691e.root
/store/mc/Run3Summer23BPixNanoAODv12/TTto4Q_TuneCP5_13p6TeV_powheg-pythia8/NANOAODSIM/130X_mcRun3_2023_realistic_postBPix_v2-v3/40000/8a21eb2b-03bc-426c-af5d-5c6cb3aae811.root
/store/mc/Run3Summer23BPixNanoAODv12/TTto4Q_TuneCP5_13p6TeV_powheg-pythia8/NANOAODSIM/130X_mcRun3_2023_realistic_postBPix_v2-v3/40000/0e50b5e7-b196-4cda-8eff-c1098d96a96b.root
/store/mc/Run3Summer23BPixNanoAODv12/TTto4Q_TuneCP5_13p6TeV_powheg-pythia8/NANOAODSIM/130X_mcRun3_2023_realistic_postBPix_v2-v3/40000/7e73d345-6c8d-489b-9726-a7af6883f4d0.root
/store/mc/Run3Summer23BPixNanoAODv12/TTto4Q_TuneCP5_13p6TeV_powheg-pythia8/NANOAODSIM/130X_mcRun3_2023_realistic_postBPix_v2-v3/40000/8cd489b7-21d4-4693-b466-49d67926c7e8.root
/store/mc/Run3Summer23BPixNanoAODv12/TTto4Q_TuneCP5_13p6TeV_powheg-pythia8/NANOAODSIM/130X_mcRun3_2023_realistic_postBPix_v2-v3/50000/b89247f9-3bdd-41e6-8b16-435a9be93590.root
/store/mc/Run3Summer23BPixNanoAODv12/TTto4Q_TuneCP5_13p6TeV_powheg-pythia8/NANOAODSIM/130X_mcRun3_2023_realistic_postBPix_v2-v3/40000/4d486893-5f87-4002-b7ec-94093227053d.root
/store/mc/Run3Summer23BPixNanoAODv12/TTto4Q_TuneCP5_13p6TeV_powheg-pythia8/NANOAODSIM/130X_mcRun3_2023_realistic_postBPix_v2-v3/40000/442d1443-8bf9-47a6-996b-02ba9be3cc6c.root
/store/mc/Run3Summer23BPixNanoAODv12/TTto4Q_TuneCP5_13p6TeV_powheg-pythia8/NANOAODSIM/130X_mcRun3_2023_realistic_postBPix_v2-v3/40000/e0e6b8cf-2a0e-49ba-9e3b-376f9bdd242f.root
/store/mc/Run3Summer23BPixNanoAODv12/TTto4Q_TuneCP5_13p6TeV_powheg-pythia8/NANOAODSIM/130X_mcRun3_2023_realistic_postBPix_v2-v3/40000/8f1a5303-2652-4a88-8b11-9441105dcbba.root
/store/mc/Run3Summer23BPixNanoAODv12/TTto4Q_TuneCP5_13p6TeV_powheg-pythia8/NANOAODSIM/130X_mcRun3_2023_realistic_postBPix_v2-v3/40000/3bca8803-4973-4cc1-9f72-4d972808dfac.root
/store/mc/Run3Summer23BPixNanoAODv12/TTto4Q_TuneCP5_13p6TeV_powheg-pythia8/NANOAODSIM/130X_mcRun3_2023_realistic_postBPix_v2-v3/40000/759f6904-c1c1-4115-a459-b9c94a87c8e6.root
/store/mc/Run3Summer23BPixNanoAODv12/TTto4Q_TuneCP5_13p6TeV_powheg-pythia8/NANOAODSIM/130X_mcRun3_2023_realistic_postBPix_v2-v3/40000/b418cc9e-3aaa-4795-8edb-8638f19cba41.root
/store/mc/Run3Summer23BPixNanoAODv12/TTto4Q_TuneCP5_13p6TeV_powheg-pythia8/NANOAODSIM/130X_mcRun3_2023_realistic_postBPix_v2-v3/40000/9c2fc4d9-e998-4015-888b-a30edc96c68b.root
/store/mc/Run3Summer23BPixNanoAODv12/TTto4Q_TuneCP5_13p6TeV_powheg-pythia8/NANOAODSIM/130X_mcRun3_2023_realistic_postBPix_v2-v3/40000/c47f54e8-01fd-4081-b706-7f317ed34774.root
/store/mc/Run3Summer23BPixNanoAODv12/TTto4Q_TuneCP5_13p6TeV_powheg-pythia8/NANOAODSIM/130X_mcRun3_2023_realistic_postBPix_v2-v3/40000/63871274-ee0d-4eaf-b39c-527d86374596.root
/store/mc/Run3Summer23BPixNanoAODv12/TTto4Q_TuneCP5_13p6TeV_powheg-pythia8/NANOAODSIM/130X_mcRun3_2023_realistic_postBPix_v2-v3/40000/b966548b-340b-4319-b4c8-b3cc82d44528.root
/store/mc/Run3Summer23BPixNanoAODv12/TTto4Q_TuneCP5_13p6TeV_powheg-pythia8/NANOAODSIM/130X_mcRun3_2023_realistic_postBPix_v2-v3/40000/c0c10df6-00cd-4c24-8cea-858187ce8cd6.root
/store/mc/Run3Summer23BPixNanoAODv12/TTto4Q_TuneCP5_13p6TeV_powheg-pythia8/NANOAODSIM/130X_mcRun3_2023_realistic_postBPix_v2-v3/40000/a0d6668b-ad31-4525-b797-7c119facd847.root
/store/mc/Run3Summer23BPixNanoAODv12/TTto4Q_TuneCP5_13p6TeV_powheg-pythia8/NANOAODSIM/130X_mcRun3_2023_realistic_postBPix_v2-v3/40000/81666e0e-939d-481b-ac1d-0ecfc003619b.root
/store/mc/Run3Summer23BPixNanoAODv12/TTto4Q_TuneCP5_13p6TeV_powheg-pythia8/NANOAODSIM/130X_mcRun3_2023_realistic_postBPix_v2-v3/40000/dc98ae5c-1322-4ffd-a24c-3560530e2b5c.root
/store/mc/Run3Summer23BPixNanoAODv12/TTto4Q_TuneCP5_13p6TeV_powheg-pythia8/NANOAODSIM/130X_mcRun3_2023_realistic_postBPix_v2-v3/40000/1d22873b-1707-4f4f-94bb-fe4b851659c8.root
/store/mc/Run3Summer23BPixNanoAODv12/TTto4Q_TuneCP5_13p6TeV_powheg-pythia8/NANOAODSIM/130X_mcRun3_2023_realistic_postBPix_v2-v3/40000/380ee3d3-1e73-4b70-8670-c17049cf6197.root
/store/mc/Run3Summer23BPixNanoAODv12/TTto4Q_TuneCP5_13p6TeV_powheg-pythia8/NANOAODSIM/130X_mcRun3_2023_realistic_postBPix_v2-v3/40000/43a22d36-f732-4551-b17d-1c58853ec3a5.root
/store/mc/Run3Summer23BPixNanoAODv12/TTto4Q_TuneCP5_13p6TeV_powheg-pythia8/NANOAODSIM/130X_mcRun3_2023_realistic_postBPix_v2-v3/40000/5b44364f-f870-41d1-9111-ad2c0fb44e58.root
/store/mc/Run3Summer23BPixNanoAODv12/TTto4Q_TuneCP5_13p6TeV_powheg-pythia8/NANOAODSIM/130X_mcRun3_2023_realistic_postBPix_v2-v3/40000/755a85fc-9d51-4aa1-8ff4-b86ccd908dfe.root
/store/mc/Run3Summer23BPixNanoAODv12/TTto4Q_TuneCP5_13p6TeV_powheg-pythia8/NANOAODSIM/130X_mcRun3_2023_realistic_postBPix_v2-v3/40000/b2cd5d22-95be-4a5a-9526-bc425ba1956b.root
/store/mc/Run3Summer23BPixNanoAODv12/TTto4Q_TuneCP5_13p6TeV_powheg-pythia8/NANOAODSIM/130X_mcRun3_2023_realistic_postBPix_v2-v3/40000/075b9eb3-635d-436f-854a-59318f5e2660.root
/store/mc/Run3Summer23BPixNanoAODv12/TTto4Q_TuneCP5_13p6TeV_powheg-pythia8/NANOAODSIM/130X_mcRun3_2023_realistic_postBPix_v2-v3/40000/c8bb6fe6-87f2-42fd-ac24-b82b8f88294f.root
/store/mc/Run3Summer23BPixNanoAODv12/TTto4Q_TuneCP5_13p6TeV_powheg-pythia8/NANOAODSIM/130X_mcRun3_2023_realistic_postBPix_v2-v3/50000/d23c352c-e79a-47b3-87b1-24cd223f556c.root
/store/mc/Run3Summer23BPixNanoAODv12/TTto4Q_TuneCP5_13p6TeV_powheg-pythia8/NANOAODSIM/130X_mcRun3_2023_realistic_postBPix_v2-v3/50000/ae62cd32-6f75-40f5-8690-e6a657fd2cbb.root
/store/mc/Run3Summer23BPixNanoAODv12/TTto4Q_TuneCP5_13p6TeV_powheg-pythia8/NANOAODSIM/130X_mcRun3_2023_realistic_postBPix_v2-v3/30000/a77b0c66-d18d-4439-ac6a-af84840ef7b0.root
/store/mc/Run3Summer23BPixNanoAODv12/TTto4Q_TuneCP5_13p6TeV_powheg-pythia8/NANOAODSIM/130X_mcRun3_2023_realistic_postBPix_v2-v3/30000/334906a5-0b74-4163-b93c-1c43642ad091.root
/store/mc/Run3Summer23BPixNanoAODv12/TTto4Q_TuneCP5_13p6TeV_powheg-pythia8/NANOAODSIM/130X_mcRun3_2023_realistic_postBPix_v2-v3/30000/c09851f6-9cfb-4547-a59b-4c0b402d4c0b.root
/store/mc/Run3Summer23BPixNanoAODv12/TTto4Q_TuneCP5_13p6TeV_powheg-pythia8/NANOAODSIM/130X_mcRun3_2023_realistic_postBPix_v2-v3/30000/fa7b1d4b-ed9f-4f69-9280-b4dd48ec4dd5.root
/store/mc/Run3Summer23BPixNanoAODv12/TTto4Q_TuneCP5_13p6TeV_powheg-pythia8/NANOAODSIM/130X_mcRun3_2023_realistic_postBPix_v2-v3/30000/c4ee3576-7db1-4f20-b04f-d18ee3ebda8f.root
/store/mc/Run3Summer23BPixNanoAODv12/TTto4Q_TuneCP5_13p6TeV_powheg-pythia8/NANOAODSIM/130X_mcRun3_2023_realistic_postBPix_v2-v3/30000/303899a9-1e1e-4bca-836b-e0be5d49dada.root
/store/mc/Run3Summer23BPixNanoAODv12/TTto4Q_TuneCP5_13p6TeV_powheg-pythia8/NANOAODSIM/130X_mcRun3_2023_realistic_postBPix_v2-v3/30000/14bdc11c-c256-49c4-beba-597ada9913da.root
/store/mc/Run3Summer23BPixNanoAODv12/TTto4Q_TuneCP5_13p6TeV_powheg-pythia8/NANOAODSIM/130X_mcRun3_2023_realistic_postBPix_v2-v3/30000/ffdd40f2-39f8-4c35-b71d-834472224b59.root
/store/mc/Run3Summer23BPixNanoAODv12/TTto4Q_TuneCP5_13p6TeV_powheg-pythia8/NANOAODSIM/130X_mcRun3_2023_realistic_postBPix_v2-v3/30000/d73ee3fd-61d4-4464-a685-bb0e6faab1ac.root
/store/mc/Run3Summer23BPixNanoAODv12/TTto4Q_TuneCP5_13p6TeV_powheg-pythia8/NANOAODSIM/130X_mcRun3_2023_realistic_postBPix_v2-v3/30000/d51c8e37-8ae0-455a-952f-0cc228a50b3e.root
/store/mc/Run3Summer23BPixNanoAODv12/TTto4Q_TuneCP5_13p6TeV_powheg-pythia8/NANOAODSIM/130X_mcRun3_2023_realistic_postBPix_v2-v3/30000/36517839-5bb7-4d1a-8546-e2787e4527a1.root
/store/mc/Run3Summer23BPixNanoAODv12/TTto4Q_TuneCP5_13p6TeV_powheg-pythia8/NANOAODSIM/130X_mcRun3_2023_realistic_postBPix_v2-v3/30000/5f426e5f-61aa-4eb4-b767-3bcf16f2ec03.root
/store/mc/Run3Summer23BPixNanoAODv12/TTto4Q_TuneCP5_13p6TeV_powheg-pythia8/NANOAODSIM/130X_mcRun3_2023_realistic_postBPix_v2-v3/30000/96de8470-2e51-40e5-b73a-251ebb5d87d0.root
/store/mc/Run3Summer23BPixNanoAODv12/TTto4Q_TuneCP5_13p6TeV_powheg-pythia8/NANOAODSIM/130X_mcRun3_2023_realistic_postBPix_v2-v3/30000/f5b49bb5-17d1-48cb-b4ac-15294822d6be.root
/store/mc/Run3Summer23BPixNanoAODv12/TTto4Q_TuneCP5_13p6TeV_powheg-pythia8/NANOAODSIM/130X_mcRun3_2023_realistic_postBPix_v2-v3/30000/a91dee85-84b6-466d-be85-e4324452a85e.root
/store/mc/Run3Summer23BPixNanoAODv12/TTto4Q_TuneCP5_13p6TeV_powheg-pythia8/NANOAODSIM/130X_mcRun3_2023_realistic_postBPix_v2-v3/30000/94ddb9a6-2041-4a6d-8b27-a37293b7a9a1.root
/store/mc/Run3Summer23BPixNanoAODv12/TTto4Q_TuneCP5_13p6TeV_powheg-pythia8/NANOAODSIM/130X_mcRun3_2023_realistic_postBPix_v2-v3/30000/eb0e9b41-9352-4c5a-b0d4-5b1e0fe09edf.root
/store/mc/Run3Summer23BPixNanoAODv12/TTto4Q_TuneCP5_13p6TeV_powheg-pythia8/NANOAODSIM/130X_mcRun3_2023_realistic_postBPix_v2-v3/30000/0700d0ac-1ec0-4783-87ae-424508e4ffde.root
/store/mc/Run3Summer23BPixNanoAODv12/TTto4Q_TuneCP5_13p6TeV_powheg-pythia8/NANOAODSIM/130X_mcRun3_2023_realistic_postBPix_v2-v3/30000/67de2d92-4d76-4027-9766-78dffcb61572.root
/store/mc/Run3Summer23BPixNanoAODv12/TTto4Q_TuneCP5_13p6TeV_powheg-pythia8/NANOAODSIM/130X_mcRun3_2023_realistic_postBPix_v2-v3/30000/66f853bd-9a2b-43e0-b873-20a7117eb831.root
/store/mc/Run3Summer23BPixNanoAODv12/TTto4Q_TuneCP5_13p6TeV_powheg-pythia8/NANOAODSIM/130X_mcRun3_2023_realistic_postBPix_v2-v3/30000/e4937804-181b-459a-891f-7a9e7ae01644.root
/store/mc/Run3Summer23BPixNanoAODv12/TTto4Q_TuneCP5_13p6TeV_powheg-pythia8/NANOAODSIM/130X_mcRun3_2023_realistic_postBPix_v2-v3/30000/a24bdda8-0175-46e8-8936-e33d9bb7405d.root
/store/mc/Run3Summer23BPixNanoAODv12/TTto4Q_TuneCP5_13p6TeV_powheg-pythia8/NANOAODSIM/130X_mcRun3_2023_realistic_postBPix_v2-v3/30000/41ae14da-c3ab-454d-9f08-4bbdf974ba2c.root
/store/mc/Run3Summer23BPixNanoAODv12/TTto4Q_TuneCP5_13p6TeV_powheg-pythia8/NANOAODSIM/130X_mcRun3_2023_realistic_postBPix_v2-v3/30000/1c8baba2-4404-4315-bf9f-78bc10bb2db8.root
/store/mc/Run3Summer23BPixNanoAODv12/TTto4Q_TuneCP5_13p6TeV_powheg-pythia8/NANOAODSIM/130X_mcRun3_2023_realistic_postBPix_v2-v3/30000/e3f8e4c7-8cdd-4bd3-bead-38c0234bab1c.root
/store/mc/Run3Summer23BPixNanoAODv12/TTto4Q_TuneCP5_13p6TeV_powheg-pythia8/NANOAODSIM/130X_mcRun3_2023_realistic_postBPix_v2-v3/30000/ede0e094-9501-465b-a7a7-5cda91f85f09.root
/store/mc/Run3Summer23BPixNanoAODv12/TTto4Q_TuneCP5_13p6TeV_powheg-pythia8/NANOAODSIM/130X_mcRun3_2023_realistic_postBPix_v2-v3/30000/8fbb7942-06c4-448c-83ea-cf095aa0ceed.root
/store/mc/Run3Summer23BPixNanoAODv12/TTto4Q_TuneCP5_13p6TeV_powheg-pythia8/NANOAODSIM/130X_mcRun3_2023_realistic_postBPix_v2-v3/30000/3c3a6b4c-694b-4b9e-aa30-06c7ffbebcc4.root
/store/mc/Run3Summer23BPixNanoAODv12/TTto4Q_TuneCP5_13p6TeV_powheg-pythia8/NANOAODSIM/130X_mcRun3_2023_realistic_postBPix_v2-v3/30000/8ce35ffa-4920-434f-91a7-0d2cfd65b7da.root
/store/mc/Run3Summer23BPixNanoAODv12/TTto4Q_TuneCP5_13p6TeV_powheg-pythia8/NANOAODSIM/130X_mcRun3_2023_realistic_postBPix_v2-v3/30000/e57416bd-bfcb-4740-94e7-948b017b0f8e.root
/store/mc/Run3Summer23BPixNanoAODv12/TTto4Q_TuneCP5_13p6TeV_powheg-pythia8/NANOAODSIM/130X_mcRun3_2023_realistic_postBPix_v2-v3/30000/6e0d1a1d-e23f-4f2d-8c21-45ad39dc7ff5.root
/store/mc/Run3Summer23BPixNanoAODv12/TTto4Q_TuneCP5_13p6TeV_powheg-pythia8/NANOAODSIM/130X_mcRun3_2023_realistic_postBPix_v2-v3/30000/a1aecd54-a7ae-468f-bd29-750b9e73a0f9.root
/store/mc/Run3Summer23BPixNanoAODv12/TTto4Q_TuneCP5_13p6TeV_powheg-pythia8/NANOAODSIM/130X_mcRun3_2023_realistic_postBPix_v2-v3/30000/973dd57e-f592-4efc-8b15-d30a154a152e.root
/store/mc/Run3Summer23BPixNanoAODv12/TTto4Q_TuneCP5_13p6TeV_powheg-pythia8/NANOAODSIM/130X_mcRun3_2023_realistic_postBPix_v2-v3/30000/4d5217d6-f8ae-4504-aa1a-78bb88d0baab.root
/store/mc/Run3Summer23BPixNanoAODv12/TTto4Q_TuneCP5_13p6TeV_powheg-pythia8/NANOAODSIM/130X_mcRun3_2023_realistic_postBPix_v2-v3/30000/82ab683e-2598-41ae-8433-a358009ec825.root
/store/mc/Run3Summer23BPixNanoAODv12/TTto4Q_TuneCP5_13p6TeV_powheg-pythia8/NANOAODSIM/130X_mcRun3_2023_realistic_postBPix_v2-v3/30000/271e3012-2e36-4289-8a35-5cedb7a52fb4.root
/store/mc/Run3Summer23BPixNanoAODv12/TTto4Q_TuneCP5_13p6TeV_powheg-pythia8/NANOAODSIM/130X_mcRun3_2023_realistic_postBPix_v2-v3/30000/6b35931b-1bf1-4fd0-9787-bac8be823f8d.root
/store/mc/Run3Summer23BPixNanoAODv12/TTto4Q_TuneCP5_13p6TeV_powheg-pythia8/NANOAODSIM/130X_mcRun3_2023_realistic_postBPix_v2-v3/30000/8924673a-2fd8-403a-a649-435c0e7bee80.root
/store/mc/Run3Summer23BPixNanoAODv12/TTto4Q_TuneCP5_13p6TeV_powheg-pythia8/NANOAODSIM/130X_mcRun3_2023_realistic_postBPix_v2-v3/30000/193d33c9-e622-455c-ac41-e9e58cb7cb82.root
/store/mc/Run3Summer23BPixNanoAODv12/TTto4Q_TuneCP5_13p6TeV_powheg-pythia8/NANOAODSIM/130X_mcRun3_2023_realistic_postBPix_v2-v3/30000/e50ea5d7-549e-4abe-8e20-bbcffde780d6.root
/store/mc/Run3Summer23BPixNanoAODv12/TTto4Q_TuneCP5_13p6TeV_powheg-pythia8/NANOAODSIM/130X_mcRun3_2023_realistic_postBPix_v2-v3/30000/c754471b-4c61-49c0-9813-7f449be5a89f.root
/store/mc/Run3Summer23BPixNanoAODv12/TTto4Q_TuneCP5_13p6TeV_powheg-pythia8/NANOAODSIM/130X_mcRun3_2023_realistic_postBPix_v2-v3/30000/3551d045-8194-4c3f-9272-5af8d6ea32dc.root
/store/mc/Run3Summer23BPixNanoAODv12/TTto4Q_TuneCP5_13p6TeV_powheg-pythia8/NANOAODSIM/130X_mcRun3_2023_realistic_postBPix_v2-v3/30000/b8705b93-90bf-44a9-a17e-41d081b3ca35.root
/store/mc/Run3Summer23BPixNanoAODv12/TTto4Q_TuneCP5_13p6TeV_powheg-pythia8/NANOAODSIM/130X_mcRun3_2023_realistic_postBPix_v2-v3/30000/e2a9d53e-8f08-44a8-8c29-2766cd242e9a.root
/store/mc/Run3Summer23BPixNanoAODv12/TTto4Q_TuneCP5_13p6TeV_powheg-pythia8/NANOAODSIM/130X_mcRun3_2023_realistic_postBPix_v2-v3/30000/cc5f6849-4a21-4aad-abd6-2925e5fc25e9.root
/store/mc/Run3Summer23BPixNanoAODv12/TTto4Q_TuneCP5_13p6TeV_powheg-pythia8/NANOAODSIM/130X_mcRun3_2023_realistic_postBPix_v2-v3/30000/21a90a20-c9f9-41c2-b018-8bad18fcfb0b.root
/store/mc/Run3Summer23BPixNanoAODv12/TTto4Q_TuneCP5_13p6TeV_powheg-pythia8/NANOAODSIM/130X_mcRun3_2023_realistic_postBPix_v2-v3/30000/fb03ca22-6e67-406b-9030-7d327f062b08.root
/store/mc/Run3Summer23BPixNanoAODv12/TTto4Q_TuneCP5_13p6TeV_powheg-pythia8/NANOAODSIM/130X_mcRun3_2023_realistic_postBPix_v2-v3/30000/24feb244-3641-4c6c-aa01-8ed0a03c6081.root
/store/mc/Run3Summer23BPixNanoAODv12/TTto4Q_TuneCP5_13p6TeV_powheg-pythia8/NANOAODSIM/130X_mcRun3_2023_realistic_postBPix_v2-v3/30000/4b3c1de4-20d7-419a-be09-45cb3fc5df44.root
/store/mc/Run3Summer23BPixNanoAODv12/TTto4Q_TuneCP5_13p6TeV_powheg-pythia8/NANOAODSIM/130X_mcRun3_2023_realistic_postBPix_v2-v3/40000/b6ea9ddf-1283-4672-a99f-82f61a5d225f.root
/store/mc/Run3Summer23BPixNanoAODv12/TTto4Q_TuneCP5_13p6TeV_powheg-pythia8/NANOAODSIM/130X_mcRun3_2023_realistic_postBPix_v2-v3/40000/a5ebd905-501f-4ffc-8fc0-2ba08029b3c4.root
/store/mc/Run3Summer23BPixNanoAODv12/TTto4Q_TuneCP5_13p6TeV_powheg-pythia8/NANOAODSIM/130X_mcRun3_2023_realistic_postBPix_v2-v3/40000/e373599d-b987-4a81-8bdb-1106700c59ee.root
/store/mc/Run3Summer23BPixNanoAODv12/TTto4Q_TuneCP5_13p6TeV_powheg-pythia8/NANOAODSIM/130X_mcRun3_2023_realistic_postBPix_v2-v3/40000/0e63e976-81e9-449b-afa9-0fb73249529e.root
/store/mc/Run3Summer23BPixNanoAODv12/TTto4Q_TuneCP5_13p6TeV_powheg-pythia8/NANOAODSIM/130X_mcRun3_2023_realistic_postBPix_v2-v3/40000/76e2de7f-bf7f-4a09-844e-4bc5cd1abb01.root
/store/mc/Run3Summer23BPixNanoAODv12/TTto4Q_TuneCP5_13p6TeV_powheg-pythia8/NANOAODSIM/130X_mcRun3_2023_realistic_postBPix_v2-v3/40000/b300621f-bf5e-4641-a2db-69ff0e5113f6.root
/store/mc/Run3Summer23BPixNanoAODv12/TTto4Q_TuneCP5_13p6TeV_powheg-pythia8/NANOAODSIM/130X_mcRun3_2023_realistic_postBPix_v2-v3/40000/431f6132-0379-49b6-aa0a-2aa5ad661df4.root
/store/mc/Run3Summer23BPixNanoAODv12/TTto4Q_TuneCP5_13p6TeV_powheg-pythia8/NANOAODSIM/130X_mcRun3_2023_realistic_postBPix_v2-v3/40000/fd86ab17-c121-4a84-925f-d33962233702.root
/store/mc/Run3Summer23BPixNanoAODv12/TTto4Q_TuneCP5_13p6TeV_powheg-pythia8/NANOAODSIM/130X_mcRun3_2023_realistic_postBPix_v2-v3/40000/be4cb58e-e52e-4cf9-a45f-d5388f34f870.root
/store/mc/Run3Summer23BPixNanoAODv12/TTto4Q_TuneCP5_13p6TeV_powheg-pythia8/NANOAODSIM/130X_mcRun3_2023_realistic_postBPix_v2-v3/40000/40f2505c-127f-4ab9-b19e-91ce8b39a2c1.root
/store/mc/Run3Summer23BPixNanoAODv12/TTto4Q_TuneCP5_13p6TeV_powheg-pythia8/NANOAODSIM/130X_mcRun3_2023_realistic_postBPix_v2-v3/40000/24c41b8a-4321-46a1-a814-a05eb4d9efc2.root
/store/mc/Run3Summer23BPixNanoAODv12/TTto4Q_TuneCP5_13p6TeV_powheg-pythia8/NANOAODSIM/130X_mcRun3_2023_realistic_postBPix_v2-v3/40000/6c73b9c1-070b-4dcc-a8a7-d4b7612f8b4d.root
/store/mc/Run3Summer23BPixNanoAODv12/TTto4Q_TuneCP5_13p6TeV_powheg-pythia8/NANOAODSIM/130X_mcRun3_2023_realistic_postBPix_v2-v3/40000/bfd255f8-2385-460b-a662-b3a35253bb3a.root
/store/mc/Run3Summer23BPixNanoAODv12/TTto4Q_TuneCP5_13p6TeV_powheg-pythia8/NANOAODSIM/130X_mcRun3_2023_realistic_postBPix_v2-v3/40000/98b30cb3-33bd-470e-9071-85791394536e.root
/store/mc/Run3Summer23BPixNanoAODv12/TTto4Q_TuneCP5_13p6TeV_powheg-pythia8/NANOAODSIM/130X_mcRun3_2023_realistic_postBPix_v2-v3/40000/e572aecb-f01a-45ab-9db7-ed32ec2fb89a.root
/store/mc/Run3Summer23BPixNanoAODv12/TTto4Q_TuneCP5_13p6TeV_powheg-pythia8/NANOAODSIM/130X_mcRun3_2023_realistic_postBPix_v2-v3/40000/f46957e4-cff3-4a4c-be02-a588745953e0.root
/store/mc/Run3Summer23BPixNanoAODv12/TTto4Q_TuneCP5_13p6TeV_powheg-pythia8/NANOAODSIM/130X_mcRun3_2023_realistic_postBPix_v2-v3/40000/2dfbafb0-5515-4982-893a-c615eac8d1d6.root
/store/mc/Run3Summer23BPixNanoAODv12/TTto4Q_TuneCP5_13p6TeV_powheg-pythia8/NANOAODSIM/130X_mcRun3_2023_realistic_postBPix_v2-v3/40000/484c7af6-11d4-425c-bcaf-dd33c042dd59.root
/store/mc/Run3Summer23BPixNanoAODv12/TTto4Q_TuneCP5_13p6TeV_powheg-pythia8/NANOAODSIM/130X_mcRun3_2023_realistic_postBPix_v2-v3/40000/5b654134-2d3c-4ed4-ad56-a11681a1b104.root
/store/mc/Run3Summer23BPixNanoAODv12/TTto4Q_TuneCP5_13p6TeV_powheg-pythia8/NANOAODSIM/130X_mcRun3_2023_realistic_postBPix_v2-v3/40000/23722d7f-d6c5-4bcf-865b-cbbd9e460bfc.root
/store/mc/Run3Summer23BPixNanoAODv12/TTto4Q_TuneCP5_13p6TeV_powheg-pythia8/NANOAODSIM/130X_mcRun3_2023_realistic_postBPix_v2-v3/40000/4dbb94d2-f1ca-4173-9d0d-8f55532c1ecf.root
/store/mc/Run3Summer23BPixNanoAODv12/TTto4Q_TuneCP5_13p6TeV_powheg-pythia8/NANOAODSIM/130X_mcRun3_2023_realistic_postBPix_v2-v3/40000/528ba6d9-e5b5-4b76-85e0-71e516a2ebdd.root
/store/mc/Run3Summer23BPixNanoAODv12/TTto4Q_TuneCP5_13p6TeV_powheg-pythia8/NANOAODSIM/130X_mcRun3_2023_realistic_postBPix_v2-v3/40000/0c111c11-b85b-41f1-bc09-bc2365ed3180.root
/store/mc/Run3Summer23BPixNanoAODv12/TTto4Q_TuneCP5_13p6TeV_powheg-pythia8/NANOAODSIM/130X_mcRun3_2023_realistic_postBPix_v2-v3/40000/effa8ac0-144c-46bd-b489-658af88e6586.root
/store/mc/Run3Summer23BPixNanoAODv12/TTto4Q_TuneCP5_13p6TeV_powheg-pythia8/NANOAODSIM/130X_mcRun3_2023_realistic_postBPix_v2-v3/40000/785d71d8-3f18-41f1-b457-d0422eb2b4d2.root
/store/mc/Run3Summer23BPixNanoAODv12/TTto4Q_TuneCP5_13p6TeV_powheg-pythia8/NANOAODSIM/130X_mcRun3_2023_realistic_postBPix_v2-v3/40000/138c77ff-8189-414b-a7c8-f200216bd84d.root
/store/mc/Run3Summer23BPixNanoAODv12/TTto4Q_TuneCP5_13p6TeV_powheg-pythia8/NANOAODSIM/130X_mcRun3_2023_realistic_postBPix_v2-v3/40000/5667fcaf-0cac-4494-9b86-18649ede5f00.root
/store/mc/Run3Summer23BPixNanoAODv12/TTto4Q_TuneCP5_13p6TeV_powheg-pythia8/NANOAODSIM/130X_mcRun3_2023_realistic_postBPix_v2-v3/40000/d3eb1e1f-8700-4ed4-92ce-8d28f78f7c84.root
/store/mc/Run3Summer23BPixNanoAODv12/TTto4Q_TuneCP5_13p6TeV_powheg-pythia8/NANOAODSIM/130X_mcRun3_2023_realistic_postBPix_v2-v3/40000/6d5cf218-5998-4b37-a140-4cbc06cf90e8.root
/store/mc/Run3Summer23BPixNanoAODv12/TTto4Q_TuneCP5_13p6TeV_powheg-pythia8/NANOAODSIM/130X_mcRun3_2023_realistic_postBPix_v2-v3/40000/6d5cb145-33a5-4886-8a58-e935e9fc6db2.root
/store/mc/Run3Summer23BPixNanoAODv12/TTto4Q_TuneCP5_13p6TeV_powheg-pythia8/NANOAODSIM/130X_mcRun3_2023_realistic_postBPix_v2-v3/40000/0ec5dc37-7632-469c-b9c4-39c11f4d1b0a.root
/store/mc/Run3Summer23BPixNanoAODv12/TTto4Q_TuneCP5_13p6TeV_powheg-pythia8/NANOAODSIM/130X_mcRun3_2023_realistic_postBPix_v2-v3/40000/a89dd66e-4949-446f-b0c6-cec90994ed12.root
/store/mc/Run3Summer23BPixNanoAODv12/TTto4Q_TuneCP5_13p6TeV_powheg-pythia8/NANOAODSIM/130X_mcRun3_2023_realistic_postBPix_v2-v3/40000/495d4a58-86ce-4c36-82fc-9c5f2cbac456.root
/store/mc/Run3Summer23BPixNanoAODv12/TTto4Q_TuneCP5_13p6TeV_powheg-pythia8/NANOAODSIM/130X_mcRun3_2023_realistic_postBPix_v2-v3/40000/a1b0695e-17b2-4ec3-a183-b81782be8433.root
/store/mc/Run3Summer23BPixNanoAODv12/TTto4Q_TuneCP5_13p6TeV_powheg-pythia8/NANOAODSIM/130X_mcRun3_2023_realistic_postBPix_v2-v3/40000/44880dba-18ea-4542-b962-3af902038a6d.root
/store/mc/Run3Summer23BPixNanoAODv12/TTto4Q_TuneCP5_13p6TeV_powheg-pythia8/NANOAODSIM/130X_mcRun3_2023_realistic_postBPix_v2-v3/40000/f196eb75-edff-40b7-aa24-e4ede7d64122.root
/store/mc/Run3Summer23BPixNanoAODv12/TTto4Q_TuneCP5_13p6TeV_powheg-pythia8/NANOAODSIM/130X_mcRun3_2023_realistic_postBPix_v2-v3/40000/40ea6e00-815d-40b5-8bbd-36d9e517f711.root
/store/mc/Run3Summer23BPixNanoAODv12/TTto4Q_TuneCP5_13p6TeV_powheg-pythia8/NANOAODSIM/130X_mcRun3_2023_realistic_postBPix_v2-v3/40000/c1a9788a-5b87-41c6-82e4-d1c835d360ea.root
/store/mc/Run3Summer23BPixNanoAODv12/TTto4Q_TuneCP5_13p6TeV_powheg-pythia8/NANOAODSIM/130X_mcRun3_2023_realistic_postBPix_v2-v3/40000/f271e4cd-ee5f-4dc9-815c-4cd972197484.root
/store/mc/Run3Summer23BPixNanoAODv12/TTto4Q_TuneCP5_13p6TeV_powheg-pythia8/NANOAODSIM/130X_mcRun3_2023_realistic_postBPix_v2-v3/40000/b4f3414f-bb7a-4811-9529-839edd77ba7c.root
/store/mc/Run3Summer23BPixNanoAODv12/TTto4Q_TuneCP5_13p6TeV_powheg-pythia8/NANOAODSIM/130X_mcRun3_2023_realistic_postBPix_v2-v3/40000/4e7b5f78-b1b7-4060-984d-0197a66777e8.root
/store/mc/Run3Summer23BPixNanoAODv12/TTto4Q_TuneCP5_13p6TeV_powheg-pythia8/NANOAODSIM/130X_mcRun3_2023_realistic_postBPix_v2-v3/40000/e2430aa0-e4e8-4415-b006-76ab4e8c0364.root
/store/mc/Run3Summer23BPixNanoAODv12/TTto4Q_TuneCP5_13p6TeV_powheg-pythia8/NANOAODSIM/130X_mcRun3_2023_realistic_postBPix_v2-v3/40000/80d93384-bc29-40d5-85d7-6fd7fa5b6572.root
/store/mc/Run3Summer23BPixNanoAODv12/TTto4Q_TuneCP5_13p6TeV_powheg-pythia8/NANOAODSIM/130X_mcRun3_2023_realistic_postBPix_v2-v3/40000/885719d2-8c88-471a-a4e2-1a218d73f2b8.root
/store/mc/Run3Summer23BPixNanoAODv12/TTto4Q_TuneCP5_13p6TeV_powheg-pythia8/NANOAODSIM/130X_mcRun3_2023_realistic_postBPix_v2-v3/40000/efb9a47d-5327-4eb1-ae63-fff2e4346c47.root
/store/mc/Run3Summer23BPixNanoAODv12/TTto4Q_TuneCP5_13p6TeV_powheg-pythia8/NANOAODSIM/130X_mcRun3_2023_realistic_postBPix_v2-v3/40000/3b45b545-17a8-48eb-bab7-c1fe2b9c366d.root
/store/mc/Run3Summer23BPixNanoAODv12/TTto4Q_TuneCP5_13p6TeV_powheg-pythia8/NANOAODSIM/130X_mcRun3_2023_realistic_postBPix_v2-v3/50000/52cd5181-130e-4709-9496-855117c5891e.root
/store/mc/Run3Summer23BPixNanoAODv12/TTto4Q_TuneCP5_13p6TeV_powheg-pythia8/NANOAODSIM/130X_mcRun3_2023_realistic_postBPix_v2-v3/50000/f8c1d59f-a1b2-4ee2-ba73-53087b683c29.root
/store/mc/Run3Summer23BPixNanoAODv12/TTto4Q_TuneCP5_13p6TeV_powheg-pythia8/NANOAODSIM/130X_mcRun3_2023_realistic_postBPix_v2-v3/50000/1ba1213d-05e8-4700-bcb8-9aeedaa61cfa.root
/store/mc/Run3Summer23BPixNanoAODv12/TTto4Q_TuneCP5_13p6TeV_powheg-pythia8/NANOAODSIM/130X_mcRun3_2023_realistic_postBPix_v2-v3/50000/c648abac-2cc1-4868-8693-6e086543b1ed.root
/store/mc/Run3Summer23BPixNanoAODv12/TTto4Q_TuneCP5_13p6TeV_powheg-pythia8/NANOAODSIM/130X_mcRun3_2023_realistic_postBPix_v2-v3/50000/bab4de1f-3d8c-4130-85bb-aaaed78e0994.root
/store/mc/Run3Summer23BPixNanoAODv12/TTto4Q_TuneCP5_13p6TeV_powheg-pythia8/NANOAODSIM/130X_mcRun3_2023_realistic_postBPix_v2-v3/50000/c57af0da-9d1d-4c7d-b9eb-4f8836f9437b.root
/store/mc/Run3Summer23BPixNanoAODv12/TTto4Q_TuneCP5_13p6TeV_powheg-pythia8/NANOAODSIM/130X_mcRun3_2023_realistic_postBPix_v2-v3/50000/ac104003-b900-4146-98fe-973ec414cf7f.root
/store/mc/Run3Summer23BPixNanoAODv12/TTto4Q_TuneCP5_13p6TeV_powheg-pythia8/NANOAODSIM/130X_mcRun3_2023_realistic_postBPix_v2-v3/50000/42b9ce7c-de7e-4a52-a38b-5e63b55537df.root
/store/mc/Run3Summer23BPixNanoAODv12/TTto4Q_TuneCP5_13p6TeV_powheg-pythia8/NANOAODSIM/130X_mcRun3_2023_realistic_postBPix_v2-v3/50000/1a54f1ca-d6a6-4075-b68f-3c9a43d4d031.root
/store/mc/Run3Summer23BPixNanoAODv12/TTto4Q_TuneCP5_13p6TeV_powheg-pythia8/NANOAODSIM/130X_mcRun3_2023_realistic_postBPix_v2-v3/50000/7f69d65a-fb65-4292-a0cb-3937aa875cab.root
/store/mc/Run3Summer23BPixNanoAODv12/TTto4Q_TuneCP5_13p6TeV_powheg-pythia8/NANOAODSIM/130X_mcRun3_2023_realistic_postBPix_v2-v3/2540000/726fe36c-e1bb-4322-8737-04f11f89d1e2.root
/store/mc/Run3Summer23BPixNanoAODv12/TTto4Q_TuneCP5_13p6TeV_powheg-pythia8/NANOAODSIM/130X_mcRun3_2023_realistic_postBPix_v2-v3/2540000/57b44c65-1634-4fac-bce2-46f2aacfde96.root
/store/mc/Run3Summer23BPixNanoAODv12/TTto4Q_TuneCP5_13p6TeV_powheg-pythia8/NANOAODSIM/130X_mcRun3_2023_realistic_postBPix_v2-v3/2540000/99ee3838-0921-43b0-96cd-43404e39056f.root
/store/mc/Run3Summer23BPixNanoAODv12/TTto4Q_TuneCP5_13p6TeV_powheg-pythia8/NANOAODSIM/130X_mcRun3_2023_realistic_postBPix_v2-v3/2540000/9086aa2b-932b-402d-95e7-29ea58823607.root
/store/mc/Run3Summer23BPixNanoAODv12/TTto4Q_TuneCP5_13p6TeV_powheg-pythia8/NANOAODSIM/130X_mcRun3_2023_realistic_postBPix_v2-v3/2540000/53883f96-fc3d-45df-8f91-9428bfede3f9.root
/store/mc/Run3Summer23BPixNanoAODv12/TTto4Q_TuneCP5_13p6TeV_powheg-pythia8/NANOAODSIM/130X_mcRun3_2023_realistic_postBPix_v2-v3/2540000/d9bc6e05-ae8a-4e54-9443-3a5bb6c41350.root
/store/mc/Run3Summer23BPixNanoAODv12/TTto4Q_TuneCP5_13p6TeV_powheg-pythia8/NANOAODSIM/130X_mcRun3_2023_realistic_postBPix_v2-v3/2540000/0ff2c655-bca1-445a-a400-c06eb1e0eb7d.root
/store/mc/Run3Summer23BPixNanoAODv12/TTto4Q_TuneCP5_13p6TeV_powheg-pythia8/NANOAODSIM/130X_mcRun3_2023_realistic_postBPix_v2-v3/50000/d90f9dd4-04c3-4993-afd9-e2e2257116c8.root
/store/mc/Run3Summer23BPixNanoAODv12/TTto4Q_TuneCP5_13p6TeV_powheg-pythia8/NANOAODSIM/130X_mcRun3_2023_realistic_postBPix_v2-v3/50000/8ba647fc-1b22-4844-920e-5e6d88b855c4.root
/store/mc/Run3Summer23BPixNanoAODv12/TTto4Q_TuneCP5_13p6TeV_powheg-pythia8/NANOAODSIM/130X_mcRun3_2023_realistic_postBPix_v2-v3/50000/4fd98f24-aa61-4322-9343-588a9e8b9f6c.root
/store/mc/Run3Summer23BPixNanoAODv12/TTto4Q_TuneCP5_13p6TeV_powheg-pythia8/NANOAODSIM/130X_mcRun3_2023_realistic_postBPix_v2-v3/2540000/db05d7eb-863c-4ec6-b6d6-52efa96701e0.root
/store/mc/Run3Summer23BPixNanoAODv12/TTto4Q_TuneCP5_13p6TeV_powheg-pythia8/NANOAODSIM/130X_mcRun3_2023_realistic_postBPix_v2-v3/2540000/91bb81e1-659c-42be-b2e9-d11e7852decf.root
/store/mc/Run3Summer23BPixNanoAODv12/TTto4Q_TuneCP5_13p6TeV_powheg-pythia8/NANOAODSIM/130X_mcRun3_2023_realistic_postBPix_v2-v3/2540000/ea5dda1e-3b39-42c3-b966-be5f73eb27d0.root
/store/mc/Run3Summer23BPixNanoAODv12/TTto4Q_TuneCP5_13p6TeV_powheg-pythia8/NANOAODSIM/130X_mcRun3_2023_realistic_postBPix_v2-v3/2540000/75a0d82a-efe5-4ae0-b1a9-044a8b5b3a79.root
/store/mc/Run3Summer23BPixNanoAODv12/TTto4Q_TuneCP5_13p6TeV_powheg-pythia8/NANOAODSIM/130X_mcRun3_2023_realistic_postBPix_v2-v3/2540000/b7ab01c9-14cf-4e4d-be85-20fa0abbbd5f.root
/store/mc/Run3Summer23BPixNanoAODv12/TTto4Q_TuneCP5_13p6TeV_powheg-pythia8/NANOAODSIM/130X_mcRun3_2023_realistic_postBPix_v2-v3/2540000/fb79ba4e-775c-40a7-826f-14608a1777d5.root
/store/mc/Run3Summer23BPixNanoAODv12/TTto4Q_TuneCP5_13p6TeV_powheg-pythia8/NANOAODSIM/130X_mcRun3_2023_realistic_postBPix_v2-v3/50000/04e622b5-e869-461a-818b-0f0d4051408e.root
/store/mc/Run3Summer23BPixNanoAODv12/TTto4Q_TuneCP5_13p6TeV_powheg-pythia8/NANOAODSIM/130X_mcRun3_2023_realistic_postBPix_v2-v3/50000/0bece88e-ac78-4d46-841e-4d3b53cdb486.root
/store/mc/Run3Summer23BPixNanoAODv12/TTto4Q_TuneCP5_13p6TeV_powheg-pythia8/NANOAODSIM/130X_mcRun3_2023_realistic_postBPix_v2-v3/2540000/e3bccbb6-d1f5-4cd8-a430-88f0de24aa4b.root
/store/mc/Run3Summer23BPixNanoAODv12/TTto4Q_TuneCP5_13p6TeV_powheg-pythia8/NANOAODSIM/130X_mcRun3_2023_realistic_postBPix_v2-v3/2540000/f540f9f6-3e22-4723-90da-e1f5e4c18d3d.root
/store/mc/Run3Summer23BPixNanoAODv12/TTto4Q_TuneCP5_13p6TeV_powheg-pythia8/NANOAODSIM/130X_mcRun3_2023_realistic_postBPix_v2-v3/2540000/6740f047-8a90-47e5-8362-0aaf4b16991b.root
/store/mc/Run3Summer23BPixNanoAODv12/TTto4Q_TuneCP5_13p6TeV_powheg-pythia8/NANOAODSIM/130X_mcRun3_2023_realistic_postBPix_v2-v3/50000/0048af83-76b7-4041-a08c-684ce066606e.root
/store/mc/Run3Summer23BPixNanoAODv12/TTto4Q_TuneCP5_13p6TeV_powheg-pythia8/NANOAODSIM/130X_mcRun3_2023_realistic_postBPix_v2-v3/50000/a73b4cc4-3330-4f6c-b655-68d47387131f.root
/store/mc/Run3Summer23BPixNanoAODv12/TTto4Q_TuneCP5_13p6TeV_powheg-pythia8/NANOAODSIM/130X_mcRun3_2023_realistic_postBPix_v2-v3/50000/e14948ff-6ef0-4f4d-a125-6537463f1ff1.root
/store/mc/Run3Summer23BPixNanoAODv12/TTto4Q_TuneCP5_13p6TeV_powheg-pythia8/NANOAODSIM/130X_mcRun3_2023_realistic_postBPix_v2-v3/50000/cf7d8432-f9f1-47e5-a2bc-808d40df6dc9.root
/store/mc/Run3Summer23BPixNanoAODv12/TTto4Q_TuneCP5_13p6TeV_powheg-pythia8/NANOAODSIM/130X_mcRun3_2023_realistic_postBPix_v2-v3/2540000/827bdec3-de40-4ffe-979f-d376f59e8ae6.root
/store/mc/Run3Summer23BPixNanoAODv12/TTto4Q_TuneCP5_13p6TeV_powheg-pythia8/NANOAODSIM/130X_mcRun3_2023_realistic_postBPix_v2-v3/2540000/91e75053-2a09-4375-98be-7ee49bb4c0aa.root
/store/mc/Run3Summer23BPixNanoAODv12/TTto4Q_TuneCP5_13p6TeV_powheg-pythia8/NANOAODSIM/130X_mcRun3_2023_realistic_postBPix_v2-v3/2540000/99e8b838-02dd-4f1e-bae3-2331c919a23a.root
/store/mc/Run3Summer23BPixNanoAODv12/TTto4Q_TuneCP5_13p6TeV_powheg-pythia8/NANOAODSIM/130X_mcRun3_2023_realistic_postBPix_v2-v3/2540000/1291606c-92bc-486a-b1cd-076c39daec1e.root
/store/mc/Run3Summer23BPixNanoAODv12/TTto4Q_TuneCP5_13p6TeV_powheg-pythia8/NANOAODSIM/130X_mcRun3_2023_realistic_postBPix_v2-v3/2540000/39add755-b352-41ad-8d08-eeb38310b2fa.root
/store/mc/Run3Summer23BPixNanoAODv12/TTto4Q_TuneCP5_13p6TeV_powheg-pythia8/NANOAODSIM/130X_mcRun3_2023_realistic_postBPix_v2-v3/2540000/e4edb2f8-2e53-471e-a0a1-380fe4811af6.root
/store/mc/Run3Summer23BPixNanoAODv12/TTto4Q_TuneCP5_13p6TeV_powheg-pythia8/NANOAODSIM/130X_mcRun3_2023_realistic_postBPix_v2-v3/2540000/3953e487-ef78-41e2-af93-ebb3c41121c5.root
/store/mc/Run3Summer23BPixNanoAODv12/TTto4Q_TuneCP5_13p6TeV_powheg-pythia8/NANOAODSIM/130X_mcRun3_2023_realistic_postBPix_v2-v3/50000/6591e3bc-5e11-49c9-9984-5fad7af032c3.root
/store/mc/Run3Summer23BPixNanoAODv12/TTto4Q_TuneCP5_13p6TeV_powheg-pythia8/NANOAODSIM/130X_mcRun3_2023_realistic_postBPix_v2-v3/50000/a7586859-9292-41ce-b257-45f25456823b.root
/store/mc/Run3Summer23BPixNanoAODv12/TTto4Q_TuneCP5_13p6TeV_powheg-pythia8/NANOAODSIM/130X_mcRun3_2023_realistic_postBPix_v2-v3/50000/02dfd90c-2a0e-4745-b949-a2ab75068af3.root
/store/mc/Run3Summer23BPixNanoAODv12/TTto4Q_TuneCP5_13p6TeV_powheg-pythia8/NANOAODSIM/130X_mcRun3_2023_realistic_postBPix_v2-v3/50000/a69d4e53-78d6-4a14-aea3-4a047d24488f.root
/store/mc/Run3Summer23BPixNanoAODv12/TTto4Q_TuneCP5_13p6TeV_powheg-pythia8/NANOAODSIM/130X_mcRun3_2023_realistic_postBPix_v2-v3/50000/27a8fe60-9512-4038-b561-f723bf09c166.root
/store/mc/Run3Summer23BPixNanoAODv12/TTto4Q_TuneCP5_13p6TeV_powheg-pythia8/NANOAODSIM/130X_mcRun3_2023_realistic_postBPix_v2-v3/50000/1227c299-ec17-4c2d-b05e-4347d547386c.root
/store/mc/Run3Summer23BPixNanoAODv12/TTto4Q_TuneCP5_13p6TeV_powheg-pythia8/NANOAODSIM/130X_mcRun3_2023_realistic_postBPix_v2-v3/50000/cd2c115b-9b0f-442a-8b21-9abc6f891986.root
/store/mc/Run3Summer23BPixNanoAODv12/TTto4Q_TuneCP5_13p6TeV_powheg-pythia8/NANOAODSIM/130X_mcRun3_2023_realistic_postBPix_v2-v3/50000/ebb8dc08-0949-4cc3-a5b2-7920abc0889c.root
/store/mc/Run3Summer23BPixNanoAODv12/TTto4Q_TuneCP5_13p6TeV_powheg-pythia8/NANOAODSIM/130X_mcRun3_2023_realistic_postBPix_v2-v3/50000/eac99e33-1a8c-449d-b2fa-4c6c58493973.root
/store/mc/Run3Summer23BPixNanoAODv12/TTto4Q_TuneCP5_13p6TeV_powheg-pythia8/NANOAODSIM/130X_mcRun3_2023_realistic_postBPix_v2-v3/50000/fe41dbf3-c55e-4b4d-aa45-9faf98c1e6fc.root
/store/mc/Run3Summer23BPixNanoAODv12/TTto4Q_TuneCP5_13p6TeV_powheg-pythia8/NANOAODSIM/130X_mcRun3_2023_realistic_postBPix_v2-v3/50000/6f456d4d-f99c-4a68-be3f-54917d366c2c.root
/store/mc/Run3Summer23BPixNanoAODv12/TTto4Q_TuneCP5_13p6TeV_powheg-pythia8/NANOAODSIM/130X_mcRun3_2023_realistic_postBPix_v2-v3/50000/2e9fbe4b-1b52-4f0f-83d5-52428adb5f96.root
/store/mc/Run3Summer23BPixNanoAODv12/TTto4Q_TuneCP5_13p6TeV_powheg-pythia8/NANOAODSIM/130X_mcRun3_2023_realistic_postBPix_v2-v3/50000/c9e8f3ff-f6a7-4713-9460-31d530726fed.root
/store/mc/Run3Summer23BPixNanoAODv12/TTto4Q_TuneCP5_13p6TeV_powheg-pythia8/NANOAODSIM/130X_mcRun3_2023_realistic_postBPix_v2-v3/50000/63b10dd7-1b15-416a-ab94-3b9641936c0a.root
/store/mc/Run3Summer23BPixNanoAODv12/TTto4Q_TuneCP5_13p6TeV_powheg-pythia8/NANOAODSIM/130X_mcRun3_2023_realistic_postBPix_v2-v3/50000/131cb2ae-40e4-4348-976a-f1e239ee708f.root
/store/mc/Run3Summer23BPixNanoAODv12/TTto4Q_TuneCP5_13p6TeV_powheg-pythia8/NANOAODSIM/130X_mcRun3_2023_realistic_postBPix_v2-v3/50000/6e5ce184-5b6d-4791-91e2-5b300c5e0215.root
/store/mc/Run3Summer23BPixNanoAODv12/TTto4Q_TuneCP5_13p6TeV_powheg-pythia8/NANOAODSIM/130X_mcRun3_2023_realistic_postBPix_v2-v3/50000/85929841-4ca9-4291-b977-228649e6492e.root
/store/mc/Run3Summer23BPixNanoAODv12/TTto4Q_TuneCP5_13p6TeV_powheg-pythia8/NANOAODSIM/130X_mcRun3_2023_realistic_postBPix_v2-v3/50000/3be9908d-2b9d-4a65-889d-09ca50485a78.root
/store/mc/Run3Summer23BPixNanoAODv12/TTto4Q_TuneCP5_13p6TeV_powheg-pythia8/NANOAODSIM/130X_mcRun3_2023_realistic_postBPix_v2-v3/50000/b60823b3-2e01-4a8a-8e37-9675814f4639.root
/store/mc/Run3Summer23BPixNanoAODv12/TTto4Q_TuneCP5_13p6TeV_powheg-pythia8/NANOAODSIM/130X_mcRun3_2023_realistic_postBPix_v2-v3/50000/a2dbb199-b3a5-4998-af73-a31afaf16a44.root
/store/mc/Run3Summer23BPixNanoAODv12/TTto4Q_TuneCP5_13p6TeV_powheg-pythia8/NANOAODSIM/130X_mcRun3_2023_realistic_postBPix_v2-v3/50000/416735b4-7af7-41fa-835a-31ee421e5848.root
/store/mc/Run3Summer23BPixNanoAODv12/TTto4Q_TuneCP5_13p6TeV_powheg-pythia8/NANOAODSIM/130X_mcRun3_2023_realistic_postBPix_v2-v3/50000/1e5afa3e-d9d2-4b1c-a1dc-9c784a30d659.root
/store/mc/Run3Summer23BPixNanoAODv12/TTto4Q_TuneCP5_13p6TeV_powheg-pythia8/NANOAODSIM/130X_mcRun3_2023_realistic_postBPix_v2-v3/50000/fe2b6bd4-1387-48c6-acde-2da3b002b381.root
/store/mc/Run3Summer23BPixNanoAODv12/TTto4Q_TuneCP5_13p6TeV_powheg-pythia8/NANOAODSIM/130X_mcRun3_2023_realistic_postBPix_v2-v3/50000/704fcc76-3ee1-446f-89a7-da01dc34f020.root
/store/mc/Run3Summer23BPixNanoAODv12/TTto4Q_TuneCP5_13p6TeV_powheg-pythia8/NANOAODSIM/130X_mcRun3_2023_realistic_postBPix_v2-v3/50000/c20ba7dc-3a87-4bdd-8bb0-531b08cea192.root
/store/mc/Run3Summer23BPixNanoAODv12/TTto4Q_TuneCP5_13p6TeV_powheg-pythia8/NANOAODSIM/130X_mcRun3_2023_realistic_postBPix_v2-v3/50000/76e4d8c2-66b4-41a1-8f35-a719d13fc521.root
/store/mc/Run3Summer23BPixNanoAODv12/TTto4Q_TuneCP5_13p6TeV_powheg-pythia8/NANOAODSIM/130X_mcRun3_2023_realistic_postBPix_v2-v3/50000/4e893f95-dcbd-4f74-bcac-3691bf839460.root
/store/mc/Run3Summer23BPixNanoAODv12/TTto4Q_TuneCP5_13p6TeV_powheg-pythia8/NANOAODSIM/130X_mcRun3_2023_realistic_postBPix_v2-v3/50000/542a9bed-08b8-4353-9d97-e6dc538f2571.root
/store/mc/Run3Summer23BPixNanoAODv12/TTto4Q_TuneCP5_13p6TeV_powheg-pythia8/NANOAODSIM/130X_mcRun3_2023_realistic_postBPix_v2-v3/50000/e89dc433-8f6b-44b9-8865-fbb4607e86e2.root
/store/mc/Run3Summer23BPixNanoAODv12/TTto4Q_TuneCP5_13p6TeV_powheg-pythia8/NANOAODSIM/130X_mcRun3_2023_realistic_postBPix_v2-v3/50000/82702034-6c22-4698-ae43-905cf69f92d8.root
/store/mc/Run3Summer23BPixNanoAODv12/TTto4Q_TuneCP5_13p6TeV_powheg-pythia8/NANOAODSIM/130X_mcRun3_2023_realistic_postBPix_v2-v3/50000/06a6249c-7815-4cc5-ac86-bcf8091aa4c6.root
/store/mc/Run3Summer23BPixNanoAODv12/TTto4Q_TuneCP5_13p6TeV_powheg-pythia8/NANOAODSIM/130X_mcRun3_2023_realistic_postBPix_v2-v3/50000/be5ccb63-ba0a-48df-9741-27dfebc02405.root
/store/mc/Run3Summer23BPixNanoAODv12/TTto4Q_TuneCP5_13p6TeV_powheg-pythia8/NANOAODSIM/130X_mcRun3_2023_realistic_postBPix_v2-v3/50000/9ea3d9ed-4536-4aab-9995-d3f50ce00c75.root
/store/mc/Run3Summer23BPixNanoAODv12/TTto4Q_TuneCP5_13p6TeV_powheg-pythia8/NANOAODSIM/130X_mcRun3_2023_realistic_postBPix_v2-v3/50000/99847062-8e82-45d8-86d2-8af623eed1fc.root
/store/mc/Run3Summer23BPixNanoAODv12/TTto4Q_TuneCP5_13p6TeV_powheg-pythia8/NANOAODSIM/130X_mcRun3_2023_realistic_postBPix_v2-v3/50000/5a9d0646-4656-490b-baf6-d704ec4605d8.root
/store/mc/Run3Summer23BPixNanoAODv12/TTto4Q_TuneCP5_13p6TeV_powheg-pythia8/NANOAODSIM/130X_mcRun3_2023_realistic_postBPix_v2-v3/50000/5dba2079-f06e-4e5c-ac42-b31c16ed60c3.root
/store/mc/Run3Summer23BPixNanoAODv12/TTto4Q_TuneCP5_13p6TeV_powheg-pythia8/NANOAODSIM/130X_mcRun3_2023_realistic_postBPix_v2-v3/50000/cebc0528-0744-452e-a881-50591edb4c47.root
/store/mc/Run3Summer23BPixNanoAODv12/TTto4Q_TuneCP5_13p6TeV_powheg-pythia8/NANOAODSIM/130X_mcRun3_2023_realistic_postBPix_v2-v3/50000/a425446c-5539-4848-8a8b-d50a626253e5.root
/store/mc/Run3Summer23BPixNanoAODv12/TTto4Q_TuneCP5_13p6TeV_powheg-pythia8/NANOAODSIM/130X_mcRun3_2023_realistic_postBPix_v2-v3/50000/733a9184-f21f-4ce8-8b5f-b984d4cc8ff1.root
/store/mc/Run3Summer23BPixNanoAODv12/TTto4Q_TuneCP5_13p6TeV_powheg-pythia8/NANOAODSIM/130X_mcRun3_2023_realistic_postBPix_v2-v3/50000/0f4a2093-8937-42b2-94a5-352fde836c5d.root
/store/mc/Run3Summer23BPixNanoAODv12/TTto4Q_TuneCP5_13p6TeV_powheg-pythia8/NANOAODSIM/130X_mcRun3_2023_realistic_postBPix_v2-v3/50000/016fa27f-1ecf-44c6-9d5e-4aa454d4f152.root
/store/mc/Run3Summer23BPixNanoAODv12/TTto4Q_TuneCP5_13p6TeV_powheg-pythia8/NANOAODSIM/130X_mcRun3_2023_realistic_postBPix_v2-v3/50000/8590588a-884f-4bad-94df-b47d52ac5a89.root
/store/mc/Run3Summer23BPixNanoAODv12/TTto4Q_TuneCP5_13p6TeV_powheg-pythia8/NANOAODSIM/130X_mcRun3_2023_realistic_postBPix_v2-v3/2540000/58c585cf-4308-4c4c-b0c4-ecbe507a5ac4.root
/store/mc/Run3Summer23BPixNanoAODv12/TTto4Q_TuneCP5_13p6TeV_powheg-pythia8/NANOAODSIM/130X_mcRun3_2023_realistic_postBPix_v2-v3/2540000/48779646-17ad-4d5e-9ce7-120adefbfdb7.root
/store/mc/Run3Summer23BPixNanoAODv12/TTto4Q_TuneCP5_13p6TeV_powheg-pythia8/NANOAODSIM/130X_mcRun3_2023_realistic_postBPix_v2-v3/50000/fdfaf063-9dc7-47dc-87e0-a4a9457e563c.root
/store/mc/Run3Summer23BPixNanoAODv12/TTto4Q_TuneCP5_13p6TeV_powheg-pythia8/NANOAODSIM/130X_mcRun3_2023_realistic_postBPix_v2-v3/50000/2e402612-7101-42c9-a725-d4e12499426f.root
/store/mc/Run3Summer23BPixNanoAODv12/TTto4Q_TuneCP5_13p6TeV_powheg-pythia8/NANOAODSIM/130X_mcRun3_2023_realistic_postBPix_v2-v3/2530000/653384cc-a104-4d5f-a23e-4217b098c25d.root
/store/mc/Run3Summer23BPixNanoAODv12/TTto4Q_TuneCP5_13p6TeV_powheg-pythia8/NANOAODSIM/130X_mcRun3_2023_realistic_postBPix_v2-v3/2530000/f39a306a-5d3c-4ca4-82ff-b97f57924a26.root
/store/mc/Run3Summer23BPixNanoAODv12/TTto4Q_TuneCP5_13p6TeV_powheg-pythia8/NANOAODSIM/130X_mcRun3_2023_realistic_postBPix_v2-v3/2530000/9cd0f9fc-d563-446f-8c52-3ab5e46ff549.root
/store/mc/Run3Summer23BPixNanoAODv12/TTto4Q_TuneCP5_13p6TeV_powheg-pythia8/NANOAODSIM/130X_mcRun3_2023_realistic_postBPix_v2-v3/2530000/78dd550c-3586-4bf9-9780-163e0474088e.root
/store/mc/Run3Summer23BPixNanoAODv12/TTto4Q_TuneCP5_13p6TeV_powheg-pythia8/NANOAODSIM/130X_mcRun3_2023_realistic_postBPix_v2-v3/2530000/1ae489d7-c399-4def-a0d6-f072b2c00087.root
/store/mc/Run3Summer23BPixNanoAODv12/TTto4Q_TuneCP5_13p6TeV_powheg-pythia8/NANOAODSIM/130X_mcRun3_2023_realistic_postBPix_v2-v3/2530000/78390b99-aa9a-4780-987c-b30dc3dbd0a8.root
/store/mc/Run3Summer23BPixNanoAODv12/TTto4Q_TuneCP5_13p6TeV_powheg-pythia8/NANOAODSIM/130X_mcRun3_2023_realistic_postBPix_v2-v3/2530000/b9a803f0-db8a-47fd-8a88-69d4565c7448.root
/store/mc/Run3Summer23BPixNanoAODv12/TTto4Q_TuneCP5_13p6TeV_powheg-pythia8/NANOAODSIM/130X_mcRun3_2023_realistic_postBPix_v2-v3/2540000/81193b46-ae0b-481f-b790-70acd6716664.root
/store/mc/Run3Summer23BPixNanoAODv12/TTto4Q_TuneCP5_13p6TeV_powheg-pythia8/NANOAODSIM/130X_mcRun3_2023_realistic_postBPix_v2-v3/2540000/77980827-787d-43fb-930a-fefc4c588eee.root
/store/mc/Run3Summer23BPixNanoAODv12/TTto4Q_TuneCP5_13p6TeV_powheg-pythia8/NANOAODSIM/130X_mcRun3_2023_realistic_postBPix_v2-v3/50000/fd0a2e44-c5f3-474a-87c5-422f597ca497.root
/store/mc/Run3Summer23BPixNanoAODv12/TTto4Q_TuneCP5_13p6TeV_powheg-pythia8/NANOAODSIM/130X_mcRun3_2023_realistic_postBPix_v2-v3/50000/40001b94-45c0-4309-850d-86e654648108.root
/store/mc/Run3Summer23BPixNanoAODv12/TTto4Q_TuneCP5_13p6TeV_powheg-pythia8/NANOAODSIM/130X_mcRun3_2023_realistic_postBPix_v2-v3/50000/b989a722-1be3-4ef6-9281-638152b6e2c3.root
/store/mc/Run3Summer23BPixNanoAODv12/TTto4Q_TuneCP5_13p6TeV_powheg-pythia8/NANOAODSIM/130X_mcRun3_2023_realistic_postBPix_v2-v3/2530000/3a989bbc-f941-4f8c-823c-d1c0805f03b3.root
/store/mc/Run3Summer23BPixNanoAODv12/TTto4Q_TuneCP5_13p6TeV_powheg-pythia8/NANOAODSIM/130X_mcRun3_2023_realistic_postBPix_v2-v3/2530000/077b0477-3993-41b3-aeff-fa2203749529.root
/store/mc/Run3Summer23BPixNanoAODv12/TTto4Q_TuneCP5_13p6TeV_powheg-pythia8/NANOAODSIM/130X_mcRun3_2023_realistic_postBPix_v2-v3/2530000/feb7e692-afc5-40a1-86d2-bae1d9f4fd65.root
/store/mc/Run3Summer23BPixNanoAODv12/TTto4Q_TuneCP5_13p6TeV_powheg-pythia8/NANOAODSIM/130X_mcRun3_2023_realistic_postBPix_v2-v3/2530000/b7e2aa39-cb8a-42c8-af77-c41abdb49ec4.root
/store/mc/Run3Summer23BPixNanoAODv12/TTto4Q_TuneCP5_13p6TeV_powheg-pythia8/NANOAODSIM/130X_mcRun3_2023_realistic_postBPix_v2-v3/2540000/7e3ed2b7-4e87-4a52-b476-27d331f17c0b.root
/store/mc/Run3Summer23BPixNanoAODv12/TTto4Q_TuneCP5_13p6TeV_powheg-pythia8/NANOAODSIM/130X_mcRun3_2023_realistic_postBPix_v2-v3/2540000/89f2518e-0ff1-496f-93e7-8f4f3f69b97c.root
/store/mc/Run3Summer23BPixNanoAODv12/TTto4Q_TuneCP5_13p6TeV_powheg-pythia8/NANOAODSIM/130X_mcRun3_2023_realistic_postBPix_v2-v3/2530000/08c6a9fc-aa97-475e-a96d-fc97ddd14ab8.root
/store/mc/Run3Summer23BPixNanoAODv12/TTto4Q_TuneCP5_13p6TeV_powheg-pythia8/NANOAODSIM/130X_mcRun3_2023_realistic_postBPix_v2-v3/2530000/809a93a3-50b3-4dfa-acce-25211f7f3249.root
/store/mc/Run3Summer23BPixNanoAODv12/TTto4Q_TuneCP5_13p6TeV_powheg-pythia8/NANOAODSIM/130X_mcRun3_2023_realistic_postBPix_v2-v3/2530000/b9b61020-f89c-4261-ae58-e0629eac6141.root
/store/mc/Run3Summer23BPixNanoAODv12/TTto4Q_TuneCP5_13p6TeV_powheg-pythia8/NANOAODSIM/130X_mcRun3_2023_realistic_postBPix_v2-v3/2530000/21e9a6a8-da2f-41fc-b37f-aa213b5f50c9.root
/store/mc/Run3Summer23BPixNanoAODv12/TTto4Q_TuneCP5_13p6TeV_powheg-pythia8/NANOAODSIM/130X_mcRun3_2023_realistic_postBPix_v2-v3/50000/a17f5993-a652-47db-aa50-8f37e271be6f.root
/store/mc/Run3Summer23BPixNanoAODv12/TTto4Q_TuneCP5_13p6TeV_powheg-pythia8/NANOAODSIM/130X_mcRun3_2023_realistic_postBPix_v2-v3/2540000/309f535e-ab6a-4c04-b5a0-886295a3b4fe.root
/store/mc/Run3Summer23BPixNanoAODv12/TTto4Q_TuneCP5_13p6TeV_powheg-pythia8/NANOAODSIM/130X_mcRun3_2023_realistic_postBPix_v2-v3/2540000/59621083-017f-4d6c-8dd4-c3493025820a.root
/store/mc/Run3Summer23BPixNanoAODv12/TTto4Q_TuneCP5_13p6TeV_powheg-pythia8/NANOAODSIM/130X_mcRun3_2023_realistic_postBPix_v2-v3/2540000/4cd37c14-f982-4d82-9ff1-0723b5ce25c3.root
/store/mc/Run3Summer23BPixNanoAODv12/TTto4Q_TuneCP5_13p6TeV_powheg-pythia8/NANOAODSIM/130X_mcRun3_2023_realistic_postBPix_v2-v3/2540000/cd0f9ab4-8c5d-4f22-ad72-10418636346a.root
/store/mc/Run3Summer23BPixNanoAODv12/TTto4Q_TuneCP5_13p6TeV_powheg-pythia8/NANOAODSIM/130X_mcRun3_2023_realistic_postBPix_v2-v3/2540000/f257ceac-fc8a-46af-9c52-ff456ff87bda.root
/store/mc/Run3Summer23BPixNanoAODv12/TTto4Q_TuneCP5_13p6TeV_powheg-pythia8/NANOAODSIM/130X_mcRun3_2023_realistic_postBPix_v2-v3/2540000/022ae849-59d4-45a7-a572-eff8cc3ec1b5.root
/store/mc/Run3Summer23BPixNanoAODv12/TTto4Q_TuneCP5_13p6TeV_powheg-pythia8/NANOAODSIM/130X_mcRun3_2023_realistic_postBPix_v2-v3/2530000/6077c8c5-fe03-47e1-9ae8-fcc18f88a5f3.root
/store/mc/Run3Summer23BPixNanoAODv12/TTto4Q_TuneCP5_13p6TeV_powheg-pythia8/NANOAODSIM/130X_mcRun3_2023_realistic_postBPix_v2-v3/2530000/91786ab4-c987-4697-85cd-2eaa2304f81b.root
/store/mc/Run3Summer23BPixNanoAODv12/TTto4Q_TuneCP5_13p6TeV_powheg-pythia8/NANOAODSIM/130X_mcRun3_2023_realistic_postBPix_v2-v3/2530000/e32735a8-bde9-4afd-abe0-627661056ddf.root
/store/mc/Run3Summer23BPixNanoAODv12/TTto4Q_TuneCP5_13p6TeV_powheg-pythia8/NANOAODSIM/130X_mcRun3_2023_realistic_postBPix_v2-v3/50000/f640ee03-3279-4702-b768-4061b9aa27da.root
/store/mc/Run3Summer23BPixNanoAODv12/TTto4Q_TuneCP5_13p6TeV_powheg-pythia8/NANOAODSIM/130X_mcRun3_2023_realistic_postBPix_v2-v3/50000/616619d0-e441-4eaa-bcd2-60d62c5595a3.root
/store/mc/Run3Summer23BPixNanoAODv12/TTto4Q_TuneCP5_13p6TeV_powheg-pythia8/NANOAODSIM/130X_mcRun3_2023_realistic_postBPix_v2-v3/2540000/d255d916-ecf0-44a2-9d2e-84e187972678.root
/store/mc/Run3Summer23BPixNanoAODv12/TTto4Q_TuneCP5_13p6TeV_powheg-pythia8/NANOAODSIM/130X_mcRun3_2023_realistic_postBPix_v2-v3/2540000/8793a745-ed33-4713-9f1a-520c99980e84.root
/store/mc/Run3Summer23BPixNanoAODv12/TTto4Q_TuneCP5_13p6TeV_powheg-pythia8/NANOAODSIM/130X_mcRun3_2023_realistic_postBPix_v2-v3/50000/f529d24c-d879-47cc-9299-f5e21412476d.root
/store/mc/Run3Summer23BPixNanoAODv12/TTto4Q_TuneCP5_13p6TeV_powheg-pythia8/NANOAODSIM/130X_mcRun3_2023_realistic_postBPix_v2-v3/2540000/83e232b9-0963-473b-83c0-044896bc0c52.root
/store/mc/Run3Summer23BPixNanoAODv12/TTto4Q_TuneCP5_13p6TeV_powheg-pythia8/NANOAODSIM/130X_mcRun3_2023_realistic_postBPix_v2-v3/2530000/cc03b3e2-9145-40a3-9e65-3b09db5c82f9.root
/store/mc/Run3Summer23BPixNanoAODv12/TTto4Q_TuneCP5_13p6TeV_powheg-pythia8/NANOAODSIM/130X_mcRun3_2023_realistic_postBPix_v2-v3/2530000/9b61fc11-4428-49ec-aa71-a505dd794333.root
/store/mc/Run3Summer23BPixNanoAODv12/TTto4Q_TuneCP5_13p6TeV_powheg-pythia8/NANOAODSIM/130X_mcRun3_2023_realistic_postBPix_v2-v3/2530000/197e4f31-e42e-4879-86f0-24696daaf2f2.root
/store/mc/Run3Summer23BPixNanoAODv12/TTto4Q_TuneCP5_13p6TeV_powheg-pythia8/NANOAODSIM/130X_mcRun3_2023_realistic_postBPix_v2-v3/2530000/d634958d-ac9d-41a0-bd1d-50a7f601a365.root
/store/mc/Run3Summer23BPixNanoAODv12/TTto4Q_TuneCP5_13p6TeV_powheg-pythia8/NANOAODSIM/130X_mcRun3_2023_realistic_postBPix_v2-v3/2530000/426627ae-6270-4f5b-8315-2fced0b5d4d7.root
/store/mc/Run3Summer23BPixNanoAODv12/TTto4Q_TuneCP5_13p6TeV_powheg-pythia8/NANOAODSIM/130X_mcRun3_2023_realistic_postBPix_v2-v3/2530000/c98e6d19-76e1-421d-b942-d187f5d7f9df.root
/store/mc/Run3Summer23BPixNanoAODv12/TTto4Q_TuneCP5_13p6TeV_powheg-pythia8/NANOAODSIM/130X_mcRun3_2023_realistic_postBPix_v2-v3/2530000/45d8ed91-f83a-446e-909c-9874ddac7a76.root
/store/mc/Run3Summer23BPixNanoAODv12/TTto4Q_TuneCP5_13p6TeV_powheg-pythia8/NANOAODSIM/130X_mcRun3_2023_realistic_postBPix_v2-v3/2530000/7e3c30a8-d6e7-4669-acfd-2da5c85bc22b.root
/store/mc/Run3Summer23BPixNanoAODv12/TTto4Q_TuneCP5_13p6TeV_powheg-pythia8/NANOAODSIM/130X_mcRun3_2023_realistic_postBPix_v2-v3/2530000/1953d22e-16a2-4c38-93e8-b391305e883b.root
/store/mc/Run3Summer23BPixNanoAODv12/TTto4Q_TuneCP5_13p6TeV_powheg-pythia8/NANOAODSIM/130X_mcRun3_2023_realistic_postBPix_v2-v3/2540000/95d59ec0-961d-4314-b02f-ff5a478c0059.root
/store/mc/Run3Summer23BPixNanoAODv12/TTto4Q_TuneCP5_13p6TeV_powheg-pythia8/NANOAODSIM/130X_mcRun3_2023_realistic_postBPix_v2-v3/2540000/39bbbeb3-4ff1-400b-b00c-22e096d9cce4.root
/store/mc/Run3Summer23BPixNanoAODv12/TTto4Q_TuneCP5_13p6TeV_powheg-pythia8/NANOAODSIM/130X_mcRun3_2023_realistic_postBPix_v2-v3/50000/e9ef12fa-4c49-4d01-8707-39cf6898d0d7.root
/store/mc/Run3Summer23BPixNanoAODv12/TTto4Q_TuneCP5_13p6TeV_powheg-pythia8/NANOAODSIM/130X_mcRun3_2023_realistic_postBPix_v2-v3/2540000/e2bb74d8-3d5a-46bb-9166-bae98d02ad92.root
/store/mc/Run3Summer23BPixNanoAODv12/TTto4Q_TuneCP5_13p6TeV_powheg-pythia8/NANOAODSIM/130X_mcRun3_2023_realistic_postBPix_v2-v3/2540000/15b8912d-0b5d-41fd-87db-9ba1e47b7e54.root
/store/mc/Run3Summer23BPixNanoAODv12/TTto4Q_TuneCP5_13p6TeV_powheg-pythia8/NANOAODSIM/130X_mcRun3_2023_realistic_postBPix_v2-v3/2540000/532451a6-9754-4a27-9949-f72de8fd42ce.root
/store/mc/Run3Summer23BPixNanoAODv12/TTto4Q_TuneCP5_13p6TeV_powheg-pythia8/NANOAODSIM/130X_mcRun3_2023_realistic_postBPix_v2-v3/2540000/7c18a119-4d6a-4d6a-9a6a-73d2d8f78598.root
/store/mc/Run3Summer23BPixNanoAODv12/TTto4Q_TuneCP5_13p6TeV_powheg-pythia8/NANOAODSIM/130X_mcRun3_2023_realistic_postBPix_v2-v3/50000/cccbd07e-5187-4961-b978-c8e828f465b7.root
/store/mc/Run3Summer23BPixNanoAODv12/TTto4Q_TuneCP5_13p6TeV_powheg-pythia8/NANOAODSIM/130X_mcRun3_2023_realistic_postBPix_v2-v3/2540000/b4b9e500-c3de-4bb3-b64b-f31892a6078d.root
/store/mc/Run3Summer23BPixNanoAODv12/TTto4Q_TuneCP5_13p6TeV_powheg-pythia8/NANOAODSIM/130X_mcRun3_2023_realistic_postBPix_v2-v3/2540000/e877d813-a233-4638-bdbe-c9135caa7f0b.root
/store/mc/Run3Summer23BPixNanoAODv12/TTto4Q_TuneCP5_13p6TeV_powheg-pythia8/NANOAODSIM/130X_mcRun3_2023_realistic_postBPix_v2-v3/2540000/2ee75244-b031-46a7-9f75-3b042a424a15.root
/store/mc/Run3Summer23BPixNanoAODv12/TTto4Q_TuneCP5_13p6TeV_powheg-pythia8/NANOAODSIM/130X_mcRun3_2023_realistic_postBPix_v2-v3/50000/837b131d-d7b9-40e0-a2ec-f5430c4037db.root
/store/mc/Run3Summer23BPixNanoAODv12/TTto4Q_TuneCP5_13p6TeV_powheg-pythia8/NANOAODSIM/130X_mcRun3_2023_realistic_postBPix_v2-v3/2540000/a0b25462-3f6b-4d7b-b083-c0de870ae310.root
/store/mc/Run3Summer23BPixNanoAODv12/TTto4Q_TuneCP5_13p6TeV_powheg-pythia8/NANOAODSIM/130X_mcRun3_2023_realistic_postBPix_v2-v3/2540000/68679eb9-e81e-4b94-876e-e335283c466e.root
/store/mc/Run3Summer23BPixNanoAODv12/TTto4Q_TuneCP5_13p6TeV_powheg-pythia8/NANOAODSIM/130X_mcRun3_2023_realistic_postBPix_v2-v3/2540000/e882b6e6-13e4-4309-99bd-735d601e383d.root
/store/mc/Run3Summer23BPixNanoAODv12/TTto4Q_TuneCP5_13p6TeV_powheg-pythia8/NANOAODSIM/130X_mcRun3_2023_realistic_postBPix_v2-v3/50000/7b585d01-4e52-4741-967b-20e37df23f46.root
/store/mc/Run3Summer23BPixNanoAODv12/TTto4Q_TuneCP5_13p6TeV_powheg-pythia8/NANOAODSIM/130X_mcRun3_2023_realistic_postBPix_v2-v3/2540000/d9bc8d0e-de16-489e-a3ae-4c52c7344483.root
/store/mc/Run3Summer23BPixNanoAODv12/TTto4Q_TuneCP5_13p6TeV_powheg-pythia8/NANOAODSIM/130X_mcRun3_2023_realistic_postBPix_v2-v3/2540000/4ea12bbd-88b9-42c4-9e4e-2c843fca280a.root
/store/mc/Run3Summer23BPixNanoAODv12/TTto4Q_TuneCP5_13p6TeV_powheg-pythia8/NANOAODSIM/130X_mcRun3_2023_realistic_postBPix_v2-v3/2540000/8655907c-ca23-451b-b69b-5c3b385977bf.root
/store/mc/Run3Summer23BPixNanoAODv12/TTto4Q_TuneCP5_13p6TeV_powheg-pythia8/NANOAODSIM/130X_mcRun3_2023_realistic_postBPix_v2-v3/2530000/4189c442-796b-4fa1-9e9d-e5a2eed6af46.root
/store/mc/Run3Summer23BPixNanoAODv12/TTto4Q_TuneCP5_13p6TeV_powheg-pythia8/NANOAODSIM/130X_mcRun3_2023_realistic_postBPix_v2-v3/2530000/2e1de37d-aa76-4c01-9340-ab425b6c780a.root
/store/mc/Run3Summer23BPixNanoAODv12/TTto4Q_TuneCP5_13p6TeV_powheg-pythia8/NANOAODSIM/130X_mcRun3_2023_realistic_postBPix_v2-v3/2530000/c4755b8c-b3fd-4de5-959c-62261bb0385f.root
/store/mc/Run3Summer23BPixNanoAODv12/TTto4Q_TuneCP5_13p6TeV_powheg-pythia8/NANOAODSIM/130X_mcRun3_2023_realistic_postBPix_v2-v3/2540000/cd49d5be-0ef7-4dff-ba34-17689e828fa8.root
/store/mc/Run3Summer23BPixNanoAODv12/TTto4Q_TuneCP5_13p6TeV_powheg-pythia8/NANOAODSIM/130X_mcRun3_2023_realistic_postBPix_v2-v3/2540000/903c882d-92be-4cd1-b124-235c2d71e1ec.root
/store/mc/Run3Summer23BPixNanoAODv12/TTto4Q_TuneCP5_13p6TeV_powheg-pythia8/NANOAODSIM/130X_mcRun3_2023_realistic_postBPix_v2-v3/2540000/f68647eb-7d60-4fd5-b875-9ea6873b9e30.root
/store/mc/Run3Summer23BPixNanoAODv12/TTto4Q_TuneCP5_13p6TeV_powheg-pythia8/NANOAODSIM/130X_mcRun3_2023_realistic_postBPix_v2-v3/2540000/0446b21d-c344-4138-bde6-ebee74a48f76.root
/store/mc/Run3Summer23BPixNanoAODv12/TTto4Q_TuneCP5_13p6TeV_powheg-pythia8/NANOAODSIM/130X_mcRun3_2023_realistic_postBPix_v2-v3/2540000/7b7f1ab9-5818-4eef-b2b1-467ab402db4f.root
/store/mc/Run3Summer23BPixNanoAODv12/TTto4Q_TuneCP5_13p6TeV_powheg-pythia8/NANOAODSIM/130X_mcRun3_2023_realistic_postBPix_v2-v3/2530000/b8c21639-6485-477d-84d6-ae4ad7a0f0d7.root
/store/mc/Run3Summer23BPixNanoAODv12/TTto4Q_TuneCP5_13p6TeV_powheg-pythia8/NANOAODSIM/130X_mcRun3_2023_realistic_postBPix_v2-v3/2530000/66c73e5b-236b-414c-a673-3950584ae9f9.root
/store/mc/Run3Summer23BPixNanoAODv12/TTto4Q_TuneCP5_13p6TeV_powheg-pythia8/NANOAODSIM/130X_mcRun3_2023_realistic_postBPix_v2-v3/50000/8b013d82-b682-4f02-97c0-a7935fa3370b.root
/store/mc/Run3Summer23BPixNanoAODv12/TTto4Q_TuneCP5_13p6TeV_powheg-pythia8/NANOAODSIM/130X_mcRun3_2023_realistic_postBPix_v2-v3/2530000/3e027f47-6f43-4b47-b1cc-fe23bb5ebdc1.root
/store/mc/Run3Summer23BPixNanoAODv12/TTto4Q_TuneCP5_13p6TeV_powheg-pythia8/NANOAODSIM/130X_mcRun3_2023_realistic_postBPix_v2-v3/2530000/b917e45c-eb09-449b-9629-5f820dc1f55c.root
/store/mc/Run3Summer23BPixNanoAODv12/TTto4Q_TuneCP5_13p6TeV_powheg-pythia8/NANOAODSIM/130X_mcRun3_2023_realistic_postBPix_v2-v3/2530000/cf88f6a5-4351-4c47-a927-cef28231710d.root
/store/mc/Run3Summer23BPixNanoAODv12/TTto4Q_TuneCP5_13p6TeV_powheg-pythia8/NANOAODSIM/130X_mcRun3_2023_realistic_postBPix_v2-v3/2540000/98c79471-c3fc-4695-82b3-096ad04f1116.root
/store/mc/Run3Summer23BPixNanoAODv12/TTto4Q_TuneCP5_13p6TeV_powheg-pythia8/NANOAODSIM/130X_mcRun3_2023_realistic_postBPix_v2-v3/2540000/922ca90a-c792-424b-a513-c5bda7fbdf6e.root
/store/mc/Run3Summer23BPixNanoAODv12/TTto4Q_TuneCP5_13p6TeV_powheg-pythia8/NANOAODSIM/130X_mcRun3_2023_realistic_postBPix_v2-v3/2540000/29331a21-a4c2-4262-905b-df7233f65b59.root
/store/mc/Run3Summer23BPixNanoAODv12/TTto4Q_TuneCP5_13p6TeV_powheg-pythia8/NANOAODSIM/130X_mcRun3_2023_realistic_postBPix_v2-v3/2540000/a8de40c1-8127-4a52-bd8e-5b2cfa1ee2cd.root
/store/mc/Run3Summer23BPixNanoAODv12/TTto4Q_TuneCP5_13p6TeV_powheg-pythia8/NANOAODSIM/130X_mcRun3_2023_realistic_postBPix_v2-v3/2530000/e9337492-6cb5-44a9-8cf8-b8567e6f65e1.root
/store/mc/Run3Summer23BPixNanoAODv12/TTto4Q_TuneCP5_13p6TeV_powheg-pythia8/NANOAODSIM/130X_mcRun3_2023_realistic_postBPix_v2-v3/2530000/d7aab222-2eb6-4f3b-a54f-a7563eba23cf.root
/store/mc/Run3Summer23BPixNanoAODv12/TTto4Q_TuneCP5_13p6TeV_powheg-pythia8/NANOAODSIM/130X_mcRun3_2023_realistic_postBPix_v2-v3/2530000/b01381e1-2980-4a1f-9a2c-2666eec4a2f6.root
/store/mc/Run3Summer23BPixNanoAODv12/TTto4Q_TuneCP5_13p6TeV_powheg-pythia8/NANOAODSIM/130X_mcRun3_2023_realistic_postBPix_v2-v3/2530000/512c7859-6ca5-49b9-8807-af678565789d.root
/store/mc/Run3Summer23BPixNanoAODv12/TTto4Q_TuneCP5_13p6TeV_powheg-pythia8/NANOAODSIM/130X_mcRun3_2023_realistic_postBPix_v2-v3/2530000/43abc696-b698-4a87-9085-4645d5005de4.root
/store/mc/Run3Summer23BPixNanoAODv12/TTto4Q_TuneCP5_13p6TeV_powheg-pythia8/NANOAODSIM/130X_mcRun3_2023_realistic_postBPix_v2-v3/2530000/878e7c85-b9a9-4211-b76f-54abc4b30fdd.root
/store/mc/Run3Summer23BPixNanoAODv12/TTto4Q_TuneCP5_13p6TeV_powheg-pythia8/NANOAODSIM/130X_mcRun3_2023_realistic_postBPix_v2-v3/2530000/a8613a41-7e12-4e04-99ec-a186f9844f31.root
/store/mc/Run3Summer23BPixNanoAODv12/TTto4Q_TuneCP5_13p6TeV_powheg-pythia8/NANOAODSIM/130X_mcRun3_2023_realistic_postBPix_v2-v3/2530000/4fbe00c5-a8fa-4b6b-a493-f91f3a757b19.root
/store/mc/Run3Summer23BPixNanoAODv12/TTto4Q_TuneCP5_13p6TeV_powheg-pythia8/NANOAODSIM/130X_mcRun3_2023_realistic_postBPix_v2-v3/2530000/e8b20312-0e06-4182-b4b2-c4053ba25f11.root
/store/mc/Run3Summer23BPixNanoAODv12/TTto4Q_TuneCP5_13p6TeV_powheg-pythia8/NANOAODSIM/130X_mcRun3_2023_realistic_postBPix_v2-v3/2540000/615dbb17-7897-4fb7-9646-d9fe71bb351e.root
/store/mc/Run3Summer23BPixNanoAODv12/TTto4Q_TuneCP5_13p6TeV_powheg-pythia8/NANOAODSIM/130X_mcRun3_2023_realistic_postBPix_v2-v3/2540000/a8ff5052-9a2a-4bc9-b1c4-6e5afef3c7d9.root
/store/mc/Run3Summer23BPixNanoAODv12/TTto4Q_TuneCP5_13p6TeV_powheg-pythia8/NANOAODSIM/130X_mcRun3_2023_realistic_postBPix_v2-v3/2530000/a90bb2f7-fc12-4bd1-9e8e-590f81ff47d8.root
/store/mc/Run3Summer23BPixNanoAODv12/TTto4Q_TuneCP5_13p6TeV_powheg-pythia8/NANOAODSIM/130X_mcRun3_2023_realistic_postBPix_v2-v3/2530000/f42c185c-ffda-4450-b09f-412312e8426b.root
/store/mc/Run3Summer23BPixNanoAODv12/TTto4Q_TuneCP5_13p6TeV_powheg-pythia8/NANOAODSIM/130X_mcRun3_2023_realistic_postBPix_v2-v3/2530000/c5d9dae2-dd10-49c2-9b33-04a1b408be38.root
/store/mc/Run3Summer23BPixNanoAODv12/TTto4Q_TuneCP5_13p6TeV_powheg-pythia8/NANOAODSIM/130X_mcRun3_2023_realistic_postBPix_v2-v3/2540000/5ec12e4e-9ead-40e9-bb94-143d5b6dfba2.root
/store/mc/Run3Summer23BPixNanoAODv12/TTto4Q_TuneCP5_13p6TeV_powheg-pythia8/NANOAODSIM/130X_mcRun3_2023_realistic_postBPix_v2-v3/2540000/9e9b005b-0e51-403b-acd6-04b74b362a58.root
/store/mc/Run3Summer23BPixNanoAODv12/TTto4Q_TuneCP5_13p6TeV_powheg-pythia8/NANOAODSIM/130X_mcRun3_2023_realistic_postBPix_v2-v3/2530000/00b8fba8-cf56-4648-a3a0-917fc3db86dc.root
/store/mc/Run3Summer23BPixNanoAODv12/TTto4Q_TuneCP5_13p6TeV_powheg-pythia8/NANOAODSIM/130X_mcRun3_2023_realistic_postBPix_v2-v3/2530000/ae21af7e-964b-4e46-9eda-6a576e5b8521.root
/store/mc/Run3Summer23BPixNanoAODv12/TTto4Q_TuneCP5_13p6TeV_powheg-pythia8/NANOAODSIM/130X_mcRun3_2023_realistic_postBPix_v2-v3/2530000/8705515f-6aae-475b-845c-57adc0e81c20.root
/store/mc/Run3Summer23BPixNanoAODv12/TTto4Q_TuneCP5_13p6TeV_powheg-pythia8/NANOAODSIM/130X_mcRun3_2023_realistic_postBPix_v2-v3/2530000/dd17e642-da3b-4d83-b071-c8740aa0f214.root
/store/mc/Run3Summer23BPixNanoAODv12/TTto4Q_TuneCP5_13p6TeV_powheg-pythia8/NANOAODSIM/130X_mcRun3_2023_realistic_postBPix_v2-v3/2530000/26dfa680-fa60-4810-8ecf-8534f39af14b.root
/store/mc/Run3Summer23BPixNanoAODv12/TTto4Q_TuneCP5_13p6TeV_powheg-pythia8/NANOAODSIM/130X_mcRun3_2023_realistic_postBPix_v2-v3/2530000/9ca4cd9d-7701-42aa-a63d-8eb06011da3f.root
/store/mc/Run3Summer23BPixNanoAODv12/TTto4Q_TuneCP5_13p6TeV_powheg-pythia8/NANOAODSIM/130X_mcRun3_2023_realistic_postBPix_v2-v3/2530000/8f43438f-4927-450b-98ca-65b6d2273452.root
/store/mc/Run3Summer23BPixNanoAODv12/TTto4Q_TuneCP5_13p6TeV_powheg-pythia8/NANOAODSIM/130X_mcRun3_2023_realistic_postBPix_v2-v3/2530000/0482affe-230a-4ca9-9ec0-e7e9f8a2ef18.root
/store/mc/Run3Summer23BPixNanoAODv12/TTto4Q_TuneCP5_13p6TeV_powheg-pythia8/NANOAODSIM/130X_mcRun3_2023_realistic_postBPix_v2-v3/2530000/921353a5-e5a2-4459-950a-d17b36f7732d.root
/store/mc/Run3Summer23BPixNanoAODv12/TTto4Q_TuneCP5_13p6TeV_powheg-pythia8/NANOAODSIM/130X_mcRun3_2023_realistic_postBPix_v2-v3/2540000/52ef5d0e-084b-448b-b959-b8a66b465456.root
/store/mc/Run3Summer23BPixNanoAODv12/TTto4Q_TuneCP5_13p6TeV_powheg-pythia8/NANOAODSIM/130X_mcRun3_2023_realistic_postBPix_v2-v3/2540000/317b2dbd-ffce-42fd-84bb-34380644137b.root
/store/mc/Run3Summer23BPixNanoAODv12/TTto4Q_TuneCP5_13p6TeV_powheg-pythia8/NANOAODSIM/130X_mcRun3_2023_realistic_postBPix_v2-v3/2540000/27eb5278-d902-4a6c-a75a-33cbc61c30bd.root
/store/mc/Run3Summer23BPixNanoAODv12/TTto4Q_TuneCP5_13p6TeV_powheg-pythia8/NANOAODSIM/130X_mcRun3_2023_realistic_postBPix_v2-v3/2540000/7cd809b8-818e-4930-bdd9-3b560de9872f.root
/store/mc/Run3Summer23BPixNanoAODv12/TTto4Q_TuneCP5_13p6TeV_powheg-pythia8/NANOAODSIM/130X_mcRun3_2023_realistic_postBPix_v2-v3/2530000/7068b0f9-7269-4539-b78b-42204807189e.root
/store/mc/Run3Summer23BPixNanoAODv12/TTto4Q_TuneCP5_13p6TeV_powheg-pythia8/NANOAODSIM/130X_mcRun3_2023_realistic_postBPix_v2-v3/2530000/03834be2-ef97-45b9-9175-93b0b10f2d9d.root
/store/mc/Run3Summer23BPixNanoAODv12/TTto4Q_TuneCP5_13p6TeV_powheg-pythia8/NANOAODSIM/130X_mcRun3_2023_realistic_postBPix_v2-v3/2530000/4b4e8bb6-72ee-4b67-bf2e-d37e7e2a3dc2.root
/store/mc/Run3Summer23BPixNanoAODv12/TTto4Q_TuneCP5_13p6TeV_powheg-pythia8/NANOAODSIM/130X_mcRun3_2023_realistic_postBPix_v2-v3/2530000/07dbd1de-cadc-4140-8eca-7dce3cee2fc5.root
/store/mc/Run3Summer23BPixNanoAODv12/TTto4Q_TuneCP5_13p6TeV_powheg-pythia8/NANOAODSIM/130X_mcRun3_2023_realistic_postBPix_v2-v3/2530000/551f7cf7-bb0d-44a1-847b-be84618d0114.root
/store/mc/Run3Summer23BPixNanoAODv12/TTto4Q_TuneCP5_13p6TeV_powheg-pythia8/NANOAODSIM/130X_mcRun3_2023_realistic_postBPix_v2-v3/2530000/55d38258-0fa3-4bb0-baa4-0381ecb43740.root
/store/mc/Run3Summer23BPixNanoAODv12/TTto4Q_TuneCP5_13p6TeV_powheg-pythia8/NANOAODSIM/130X_mcRun3_2023_realistic_postBPix_v2-v3/2530000/3f988346-2a32-442f-b283-c47ecd71aff9.root
/store/mc/Run3Summer23BPixNanoAODv12/TTto4Q_TuneCP5_13p6TeV_powheg-pythia8/NANOAODSIM/130X_mcRun3_2023_realistic_postBPix_v2-v3/2530000/200cf242-3734-41f0-a3ff-aa9dac1972d0.root
/store/mc/Run3Summer23BPixNanoAODv12/TTto4Q_TuneCP5_13p6TeV_powheg-pythia8/NANOAODSIM/130X_mcRun3_2023_realistic_postBPix_v2-v3/2530000/ab94555d-4eac-4c09-8917-b6eea9a22624.root
/store/mc/Run3Summer23BPixNanoAODv12/TTto4Q_TuneCP5_13p6TeV_powheg-pythia8/NANOAODSIM/130X_mcRun3_2023_realistic_postBPix_v2-v3/2530000/dc0dace5-6039-4b48-af1d-d6a9e9e37e3b.root
/store/mc/Run3Summer23BPixNanoAODv12/TTto4Q_TuneCP5_13p6TeV_powheg-pythia8/NANOAODSIM/130X_mcRun3_2023_realistic_postBPix_v2-v3/2530000/9f0f85a8-b9a6-4244-8d4d-3a1dfc54a085.root
/store/mc/Run3Summer23BPixNanoAODv12/TTto4Q_TuneCP5_13p6TeV_powheg-pythia8/NANOAODSIM/130X_mcRun3_2023_realistic_postBPix_v2-v3/2530000/89f7d070-1281-4bd2-a0c0-9f6594f2bcd1.root
/store/mc/Run3Summer23BPixNanoAODv12/TTto4Q_TuneCP5_13p6TeV_powheg-pythia8/NANOAODSIM/130X_mcRun3_2023_realistic_postBPix_v2-v3/2540000/268f0e90-35c7-4df7-9885-7ed75cb41e00.root
/store/mc/Run3Summer23BPixNanoAODv12/TTto4Q_TuneCP5_13p6TeV_powheg-pythia8/NANOAODSIM/130X_mcRun3_2023_realistic_postBPix_v2-v3/2540000/68e7667b-ea80-4d2f-beb4-c5fc01a6646c.root
/store/mc/Run3Summer23BPixNanoAODv12/TTto4Q_TuneCP5_13p6TeV_powheg-pythia8/NANOAODSIM/130X_mcRun3_2023_realistic_postBPix_v2-v3/2540000/19b4ae25-1214-4f57-a940-a688f902d025.root
/store/mc/Run3Summer23BPixNanoAODv12/TTto4Q_TuneCP5_13p6TeV_powheg-pythia8/NANOAODSIM/130X_mcRun3_2023_realistic_postBPix_v2-v3/2540000/ec900843-f02a-4f48-b4bd-3072da51cd53.root
/store/mc/Run3Summer23BPixNanoAODv12/TTto4Q_TuneCP5_13p6TeV_powheg-pythia8/NANOAODSIM/130X_mcRun3_2023_realistic_postBPix_v2-v3/2540000/fd5226dc-ef60-4bab-a1ff-3a226d40bc0a.root
/store/mc/Run3Summer23BPixNanoAODv12/TTto4Q_TuneCP5_13p6TeV_powheg-pythia8/NANOAODSIM/130X_mcRun3_2023_realistic_postBPix_v2-v3/2530000/a389b7c3-1612-4a76-bbc3-9854c8d0c61f.root
/store/mc/Run3Summer23BPixNanoAODv12/TTto4Q_TuneCP5_13p6TeV_powheg-pythia8/NANOAODSIM/130X_mcRun3_2023_realistic_postBPix_v2-v3/2530000/205ac724-0962-476c-ab4b-47a1114ce0ec.root
/store/mc/Run3Summer23BPixNanoAODv12/TTto4Q_TuneCP5_13p6TeV_powheg-pythia8/NANOAODSIM/130X_mcRun3_2023_realistic_postBPix_v2-v3/2530000/35a60bab-a206-4ae6-b255-851a37c3cc7f.root