/store/mc/Run3Summer23BPixNanoAODv13/VBFHHto2B2Tau_CV_1_C2V_1_C3_1_TuneCP5_13p6TeV_madgraph-pythia8/NANOAODSIM/133X_mcRun3_2023_realistic_postBPix_ForNanov13_v2-v2/80000/9aa513e2-7b3f-440b-8a8c-b75d73bac8cc.root
/store/mc/Run3Summer23BPixNanoAODv13/VBFHHto2B2Tau_CV_1_C2V_1_C3_1_TuneCP5_13p6TeV_madgraph-pythia8/NANOAODSIM/133X_mcRun3_2023_realistic_postBPix_ForNanov13_v2-v2/80000/28fe1922-837d-4110-8a4b-5586c576578e.root
/store/mc/Run3Summer23BPixNanoAODv13/VBFHHto2B2Tau_CV_1_C2V_1_C3_1_TuneCP5_13p6TeV_madgraph-pythia8/NANOAODSIM/133X_mcRun3_2023_realistic_postBPix_ForNanov13_v2-v2/80000/0f71f76d-6c9b-461e-80a7-64e16c05ef0a.root
/store/mc/Run3Summer23BPixNanoAODv13/VBFHHto2B2Tau_CV_1_C2V_1_C3_1_TuneCP5_13p6TeV_madgraph-pythia8/NANOAODSIM/133X_mcRun3_2023_realistic_postBPix_ForNanov13_v2-v2/80000/7ce499a4-27ec-4c2e-9ea6-9040abee3f58.root
/store/mc/Run3Summer23BPixNanoAODv13/VBFHHto2B2Tau_CV_1_C2V_1_C3_1_TuneCP5_13p6TeV_madgraph-pythia8/NANOAODSIM/133X_mcRun3_2023_realistic_postBPix_ForNanov13_v2-v2/80000/a810c804-7223-4909-a739-4be121171d58.root
/store/mc/Run3Summer23BPixNanoAODv13/VBFHHto2B2Tau_CV_1_C2V_1_C3_1_TuneCP5_13p6TeV_madgraph-pythia8/NANOAODSIM/133X_mcRun3_2023_realistic_postBPix_ForNanov13_v2-v2/80000/01075e49-a458-42cf-849c-5ca0382f0e92.root
/store/mc/Run3Summer23BPixNanoAODv13/VBFHHto2B2Tau_CV_1_C2V_1_C3_1_TuneCP5_13p6TeV_madgraph-pythia8/NANOAODSIM/133X_mcRun3_2023_realistic_postBPix_ForNanov13_v2-v2/80000/6493b075-adaa-4d78-9c48-940bba8f68dd.root