/store/mc/Run3Summer23BPixNanoAODv13/VBFHHto2B2Tau_CV_m1p21_C2V_1p94_C3_m0p94_TuneCP5_13p6TeV_madgraph-pythia8/NANOAODSIM/133X_mcRun3_2023_realistic_postBPix_ForNanov13_v2-v2/2530000/b48ed6b8-20e5-4d22-9370-48bfe810e89e.root
/store/mc/Run3Summer23BPixNanoAODv13/VBFHHto2B2Tau_CV_m1p21_C2V_1p94_C3_m0p94_TuneCP5_13p6TeV_madgraph-pythia8/NANOAODSIM/133X_mcRun3_2023_realistic_postBPix_ForNanov13_v2-v2/2530000/828c031d-1225-4fb7-bd8d-44b6721c18aa.root
/store/mc/Run3Summer23BPixNanoAODv13/VBFHHto2B2Tau_CV_m1p21_C2V_1p94_C3_m0p94_TuneCP5_13p6TeV_madgraph-pythia8/NANOAODSIM/133X_mcRun3_2023_realistic_postBPix_ForNanov13_v2-v2/2530000/33372eae-280e-443c-a71e-4bf98d609c61.root
/store/mc/Run3Summer23BPixNanoAODv13/VBFHHto2B2Tau_CV_m1p21_C2V_1p94_C3_m0p94_TuneCP5_13p6TeV_madgraph-pythia8/NANOAODSIM/133X_mcRun3_2023_realistic_postBPix_ForNanov13_v2-v2/2530000/2a096317-d1cf-4ec2-94de-be97472dee74.root
/store/mc/Run3Summer23BPixNanoAODv13/VBFHHto2B2Tau_CV_m1p21_C2V_1p94_C3_m0p94_TuneCP5_13p6TeV_madgraph-pythia8/NANOAODSIM/133X_mcRun3_2023_realistic_postBPix_ForNanov13_v2-v2/2530000/1aab67fa-8ee5-4d5d-be81-479734085a8d.root
/store/mc/Run3Summer23BPixNanoAODv13/VBFHHto2B2Tau_CV_m1p21_C2V_1p94_C3_m0p94_TuneCP5_13p6TeV_madgraph-pythia8/NANOAODSIM/133X_mcRun3_2023_realistic_postBPix_ForNanov13_v2-v2/2530000/0dd931c4-d1d1-44fe-bdd7-4f3e100900ab.root
/store/mc/Run3Summer23BPixNanoAODv13/VBFHHto2B2Tau_CV_m1p21_C2V_1p94_C3_m0p94_TuneCP5_13p6TeV_madgraph-pythia8/NANOAODSIM/133X_mcRun3_2023_realistic_postBPix_ForNanov13_v2-v2/2530000/3a9f6c32-eb89-4c96-9532-589d0a882fd6.root
/store/mc/Run3Summer23BPixNanoAODv13/VBFHHto2B2Tau_CV_m1p21_C2V_1p94_C3_m0p94_TuneCP5_13p6TeV_madgraph-pythia8/NANOAODSIM/133X_mcRun3_2023_realistic_postBPix_ForNanov13_v2-v2/2530000/0b65dca5-3921-4e5c-b406-624c2cf616fa.root
/store/mc/Run3Summer23BPixNanoAODv13/VBFHHto2B2Tau_CV_m1p21_C2V_1p94_C3_m0p94_TuneCP5_13p6TeV_madgraph-pythia8/NANOAODSIM/133X_mcRun3_2023_realistic_postBPix_ForNanov13_v2-v2/2530000/7a2f1b0f-1555-45ff-9cb7-109bc5938798.root
/store/mc/Run3Summer23BPixNanoAODv13/VBFHHto2B2Tau_CV_m1p21_C2V_1p94_C3_m0p94_TuneCP5_13p6TeV_madgraph-pythia8/NANOAODSIM/133X_mcRun3_2023_realistic_postBPix_ForNanov13_v2-v2/2530000/a7f70a89-eddc-4f76-b2fa-aacb5414a109.root
/store/mc/Run3Summer23BPixNanoAODv13/VBFHHto2B2Tau_CV_m1p21_C2V_1p94_C3_m0p94_TuneCP5_13p6TeV_madgraph-pythia8/NANOAODSIM/133X_mcRun3_2023_realistic_postBPix_ForNanov13_v2-v2/2530000/53a9dee6-ccd2-4cd7-9e2c-818be2092b78.root
/store/mc/Run3Summer23BPixNanoAODv13/VBFHHto2B2Tau_CV_m1p21_C2V_1p94_C3_m0p94_TuneCP5_13p6TeV_madgraph-pythia8/NANOAODSIM/133X_mcRun3_2023_realistic_postBPix_ForNanov13_v2-v2/2530000/f313b49e-d717-4abb-958c-def11d237369.root
/store/mc/Run3Summer23BPixNanoAODv13/VBFHHto2B2Tau_CV_m1p21_C2V_1p94_C3_m0p94_TuneCP5_13p6TeV_madgraph-pythia8/NANOAODSIM/133X_mcRun3_2023_realistic_postBPix_ForNanov13_v2-v2/2530000/ff1c949e-57fa-456d-be93-2450260c3e25.root
/store/mc/Run3Summer23BPixNanoAODv13/VBFHHto2B2Tau_CV_m1p21_C2V_1p94_C3_m0p94_TuneCP5_13p6TeV_madgraph-pythia8/NANOAODSIM/133X_mcRun3_2023_realistic_postBPix_ForNanov13_v2-v2/2530000/4af80a8d-642c-42f9-8faf-c3922d759db4.root
/store/mc/Run3Summer23BPixNanoAODv13/VBFHHto2B2Tau_CV_m1p21_C2V_1p94_C3_m0p94_TuneCP5_13p6TeV_madgraph-pythia8/NANOAODSIM/133X_mcRun3_2023_realistic_postBPix_ForNanov13_v2-v2/2530000/51c5ac0d-e430-425c-a4e3-5223e3386f52.root
/store/mc/Run3Summer23BPixNanoAODv13/VBFHHto2B2Tau_CV_m1p21_C2V_1p94_C3_m0p94_TuneCP5_13p6TeV_madgraph-pythia8/NANOAODSIM/133X_mcRun3_2023_realistic_postBPix_ForNanov13_v2-v2/2530000/e451148f-f6cc-4bbd-adef-b22d2c406edc.root
/store/mc/Run3Summer23BPixNanoAODv13/VBFHHto2B2Tau_CV_m1p21_C2V_1p94_C3_m0p94_TuneCP5_13p6TeV_madgraph-pythia8/NANOAODSIM/133X_mcRun3_2023_realistic_postBPix_ForNanov13_v2-v2/2530000/dda92d30-8dcb-4008-a59e-477351b384f1.root
/store/mc/Run3Summer23BPixNanoAODv13/VBFHHto2B2Tau_CV_m1p21_C2V_1p94_C3_m0p94_TuneCP5_13p6TeV_madgraph-pythia8/NANOAODSIM/133X_mcRun3_2023_realistic_postBPix_ForNanov13_v2-v2/2530000/e2a4e383-0488-4e98-b92d-137b71ec132c.root
/store/mc/Run3Summer23BPixNanoAODv13/VBFHHto2B2Tau_CV_m1p21_C2V_1p94_C3_m0p94_TuneCP5_13p6TeV_madgraph-pythia8/NANOAODSIM/133X_mcRun3_2023_realistic_postBPix_ForNanov13_v2-v2/2530000/bf6bce70-71d8-4164-8de5-d3a7296375eb.root
/store/mc/Run3Summer23BPixNanoAODv13/VBFHHto2B2Tau_CV_m1p21_C2V_1p94_C3_m0p94_TuneCP5_13p6TeV_madgraph-pythia8/NANOAODSIM/133X_mcRun3_2023_realistic_postBPix_ForNanov13_v2-v2/2530000/e5db2f25-ee92-4ac2-a31e-02e372b87511.root
/store/mc/Run3Summer23BPixNanoAODv13/VBFHHto2B2Tau_CV_m1p21_C2V_1p94_C3_m0p94_TuneCP5_13p6TeV_madgraph-pythia8/NANOAODSIM/133X_mcRun3_2023_realistic_postBPix_ForNanov13_v2-v2/2530000/6ceb1a16-2c47-4289-be65-003eff2edb98.root
/store/mc/Run3Summer23BPixNanoAODv13/VBFHHto2B2Tau_CV_m1p21_C2V_1p94_C3_m0p94_TuneCP5_13p6TeV_madgraph-pythia8/NANOAODSIM/133X_mcRun3_2023_realistic_postBPix_ForNanov13_v2-v2/2530000/0657efac-dea0-4f45-aab3-dddff4da1aa1.root
/store/mc/Run3Summer23BPixNanoAODv13/VBFHHto2B2Tau_CV_m1p21_C2V_1p94_C3_m0p94_TuneCP5_13p6TeV_madgraph-pythia8/NANOAODSIM/133X_mcRun3_2023_realistic_postBPix_ForNanov13_v2-v2/2530000/a535dd92-e707-4fc5-bf61-ed896a6bdde6.root
/store/mc/Run3Summer23BPixNanoAODv13/VBFHHto2B2Tau_CV_m1p21_C2V_1p94_C3_m0p94_TuneCP5_13p6TeV_madgraph-pythia8/NANOAODSIM/133X_mcRun3_2023_realistic_postBPix_ForNanov13_v2-v2/2530000/7566f997-18e3-465d-90d0-76fadeda1a86.root
/store/mc/Run3Summer23BPixNanoAODv13/VBFHHto2B2Tau_CV_m1p21_C2V_1p94_C3_m0p94_TuneCP5_13p6TeV_madgraph-pythia8/NANOAODSIM/133X_mcRun3_2023_realistic_postBPix_ForNanov13_v2-v2/2530000/00cb3d75-5b2f-4280-8c5e-198b8d47b96b.root
/store/mc/Run3Summer23BPixNanoAODv13/VBFHHto2B2Tau_CV_m1p21_C2V_1p94_C3_m0p94_TuneCP5_13p6TeV_madgraph-pythia8/NANOAODSIM/133X_mcRun3_2023_realistic_postBPix_ForNanov13_v2-v2/2530000/550b886e-e170-4675-bc01-d5c8a99ccffe.root
/store/mc/Run3Summer23BPixNanoAODv13/VBFHHto2B2Tau_CV_m1p21_C2V_1p94_C3_m0p94_TuneCP5_13p6TeV_madgraph-pythia8/NANOAODSIM/133X_mcRun3_2023_realistic_postBPix_ForNanov13_v2-v2/2530000/c26817ec-b4e8-46ec-9d9a-67eb673f0ef3.root
/store/mc/Run3Summer23BPixNanoAODv13/VBFHHto2B2Tau_CV_m1p21_C2V_1p94_C3_m0p94_TuneCP5_13p6TeV_madgraph-pythia8/NANOAODSIM/133X_mcRun3_2023_realistic_postBPix_ForNanov13_v2-v2/2530000/9a970535-5e5d-42d3-a5b2-b75b0c4f7017.root
/store/mc/Run3Summer23BPixNanoAODv13/VBFHHto2B2Tau_CV_m1p21_C2V_1p94_C3_m0p94_TuneCP5_13p6TeV_madgraph-pythia8/NANOAODSIM/133X_mcRun3_2023_realistic_postBPix_ForNanov13_v2-v2/2530000/5efab24a-3c88-488d-ba93-2e3005b620cc.root
/store/mc/Run3Summer23BPixNanoAODv13/VBFHHto2B2Tau_CV_m1p21_C2V_1p94_C3_m0p94_TuneCP5_13p6TeV_madgraph-pythia8/NANOAODSIM/133X_mcRun3_2023_realistic_postBPix_ForNanov13_v2-v2/2530000/0d0aa42e-beb1-46e1-9fdd-72ff53a4adcb.root
/store/mc/Run3Summer23BPixNanoAODv13/VBFHHto2B2Tau_CV_m1p21_C2V_1p94_C3_m0p94_TuneCP5_13p6TeV_madgraph-pythia8/NANOAODSIM/133X_mcRun3_2023_realistic_postBPix_ForNanov13_v2-v2/2530000/6dd5f2b0-e38c-4d66-93e6-f3a7c709c19b.root
/store/mc/Run3Summer23BPixNanoAODv13/VBFHHto2B2Tau_CV_m1p21_C2V_1p94_C3_m0p94_TuneCP5_13p6TeV_madgraph-pythia8/NANOAODSIM/133X_mcRun3_2023_realistic_postBPix_ForNanov13_v2-v2/2530000/2a39d7b4-0286-4ac5-b0e7-f65843a6facf.root