/store/mc/Run3Summer23NanoAODv12/DYto2L-2Jets_MLL-50_PTLL-400to600_1J_TuneCP5_13p6TeV_amcatnloFXFX-pythia8/NANOAODSIM/130X_mcRun3_2023_realistic_v14-v1/60000/a673098b-d7f7-4ce5-9c82-f0425097d5eb.root
/store/mc/Run3Summer23NanoAODv12/DYto2L-2Jets_MLL-50_PTLL-400to600_1J_TuneCP5_13p6TeV_amcatnloFXFX-pythia8/NANOAODSIM/130X_mcRun3_2023_realistic_v14-v1/60000/d19d685d-ec58-48e2-972c-0546bbb08e15.root
/store/mc/Run3Summer23NanoAODv12/DYto2L-2Jets_MLL-50_PTLL-400to600_1J_TuneCP5_13p6TeV_amcatnloFXFX-pythia8/NANOAODSIM/130X_mcRun3_2023_realistic_v14-v1/60000/059b8359-fd8f-47f7-b897-2a3dfa8c62a2.root
/store/mc/Run3Summer23NanoAODv12/DYto2L-2Jets_MLL-50_PTLL-400to600_1J_TuneCP5_13p6TeV_amcatnloFXFX-pythia8/NANOAODSIM/130X_mcRun3_2023_realistic_v14-v1/60000/8b505e62-3493-4050-a95d-aa0fded454de.root
/store/mc/Run3Summer23NanoAODv12/DYto2L-2Jets_MLL-50_PTLL-400to600_1J_TuneCP5_13p6TeV_amcatnloFXFX-pythia8/NANOAODSIM/130X_mcRun3_2023_realistic_v14-v1/60000/b19971e0-451d-4488-8973-ac6d71706d43.root
/store/mc/Run3Summer23NanoAODv12/DYto2L-2Jets_MLL-50_PTLL-400to600_1J_TuneCP5_13p6TeV_amcatnloFXFX-pythia8/NANOAODSIM/130X_mcRun3_2023_realistic_v14-v1/60000/370d49b1-5392-45eb-a500-774c332ca8d1.root
/store/mc/Run3Summer23NanoAODv12/DYto2L-2Jets_MLL-50_PTLL-400to600_1J_TuneCP5_13p6TeV_amcatnloFXFX-pythia8/NANOAODSIM/130X_mcRun3_2023_realistic_v14-v1/60000/862f78d9-8c91-407d-af7b-f6ba713cafe5.root
/store/mc/Run3Summer23NanoAODv12/DYto2L-2Jets_MLL-50_PTLL-400to600_1J_TuneCP5_13p6TeV_amcatnloFXFX-pythia8/NANOAODSIM/130X_mcRun3_2023_realistic_v14-v1/60000/29ee9885-a1d5-4a4e-a64d-1823e090f997.root
/store/mc/Run3Summer23NanoAODv12/DYto2L-2Jets_MLL-50_PTLL-400to600_1J_TuneCP5_13p6TeV_amcatnloFXFX-pythia8/NANOAODSIM/130X_mcRun3_2023_realistic_v14-v1/60000/80cde949-0a8c-4885-997b-6dd9a09e5e46.root
/store/mc/Run3Summer23NanoAODv12/DYto2L-2Jets_MLL-50_PTLL-400to600_1J_TuneCP5_13p6TeV_amcatnloFXFX-pythia8/NANOAODSIM/130X_mcRun3_2023_realistic_v14-v1/60000/279a2c9c-4728-4ca1-a6fa-4450c681d37a.root
/store/mc/Run3Summer23NanoAODv12/DYto2L-2Jets_MLL-50_PTLL-400to600_1J_TuneCP5_13p6TeV_amcatnloFXFX-pythia8/NANOAODSIM/130X_mcRun3_2023_realistic_v14-v1/60000/5f7e88ae-bb1a-4bf6-8576-fb8148760e66.root
/store/mc/Run3Summer23NanoAODv12/DYto2L-2Jets_MLL-50_PTLL-400to600_1J_TuneCP5_13p6TeV_amcatnloFXFX-pythia8/NANOAODSIM/130X_mcRun3_2023_realistic_v14-v1/60000/1f9fd689-5483-4f41-8f0a-5fd0805e69a3.root
/store/mc/Run3Summer23NanoAODv12/DYto2L-2Jets_MLL-50_PTLL-400to600_1J_TuneCP5_13p6TeV_amcatnloFXFX-pythia8/NANOAODSIM/130X_mcRun3_2023_realistic_v14-v1/60000/481af65d-dfe7-4fb6-8181-06916df159a4.root
/store/mc/Run3Summer23NanoAODv12/DYto2L-2Jets_MLL-50_PTLL-400to600_1J_TuneCP5_13p6TeV_amcatnloFXFX-pythia8/NANOAODSIM/130X_mcRun3_2023_realistic_v14-v1/60000/5aa445f8-aa65-4612-8f4d-56d1a2bbbb94.root
/store/mc/Run3Summer23NanoAODv12/DYto2L-2Jets_MLL-50_PTLL-400to600_1J_TuneCP5_13p6TeV_amcatnloFXFX-pythia8/NANOAODSIM/130X_mcRun3_2023_realistic_v14-v1/60000/fe73257f-6858-44a8-a3b0-a8f3bc7da7b2.root
/store/mc/Run3Summer23NanoAODv12/DYto2L-2Jets_MLL-50_PTLL-400to600_1J_TuneCP5_13p6TeV_amcatnloFXFX-pythia8/NANOAODSIM/130X_mcRun3_2023_realistic_v14-v1/60000/c703e43b-6da2-4d51-8745-e15cad85f135.root
/store/mc/Run3Summer23NanoAODv12/DYto2L-2Jets_MLL-50_PTLL-400to600_1J_TuneCP5_13p6TeV_amcatnloFXFX-pythia8/NANOAODSIM/130X_mcRun3_2023_realistic_v14-v1/2550000/d0e9e9f8-4e09-4df8-ab30-3747890e111e.root
/store/mc/Run3Summer23NanoAODv12/DYto2L-2Jets_MLL-50_PTLL-400to600_1J_TuneCP5_13p6TeV_amcatnloFXFX-pythia8/NANOAODSIM/130X_mcRun3_2023_realistic_v14-v1/2550000/5b4eb3e6-c452-4075-b8a9-5a2dc78dcae3.root
/store/mc/Run3Summer23NanoAODv12/DYto2L-2Jets_MLL-50_PTLL-400to600_1J_TuneCP5_13p6TeV_amcatnloFXFX-pythia8/NANOAODSIM/130X_mcRun3_2023_realistic_v14-v1/2550000/07655677-abb4-4e15-b0bf-1f76a0b75e9b.root
/store/mc/Run3Summer23NanoAODv12/DYto2L-2Jets_MLL-50_PTLL-400to600_1J_TuneCP5_13p6TeV_amcatnloFXFX-pythia8/NANOAODSIM/130X_mcRun3_2023_realistic_v14-v1/2550000/22f3967c-b4fe-4813-9b42-1f42aec40111.root
/store/mc/Run3Summer23NanoAODv12/DYto2L-2Jets_MLL-50_PTLL-400to600_1J_TuneCP5_13p6TeV_amcatnloFXFX-pythia8/NANOAODSIM/130X_mcRun3_2023_realistic_v14-v1/2550000/013b893a-16a7-4312-806e-9ee7523666b2.root
/store/mc/Run3Summer23NanoAODv12/DYto2L-2Jets_MLL-50_PTLL-400to600_1J_TuneCP5_13p6TeV_amcatnloFXFX-pythia8/NANOAODSIM/130X_mcRun3_2023_realistic_v14-v1/2550000/1123dd2b-a0b6-448d-82d5-a569d0c1ecff.root
/store/mc/Run3Summer23NanoAODv12/DYto2L-2Jets_MLL-50_PTLL-400to600_1J_TuneCP5_13p6TeV_amcatnloFXFX-pythia8/NANOAODSIM/130X_mcRun3_2023_realistic_v14-v1/2550000/e7f254fb-8239-490c-93e7-e686629ec67e.root
/store/mc/Run3Summer23NanoAODv12/DYto2L-2Jets_MLL-50_PTLL-400to600_1J_TuneCP5_13p6TeV_amcatnloFXFX-pythia8/NANOAODSIM/130X_mcRun3_2023_realistic_v14-v1/2550000/8350ff11-9166-4b50-ab29-13eb0b6a11a5.root
/store/mc/Run3Summer23NanoAODv12/DYto2L-2Jets_MLL-50_PTLL-400to600_1J_TuneCP5_13p6TeV_amcatnloFXFX-pythia8/NANOAODSIM/130X_mcRun3_2023_realistic_v14-v1/2550000/3c276fd3-c42d-4fc1-b916-c6d04624732e.root
/store/mc/Run3Summer23NanoAODv12/DYto2L-2Jets_MLL-50_PTLL-400to600_1J_TuneCP5_13p6TeV_amcatnloFXFX-pythia8/NANOAODSIM/130X_mcRun3_2023_realistic_v14-v1/2560000/29d138e8-e02c-4b17-ba6d-c50cde913594.root
/store/mc/Run3Summer23NanoAODv12/DYto2L-2Jets_MLL-50_PTLL-400to600_1J_TuneCP5_13p6TeV_amcatnloFXFX-pythia8/NANOAODSIM/130X_mcRun3_2023_realistic_v14-v1/2550000/36c81b91-e1c7-4849-8874-07d17f3c2966.root
/store/mc/Run3Summer23NanoAODv12/DYto2L-2Jets_MLL-50_PTLL-400to600_1J_TuneCP5_13p6TeV_amcatnloFXFX-pythia8/NANOAODSIM/130X_mcRun3_2023_realistic_v14-v1/2550000/768e5040-cff0-44f5-9010-2b17c0778420.root
/store/mc/Run3Summer23NanoAODv12/DYto2L-2Jets_MLL-50_PTLL-400to600_1J_TuneCP5_13p6TeV_amcatnloFXFX-pythia8/NANOAODSIM/130X_mcRun3_2023_realistic_v14-v1/2560000/72a5b956-98a1-4240-a3f6-aba4e02da483.root
/store/mc/Run3Summer23NanoAODv12/DYto2L-2Jets_MLL-50_PTLL-400to600_1J_TuneCP5_13p6TeV_amcatnloFXFX-pythia8/NANOAODSIM/130X_mcRun3_2023_realistic_v14-v1/2560000/69fe5002-5edf-4510-8b72-aee297797cf0.root
/store/mc/Run3Summer23NanoAODv12/DYto2L-2Jets_MLL-50_PTLL-400to600_1J_TuneCP5_13p6TeV_amcatnloFXFX-pythia8/NANOAODSIM/130X_mcRun3_2023_realistic_v14-v1/2560000/dce2aa90-8a70-4698-9369-124c9315d993.root
/store/mc/Run3Summer23NanoAODv12/DYto2L-2Jets_MLL-50_PTLL-400to600_1J_TuneCP5_13p6TeV_amcatnloFXFX-pythia8/NANOAODSIM/130X_mcRun3_2023_realistic_v14-v1/2560000/442db1e1-ca76-4258-9b55-0472932a37d0.root
/store/mc/Run3Summer23NanoAODv12/DYto2L-2Jets_MLL-50_PTLL-400to600_1J_TuneCP5_13p6TeV_amcatnloFXFX-pythia8/NANOAODSIM/130X_mcRun3_2023_realistic_v14-v1/2560000/c2922460-c20b-4498-9573-8a17d526598d.root
/store/mc/Run3Summer23NanoAODv12/DYto2L-2Jets_MLL-50_PTLL-400to600_1J_TuneCP5_13p6TeV_amcatnloFXFX-pythia8/NANOAODSIM/130X_mcRun3_2023_realistic_v14-v1/2560000/ff7f1c13-6b1e-4c03-a2c4-13790e4d6ec5.root
/store/mc/Run3Summer23NanoAODv12/DYto2L-2Jets_MLL-50_PTLL-400to600_1J_TuneCP5_13p6TeV_amcatnloFXFX-pythia8/NANOAODSIM/130X_mcRun3_2023_realistic_v14-v1/2560000/9d430e6a-4943-48a3-bd5b-74e9031dabb3.root