/store/mc/Run3Summer23NanoAODv12/DYto2L-2Jets_MLL-50_PTLL-200to400_2J_TuneCP5_13p6TeV_amcatnloFXFX-pythia8/NANOAODSIM/130X_mcRun3_2023_realistic_v14-v1/60000/1248da54-2de3-4f21-b534-fc76e5b6390d.root
/store/mc/Run3Summer23NanoAODv12/DYto2L-2Jets_MLL-50_PTLL-200to400_2J_TuneCP5_13p6TeV_amcatnloFXFX-pythia8/NANOAODSIM/130X_mcRun3_2023_realistic_v14-v1/60000/019a5183-7a99-46cd-8780-2a542c0906ae.root
/store/mc/Run3Summer23NanoAODv12/DYto2L-2Jets_MLL-50_PTLL-200to400_2J_TuneCP5_13p6TeV_amcatnloFXFX-pythia8/NANOAODSIM/130X_mcRun3_2023_realistic_v14-v1/60000/7f8392b7-2c03-4456-ab37-56bcc9577e4c.root
/store/mc/Run3Summer23NanoAODv12/DYto2L-2Jets_MLL-50_PTLL-200to400_2J_TuneCP5_13p6TeV_amcatnloFXFX-pythia8/NANOAODSIM/130X_mcRun3_2023_realistic_v14-v1/60000/bbb253a0-5880-42d7-b20f-0efb80f05ff3.root
/store/mc/Run3Summer23NanoAODv12/DYto2L-2Jets_MLL-50_PTLL-200to400_2J_TuneCP5_13p6TeV_amcatnloFXFX-pythia8/NANOAODSIM/130X_mcRun3_2023_realistic_v14-v1/60000/1ec05871-9a0f-4890-b5dd-a76c07859877.root
/store/mc/Run3Summer23NanoAODv12/DYto2L-2Jets_MLL-50_PTLL-200to400_2J_TuneCP5_13p6TeV_amcatnloFXFX-pythia8/NANOAODSIM/130X_mcRun3_2023_realistic_v14-v1/60000/0973519c-6856-4c68-9662-b394a8b04299.root
/store/mc/Run3Summer23NanoAODv12/DYto2L-2Jets_MLL-50_PTLL-200to400_2J_TuneCP5_13p6TeV_amcatnloFXFX-pythia8/NANOAODSIM/130X_mcRun3_2023_realistic_v14-v1/60000/a4aed7d0-9e73-4fed-a84a-e987960c15a5.root
/store/mc/Run3Summer23NanoAODv12/DYto2L-2Jets_MLL-50_PTLL-200to400_2J_TuneCP5_13p6TeV_amcatnloFXFX-pythia8/NANOAODSIM/130X_mcRun3_2023_realistic_v14-v1/60000/4ab1ea3b-4893-4ee1-8ca6-310947d25ce1.root
/store/mc/Run3Summer23NanoAODv12/DYto2L-2Jets_MLL-50_PTLL-200to400_2J_TuneCP5_13p6TeV_amcatnloFXFX-pythia8/NANOAODSIM/130X_mcRun3_2023_realistic_v14-v1/60000/a8115971-890b-42d6-ba03-2c2f377d1ce0.root
/store/mc/Run3Summer23NanoAODv12/DYto2L-2Jets_MLL-50_PTLL-200to400_2J_TuneCP5_13p6TeV_amcatnloFXFX-pythia8/NANOAODSIM/130X_mcRun3_2023_realistic_v14-v1/60000/7f3af783-f1c1-4f8b-ab73-b9ec3d775a78.root
/store/mc/Run3Summer23NanoAODv12/DYto2L-2Jets_MLL-50_PTLL-200to400_2J_TuneCP5_13p6TeV_amcatnloFXFX-pythia8/NANOAODSIM/130X_mcRun3_2023_realistic_v14-v1/60000/842c1e1b-ecaf-4c56-9359-754b741f8d70.root
/store/mc/Run3Summer23NanoAODv12/DYto2L-2Jets_MLL-50_PTLL-200to400_2J_TuneCP5_13p6TeV_amcatnloFXFX-pythia8/NANOAODSIM/130X_mcRun3_2023_realistic_v14-v1/60000/53dd6d90-367b-4952-9103-61545819cf04.root
/store/mc/Run3Summer23NanoAODv12/DYto2L-2Jets_MLL-50_PTLL-200to400_2J_TuneCP5_13p6TeV_amcatnloFXFX-pythia8/NANOAODSIM/130X_mcRun3_2023_realistic_v14-v1/60000/d17222de-d15e-445e-8ddb-fe6f9487f90d.root
/store/mc/Run3Summer23NanoAODv12/DYto2L-2Jets_MLL-50_PTLL-200to400_2J_TuneCP5_13p6TeV_amcatnloFXFX-pythia8/NANOAODSIM/130X_mcRun3_2023_realistic_v14-v1/60000/e7ae8b74-8c18-489c-b29a-b4efa46ee8cd.root
/store/mc/Run3Summer23NanoAODv12/DYto2L-2Jets_MLL-50_PTLL-200to400_2J_TuneCP5_13p6TeV_amcatnloFXFX-pythia8/NANOAODSIM/130X_mcRun3_2023_realistic_v14-v1/60000/217f9d2f-ffa7-4b96-872d-0202fdb3a51e.root
/store/mc/Run3Summer23NanoAODv12/DYto2L-2Jets_MLL-50_PTLL-200to400_2J_TuneCP5_13p6TeV_amcatnloFXFX-pythia8/NANOAODSIM/130X_mcRun3_2023_realistic_v14-v1/60000/039a93d4-f83b-464d-bd68-2fb6f53bab25.root
/store/mc/Run3Summer23NanoAODv12/DYto2L-2Jets_MLL-50_PTLL-200to400_2J_TuneCP5_13p6TeV_amcatnloFXFX-pythia8/NANOAODSIM/130X_mcRun3_2023_realistic_v14-v1/60000/45eb8936-5ca0-4eee-a002-b3c0b3f108c1.root
/store/mc/Run3Summer23NanoAODv12/DYto2L-2Jets_MLL-50_PTLL-200to400_2J_TuneCP5_13p6TeV_amcatnloFXFX-pythia8/NANOAODSIM/130X_mcRun3_2023_realistic_v14-v1/60000/35028d45-7653-4b4f-bd65-01aa4fd46028.root
/store/mc/Run3Summer23NanoAODv12/DYto2L-2Jets_MLL-50_PTLL-200to400_2J_TuneCP5_13p6TeV_amcatnloFXFX-pythia8/NANOAODSIM/130X_mcRun3_2023_realistic_v14-v1/2550000/4cb91cca-2540-40f0-a305-8bd2cba2c464.root
/store/mc/Run3Summer23NanoAODv12/DYto2L-2Jets_MLL-50_PTLL-200to400_2J_TuneCP5_13p6TeV_amcatnloFXFX-pythia8/NANOAODSIM/130X_mcRun3_2023_realistic_v14-v1/2550000/190e42b3-96bc-424e-8d39-dee6ea9217a2.root
/store/mc/Run3Summer23NanoAODv12/DYto2L-2Jets_MLL-50_PTLL-200to400_2J_TuneCP5_13p6TeV_amcatnloFXFX-pythia8/NANOAODSIM/130X_mcRun3_2023_realistic_v14-v1/2550000/3c2918ff-8707-479c-9199-07391daabfb7.root
/store/mc/Run3Summer23NanoAODv12/DYto2L-2Jets_MLL-50_PTLL-200to400_2J_TuneCP5_13p6TeV_amcatnloFXFX-pythia8/NANOAODSIM/130X_mcRun3_2023_realistic_v14-v1/2550000/6f6cd7ce-ecad-4a73-87e1-31df309a9c05.root
/store/mc/Run3Summer23NanoAODv12/DYto2L-2Jets_MLL-50_PTLL-200to400_2J_TuneCP5_13p6TeV_amcatnloFXFX-pythia8/NANOAODSIM/130X_mcRun3_2023_realistic_v14-v1/2550000/3103c3f3-d6b9-4d4a-91ab-3d4853ae5904.root
/store/mc/Run3Summer23NanoAODv12/DYto2L-2Jets_MLL-50_PTLL-200to400_2J_TuneCP5_13p6TeV_amcatnloFXFX-pythia8/NANOAODSIM/130X_mcRun3_2023_realistic_v14-v1/2550000/2bd282c0-e9a4-425a-953d-ef7e3a485cbc.root
/store/mc/Run3Summer23NanoAODv12/DYto2L-2Jets_MLL-50_PTLL-200to400_2J_TuneCP5_13p6TeV_amcatnloFXFX-pythia8/NANOAODSIM/130X_mcRun3_2023_realistic_v14-v1/2550000/bac87b05-59f2-4d94-825e-a62673457031.root
/store/mc/Run3Summer23NanoAODv12/DYto2L-2Jets_MLL-50_PTLL-200to400_2J_TuneCP5_13p6TeV_amcatnloFXFX-pythia8/NANOAODSIM/130X_mcRun3_2023_realistic_v14-v1/2550000/8b401ead-f310-49f4-a449-f8d3cdb7df18.root
/store/mc/Run3Summer23NanoAODv12/DYto2L-2Jets_MLL-50_PTLL-200to400_2J_TuneCP5_13p6TeV_amcatnloFXFX-pythia8/NANOAODSIM/130X_mcRun3_2023_realistic_v14-v1/2550000/babb85a7-4325-4b3f-9721-b307f747ef9f.root
/store/mc/Run3Summer23NanoAODv12/DYto2L-2Jets_MLL-50_PTLL-200to400_2J_TuneCP5_13p6TeV_amcatnloFXFX-pythia8/NANOAODSIM/130X_mcRun3_2023_realistic_v14-v1/2550000/e123d90f-8ae5-4fd4-b9ed-efa411590cea.root
/store/mc/Run3Summer23NanoAODv12/DYto2L-2Jets_MLL-50_PTLL-200to400_2J_TuneCP5_13p6TeV_amcatnloFXFX-pythia8/NANOAODSIM/130X_mcRun3_2023_realistic_v14-v1/2550000/ac500b5c-77d0-439b-bc85-8912d87cc828.root
/store/mc/Run3Summer23NanoAODv12/DYto2L-2Jets_MLL-50_PTLL-200to400_2J_TuneCP5_13p6TeV_amcatnloFXFX-pythia8/NANOAODSIM/130X_mcRun3_2023_realistic_v14-v1/2550000/45ea6a1c-4bd9-4cdf-a25b-96925edeb827.root
/store/mc/Run3Summer23NanoAODv12/DYto2L-2Jets_MLL-50_PTLL-200to400_2J_TuneCP5_13p6TeV_amcatnloFXFX-pythia8/NANOAODSIM/130X_mcRun3_2023_realistic_v14-v1/2550000/8104cb0f-432e-46ee-be39-c239b080b18e.root
/store/mc/Run3Summer23NanoAODv12/DYto2L-2Jets_MLL-50_PTLL-200to400_2J_TuneCP5_13p6TeV_amcatnloFXFX-pythia8/NANOAODSIM/130X_mcRun3_2023_realistic_v14-v1/2550000/221350ad-025f-437e-8c7a-f8c4be1acea1.root
/store/mc/Run3Summer23NanoAODv12/DYto2L-2Jets_MLL-50_PTLL-200to400_2J_TuneCP5_13p6TeV_amcatnloFXFX-pythia8/NANOAODSIM/130X_mcRun3_2023_realistic_v14-v1/2550000/cb6fad66-5c85-4d6e-a573-afa590029dd5.root
/store/mc/Run3Summer23NanoAODv12/DYto2L-2Jets_MLL-50_PTLL-200to400_2J_TuneCP5_13p6TeV_amcatnloFXFX-pythia8/NANOAODSIM/130X_mcRun3_2023_realistic_v14-v1/2550000/3534e4a8-4522-45c8-b670-b9a2b4fe72f9.root
/store/mc/Run3Summer23NanoAODv12/DYto2L-2Jets_MLL-50_PTLL-200to400_2J_TuneCP5_13p6TeV_amcatnloFXFX-pythia8/NANOAODSIM/130X_mcRun3_2023_realistic_v14-v1/2550000/b81215e7-c62b-4d6d-bdfd-caa7f61dd93a.root
/store/mc/Run3Summer23NanoAODv12/DYto2L-2Jets_MLL-50_PTLL-200to400_2J_TuneCP5_13p6TeV_amcatnloFXFX-pythia8/NANOAODSIM/130X_mcRun3_2023_realistic_v14-v1/2550000/56f59929-8b4d-4116-83c8-e8f5cf85150d.root
/store/mc/Run3Summer23NanoAODv12/DYto2L-2Jets_MLL-50_PTLL-200to400_2J_TuneCP5_13p6TeV_amcatnloFXFX-pythia8/NANOAODSIM/130X_mcRun3_2023_realistic_v14-v1/2550000/eb0a1cf0-5102-4b8a-a4a9-a6c75b4a6554.root
/store/mc/Run3Summer23NanoAODv12/DYto2L-2Jets_MLL-50_PTLL-200to400_2J_TuneCP5_13p6TeV_amcatnloFXFX-pythia8/NANOAODSIM/130X_mcRun3_2023_realistic_v14-v1/2550000/c372049d-885c-41b1-b433-9cd40576f991.root
/store/mc/Run3Summer23NanoAODv12/DYto2L-2Jets_MLL-50_PTLL-200to400_2J_TuneCP5_13p6TeV_amcatnloFXFX-pythia8/NANOAODSIM/130X_mcRun3_2023_realistic_v14-v1/2550000/f671a5d3-a270-411f-95b0-b75bafed7a11.root
/store/mc/Run3Summer23NanoAODv12/DYto2L-2Jets_MLL-50_PTLL-200to400_2J_TuneCP5_13p6TeV_amcatnloFXFX-pythia8/NANOAODSIM/130X_mcRun3_2023_realistic_v14-v1/2550000/99354bc0-4f9a-4bcf-a1b7-ceafd140d9a3.root
/store/mc/Run3Summer23NanoAODv12/DYto2L-2Jets_MLL-50_PTLL-200to400_2J_TuneCP5_13p6TeV_amcatnloFXFX-pythia8/NANOAODSIM/130X_mcRun3_2023_realistic_v14-v1/2550000/49df3a50-7f42-4cca-9fdc-b2ef7ecf67c5.root
/store/mc/Run3Summer23NanoAODv12/DYto2L-2Jets_MLL-50_PTLL-200to400_2J_TuneCP5_13p6TeV_amcatnloFXFX-pythia8/NANOAODSIM/130X_mcRun3_2023_realistic_v14-v1/2550000/05ccfa30-458c-45ec-97e4-d455b2955e23.root
/store/mc/Run3Summer23NanoAODv12/DYto2L-2Jets_MLL-50_PTLL-200to400_2J_TuneCP5_13p6TeV_amcatnloFXFX-pythia8/NANOAODSIM/130X_mcRun3_2023_realistic_v14-v1/2550000/f8ff0c95-23d8-41f5-abd3-30d32806ec23.root
/store/mc/Run3Summer23NanoAODv12/DYto2L-2Jets_MLL-50_PTLL-200to400_2J_TuneCP5_13p6TeV_amcatnloFXFX-pythia8/NANOAODSIM/130X_mcRun3_2023_realistic_v14-v1/2550000/14b1750b-b505-4cb3-9dcb-aa51fae16975.root
/store/mc/Run3Summer23NanoAODv12/DYto2L-2Jets_MLL-50_PTLL-200to400_2J_TuneCP5_13p6TeV_amcatnloFXFX-pythia8/NANOAODSIM/130X_mcRun3_2023_realistic_v14-v1/2550000/fdba1ad8-b9a9-4fe2-afd0-5858d47dfec6.root
/store/mc/Run3Summer23NanoAODv12/DYto2L-2Jets_MLL-50_PTLL-200to400_2J_TuneCP5_13p6TeV_amcatnloFXFX-pythia8/NANOAODSIM/130X_mcRun3_2023_realistic_v14-v1/2550000/315b5e93-7b70-4c27-88c1-b4fe8ac62226.root
/store/mc/Run3Summer23NanoAODv12/DYto2L-2Jets_MLL-50_PTLL-200to400_2J_TuneCP5_13p6TeV_amcatnloFXFX-pythia8/NANOAODSIM/130X_mcRun3_2023_realistic_v14-v1/2550000/9a8b472b-5f06-4d38-b2a3-67e930c98f13.root
/store/mc/Run3Summer23NanoAODv12/DYto2L-2Jets_MLL-50_PTLL-200to400_2J_TuneCP5_13p6TeV_amcatnloFXFX-pythia8/NANOAODSIM/130X_mcRun3_2023_realistic_v14-v1/70000/8c918507-e84a-4ecc-aea1-a4be33242eee.root
/store/mc/Run3Summer23NanoAODv12/DYto2L-2Jets_MLL-50_PTLL-200to400_2J_TuneCP5_13p6TeV_amcatnloFXFX-pythia8/NANOAODSIM/130X_mcRun3_2023_realistic_v14-v1/2560000/799da451-49c7-4c45-96cf-e77816a9bf30.root
/store/mc/Run3Summer23NanoAODv12/DYto2L-2Jets_MLL-50_PTLL-200to400_2J_TuneCP5_13p6TeV_amcatnloFXFX-pythia8/NANOAODSIM/130X_mcRun3_2023_realistic_v14-v1/60000/87235bf0-bf37-4b22-b446-66ab57ed921b.root
/store/mc/Run3Summer23NanoAODv12/DYto2L-2Jets_MLL-50_PTLL-200to400_2J_TuneCP5_13p6TeV_amcatnloFXFX-pythia8/NANOAODSIM/130X_mcRun3_2023_realistic_v14-v1/60000/e110761b-0fb5-47f8-80bf-5fecc7144d2e.root
/store/mc/Run3Summer23NanoAODv12/DYto2L-2Jets_MLL-50_PTLL-200to400_2J_TuneCP5_13p6TeV_amcatnloFXFX-pythia8/NANOAODSIM/130X_mcRun3_2023_realistic_v14-v1/60000/06e528e2-f293-4813-a6d6-ba8c8750dab4.root
/store/mc/Run3Summer23NanoAODv12/DYto2L-2Jets_MLL-50_PTLL-200to400_2J_TuneCP5_13p6TeV_amcatnloFXFX-pythia8/NANOAODSIM/130X_mcRun3_2023_realistic_v14-v1/60000/3da0b6af-cf14-432a-87a4-9e0fd60fe4e6.root
/store/mc/Run3Summer23NanoAODv12/DYto2L-2Jets_MLL-50_PTLL-200to400_2J_TuneCP5_13p6TeV_amcatnloFXFX-pythia8/NANOAODSIM/130X_mcRun3_2023_realistic_v14-v1/60000/0a93f24e-4e26-4e5f-bc4f-f5d60850c5e4.root
/store/mc/Run3Summer23NanoAODv12/DYto2L-2Jets_MLL-50_PTLL-200to400_2J_TuneCP5_13p6TeV_amcatnloFXFX-pythia8/NANOAODSIM/130X_mcRun3_2023_realistic_v14-v1/60000/cb15e3bd-68a9-4e79-82c6-765dda9fee37.root
/store/mc/Run3Summer23NanoAODv12/DYto2L-2Jets_MLL-50_PTLL-200to400_2J_TuneCP5_13p6TeV_amcatnloFXFX-pythia8/NANOAODSIM/130X_mcRun3_2023_realistic_v14-v1/60000/060418de-0108-4843-9a4b-75ac18d02694.root
/store/mc/Run3Summer23NanoAODv12/DYto2L-2Jets_MLL-50_PTLL-200to400_2J_TuneCP5_13p6TeV_amcatnloFXFX-pythia8/NANOAODSIM/130X_mcRun3_2023_realistic_v14-v1/60000/c332ae72-a0f0-46d4-b184-1ae9e0ebfc22.root
/store/mc/Run3Summer23NanoAODv12/DYto2L-2Jets_MLL-50_PTLL-200to400_2J_TuneCP5_13p6TeV_amcatnloFXFX-pythia8/NANOAODSIM/130X_mcRun3_2023_realistic_v14-v1/60000/1e504229-8384-4dbf-b078-f787037ae52e.root
/store/mc/Run3Summer23NanoAODv12/DYto2L-2Jets_MLL-50_PTLL-200to400_2J_TuneCP5_13p6TeV_amcatnloFXFX-pythia8/NANOAODSIM/130X_mcRun3_2023_realistic_v14-v1/60000/0f4e5a4d-9ac5-4c39-bcd2-8f936970f7d5.root
/store/mc/Run3Summer23NanoAODv12/DYto2L-2Jets_MLL-50_PTLL-200to400_2J_TuneCP5_13p6TeV_amcatnloFXFX-pythia8/NANOAODSIM/130X_mcRun3_2023_realistic_v14-v1/60000/66b034e1-1837-4778-bfdb-c45ef1ad15da.root
/store/mc/Run3Summer23NanoAODv12/DYto2L-2Jets_MLL-50_PTLL-200to400_2J_TuneCP5_13p6TeV_amcatnloFXFX-pythia8/NANOAODSIM/130X_mcRun3_2023_realistic_v14-v1/60000/ec55f564-fa38-4847-9a92-af5c695b8adb.root
/store/mc/Run3Summer23NanoAODv12/DYto2L-2Jets_MLL-50_PTLL-200to400_2J_TuneCP5_13p6TeV_amcatnloFXFX-pythia8/NANOAODSIM/130X_mcRun3_2023_realistic_v14-v1/60000/3b2296db-97bd-4b9e-a20e-c5c56888f129.root
/store/mc/Run3Summer23NanoAODv12/DYto2L-2Jets_MLL-50_PTLL-200to400_2J_TuneCP5_13p6TeV_amcatnloFXFX-pythia8/NANOAODSIM/130X_mcRun3_2023_realistic_v14-v1/60000/51a1e538-1ce9-406d-8264-f52bbd1665db.root
/store/mc/Run3Summer23NanoAODv12/DYto2L-2Jets_MLL-50_PTLL-200to400_2J_TuneCP5_13p6TeV_amcatnloFXFX-pythia8/NANOAODSIM/130X_mcRun3_2023_realistic_v14-v1/60000/d24e81c7-cced-4a84-809f-aa4e65ffaf3c.root
/store/mc/Run3Summer23NanoAODv12/DYto2L-2Jets_MLL-50_PTLL-200to400_2J_TuneCP5_13p6TeV_amcatnloFXFX-pythia8/NANOAODSIM/130X_mcRun3_2023_realistic_v14-v1/60000/9075298b-6ce3-4ed4-ab85-dc5118ddac97.root
/store/mc/Run3Summer23NanoAODv12/DYto2L-2Jets_MLL-50_PTLL-200to400_2J_TuneCP5_13p6TeV_amcatnloFXFX-pythia8/NANOAODSIM/130X_mcRun3_2023_realistic_v14-v1/60000/607f1cb7-e177-4545-9e28-cf4cb64bd79b.root
/store/mc/Run3Summer23NanoAODv12/DYto2L-2Jets_MLL-50_PTLL-200to400_2J_TuneCP5_13p6TeV_amcatnloFXFX-pythia8/NANOAODSIM/130X_mcRun3_2023_realistic_v14-v1/60000/f68dc8aa-7d48-4383-9f0d-6dea0cb24fe6.root
/store/mc/Run3Summer23NanoAODv12/DYto2L-2Jets_MLL-50_PTLL-200to400_2J_TuneCP5_13p6TeV_amcatnloFXFX-pythia8/NANOAODSIM/130X_mcRun3_2023_realistic_v14-v1/60000/c8cf6f50-d092-4024-adeb-1ad87c84a780.root
/store/mc/Run3Summer23NanoAODv12/DYto2L-2Jets_MLL-50_PTLL-200to400_2J_TuneCP5_13p6TeV_amcatnloFXFX-pythia8/NANOAODSIM/130X_mcRun3_2023_realistic_v14-v1/60000/a1082d0a-96ad-40bc-a09b-221e75429006.root
/store/mc/Run3Summer23NanoAODv12/DYto2L-2Jets_MLL-50_PTLL-200to400_2J_TuneCP5_13p6TeV_amcatnloFXFX-pythia8/NANOAODSIM/130X_mcRun3_2023_realistic_v14-v1/60000/6f8f068a-406a-426c-9d6b-49c7fde30970.root
/store/mc/Run3Summer23NanoAODv12/DYto2L-2Jets_MLL-50_PTLL-200to400_2J_TuneCP5_13p6TeV_amcatnloFXFX-pythia8/NANOAODSIM/130X_mcRun3_2023_realistic_v14-v1/60000/8ce9b81f-dcbb-4272-9116-6bcf76a56950.root
/store/mc/Run3Summer23NanoAODv12/DYto2L-2Jets_MLL-50_PTLL-200to400_2J_TuneCP5_13p6TeV_amcatnloFXFX-pythia8/NANOAODSIM/130X_mcRun3_2023_realistic_v14-v1/60000/6d8530ea-0a81-41f2-9a42-01e2f611e226.root
/store/mc/Run3Summer23NanoAODv12/DYto2L-2Jets_MLL-50_PTLL-200to400_2J_TuneCP5_13p6TeV_amcatnloFXFX-pythia8/NANOAODSIM/130X_mcRun3_2023_realistic_v14-v1/60000/61218810-9cf3-4345-9a60-810214bd8a42.root
/store/mc/Run3Summer23NanoAODv12/DYto2L-2Jets_MLL-50_PTLL-200to400_2J_TuneCP5_13p6TeV_amcatnloFXFX-pythia8/NANOAODSIM/130X_mcRun3_2023_realistic_v14-v1/60000/0adaa04d-f510-41a9-ae3f-18c4ae3db229.root
/store/mc/Run3Summer23NanoAODv12/DYto2L-2Jets_MLL-50_PTLL-200to400_2J_TuneCP5_13p6TeV_amcatnloFXFX-pythia8/NANOAODSIM/130X_mcRun3_2023_realistic_v14-v1/60000/08d6ef80-b5ef-46cc-9fcb-f0df3aa41adf.root
/store/mc/Run3Summer23NanoAODv12/DYto2L-2Jets_MLL-50_PTLL-200to400_2J_TuneCP5_13p6TeV_amcatnloFXFX-pythia8/NANOAODSIM/130X_mcRun3_2023_realistic_v14-v1/60000/ba1d21a8-a955-486b-a180-3d9977f9683c.root
/store/mc/Run3Summer23NanoAODv12/DYto2L-2Jets_MLL-50_PTLL-200to400_2J_TuneCP5_13p6TeV_amcatnloFXFX-pythia8/NANOAODSIM/130X_mcRun3_2023_realistic_v14-v1/60000/3cd8474e-f2b3-42ac-8fad-a622fecc581d.root
/store/mc/Run3Summer23NanoAODv12/DYto2L-2Jets_MLL-50_PTLL-200to400_2J_TuneCP5_13p6TeV_amcatnloFXFX-pythia8/NANOAODSIM/130X_mcRun3_2023_realistic_v14-v1/60000/710db109-fbd3-4113-b5c3-94392df63c84.root
/store/mc/Run3Summer23NanoAODv12/DYto2L-2Jets_MLL-50_PTLL-200to400_2J_TuneCP5_13p6TeV_amcatnloFXFX-pythia8/NANOAODSIM/130X_mcRun3_2023_realistic_v14-v1/60000/02d255f0-3f58-425f-b439-c26510347997.root
/store/mc/Run3Summer23NanoAODv12/DYto2L-2Jets_MLL-50_PTLL-200to400_2J_TuneCP5_13p6TeV_amcatnloFXFX-pythia8/NANOAODSIM/130X_mcRun3_2023_realistic_v14-v1/60000/878e5c4b-fd62-4424-9037-ab73f45d913e.root
/store/mc/Run3Summer23NanoAODv12/DYto2L-2Jets_MLL-50_PTLL-200to400_2J_TuneCP5_13p6TeV_amcatnloFXFX-pythia8/NANOAODSIM/130X_mcRun3_2023_realistic_v14-v1/60000/e762a2fb-1117-4ae0-9106-2c630715315c.root
/store/mc/Run3Summer23NanoAODv12/DYto2L-2Jets_MLL-50_PTLL-200to400_2J_TuneCP5_13p6TeV_amcatnloFXFX-pythia8/NANOAODSIM/130X_mcRun3_2023_realistic_v14-v1/60000/97965c95-3a3a-4746-9e93-0043d902d1a7.root
/store/mc/Run3Summer23NanoAODv12/DYto2L-2Jets_MLL-50_PTLL-200to400_2J_TuneCP5_13p6TeV_amcatnloFXFX-pythia8/NANOAODSIM/130X_mcRun3_2023_realistic_v14-v1/60000/41509841-29f6-41bd-a71a-170b75ad6f4d.root
/store/mc/Run3Summer23NanoAODv12/DYto2L-2Jets_MLL-50_PTLL-200to400_2J_TuneCP5_13p6TeV_amcatnloFXFX-pythia8/NANOAODSIM/130X_mcRun3_2023_realistic_v14-v1/60000/5ef58464-3ada-4929-9558-61a6b35831b2.root
/store/mc/Run3Summer23NanoAODv12/DYto2L-2Jets_MLL-50_PTLL-200to400_2J_TuneCP5_13p6TeV_amcatnloFXFX-pythia8/NANOAODSIM/130X_mcRun3_2023_realistic_v14-v1/50000/c996976f-cbe4-49bf-bf1b-2c0b196edcad.root
/store/mc/Run3Summer23NanoAODv12/DYto2L-2Jets_MLL-50_PTLL-200to400_2J_TuneCP5_13p6TeV_amcatnloFXFX-pythia8/NANOAODSIM/130X_mcRun3_2023_realistic_v14-v1/2560000/9092f734-4081-4065-9c37-33c96ecebb8d.root
/store/mc/Run3Summer23NanoAODv12/DYto2L-2Jets_MLL-50_PTLL-200to400_2J_TuneCP5_13p6TeV_amcatnloFXFX-pythia8/NANOAODSIM/130X_mcRun3_2023_realistic_v14-v1/2560000/6db34df3-fe93-4153-8c26-09ffdd5ccd30.root
/store/mc/Run3Summer23NanoAODv12/DYto2L-2Jets_MLL-50_PTLL-200to400_2J_TuneCP5_13p6TeV_amcatnloFXFX-pythia8/NANOAODSIM/130X_mcRun3_2023_realistic_v14-v1/2560000/2ff1f362-1b45-4e98-825a-ca2c83422d7f.root
/store/mc/Run3Summer23NanoAODv12/DYto2L-2Jets_MLL-50_PTLL-200to400_2J_TuneCP5_13p6TeV_amcatnloFXFX-pythia8/NANOAODSIM/130X_mcRun3_2023_realistic_v14-v1/2560000/f94ad0ed-ded0-4f2e-bcad-4726c7eb0822.root
/store/mc/Run3Summer23NanoAODv12/DYto2L-2Jets_MLL-50_PTLL-200to400_2J_TuneCP5_13p6TeV_amcatnloFXFX-pythia8/NANOAODSIM/130X_mcRun3_2023_realistic_v14-v1/2560000/803c464a-f014-4e51-a737-950b13d6a40e.root
/store/mc/Run3Summer23NanoAODv12/DYto2L-2Jets_MLL-50_PTLL-200to400_2J_TuneCP5_13p6TeV_amcatnloFXFX-pythia8/NANOAODSIM/130X_mcRun3_2023_realistic_v14-v1/2560000/53f3dcaa-8517-4b6a-bfcb-f55571ff3204.root
/store/mc/Run3Summer23NanoAODv12/DYto2L-2Jets_MLL-50_PTLL-200to400_2J_TuneCP5_13p6TeV_amcatnloFXFX-pythia8/NANOAODSIM/130X_mcRun3_2023_realistic_v14-v1/2560000/0d2e637b-1d3f-4fce-b623-ae0821c938f6.root
/store/mc/Run3Summer23NanoAODv12/DYto2L-2Jets_MLL-50_PTLL-200to400_2J_TuneCP5_13p6TeV_amcatnloFXFX-pythia8/NANOAODSIM/130X_mcRun3_2023_realistic_v14-v1/2560000/59908be2-a239-4ccf-ad7e-70522b5f6e80.root
/store/mc/Run3Summer23NanoAODv12/DYto2L-2Jets_MLL-50_PTLL-200to400_2J_TuneCP5_13p6TeV_amcatnloFXFX-pythia8/NANOAODSIM/130X_mcRun3_2023_realistic_v14-v1/2560000/2297d115-5510-4253-a899-6140c789663f.root