/store/data/Run2023C/EGamma0/NANOAOD/22Sep2023_v2-v1/40000/92637fb1-fc3d-4a4e-baff-46611b9313a6.root
/store/data/Run2023C/EGamma0/NANOAOD/22Sep2023_v2-v1/40000/cdb706cb-31c7-46da-a12b-93489cbccb0c.root
/store/data/Run2023C/EGamma0/NANOAOD/22Sep2023_v2-v1/40000/3bbc26b1-5b56-4a9b-982e-3608489f769b.root
/store/data/Run2023C/EGamma0/NANOAOD/22Sep2023_v2-v1/40000/87532396-8aec-4735-b8ac-fd8bb7490a64.root
/store/data/Run2023C/EGamma0/NANOAOD/22Sep2023_v2-v1/40000/04973d26-74b5-4bbb-bb4e-02f0afb8e6ad.root
/store/data/Run2023C/EGamma0/NANOAOD/22Sep2023_v2-v1/40000/ebe738f0-eed7-4eb4-8ca6-43b38fee6a30.root
/store/data/Run2023C/EGamma0/NANOAOD/22Sep2023_v2-v1/40000/980082ca-a637-4d6f-b0c9-a3c325e1d576.root
/store/data/Run2023C/EGamma0/NANOAOD/22Sep2023_v2-v1/40000/bafd510f-c112-4e96-a1a9-e3920f316520.root
/store/data/Run2023C/EGamma0/NANOAOD/22Sep2023_v2-v1/40000/7feac79f-8155-45da-a81a-c23e51c7ef2a.root
/store/data/Run2023C/EGamma0/NANOAOD/22Sep2023_v2-v1/40000/d409f985-a60f-45ab-a5cb-a973142599ed.root
/store/data/Run2023C/EGamma0/NANOAOD/22Sep2023_v2-v1/40000/fe2112ac-1467-4d38-b061-6615212e1ab7.root
/store/data/Run2023C/EGamma0/NANOAOD/22Sep2023_v2-v1/40000/0af4aee2-a8a7-40fb-848b-d983d5fd3318.root
/store/data/Run2023C/EGamma0/NANOAOD/22Sep2023_v2-v1/40000/c548c5dd-2df1-4839-be31-a40ee2abeea5.root
/store/data/Run2023C/EGamma0/NANOAOD/22Sep2023_v2-v1/40000/8246c013-1dab-411f-a2a0-c874b1fa0953.root
/store/data/Run2023C/EGamma0/NANOAOD/22Sep2023_v2-v1/40000/1f56af02-a1cb-42d2-8452-daad93bdf8da.root
/store/data/Run2023C/EGamma0/NANOAOD/22Sep2023_v2-v1/40000/05d86640-6fa9-4258-94e8-595cfd7da273.root
/store/data/Run2023C/EGamma0/NANOAOD/22Sep2023_v2-v1/40000/3409a062-d101-47c5-a840-64cad9830047.root
/store/data/Run2023C/EGamma0/NANOAOD/22Sep2023_v2-v1/40000/556e6a4c-70dd-4958-8ae2-6128cd011124.root
/store/data/Run2023C/EGamma0/NANOAOD/22Sep2023_v2-v1/40000/264f8fdc-1b32-49fb-a7da-70e4b4823fd9.root
/store/data/Run2023C/EGamma0/NANOAOD/22Sep2023_v2-v1/40000/027ff547-8bdc-496d-a77c-04ec87024c29.root
/store/data/Run2023C/EGamma0/NANOAOD/22Sep2023_v2-v1/40000/76d9aba8-4be4-4bd4-8c36-d43ad3414d5b.root
/store/data/Run2023C/EGamma0/NANOAOD/22Sep2023_v2-v1/2520000/34470cc9-ef01-4ba4-af5b-fafad317b4a7.root