/store/data/Run2023C/Muon1/NANOAOD/22Sep2023_v2-v1/2540000/b5379903-b726-4d49-9a8a-418754302878.root
/store/data/Run2023C/Muon1/NANOAOD/22Sep2023_v2-v1/2540000/111a8666-72d0-415e-bd2e-0a29797e0321.root
/store/data/Run2023C/Muon1/NANOAOD/22Sep2023_v2-v1/30000/6519f429-5feb-46f1-b55a-282485b1315e.root
/store/data/Run2023C/Muon1/NANOAOD/22Sep2023_v2-v1/30000/0a665b7f-5f8f-4385-a443-cdbaab86b442.root
/store/data/Run2023C/Muon1/NANOAOD/22Sep2023_v2-v1/40000/a5d11868-b202-4935-a670-5327c2e92fff.root
/store/data/Run2023C/Muon1/NANOAOD/22Sep2023_v2-v1/2540000/b6d6d83a-d662-455c-ab8d-de0cedf99ad6.root
/store/data/Run2023C/Muon1/NANOAOD/22Sep2023_v2-v1/2540000/276cb216-14a1-410d-b91a-d5e32a09d853.root
/store/data/Run2023C/Muon1/NANOAOD/22Sep2023_v2-v1/2540000/2155e121-ece1-43ca-920b-9b9e4244e5d0.root
/store/data/Run2023C/Muon1/NANOAOD/22Sep2023_v2-v1/40000/e3ff38fc-62f9-4f80-aa03-49bdfeeb5d2d.root
/store/data/Run2023C/Muon1/NANOAOD/22Sep2023_v2-v1/40000/375c8fe3-1f4d-4601-9515-79cddc657357.root
/store/data/Run2023C/Muon1/NANOAOD/22Sep2023_v2-v1/2540000/9fc82b71-5062-42e8-8038-39ae7298d602.root
/store/data/Run2023C/Muon1/NANOAOD/22Sep2023_v2-v1/2540000/dc09051a-06c3-4737-b500-fd95cb49f8c5.root
/store/data/Run2023C/Muon1/NANOAOD/22Sep2023_v2-v1/2540000/b30da7ab-39ce-4f37-b29d-3be56fcbc562.root
/store/data/Run2023C/Muon1/NANOAOD/22Sep2023_v2-v1/40000/79355540-b5bd-4a49-9ec1-4bc706acbfd7.root
/store/data/Run2023C/Muon1/NANOAOD/22Sep2023_v2-v1/40000/dc3d8d34-3f3e-448b-946a-a9035dfee5c1.root
/store/data/Run2023C/Muon1/NANOAOD/22Sep2023_v2-v1/40000/6e5cbf7d-be68-4f05-9eb4-e6420af28a0f.root
/store/data/Run2023C/Muon1/NANOAOD/22Sep2023_v2-v1/40000/728fa7a7-700f-45ce-b0e8-4899f8f11a5c.root
/store/data/Run2023C/Muon1/NANOAOD/22Sep2023_v2-v1/2540000/6139cfd5-4e1c-439c-a788-6bf958675ac2.root
/store/data/Run2023C/Muon1/NANOAOD/22Sep2023_v2-v1/2540000/ec0c81b4-3a12-4853-ba65-13732dae95da.root
/store/data/Run2023C/Muon1/NANOAOD/22Sep2023_v2-v1/2540000/9ff466c7-c860-4b47-b5ee-f9201f507c86.root
/store/data/Run2023C/Muon1/NANOAOD/22Sep2023_v2-v1/2540000/7895aac9-b94e-42cc-8d59-7784e21045ce.root
/store/data/Run2023C/Muon1/NANOAOD/22Sep2023_v2-v1/30000/0dbb0566-04f9-4aa0-ab0b-e1728e864451.root
/store/data/Run2023C/Muon1/NANOAOD/22Sep2023_v2-v1/40000/58d6cdfe-afdd-4d2c-892b-f38bceef97fd.root
/store/data/Run2023C/Muon1/NANOAOD/22Sep2023_v2-v1/2540000/b0738187-2dbd-452f-bc9e-c4097af998a1.root
/store/data/Run2023C/Muon1/NANOAOD/22Sep2023_v2-v1/2540000/05ac7306-8f7c-4c48-857c-68c1153eb43a.root
/store/data/Run2023C/Muon1/NANOAOD/22Sep2023_v2-v1/2540000/93aa5ed7-bc2f-4ec7-b079-8333fd8a11de.root
/store/data/Run2023C/Muon1/NANOAOD/22Sep2023_v2-v1/2540000/8a18834b-fd8f-40d9-82d0-291dea23fa5a.root
/store/data/Run2023C/Muon1/NANOAOD/22Sep2023_v2-v1/2540000/b74cf8e5-c0dc-4535-ba01-b42efc6cf254.root
/store/data/Run2023C/Muon1/NANOAOD/22Sep2023_v2-v1/40000/5887effa-929e-4124-8ebe-3fb6b19d8082.root
/store/data/Run2023C/Muon1/NANOAOD/22Sep2023_v2-v1/40000/0c830ea3-bd5f-4db7-86c7-7ad624b85525.root
/store/data/Run2023C/Muon1/NANOAOD/22Sep2023_v2-v1/40000/1111f440-428c-4864-a039-d66a5294ca6e.root
/store/data/Run2023C/Muon1/NANOAOD/22Sep2023_v2-v1/40000/37336d32-8bac-4dc5-8e55-76bee88d8532.root
/store/data/Run2023C/Muon1/NANOAOD/22Sep2023_v2-v1/2540000/bfd12f81-606d-481b-9f77-384046f4e16a.root