/store/data/Run2023C/Muon1/NANOAOD/22Sep2023_v4-v2/2820000/cf830fae-8ceb-4945-b72b-dcfac4c36e92.root
/store/data/Run2023C/Muon1/NANOAOD/22Sep2023_v4-v2/2820000/c93e29b1-d2a9-4265-9633-5603cafba65d.root
/store/data/Run2023C/Muon1/NANOAOD/22Sep2023_v4-v2/2820000/70e9e734-b7a4-428c-bc8e-5c8dade08332.root
/store/data/Run2023C/Muon1/NANOAOD/22Sep2023_v4-v2/2820000/521ee26c-77c9-4838-994c-b4928cdf450f.root
/store/data/Run2023C/Muon1/NANOAOD/22Sep2023_v4-v2/2820000/1fb83620-3df6-4e06-8bfa-5981f018742b.root
/store/data/Run2023C/Muon1/NANOAOD/22Sep2023_v4-v2/2820000/589c117e-0648-448b-baa8-82b7ad75287f.root
/store/data/Run2023C/Muon1/NANOAOD/22Sep2023_v4-v2/2820000/07817de9-b6b2-4f7c-87f0-ec2278a2d79e.root
/store/data/Run2023C/Muon1/NANOAOD/22Sep2023_v4-v2/2820000/fe5f1fef-cd5d-436e-a57f-f87f39aef85b.root
/store/data/Run2023C/Muon1/NANOAOD/22Sep2023_v4-v2/2820000/d7121b84-d70c-4c60-976f-0474f7847034.root
/store/data/Run2023C/Muon1/NANOAOD/22Sep2023_v4-v2/2820000/647a7427-f50c-494c-9405-055908a257a0.root
/store/data/Run2023C/Muon1/NANOAOD/22Sep2023_v4-v2/2820000/1c4ada1d-3ceb-4287-9846-578b902540f2.root
/store/data/Run2023C/Muon1/NANOAOD/22Sep2023_v4-v2/2820000/5f0cb15c-a4ce-46db-84d5-44305b500df8.root
/store/data/Run2023C/Muon1/NANOAOD/22Sep2023_v4-v2/2820000/a3166712-a909-46ed-997e-9835636d5d21.root
/store/data/Run2023C/Muon1/NANOAOD/22Sep2023_v4-v2/2820000/c8de7913-ed34-4992-9a20-04a9e360996d.root
/store/data/Run2023C/Muon1/NANOAOD/22Sep2023_v4-v2/2820000/b210bdac-d2ae-4164-ab09-10f246f9eaaa.root
/store/data/Run2023C/Muon1/NANOAOD/22Sep2023_v4-v2/2820000/3152c165-8237-4043-9c9e-4d2813373f25.root
/store/data/Run2023C/Muon1/NANOAOD/22Sep2023_v4-v2/2820000/ae481bcc-5ed8-4adb-ac7e-d3b7a37f7e8d.root
/store/data/Run2023C/Muon1/NANOAOD/22Sep2023_v4-v2/2820000/f1b2bac4-c269-4b79-8207-7a5632a18622.root
/store/data/Run2023C/Muon1/NANOAOD/22Sep2023_v4-v2/2820000/ff25411f-c560-4080-ae80-d93c31a417a6.root
/store/data/Run2023C/Muon1/NANOAOD/22Sep2023_v4-v2/2820000/03c62d39-4b00-4863-9f01-0a6027158258.root
/store/data/Run2023C/Muon1/NANOAOD/22Sep2023_v4-v2/2820000/97f86a2e-0d95-4bac-8422-b1e4efc41281.root
/store/data/Run2023C/Muon1/NANOAOD/22Sep2023_v4-v2/2820000/08640d0a-9c72-4b64-a945-766b97a95b91.root
/store/data/Run2023C/Muon1/NANOAOD/22Sep2023_v4-v2/2820000/550b3a76-e0e0-48c5-8ac2-3e81c25f87ea.root
/store/data/Run2023C/Muon1/NANOAOD/22Sep2023_v4-v2/2820000/08531f45-409d-47d8-a99f-4630cbc726fc.root
/store/data/Run2023C/Muon1/NANOAOD/22Sep2023_v4-v2/2820000/b7214fa4-7aec-4e50-85e5-557e3e962454.root
/store/data/Run2023C/Muon1/NANOAOD/22Sep2023_v4-v2/2820000/f5a95b47-ddbe-45e2-9f8e-2197aaed44f0.root
/store/data/Run2023C/Muon1/NANOAOD/22Sep2023_v4-v2/2820000/b96cec87-b22a-44c4-9671-3e939a463bb0.root
/store/data/Run2023C/Muon1/NANOAOD/22Sep2023_v4-v2/2820000/f33256fa-baf2-4a11-bd4d-d02291908023.root
/store/data/Run2023C/Muon1/NANOAOD/22Sep2023_v4-v2/2820000/cf4201de-4de0-4bda-b3aa-bdd7f26d68a3.root
/store/data/Run2023C/Muon1/NANOAOD/22Sep2023_v4-v2/2820000/c390bd15-3d09-465c-a44e-977439a0621c.root
/store/data/Run2023C/Muon1/NANOAOD/22Sep2023_v4-v2/2820000/742cbe91-5d1d-410b-b6ee-adaf923ff050.root
/store/data/Run2023C/Muon1/NANOAOD/22Sep2023_v4-v2/2820000/f503ce3d-3adb-4a85-8f89-3037d17584ca.root
/store/data/Run2023C/Muon1/NANOAOD/22Sep2023_v4-v2/2820000/2c31607b-9982-429c-9e4a-33940e9f11cf.root
/store/data/Run2023C/Muon1/NANOAOD/22Sep2023_v4-v2/2820000/85740ac6-b3fa-4409-b946-782855b72586.root
/store/data/Run2023C/Muon1/NANOAOD/22Sep2023_v4-v2/2820000/d889e70d-5da0-48c1-9d6f-406d8375d4b8.root
/store/data/Run2023C/Muon1/NANOAOD/22Sep2023_v4-v2/2820000/183a01c5-3aff-4033-a33d-468d67fbc857.root
/store/data/Run2023C/Muon1/NANOAOD/22Sep2023_v4-v2/2820000/21c16fbe-eab1-4222-a21d-8605c1404f3b.root
/store/data/Run2023C/Muon1/NANOAOD/22Sep2023_v4-v2/2820000/3fe13c92-99cf-406c-9a72-e18e73150992.root
/store/data/Run2023C/Muon1/NANOAOD/22Sep2023_v4-v2/2820000/67caa793-d2b6-46f2-98d9-a7691518b263.root
/store/data/Run2023C/Muon1/NANOAOD/22Sep2023_v4-v2/2820000/567ba098-9f66-459d-955c-2220caac2fb6.root
/store/data/Run2023C/Muon1/NANOAOD/22Sep2023_v4-v2/2820000/f7c90d1e-721f-4e67-8e15-757ebf4390c9.root
/store/data/Run2023C/Muon1/NANOAOD/22Sep2023_v4-v2/2820000/0f7cf88f-6ebe-4cf7-85c0-511f847f60e7.root
/store/data/Run2023C/Muon1/NANOAOD/22Sep2023_v4-v2/2820000/62b66ca7-8560-4645-a334-45c32895de65.root
/store/data/Run2023C/Muon1/NANOAOD/22Sep2023_v4-v2/2820000/75314751-d8b5-4734-a00c-0961c55fe257.root
/store/data/Run2023C/Muon1/NANOAOD/22Sep2023_v4-v2/2820000/757725d9-8a37-4dc5-872b-bf9bcdc8c422.root
/store/data/Run2023C/Muon1/NANOAOD/22Sep2023_v4-v2/2820000/be9129cc-a2b6-456d-95f6-c5c7a471e216.root
/store/data/Run2023C/Muon1/NANOAOD/22Sep2023_v4-v2/2820000/a510742d-9300-428c-bf0c-25f229917dbf.root
/store/data/Run2023C/Muon1/NANOAOD/22Sep2023_v4-v2/2820000/6894665d-0e02-4717-a4ba-de0b83003818.root
/store/data/Run2023C/Muon1/NANOAOD/22Sep2023_v4-v2/2820000/8a59878e-55a9-4051-9c29-d0359a79944c.root
/store/data/Run2023C/Muon1/NANOAOD/22Sep2023_v4-v2/2820000/b0b0b405-0499-4376-9136-48971810e9a6.root
/store/data/Run2023C/Muon1/NANOAOD/22Sep2023_v4-v2/2820000/d4cc6ebb-1a84-477b-932c-e892b3269484.root
/store/data/Run2023C/Muon1/NANOAOD/22Sep2023_v4-v2/2820000/9736054f-0a2c-48c8-87fe-f506bd12930a.root
/store/data/Run2023C/Muon1/NANOAOD/22Sep2023_v4-v2/2820000/6db955e8-7c07-463c-85de-48026f662209.root
/store/data/Run2023C/Muon1/NANOAOD/22Sep2023_v4-v2/2820000/d459253e-c8d6-4a46-beeb-322d27f6158f.root
/store/data/Run2023C/Muon1/NANOAOD/22Sep2023_v4-v2/2820000/e128739e-fccc-461e-b462-8f5d22d7dd8c.root
/store/data/Run2023C/Muon1/NANOAOD/22Sep2023_v4-v2/2820000/5f3ac5f3-410e-4d93-ba9d-1ebdc9337dc0.root
/store/data/Run2023C/Muon1/NANOAOD/22Sep2023_v4-v2/2820000/35a70d05-fafc-4a25-9d09-b3ee3aa5e228.root
/store/data/Run2023C/Muon1/NANOAOD/22Sep2023_v4-v2/2820000/570a4188-54f5-4425-99b1-c86dfef72788.root
/store/data/Run2023C/Muon1/NANOAOD/22Sep2023_v4-v2/2820000/c6e61572-6e25-4ee3-9d7c-e349ec5ec5fb.root
/store/data/Run2023C/Muon1/NANOAOD/22Sep2023_v4-v2/2820000/62938817-c56e-429f-b7ca-0f93d08247b1.root
/store/data/Run2023C/Muon1/NANOAOD/22Sep2023_v4-v2/2820000/637641a0-147f-4c6b-bb46-ddbc1e062371.root
/store/data/Run2023C/Muon1/NANOAOD/22Sep2023_v4-v2/2820000/5f5a6718-24d8-43b0-ab71-24b11bdcdc70.root
/store/data/Run2023C/Muon1/NANOAOD/22Sep2023_v4-v2/2820000/c98c1128-339d-40ae-92b2-bdfc084d175a.root
/store/data/Run2023C/Muon1/NANOAOD/22Sep2023_v4-v2/2820000/f205d123-bb3e-427f-84a8-0bf05d108ffa.root
/store/data/Run2023C/Muon1/NANOAOD/22Sep2023_v4-v2/2820000/d6a38972-010b-4d84-910b-7d7a4d902581.root
/store/data/Run2023C/Muon1/NANOAOD/22Sep2023_v4-v2/2820000/540ab75d-75f0-493f-bf18-ff68a4a25b02.root
/store/data/Run2023C/Muon1/NANOAOD/22Sep2023_v4-v2/2820000/b1fe4239-365c-48ec-9a93-fb14da0aa1cf.root
/store/data/Run2023C/Muon1/NANOAOD/22Sep2023_v4-v2/2820000/47b7f732-36b7-4d74-8666-413bca9ee09d.root
/store/data/Run2023C/Muon1/NANOAOD/22Sep2023_v4-v2/2820000/7ac6edb2-8499-48fb-987e-e795a7456ba3.root
/store/data/Run2023C/Muon1/NANOAOD/22Sep2023_v4-v2/2820000/a22e2323-dec6-4f11-b37a-885924092f69.root
/store/data/Run2023C/Muon1/NANOAOD/22Sep2023_v4-v2/2820000/5a518ae7-2aca-4b40-a3c8-9f0a72a294ad.root
/store/data/Run2023C/Muon1/NANOAOD/22Sep2023_v4-v2/2820000/4feed99f-0afe-4697-a72e-be210d931404.root
/store/data/Run2023C/Muon1/NANOAOD/22Sep2023_v4-v2/2820000/e9f0ca91-3dac-49f1-b568-f59aab47a0fe.root
/store/data/Run2023C/Muon1/NANOAOD/22Sep2023_v4-v2/2820000/b14f68cb-54d9-4c68-810e-e439ecb521dd.root
/store/data/Run2023C/Muon1/NANOAOD/22Sep2023_v4-v2/2820000/767edf88-c2da-4042-a0f8-25402a4ea9cc.root
/store/data/Run2023C/Muon1/NANOAOD/22Sep2023_v4-v2/2820000/ec6110ac-befb-4ac1-8502-43d2db7559dd.root
/store/data/Run2023C/Muon1/NANOAOD/22Sep2023_v4-v2/2820000/4427257a-beab-4fbe-9ce8-65c244f4e7ec.root
/store/data/Run2023C/Muon1/NANOAOD/22Sep2023_v4-v2/2820000/e588da22-e690-4a87-8ba7-75830b466b1d.root
/store/data/Run2023C/Muon1/NANOAOD/22Sep2023_v4-v2/2820000/73651f63-be07-4aa6-936d-c62f4d49115b.root
/store/data/Run2023C/Muon1/NANOAOD/22Sep2023_v4-v2/2820000/9d31e120-d9a9-44de-9674-72400b73c136.root
/store/data/Run2023C/Muon1/NANOAOD/22Sep2023_v4-v2/2820000/08b372c5-3dd0-4c53-870d-24b5b687e03a.root
/store/data/Run2023C/Muon1/NANOAOD/22Sep2023_v4-v2/2820000/e424c2f9-f0fb-4dff-8290-2fb484d3e5c4.root
/store/data/Run2023C/Muon1/NANOAOD/22Sep2023_v4-v2/2820000/5624f968-426d-48c5-ac2d-1528917ead01.root
/store/data/Run2023C/Muon1/NANOAOD/22Sep2023_v4-v2/2820000/1f599a68-c6be-4407-9eba-77f4fe8362f9.root
/store/data/Run2023C/Muon1/NANOAOD/22Sep2023_v4-v2/2820000/6dea34d5-3b5c-4253-839b-d32d1ada2042.root
/store/data/Run2023C/Muon1/NANOAOD/22Sep2023_v4-v2/2820000/feb523a1-13bc-473c-8bf6-460c4b5e64a9.root
/store/data/Run2023C/Muon1/NANOAOD/22Sep2023_v4-v2/2820000/1c8ca45c-f537-403c-b3e8-23fe8fe9f858.root
/store/data/Run2023C/Muon1/NANOAOD/22Sep2023_v4-v2/2820000/ddf8587e-c33b-4fd2-a82a-0f258ce60761.root
/store/data/Run2023C/Muon1/NANOAOD/22Sep2023_v4-v2/2820000/d30d3bbd-1e0d-40f4-8f7c-8010677c287e.root
/store/data/Run2023C/Muon1/NANOAOD/22Sep2023_v4-v2/2820000/422ddb30-78c7-4c80-b6d5-c4229fa0c850.root
/store/data/Run2023C/Muon1/NANOAOD/22Sep2023_v4-v2/2820000/947ac75b-d954-443d-81fe-4785f05885cf.root
/store/data/Run2023C/Muon1/NANOAOD/22Sep2023_v4-v2/2820000/4b6646ca-cd45-4cb1-8652-51dfab4887b4.root
/store/data/Run2023C/Muon1/NANOAOD/22Sep2023_v4-v2/2820000/c899ad1d-3a20-4411-9a7a-8d175eb33b99.root
/store/data/Run2023C/Muon1/NANOAOD/22Sep2023_v4-v2/2820000/16a3a6ab-8b26-4093-a241-51372b482c48.root
/store/data/Run2023C/Muon1/NANOAOD/22Sep2023_v4-v2/2820000/9b704476-7fc1-44d4-bfa6-6f53d6f1daab.root
/store/data/Run2023C/Muon1/NANOAOD/22Sep2023_v4-v2/2820000/772ee8ea-8df5-4b41-95de-901b20514b02.root
/store/data/Run2023C/Muon1/NANOAOD/22Sep2023_v4-v2/2820000/dea14f99-b585-49ca-9305-3a4536e578da.root
/store/data/Run2023C/Muon1/NANOAOD/22Sep2023_v4-v2/2820000/92699f01-bce3-4895-857a-32189e3a06e3.root
/store/data/Run2023C/Muon1/NANOAOD/22Sep2023_v4-v2/2820000/4b764b12-8d0f-493b-94ea-eb1e2bd09600.root
/store/data/Run2023C/Muon1/NANOAOD/22Sep2023_v4-v2/2820000/4491eadb-0ae7-4d0b-adba-6aa246d7e9a7.root
/store/data/Run2023C/Muon1/NANOAOD/22Sep2023_v4-v2/2820000/9b212c1c-12e0-4c28-9c51-0ef22826baf7.root
/store/data/Run2023C/Muon1/NANOAOD/22Sep2023_v4-v2/2820000/6b14b86b-70e0-4c61-8071-d4f98c82eda0.root
/store/data/Run2023C/Muon1/NANOAOD/22Sep2023_v4-v2/2820000/9706e1ce-a4b0-4c60-992b-668fc415ffb0.root
/store/data/Run2023C/Muon1/NANOAOD/22Sep2023_v4-v2/2820000/d6c0e578-c55b-4da7-b763-dfdc2e1024fb.root
/store/data/Run2023C/Muon1/NANOAOD/22Sep2023_v4-v2/2820000/37c185be-12b7-44de-a4fd-edb32412ecd2.root
/store/data/Run2023C/Muon1/NANOAOD/22Sep2023_v4-v2/2820000/5ad672c4-d672-4450-8bc4-c8cbbdc28c9c.root
/store/data/Run2023C/Muon1/NANOAOD/22Sep2023_v4-v2/80000/10a9e68e-aa4e-4391-bb5c-55ad6a9696ae.root
/store/data/Run2023C/Muon1/NANOAOD/22Sep2023_v4-v2/80000/8254709f-6ab7-4286-9e88-21cacdce1540.root