/store/data/Run2023C/Muon1/NANOAOD/22Sep2023_v1-v1/30000/d93b0737-8e8a-4276-aae3-338423b4d3d9.root
/store/data/Run2023C/Muon1/NANOAOD/22Sep2023_v1-v1/50000/7c3d0f78-6a26-4ff2-96cb-ec73c2adca1e.root
/store/data/Run2023C/Muon1/NANOAOD/22Sep2023_v1-v1/50000/8f738ac8-460e-4a64-92c8-4f1c647e5a16.root
/store/data/Run2023C/Muon1/NANOAOD/22Sep2023_v1-v1/50000/156ba127-e6a6-45dc-a3b6-d88216fdca33.root
/store/data/Run2023C/Muon1/NANOAOD/22Sep2023_v1-v1/50000/09b3c6cc-9098-42f8-96cc-e94febff39f9.root
/store/data/Run2023C/Muon1/NANOAOD/22Sep2023_v1-v1/50000/c2d90514-4e1b-4c00-a89f-32e280c2af03.root
/store/data/Run2023C/Muon1/NANOAOD/22Sep2023_v1-v1/30000/5d560b39-bfee-4863-a193-7864b9097446.root
/store/data/Run2023C/Muon1/NANOAOD/22Sep2023_v1-v1/30000/e518528e-dad9-45c0-adc6-e9a1e5caecc9.root
/store/data/Run2023C/Muon1/NANOAOD/22Sep2023_v1-v1/30000/cef342d2-3411-4910-a575-6a097ee120e4.root
/store/data/Run2023C/Muon1/NANOAOD/22Sep2023_v1-v1/30000/a34bb076-64b9-4cfd-aebe-2482604f70cc.root
/store/data/Run2023C/Muon1/NANOAOD/22Sep2023_v1-v1/50000/7bb23d61-4389-406f-86bb-4fe731b67a7f.root
/store/data/Run2023C/Muon1/NANOAOD/22Sep2023_v1-v1/50000/f432ce26-a923-452c-af27-8d8ba4741532.root
/store/data/Run2023C/Muon1/NANOAOD/22Sep2023_v1-v1/50000/075e415a-8b3a-4bde-93d3-8daafa5a4d47.root
/store/data/Run2023C/Muon1/NANOAOD/22Sep2023_v1-v1/50000/b8443ec9-3123-4c11-852b-d99a712f982a.root
/store/data/Run2023C/Muon1/NANOAOD/22Sep2023_v1-v1/50000/44a10206-f301-4eab-b31a-cc68446c2b39.root
/store/data/Run2023C/Muon1/NANOAOD/22Sep2023_v1-v1/50000/4bce68c8-0eba-4b6b-980e-5d01bb6a10c2.root
/store/data/Run2023C/Muon1/NANOAOD/22Sep2023_v1-v1/50000/2dc61545-81f8-4b23-b4e1-41b98f3e8f3e.root
/store/data/Run2023C/Muon1/NANOAOD/22Sep2023_v1-v1/50000/59104d61-232e-432a-b3af-2937537131ec.root
/store/data/Run2023C/Muon1/NANOAOD/22Sep2023_v1-v1/50000/fb44f6dc-0c9e-488c-85ad-d4a80db1e5d9.root
/store/data/Run2023C/Muon1/NANOAOD/22Sep2023_v1-v1/50000/a788c425-cd39-4145-aaf6-6dea4009abe8.root
/store/data/Run2023C/Muon1/NANOAOD/22Sep2023_v1-v1/50000/ecf31946-607b-4223-9230-e40d05ef1c10.root
/store/data/Run2023C/Muon1/NANOAOD/22Sep2023_v1-v1/50000/3e34b435-9c2c-436d-a4ef-ed4bb95051e8.root
/store/data/Run2023C/Muon1/NANOAOD/22Sep2023_v1-v1/30000/b4febeae-349e-48d5-ac3e-89bc49522ab0.root
/store/data/Run2023C/Muon1/NANOAOD/22Sep2023_v1-v1/50000/f3881859-7a44-4c75-b11f-8db9e91f8b76.root
/store/data/Run2023C/Muon1/NANOAOD/22Sep2023_v1-v1/50000/0fdfa445-25c5-43fe-9c34-188956093f33.root
/store/data/Run2023C/Muon1/NANOAOD/22Sep2023_v1-v1/50000/cfa32865-8ce3-46a6-ac3b-902a6579030d.root
/store/data/Run2023C/Muon1/NANOAOD/22Sep2023_v1-v1/30000/599356db-8e73-4b51-bd84-c912733a5cf2.root
/store/data/Run2023C/Muon1/NANOAOD/22Sep2023_v1-v1/30000/8ae3e56a-9939-40d1-a35b-ef3a7ca21f64.root
/store/data/Run2023C/Muon1/NANOAOD/22Sep2023_v1-v1/40000/082e3859-0271-4d27-accf-36109a8d0b80.root
/store/data/Run2023C/Muon1/NANOAOD/22Sep2023_v1-v1/40000/354e7d27-23b7-4af3-8a04-f88593f05a16.root
/store/data/Run2023C/Muon1/NANOAOD/22Sep2023_v1-v1/40000/cbe36329-12cb-420b-b83c-054910d4c900.root
/store/data/Run2023C/Muon1/NANOAOD/22Sep2023_v1-v1/40000/812a9203-592b-450a-8943-d00145d8a083.root
/store/data/Run2023C/Muon1/NANOAOD/22Sep2023_v1-v1/40000/c03bffd0-182b-4dc1-ada3-89b46d692707.root
/store/data/Run2023C/Muon1/NANOAOD/22Sep2023_v1-v1/50000/82bb0dbb-592a-4ee1-8100-b63c684e31fd.root
/store/data/Run2023C/Muon1/NANOAOD/22Sep2023_v1-v1/50000/577205b1-a05e-435e-af03-4589580b7b28.root
/store/data/Run2023C/Muon1/NANOAOD/22Sep2023_v1-v1/50000/5e54801f-41ba-4c81-bfd1-f7225ecde4ca.root
/store/data/Run2023C/Muon1/NANOAOD/22Sep2023_v1-v1/50000/8f8c255c-d809-4021-9104-9bc526cc67a6.root
/store/data/Run2023C/Muon1/NANOAOD/22Sep2023_v1-v1/50000/ff63be89-f071-4f6d-989c-76d1d99695a8.root
/store/data/Run2023C/Muon1/NANOAOD/22Sep2023_v1-v1/50000/278c70f4-dd84-4991-9532-8eb32821e2f5.root
/store/data/Run2023C/Muon1/NANOAOD/22Sep2023_v1-v1/50000/a927c73e-4a29-4630-8814-7151d5d98cb9.root
/store/data/Run2023C/Muon1/NANOAOD/22Sep2023_v1-v1/30000/d1961495-1532-4135-ae0c-c4df44aaf584.root
/store/data/Run2023C/Muon1/NANOAOD/22Sep2023_v1-v1/30000/47738e36-5ed4-4b35-a079-68dd1d181e6c.root
/store/data/Run2023C/Muon1/NANOAOD/22Sep2023_v1-v1/50000/6742ba97-8c78-4fe0-8bdf-c1d28dba5191.root
/store/data/Run2023C/Muon1/NANOAOD/22Sep2023_v1-v1/50000/fbf12efc-1f1a-40a1-8052-698bd4bbaf4b.root
/store/data/Run2023C/Muon1/NANOAOD/22Sep2023_v1-v1/50000/cfab573e-12fe-4fc6-932f-664cf94afb18.root
/store/data/Run2023C/Muon1/NANOAOD/22Sep2023_v1-v1/50000/a6481f7c-0f1f-44c1-bf5e-143897eb229b.root
/store/data/Run2023C/Muon1/NANOAOD/22Sep2023_v1-v1/50000/faaa3b6f-0ef8-45d2-9bb3-4cbcd308db1a.root
/store/data/Run2023C/Muon1/NANOAOD/22Sep2023_v1-v1/50000/b24ac74f-d870-4e1b-bdaf-3235303034ba.root
/store/data/Run2023C/Muon1/NANOAOD/22Sep2023_v1-v1/50000/784e020a-5fab-44b3-90e4-25a6d4c5bbea.root
/store/data/Run2023C/Muon1/NANOAOD/22Sep2023_v1-v1/50000/18be0918-af82-4289-a46e-c5aec3f2d96c.root
/store/data/Run2023C/Muon1/NANOAOD/22Sep2023_v1-v1/50000/b37f221e-cbd9-40d0-8ff1-b9ffb98bb56c.root
/store/data/Run2023C/Muon1/NANOAOD/22Sep2023_v1-v1/50000/a288f240-51f2-4481-a2bf-22fe53ed3bae.root
/store/data/Run2023C/Muon1/NANOAOD/22Sep2023_v1-v1/50000/1a8ba1e1-ff94-4600-8634-ff11abd81bd8.root
/store/data/Run2023C/Muon1/NANOAOD/22Sep2023_v1-v1/50000/8e822339-c645-4907-9c1c-3567680827f9.root
/store/data/Run2023C/Muon1/NANOAOD/22Sep2023_v1-v1/50000/72c5596e-1ef4-4df0-a464-4b8ef969ce5e.root
/store/data/Run2023C/Muon1/NANOAOD/22Sep2023_v1-v1/50000/5bb0eadf-2e43-4c5e-a808-0ef9ae93d9a2.root
/store/data/Run2023C/Muon1/NANOAOD/22Sep2023_v1-v1/50000/672f355d-bf88-4246-bf79-1d16dcdc5d89.root
/store/data/Run2023C/Muon1/NANOAOD/22Sep2023_v1-v1/50000/74da26ac-8443-4a41-a0fc-2390091b0a55.root
/store/data/Run2023C/Muon1/NANOAOD/22Sep2023_v1-v1/50000/0d793616-2b95-49c6-a4f3-87682bed3d06.root
/store/data/Run2023C/Muon1/NANOAOD/22Sep2023_v1-v1/50000/106dbdc1-8e3c-4a43-842a-afabf28eff72.root
/store/data/Run2023C/Muon1/NANOAOD/22Sep2023_v1-v1/50000/1bda1d6f-816d-4b66-b4b8-3b7ba09e189e.root
/store/data/Run2023C/Muon1/NANOAOD/22Sep2023_v1-v1/50000/b5273292-7a08-404e-ad26-87f4180d6894.root
/store/data/Run2023C/Muon1/NANOAOD/22Sep2023_v1-v1/50000/7eee31ef-9e11-4c17-884e-2975ad52c9b5.root
/store/data/Run2023C/Muon1/NANOAOD/22Sep2023_v1-v1/50000/a67f39e3-1f44-475a-85ce-f19f2d030eb8.root
/store/data/Run2023C/Muon1/NANOAOD/22Sep2023_v1-v1/50000/bf5e793a-8a6c-426f-955a-bf231ec3d54c.root
/store/data/Run2023C/Muon1/NANOAOD/22Sep2023_v1-v1/50000/2ecc4f72-a83a-4f24-ad3c-5b3ae338dbd5.root
/store/data/Run2023C/Muon1/NANOAOD/22Sep2023_v1-v1/50000/fff258c9-9769-414c-9ebe-719915e492aa.root
/store/data/Run2023C/Muon1/NANOAOD/22Sep2023_v1-v1/50000/6690c9e6-ecab-4906-921c-bb5316731bd2.root
/store/data/Run2023C/Muon1/NANOAOD/22Sep2023_v1-v1/50000/28783f98-85a7-4a3b-9694-fe58b6ea5eab.root
/store/data/Run2023C/Muon1/NANOAOD/22Sep2023_v1-v1/50000/7ed8b5e5-866b-4e82-b396-134ef9023369.root
/store/data/Run2023C/Muon1/NANOAOD/22Sep2023_v1-v1/50000/0ed2e0b6-4076-4c41-a74d-431d92fb6858.root
/store/data/Run2023C/Muon1/NANOAOD/22Sep2023_v1-v1/50000/e8cc711f-e6ac-4b2b-ba5d-4a417a501019.root
/store/data/Run2023C/Muon1/NANOAOD/22Sep2023_v1-v1/2520000/85dd4541-0811-41d0-9b0d-44232947a6aa.root