/store/data/Run2023C/Muon0/NANOAOD/22Sep2023_v2-v1/40000/d5075460-350f-475b-bc4c-f47b7e63323e.root
/store/data/Run2023C/Muon0/NANOAOD/22Sep2023_v2-v1/40000/7ea62ebe-45b0-408a-85c9-57a28bcf3429.root
/store/data/Run2023C/Muon0/NANOAOD/22Sep2023_v2-v1/40000/845c50cc-663c-4e11-b971-751ae0558188.root
/store/data/Run2023C/Muon0/NANOAOD/22Sep2023_v2-v1/40000/7aa7bb11-bbfd-4dc4-9697-ea4ee9021bf4.root
/store/data/Run2023C/Muon0/NANOAOD/22Sep2023_v2-v1/50000/ac3ccaa9-b455-46e9-99bd-eeceea596fa3.root
/store/data/Run2023C/Muon0/NANOAOD/22Sep2023_v2-v1/50000/c06df13d-86d1-430f-97a4-8f219088cf57.root
/store/data/Run2023C/Muon0/NANOAOD/22Sep2023_v2-v1/50000/8e664d0a-0b9e-4247-8f49-ab2ec41ef37b.root
/store/data/Run2023C/Muon0/NANOAOD/22Sep2023_v2-v1/50000/faccfe01-8028-465a-ba71-11f79438d14b.root
/store/data/Run2023C/Muon0/NANOAOD/22Sep2023_v2-v1/40000/7131bc23-5377-4cc0-b746-531a8ec428a4.root
/store/data/Run2023C/Muon0/NANOAOD/22Sep2023_v2-v1/40000/9d8f2b75-b1bf-4e12-b6d1-7bc79be4dc43.root
/store/data/Run2023C/Muon0/NANOAOD/22Sep2023_v2-v1/40000/a91a6334-8d2a-4746-be47-cd5e236e1053.root
/store/data/Run2023C/Muon0/NANOAOD/22Sep2023_v2-v1/40000/b1897aa3-a540-43a5-bac0-a18ae38a02e4.root
/store/data/Run2023C/Muon0/NANOAOD/22Sep2023_v2-v1/50000/25b40074-6c02-4f85-be2c-0997a474b842.root
/store/data/Run2023C/Muon0/NANOAOD/22Sep2023_v2-v1/50000/a832b315-fbb0-40b5-bd1f-81a6a83df242.root
/store/data/Run2023C/Muon0/NANOAOD/22Sep2023_v2-v1/30000/e7ade28d-06fe-4e98-b4f6-5e6442e4fb38.root
/store/data/Run2023C/Muon0/NANOAOD/22Sep2023_v2-v1/50000/09861c72-1fe0-4f67-be7d-945d12ceec7d.root
/store/data/Run2023C/Muon0/NANOAOD/22Sep2023_v2-v1/50000/2f284142-3882-484f-a1e6-d4f55b84df0c.root
/store/data/Run2023C/Muon0/NANOAOD/22Sep2023_v2-v1/50000/29e25237-cb0d-4267-a2ec-9b5c03d71cb3.root
/store/data/Run2023C/Muon0/NANOAOD/22Sep2023_v2-v1/50000/f841ca31-3b19-452c-b9c8-9990b182692e.root
/store/data/Run2023C/Muon0/NANOAOD/22Sep2023_v2-v1/50000/17628d21-c350-410e-b576-f31167012a60.root
/store/data/Run2023C/Muon0/NANOAOD/22Sep2023_v2-v1/30000/2ee3eecc-970a-4f06-8a39-3aa3a437ef45.root
/store/data/Run2023C/Muon0/NANOAOD/22Sep2023_v2-v1/30000/6f61f9aa-31dd-4da3-9e40-4cb8a8b81f27.root
/store/data/Run2023C/Muon0/NANOAOD/22Sep2023_v2-v1/30000/2507f77f-909b-474e-bdf1-ba66c4ca8a37.root
/store/data/Run2023C/Muon0/NANOAOD/22Sep2023_v2-v1/50000/033f6a12-059e-40f0-99c6-1166e2d8814f.root
/store/data/Run2023C/Muon0/NANOAOD/22Sep2023_v2-v1/30000/452a5f76-7e5b-42a0-80de-cc0d9638f2c6.root
/store/data/Run2023C/Muon0/NANOAOD/22Sep2023_v2-v1/50000/9ede4711-f26a-4b2c-b2a2-7c239845be39.root
/store/data/Run2023C/Muon0/NANOAOD/22Sep2023_v2-v1/30000/0382f5e8-b275-4b02-a086-4530980fd672.root
/store/data/Run2023C/Muon0/NANOAOD/22Sep2023_v2-v1/30000/3af679ea-31a7-4b30-9cd3-3a5f7008828e.root
/store/data/Run2023C/Muon0/NANOAOD/22Sep2023_v2-v1/30000/07846f74-6eb5-42d9-b380-9ef6a02c04a1.root
/store/data/Run2023C/Muon0/NANOAOD/22Sep2023_v2-v1/30000/16e5b10c-ca69-42bf-99cb-fd9ce5429d0a.root
/store/data/Run2023C/Muon0/NANOAOD/22Sep2023_v2-v1/2540000/d6364362-eca0-46e9-9bbd-9d46a13caeb0.root