/store/data/Run2023C/Tau/NANOAOD/22Sep2023_v3-v1/40000/f456facd-68dd-4918-bfa0-5a5b21e3e201.root
/store/data/Run2023C/Tau/NANOAOD/22Sep2023_v3-v1/40000/21fa4e31-0ce9-4d3c-9741-d16bd944d09f.root
/store/data/Run2023C/Tau/NANOAOD/22Sep2023_v3-v1/40000/72f7a157-13be-4cfd-90f2-9fc04ee4de46.root
/store/data/Run2023C/Tau/NANOAOD/22Sep2023_v3-v1/40000/65dcd724-a096-4da2-8283-3c157b118220.root
/store/data/Run2023C/Tau/NANOAOD/22Sep2023_v3-v1/40000/67504f1c-1508-4867-b236-117a650ac04f.root
/store/data/Run2023C/Tau/NANOAOD/22Sep2023_v3-v1/40000/f0b84bde-dfd8-4558-86e0-fcac6081d866.root
/store/data/Run2023C/Tau/NANOAOD/22Sep2023_v3-v1/40000/c8106817-c9b6-4b47-9f3f-b50d8cb46e58.root
/store/data/Run2023C/Tau/NANOAOD/22Sep2023_v3-v1/40000/64a10816-506f-4229-ae33-242ac76b6388.root
/store/data/Run2023C/Tau/NANOAOD/22Sep2023_v3-v1/40000/db64e2b4-7cf6-4079-9e37-d85a16e0d38b.root
/store/data/Run2023C/Tau/NANOAOD/22Sep2023_v3-v1/40000/5423892e-0127-4af5-837d-4a3f454329bd.root
/store/data/Run2023C/Tau/NANOAOD/22Sep2023_v3-v1/40000/8c945300-4805-4fb3-88a9-0b1aafa4dac0.root
/store/data/Run2023C/Tau/NANOAOD/22Sep2023_v3-v1/2540000/5969ea10-557b-4068-884f-6c36d69982aa.root