/store/mc/Run3Summer23NanoAODv12/TTto4Q_TuneCP5_13p6TeV_powheg-pythia8/NANOAODSIM/130X_mcRun3_2023_realistic_v14-v2/2550000/28e0809d-e398-41c3-8124-cac52223bff3.root
/store/mc/Run3Summer23NanoAODv12/TTto4Q_TuneCP5_13p6TeV_powheg-pythia8/NANOAODSIM/130X_mcRun3_2023_realistic_v14-v2/2550000/c3ff1afe-4b01-4f0e-9493-66987c29af50.root
/store/mc/Run3Summer23NanoAODv12/TTto4Q_TuneCP5_13p6TeV_powheg-pythia8/NANOAODSIM/130X_mcRun3_2023_realistic_v14-v2/2550000/e4c5e0fa-7431-4042-968c-51474cdd4a4f.root
/store/mc/Run3Summer23NanoAODv12/TTto4Q_TuneCP5_13p6TeV_powheg-pythia8/NANOAODSIM/130X_mcRun3_2023_realistic_v14-v2/2550000/0f51354a-f301-41cb-9740-95caa8aa5441.root
/store/mc/Run3Summer23NanoAODv12/TTto4Q_TuneCP5_13p6TeV_powheg-pythia8/NANOAODSIM/130X_mcRun3_2023_realistic_v14-v2/2550000/1dbb6e29-6e4d-4482-b255-05c1aa2fd24a.root
/store/mc/Run3Summer23NanoAODv12/TTto4Q_TuneCP5_13p6TeV_powheg-pythia8/NANOAODSIM/130X_mcRun3_2023_realistic_v14-v2/2550000/258b9d7b-7292-44f7-aa7e-3fe5b12b9f84.root
/store/mc/Run3Summer23NanoAODv12/TTto4Q_TuneCP5_13p6TeV_powheg-pythia8/NANOAODSIM/130X_mcRun3_2023_realistic_v14-v2/2550000/07e9eb0a-2e45-4cb1-a317-3eff9fa0b3ac.root
/store/mc/Run3Summer23NanoAODv12/TTto4Q_TuneCP5_13p6TeV_powheg-pythia8/NANOAODSIM/130X_mcRun3_2023_realistic_v14-v2/2550000/6bc41616-21a3-4465-9541-2edad6246428.root
/store/mc/Run3Summer23NanoAODv12/TTto4Q_TuneCP5_13p6TeV_powheg-pythia8/NANOAODSIM/130X_mcRun3_2023_realistic_v14-v2/2550000/8fd10b80-2d1c-43cf-8360-aeb59fc711cb.root
/store/mc/Run3Summer23NanoAODv12/TTto4Q_TuneCP5_13p6TeV_powheg-pythia8/NANOAODSIM/130X_mcRun3_2023_realistic_v14-v2/2550000/de67cf4f-1e03-4733-9ce7-57724ac2a961.root
/store/mc/Run3Summer23NanoAODv12/TTto4Q_TuneCP5_13p6TeV_powheg-pythia8/NANOAODSIM/130X_mcRun3_2023_realistic_v14-v2/2550000/721f9c7e-d7c4-4184-a9a4-f75bdfb005fc.root
/store/mc/Run3Summer23NanoAODv12/TTto4Q_TuneCP5_13p6TeV_powheg-pythia8/NANOAODSIM/130X_mcRun3_2023_realistic_v14-v2/2550000/0d3e0591-da93-4c4b-a11c-e34663165448.root
/store/mc/Run3Summer23NanoAODv12/TTto4Q_TuneCP5_13p6TeV_powheg-pythia8/NANOAODSIM/130X_mcRun3_2023_realistic_v14-v2/2550000/bd99fef1-19b9-437c-88d6-2d508a81dd50.root
/store/mc/Run3Summer23NanoAODv12/TTto4Q_TuneCP5_13p6TeV_powheg-pythia8/NANOAODSIM/130X_mcRun3_2023_realistic_v14-v2/2550000/5d0a8c7c-1b2a-465f-97f4-24d19b95a2ff.root
/store/mc/Run3Summer23NanoAODv12/TTto4Q_TuneCP5_13p6TeV_powheg-pythia8/NANOAODSIM/130X_mcRun3_2023_realistic_v14-v2/2550000/5da6dceb-94bf-4788-8bb2-1df33f22f6c9.root
/store/mc/Run3Summer23NanoAODv12/TTto4Q_TuneCP5_13p6TeV_powheg-pythia8/NANOAODSIM/130X_mcRun3_2023_realistic_v14-v2/2550000/e6edebfd-0870-479f-9aef-1466db51a263.root
/store/mc/Run3Summer23NanoAODv12/TTto4Q_TuneCP5_13p6TeV_powheg-pythia8/NANOAODSIM/130X_mcRun3_2023_realistic_v14-v2/2550000/0d3bbd4b-da9d-4bfd-8041-61c8816ee9d6.root
/store/mc/Run3Summer23NanoAODv12/TTto4Q_TuneCP5_13p6TeV_powheg-pythia8/NANOAODSIM/130X_mcRun3_2023_realistic_v14-v2/2550000/de5fa70b-80f7-4c17-ba1a-5b707036612b.root
/store/mc/Run3Summer23NanoAODv12/TTto4Q_TuneCP5_13p6TeV_powheg-pythia8/NANOAODSIM/130X_mcRun3_2023_realistic_v14-v2/2550000/12ad5c54-b8dc-470c-ad52-9477f738148f.root
/store/mc/Run3Summer23NanoAODv12/TTto4Q_TuneCP5_13p6TeV_powheg-pythia8/NANOAODSIM/130X_mcRun3_2023_realistic_v14-v2/2550000/3c9822fb-7a30-4843-a597-2fbfd305c9b2.root
/store/mc/Run3Summer23NanoAODv12/TTto4Q_TuneCP5_13p6TeV_powheg-pythia8/NANOAODSIM/130X_mcRun3_2023_realistic_v14-v2/2550000/5a162812-df2c-4a86-b001-308328debe4d.root
/store/mc/Run3Summer23NanoAODv12/TTto4Q_TuneCP5_13p6TeV_powheg-pythia8/NANOAODSIM/130X_mcRun3_2023_realistic_v14-v2/2550000/955b3b0f-425f-427f-aaaf-6a8f2a706eeb.root
/store/mc/Run3Summer23NanoAODv12/TTto4Q_TuneCP5_13p6TeV_powheg-pythia8/NANOAODSIM/130X_mcRun3_2023_realistic_v14-v2/2550000/1ebdd98b-a3b2-4a78-882b-946e3a6264db.root
/store/mc/Run3Summer23NanoAODv12/TTto4Q_TuneCP5_13p6TeV_powheg-pythia8/NANOAODSIM/130X_mcRun3_2023_realistic_v14-v2/2550000/86cb3d39-bb96-43dc-a8ae-136718362ce6.root
/store/mc/Run3Summer23NanoAODv12/TTto4Q_TuneCP5_13p6TeV_powheg-pythia8/NANOAODSIM/130X_mcRun3_2023_realistic_v14-v2/2550000/f32eb263-7d44-4f63-b57d-f6373ba8ff41.root
/store/mc/Run3Summer23NanoAODv12/TTto4Q_TuneCP5_13p6TeV_powheg-pythia8/NANOAODSIM/130X_mcRun3_2023_realistic_v14-v2/2550000/20dfc746-1cf6-48ef-bdd2-c5c375f43400.root
/store/mc/Run3Summer23NanoAODv12/TTto4Q_TuneCP5_13p6TeV_powheg-pythia8/NANOAODSIM/130X_mcRun3_2023_realistic_v14-v2/2550000/0db4d1e4-8b9b-41ae-b872-6ecc7cef7c7e.root
/store/mc/Run3Summer23NanoAODv12/TTto4Q_TuneCP5_13p6TeV_powheg-pythia8/NANOAODSIM/130X_mcRun3_2023_realistic_v14-v2/2550000/5235fba5-f890-4c53-a4cd-5c08c7819f48.root
/store/mc/Run3Summer23NanoAODv12/TTto4Q_TuneCP5_13p6TeV_powheg-pythia8/NANOAODSIM/130X_mcRun3_2023_realistic_v14-v2/2550000/1f417e43-baa1-4bfe-9413-36a3df327b88.root
/store/mc/Run3Summer23NanoAODv12/TTto4Q_TuneCP5_13p6TeV_powheg-pythia8/NANOAODSIM/130X_mcRun3_2023_realistic_v14-v2/2550000/c1bcd1a8-5093-44d3-9e56-59d8829f87b6.root
/store/mc/Run3Summer23NanoAODv12/TTto4Q_TuneCP5_13p6TeV_powheg-pythia8/NANOAODSIM/130X_mcRun3_2023_realistic_v14-v2/2550000/f58026a1-1a6f-4a34-a6e4-705e003217eb.root
/store/mc/Run3Summer23NanoAODv12/TTto4Q_TuneCP5_13p6TeV_powheg-pythia8/NANOAODSIM/130X_mcRun3_2023_realistic_v14-v2/2550000/c66ede81-0386-4306-947c-d1ec3a6a36ce.root
/store/mc/Run3Summer23NanoAODv12/TTto4Q_TuneCP5_13p6TeV_powheg-pythia8/NANOAODSIM/130X_mcRun3_2023_realistic_v14-v2/2550000/05ab5636-a78d-473e-ab99-ce80cce90bdd.root
/store/mc/Run3Summer23NanoAODv12/TTto4Q_TuneCP5_13p6TeV_powheg-pythia8/NANOAODSIM/130X_mcRun3_2023_realistic_v14-v2/2550000/721f71c7-be90-4b5a-8376-99e7f02248af.root
/store/mc/Run3Summer23NanoAODv12/TTto4Q_TuneCP5_13p6TeV_powheg-pythia8/NANOAODSIM/130X_mcRun3_2023_realistic_v14-v2/2550000/61f73fbb-aaa1-4ff9-be2e-50921a39862b.root
/store/mc/Run3Summer23NanoAODv12/TTto4Q_TuneCP5_13p6TeV_powheg-pythia8/NANOAODSIM/130X_mcRun3_2023_realistic_v14-v2/2550000/0531777d-f2c3-4607-afc0-c4f8fdb6bd15.root
/store/mc/Run3Summer23NanoAODv12/TTto4Q_TuneCP5_13p6TeV_powheg-pythia8/NANOAODSIM/130X_mcRun3_2023_realistic_v14-v2/2550000/4d753e3d-b681-4c7c-87aa-bdc617915a2d.root
/store/mc/Run3Summer23NanoAODv12/TTto4Q_TuneCP5_13p6TeV_powheg-pythia8/NANOAODSIM/130X_mcRun3_2023_realistic_v14-v2/2550000/52376180-bb08-4f06-a1ab-284f0378a9a7.root
/store/mc/Run3Summer23NanoAODv12/TTto4Q_TuneCP5_13p6TeV_powheg-pythia8/NANOAODSIM/130X_mcRun3_2023_realistic_v14-v2/2550000/a7348dd4-de01-4528-bd03-17b268a1f50c.root
/store/mc/Run3Summer23NanoAODv12/TTto4Q_TuneCP5_13p6TeV_powheg-pythia8/NANOAODSIM/130X_mcRun3_2023_realistic_v14-v2/2550000/c9bb8461-86d6-4b89-92a1-f96c7decdbea.root
/store/mc/Run3Summer23NanoAODv12/TTto4Q_TuneCP5_13p6TeV_powheg-pythia8/NANOAODSIM/130X_mcRun3_2023_realistic_v14-v2/2550000/7fc57844-f5fd-42f2-a7ba-570ccbad744c.root
/store/mc/Run3Summer23NanoAODv12/TTto4Q_TuneCP5_13p6TeV_powheg-pythia8/NANOAODSIM/130X_mcRun3_2023_realistic_v14-v2/2550000/2d21fedd-24f3-4738-9e97-fafde05fb781.root
/store/mc/Run3Summer23NanoAODv12/TTto4Q_TuneCP5_13p6TeV_powheg-pythia8/NANOAODSIM/130X_mcRun3_2023_realistic_v14-v2/2550000/20911552-aa34-4f5c-8304-11dfb3ce6843.root
/store/mc/Run3Summer23NanoAODv12/TTto4Q_TuneCP5_13p6TeV_powheg-pythia8/NANOAODSIM/130X_mcRun3_2023_realistic_v14-v2/2550000/175bb726-b6f3-4b1a-bd09-325d543bc962.root
/store/mc/Run3Summer23NanoAODv12/TTto4Q_TuneCP5_13p6TeV_powheg-pythia8/NANOAODSIM/130X_mcRun3_2023_realistic_v14-v2/2550000/08ba9eac-e44a-45bb-b7e7-b18cb16dfd31.root
/store/mc/Run3Summer23NanoAODv12/TTto4Q_TuneCP5_13p6TeV_powheg-pythia8/NANOAODSIM/130X_mcRun3_2023_realistic_v14-v2/2550000/97929a01-54fe-4f81-866f-a6d2cbfc9877.root
/store/mc/Run3Summer23NanoAODv12/TTto4Q_TuneCP5_13p6TeV_powheg-pythia8/NANOAODSIM/130X_mcRun3_2023_realistic_v14-v2/2550000/8fde7031-5787-4463-bd92-080f46d1b867.root
/store/mc/Run3Summer23NanoAODv12/TTto4Q_TuneCP5_13p6TeV_powheg-pythia8/NANOAODSIM/130X_mcRun3_2023_realistic_v14-v2/2550000/f24952ad-21a4-49a9-8054-a912c02d8cad.root
/store/mc/Run3Summer23NanoAODv12/TTto4Q_TuneCP5_13p6TeV_powheg-pythia8/NANOAODSIM/130X_mcRun3_2023_realistic_v14-v2/2550000/bc23a34a-6044-44d0-9b7d-25c8e3bcb7a9.root
/store/mc/Run3Summer23NanoAODv12/TTto4Q_TuneCP5_13p6TeV_powheg-pythia8/NANOAODSIM/130X_mcRun3_2023_realistic_v14-v2/2550000/8669efaf-b900-4224-9cfe-7d8abc7869ce.root
/store/mc/Run3Summer23NanoAODv12/TTto4Q_TuneCP5_13p6TeV_powheg-pythia8/NANOAODSIM/130X_mcRun3_2023_realistic_v14-v2/2550000/02f2d6f7-ea03-4a51-8d62-ab29a8f6a0e5.root
/store/mc/Run3Summer23NanoAODv12/TTto4Q_TuneCP5_13p6TeV_powheg-pythia8/NANOAODSIM/130X_mcRun3_2023_realistic_v14-v2/2550000/496c7b39-50af-45a3-aa16-fdf1db81aa7f.root
/store/mc/Run3Summer23NanoAODv12/TTto4Q_TuneCP5_13p6TeV_powheg-pythia8/NANOAODSIM/130X_mcRun3_2023_realistic_v14-v2/2550000/bd9f86bf-aae5-4bfc-851d-75cd5fa8f1e1.root
/store/mc/Run3Summer23NanoAODv12/TTto4Q_TuneCP5_13p6TeV_powheg-pythia8/NANOAODSIM/130X_mcRun3_2023_realistic_v14-v2/2550000/8efcb1fb-463b-4ae2-9b79-82ceec6ff458.root
/store/mc/Run3Summer23NanoAODv12/TTto4Q_TuneCP5_13p6TeV_powheg-pythia8/NANOAODSIM/130X_mcRun3_2023_realistic_v14-v2/2550000/ab2b34ff-93bd-40f8-a546-b9f0403ddcc2.root
/store/mc/Run3Summer23NanoAODv12/TTto4Q_TuneCP5_13p6TeV_powheg-pythia8/NANOAODSIM/130X_mcRun3_2023_realistic_v14-v2/2550000/f8e53a76-e8b7-48cb-93c6-8a20d5f1f440.root
/store/mc/Run3Summer23NanoAODv12/TTto4Q_TuneCP5_13p6TeV_powheg-pythia8/NANOAODSIM/130X_mcRun3_2023_realistic_v14-v2/2550000/22dddfbf-b5db-48e0-bc67-74a2260ce4a5.root
/store/mc/Run3Summer23NanoAODv12/TTto4Q_TuneCP5_13p6TeV_powheg-pythia8/NANOAODSIM/130X_mcRun3_2023_realistic_v14-v2/2550000/747da96e-7a1b-45f6-a6d2-08f38f58f244.root
/store/mc/Run3Summer23NanoAODv12/TTto4Q_TuneCP5_13p6TeV_powheg-pythia8/NANOAODSIM/130X_mcRun3_2023_realistic_v14-v2/2550000/0e7f7a35-2fef-4232-bcd9-f1b20b8b8744.root
/store/mc/Run3Summer23NanoAODv12/TTto4Q_TuneCP5_13p6TeV_powheg-pythia8/NANOAODSIM/130X_mcRun3_2023_realistic_v14-v2/2550000/ceb75112-112f-41da-9142-ec26c7a4dc19.root
/store/mc/Run3Summer23NanoAODv12/TTto4Q_TuneCP5_13p6TeV_powheg-pythia8/NANOAODSIM/130X_mcRun3_2023_realistic_v14-v2/2550000/132a7349-e80d-4c8a-b971-28b6956ac1f1.root
/store/mc/Run3Summer23NanoAODv12/TTto4Q_TuneCP5_13p6TeV_powheg-pythia8/NANOAODSIM/130X_mcRun3_2023_realistic_v14-v2/2550000/9fdbf3b2-281f-4265-ab03-557d57d1d25a.root
/store/mc/Run3Summer23NanoAODv12/TTto4Q_TuneCP5_13p6TeV_powheg-pythia8/NANOAODSIM/130X_mcRun3_2023_realistic_v14-v2/2550000/792e21b8-06db-4e33-b087-8d88742055da.root
/store/mc/Run3Summer23NanoAODv12/TTto4Q_TuneCP5_13p6TeV_powheg-pythia8/NANOAODSIM/130X_mcRun3_2023_realistic_v14-v2/2550000/5d830755-ac82-4b0f-8f5c-2cdb649be94e.root
/store/mc/Run3Summer23NanoAODv12/TTto4Q_TuneCP5_13p6TeV_powheg-pythia8/NANOAODSIM/130X_mcRun3_2023_realistic_v14-v2/2550000/88569761-07ab-4d5e-9ed9-983adc20ecbb.root
/store/mc/Run3Summer23NanoAODv12/TTto4Q_TuneCP5_13p6TeV_powheg-pythia8/NANOAODSIM/130X_mcRun3_2023_realistic_v14-v2/2550000/e7e842a7-c3bb-427f-ab26-da3f3ffb7376.root
/store/mc/Run3Summer23NanoAODv12/TTto4Q_TuneCP5_13p6TeV_powheg-pythia8/NANOAODSIM/130X_mcRun3_2023_realistic_v14-v2/2550000/45498b6d-cabd-43d7-9a1d-8d13b56510af.root
/store/mc/Run3Summer23NanoAODv12/TTto4Q_TuneCP5_13p6TeV_powheg-pythia8/NANOAODSIM/130X_mcRun3_2023_realistic_v14-v2/2550000/8477a8ed-ec98-49ed-b499-c4d6326cf68d.root
/store/mc/Run3Summer23NanoAODv12/TTto4Q_TuneCP5_13p6TeV_powheg-pythia8/NANOAODSIM/130X_mcRun3_2023_realistic_v14-v2/2550000/e5be6640-768f-47b9-968e-ab12f8b22bea.root
/store/mc/Run3Summer23NanoAODv12/TTto4Q_TuneCP5_13p6TeV_powheg-pythia8/NANOAODSIM/130X_mcRun3_2023_realistic_v14-v2/2550000/7eb02aa6-cc6c-4343-9215-8b1e574abe54.root
/store/mc/Run3Summer23NanoAODv12/TTto4Q_TuneCP5_13p6TeV_powheg-pythia8/NANOAODSIM/130X_mcRun3_2023_realistic_v14-v2/2550000/1aaefbf7-a387-4cfd-afb9-f38649b73687.root
/store/mc/Run3Summer23NanoAODv12/TTto4Q_TuneCP5_13p6TeV_powheg-pythia8/NANOAODSIM/130X_mcRun3_2023_realistic_v14-v2/2550000/ed7f025d-73c2-4895-9222-a32c012ac041.root
/store/mc/Run3Summer23NanoAODv12/TTto4Q_TuneCP5_13p6TeV_powheg-pythia8/NANOAODSIM/130X_mcRun3_2023_realistic_v14-v2/2550000/e499cadb-1330-437a-9064-b13f3bf53d1a.root
/store/mc/Run3Summer23NanoAODv12/TTto4Q_TuneCP5_13p6TeV_powheg-pythia8/NANOAODSIM/130X_mcRun3_2023_realistic_v14-v2/2550000/8537b210-aebe-42f9-9272-84f96ffb3763.root
/store/mc/Run3Summer23NanoAODv12/TTto4Q_TuneCP5_13p6TeV_powheg-pythia8/NANOAODSIM/130X_mcRun3_2023_realistic_v14-v2/2550000/5d8b85b3-94f3-44c9-b396-603353812684.root
/store/mc/Run3Summer23NanoAODv12/TTto4Q_TuneCP5_13p6TeV_powheg-pythia8/NANOAODSIM/130X_mcRun3_2023_realistic_v14-v2/2550000/82fd2944-9fb1-4bdd-bcab-4564f022c962.root
/store/mc/Run3Summer23NanoAODv12/TTto4Q_TuneCP5_13p6TeV_powheg-pythia8/NANOAODSIM/130X_mcRun3_2023_realistic_v14-v2/2550000/dfb5e5b5-09fe-4447-ae95-9b3bbaa482b7.root
/store/mc/Run3Summer23NanoAODv12/TTto4Q_TuneCP5_13p6TeV_powheg-pythia8/NANOAODSIM/130X_mcRun3_2023_realistic_v14-v2/2550000/2ddd5f68-9853-4f5b-9f5f-3f5df477aad4.root
/store/mc/Run3Summer23NanoAODv12/TTto4Q_TuneCP5_13p6TeV_powheg-pythia8/NANOAODSIM/130X_mcRun3_2023_realistic_v14-v2/2550000/3215920f-0a3d-4a93-9a0e-b645fc771ddc.root
/store/mc/Run3Summer23NanoAODv12/TTto4Q_TuneCP5_13p6TeV_powheg-pythia8/NANOAODSIM/130X_mcRun3_2023_realistic_v14-v2/2550000/4eff545d-4c77-4a4f-9483-a34de1fe11ce.root
/store/mc/Run3Summer23NanoAODv12/TTto4Q_TuneCP5_13p6TeV_powheg-pythia8/NANOAODSIM/130X_mcRun3_2023_realistic_v14-v2/2550000/34025e4d-2737-4176-bf85-99f6eeda32f6.root
/store/mc/Run3Summer23NanoAODv12/TTto4Q_TuneCP5_13p6TeV_powheg-pythia8/NANOAODSIM/130X_mcRun3_2023_realistic_v14-v2/2550000/0bc32f69-1db7-4e6c-b233-026199e6a16e.root
/store/mc/Run3Summer23NanoAODv12/TTto4Q_TuneCP5_13p6TeV_powheg-pythia8/NANOAODSIM/130X_mcRun3_2023_realistic_v14-v2/2550000/a23ee106-ce81-4bb8-9f08-64772199ed4b.root
/store/mc/Run3Summer23NanoAODv12/TTto4Q_TuneCP5_13p6TeV_powheg-pythia8/NANOAODSIM/130X_mcRun3_2023_realistic_v14-v2/2550000/9e549582-e0b5-44a5-999a-e06b67b93c42.root
/store/mc/Run3Summer23NanoAODv12/TTto4Q_TuneCP5_13p6TeV_powheg-pythia8/NANOAODSIM/130X_mcRun3_2023_realistic_v14-v2/2550000/cb335e82-5e62-41ce-80ab-e66ace19e151.root
/store/mc/Run3Summer23NanoAODv12/TTto4Q_TuneCP5_13p6TeV_powheg-pythia8/NANOAODSIM/130X_mcRun3_2023_realistic_v14-v2/2550000/b7e449b3-917d-4ab6-a821-8e134bc3320f.root
/store/mc/Run3Summer23NanoAODv12/TTto4Q_TuneCP5_13p6TeV_powheg-pythia8/NANOAODSIM/130X_mcRun3_2023_realistic_v14-v2/2550000/ff81c315-5969-406e-917f-bb94738e87ef.root
/store/mc/Run3Summer23NanoAODv12/TTto4Q_TuneCP5_13p6TeV_powheg-pythia8/NANOAODSIM/130X_mcRun3_2023_realistic_v14-v2/2550000/a66252be-1cc4-4d7b-8ef6-e11499478372.root
/store/mc/Run3Summer23NanoAODv12/TTto4Q_TuneCP5_13p6TeV_powheg-pythia8/NANOAODSIM/130X_mcRun3_2023_realistic_v14-v2/2550000/667e647e-6f89-4563-b508-6933f7ac71c0.root
/store/mc/Run3Summer23NanoAODv12/TTto4Q_TuneCP5_13p6TeV_powheg-pythia8/NANOAODSIM/130X_mcRun3_2023_realistic_v14-v2/2550000/d6cc4dd2-3f5e-4470-af06-744cf1bb5637.root
/store/mc/Run3Summer23NanoAODv12/TTto4Q_TuneCP5_13p6TeV_powheg-pythia8/NANOAODSIM/130X_mcRun3_2023_realistic_v14-v2/2550000/3cb52b1c-2153-41c7-9d1d-68a439287dc4.root
/store/mc/Run3Summer23NanoAODv12/TTto4Q_TuneCP5_13p6TeV_powheg-pythia8/NANOAODSIM/130X_mcRun3_2023_realistic_v14-v2/2550000/266837af-ec13-4884-b139-5ec1d2b53859.root
/store/mc/Run3Summer23NanoAODv12/TTto4Q_TuneCP5_13p6TeV_powheg-pythia8/NANOAODSIM/130X_mcRun3_2023_realistic_v14-v2/2550000/e76379a6-b4a2-4207-834a-3aac497d0016.root
/store/mc/Run3Summer23NanoAODv12/TTto4Q_TuneCP5_13p6TeV_powheg-pythia8/NANOAODSIM/130X_mcRun3_2023_realistic_v14-v2/2550000/a76ee3a3-9910-4cee-a4b7-827f0995b91b.root
/store/mc/Run3Summer23NanoAODv12/TTto4Q_TuneCP5_13p6TeV_powheg-pythia8/NANOAODSIM/130X_mcRun3_2023_realistic_v14-v2/2550000/b488d457-6670-4675-b74b-4dcd1ae639b7.root
/store/mc/Run3Summer23NanoAODv12/TTto4Q_TuneCP5_13p6TeV_powheg-pythia8/NANOAODSIM/130X_mcRun3_2023_realistic_v14-v2/2550000/fb682e46-ab5a-48b2-bbe1-8eb6006fd6af.root
/store/mc/Run3Summer23NanoAODv12/TTto4Q_TuneCP5_13p6TeV_powheg-pythia8/NANOAODSIM/130X_mcRun3_2023_realistic_v14-v2/2550000/0577e47d-6574-4326-9138-7e3e13b3cd2c.root
/store/mc/Run3Summer23NanoAODv12/TTto4Q_TuneCP5_13p6TeV_powheg-pythia8/NANOAODSIM/130X_mcRun3_2023_realistic_v14-v2/2550000/a8835572-5b60-4f88-a81d-d6fc8420eaf8.root
/store/mc/Run3Summer23NanoAODv12/TTto4Q_TuneCP5_13p6TeV_powheg-pythia8/NANOAODSIM/130X_mcRun3_2023_realistic_v14-v2/2550000/952f560d-ca86-4f4c-b861-5c95b3501159.root
/store/mc/Run3Summer23NanoAODv12/TTto4Q_TuneCP5_13p6TeV_powheg-pythia8/NANOAODSIM/130X_mcRun3_2023_realistic_v14-v2/2550000/b044522a-9472-4b34-a4cb-f249b9c35a1a.root
/store/mc/Run3Summer23NanoAODv12/TTto4Q_TuneCP5_13p6TeV_powheg-pythia8/NANOAODSIM/130X_mcRun3_2023_realistic_v14-v2/2550000/68d00a07-0c60-45bc-9d1b-efbafc9a1992.root
/store/mc/Run3Summer23NanoAODv12/TTto4Q_TuneCP5_13p6TeV_powheg-pythia8/NANOAODSIM/130X_mcRun3_2023_realistic_v14-v2/2550000/c0ee24dd-31db-4eee-bcde-4916ec407c08.root
/store/mc/Run3Summer23NanoAODv12/TTto4Q_TuneCP5_13p6TeV_powheg-pythia8/NANOAODSIM/130X_mcRun3_2023_realistic_v14-v2/2550000/a439e45e-3369-4a98-acdd-52aeb0581540.root
/store/mc/Run3Summer23NanoAODv12/TTto4Q_TuneCP5_13p6TeV_powheg-pythia8/NANOAODSIM/130X_mcRun3_2023_realistic_v14-v2/2550000/47e007ff-ab33-4acf-86c7-0e36e6dc0a78.root
/store/mc/Run3Summer23NanoAODv12/TTto4Q_TuneCP5_13p6TeV_powheg-pythia8/NANOAODSIM/130X_mcRun3_2023_realistic_v14-v2/2550000/b13a3d92-c18e-43c5-a514-551cb9521515.root
/store/mc/Run3Summer23NanoAODv12/TTto4Q_TuneCP5_13p6TeV_powheg-pythia8/NANOAODSIM/130X_mcRun3_2023_realistic_v14-v2/2550000/5c8ce988-7293-4ad9-8ba5-1251408b00eb.root
/store/mc/Run3Summer23NanoAODv12/TTto4Q_TuneCP5_13p6TeV_powheg-pythia8/NANOAODSIM/130X_mcRun3_2023_realistic_v14-v2/2550000/dc4bb6cd-8c90-4b65-9ee0-d6dea22c5818.root
/store/mc/Run3Summer23NanoAODv12/TTto4Q_TuneCP5_13p6TeV_powheg-pythia8/NANOAODSIM/130X_mcRun3_2023_realistic_v14-v2/2550000/8220e086-5ee6-4cb8-8d5c-9f92f1395084.root
/store/mc/Run3Summer23NanoAODv12/TTto4Q_TuneCP5_13p6TeV_powheg-pythia8/NANOAODSIM/130X_mcRun3_2023_realistic_v14-v2/2550000/118a8039-f057-4b0b-a54e-eed9cd65e4c8.root
/store/mc/Run3Summer23NanoAODv12/TTto4Q_TuneCP5_13p6TeV_powheg-pythia8/NANOAODSIM/130X_mcRun3_2023_realistic_v14-v2/2550000/94e65f84-30c2-45d4-b531-47d218dab488.root
/store/mc/Run3Summer23NanoAODv12/TTto4Q_TuneCP5_13p6TeV_powheg-pythia8/NANOAODSIM/130X_mcRun3_2023_realistic_v14-v2/2550000/66798d9d-97cd-4289-9772-1f19aae44a7f.root
/store/mc/Run3Summer23NanoAODv12/TTto4Q_TuneCP5_13p6TeV_powheg-pythia8/NANOAODSIM/130X_mcRun3_2023_realistic_v14-v2/2550000/4eebac17-db07-4fea-8f09-38dd531af46a.root
/store/mc/Run3Summer23NanoAODv12/TTto4Q_TuneCP5_13p6TeV_powheg-pythia8/NANOAODSIM/130X_mcRun3_2023_realistic_v14-v2/2550000/37d81288-ed36-4710-84ed-3e0c2525c746.root
/store/mc/Run3Summer23NanoAODv12/TTto4Q_TuneCP5_13p6TeV_powheg-pythia8/NANOAODSIM/130X_mcRun3_2023_realistic_v14-v2/2550000/72de8c81-c90b-444f-9587-7fee7eee1369.root
/store/mc/Run3Summer23NanoAODv12/TTto4Q_TuneCP5_13p6TeV_powheg-pythia8/NANOAODSIM/130X_mcRun3_2023_realistic_v14-v2/2550000/ce215541-f98b-4b13-a1d2-9daa7ed378c0.root
/store/mc/Run3Summer23NanoAODv12/TTto4Q_TuneCP5_13p6TeV_powheg-pythia8/NANOAODSIM/130X_mcRun3_2023_realistic_v14-v2/2550000/68c952d2-28d4-46d2-821f-e5844247806f.root
/store/mc/Run3Summer23NanoAODv12/TTto4Q_TuneCP5_13p6TeV_powheg-pythia8/NANOAODSIM/130X_mcRun3_2023_realistic_v14-v2/2550000/b8c69438-bb9d-443f-8a7e-17b4c75f3e06.root
/store/mc/Run3Summer23NanoAODv12/TTto4Q_TuneCP5_13p6TeV_powheg-pythia8/NANOAODSIM/130X_mcRun3_2023_realistic_v14-v2/2550000/e9e809f7-a769-4702-816a-7fa13eaa2c54.root
/store/mc/Run3Summer23NanoAODv12/TTto4Q_TuneCP5_13p6TeV_powheg-pythia8/NANOAODSIM/130X_mcRun3_2023_realistic_v14-v2/2550000/322f89ce-b0b9-441d-bf6c-ec2b34f00c43.root
/store/mc/Run3Summer23NanoAODv12/TTto4Q_TuneCP5_13p6TeV_powheg-pythia8/NANOAODSIM/130X_mcRun3_2023_realistic_v14-v2/2550000/b64dce66-22a5-4d11-99db-849949ed4a79.root
/store/mc/Run3Summer23NanoAODv12/TTto4Q_TuneCP5_13p6TeV_powheg-pythia8/NANOAODSIM/130X_mcRun3_2023_realistic_v14-v2/2550000/cca0aa9b-9a1d-4730-b3a6-11222fc71509.root
/store/mc/Run3Summer23NanoAODv12/TTto4Q_TuneCP5_13p6TeV_powheg-pythia8/NANOAODSIM/130X_mcRun3_2023_realistic_v14-v2/2550000/00f6c177-87da-409e-bcd9-0dda8aa9a91f.root
/store/mc/Run3Summer23NanoAODv12/TTto4Q_TuneCP5_13p6TeV_powheg-pythia8/NANOAODSIM/130X_mcRun3_2023_realistic_v14-v2/2550000/7463314a-6865-4384-be81-cee74e42e430.root
/store/mc/Run3Summer23NanoAODv12/TTto4Q_TuneCP5_13p6TeV_powheg-pythia8/NANOAODSIM/130X_mcRun3_2023_realistic_v14-v2/2550000/2b0b032d-ce4c-41d7-b81d-c580980da0b2.root
/store/mc/Run3Summer23NanoAODv12/TTto4Q_TuneCP5_13p6TeV_powheg-pythia8/NANOAODSIM/130X_mcRun3_2023_realistic_v14-v2/2550000/dabda419-a95d-443a-892b-d4fa16684053.root
/store/mc/Run3Summer23NanoAODv12/TTto4Q_TuneCP5_13p6TeV_powheg-pythia8/NANOAODSIM/130X_mcRun3_2023_realistic_v14-v2/2550000/1003d04c-ef10-495e-bbdd-7341905353a8.root
/store/mc/Run3Summer23NanoAODv12/TTto4Q_TuneCP5_13p6TeV_powheg-pythia8/NANOAODSIM/130X_mcRun3_2023_realistic_v14-v2/2550000/2875c46c-d029-4711-a411-f65bc90a9199.root
/store/mc/Run3Summer23NanoAODv12/TTto4Q_TuneCP5_13p6TeV_powheg-pythia8/NANOAODSIM/130X_mcRun3_2023_realistic_v14-v2/2550000/ac9636ab-8cc8-4850-b6a5-a8afdc7db1a8.root
/store/mc/Run3Summer23NanoAODv12/TTto4Q_TuneCP5_13p6TeV_powheg-pythia8/NANOAODSIM/130X_mcRun3_2023_realistic_v14-v2/2550000/77a5bb8e-34f0-48b9-bf33-a211f66efeec.root
/store/mc/Run3Summer23NanoAODv12/TTto4Q_TuneCP5_13p6TeV_powheg-pythia8/NANOAODSIM/130X_mcRun3_2023_realistic_v14-v2/2550000/21e3d650-c363-4662-8ccb-28be02a409bd.root
/store/mc/Run3Summer23NanoAODv12/TTto4Q_TuneCP5_13p6TeV_powheg-pythia8/NANOAODSIM/130X_mcRun3_2023_realistic_v14-v2/2550000/b1c7e7d8-e84e-46b8-95b2-8675f4e74e1e.root
/store/mc/Run3Summer23NanoAODv12/TTto4Q_TuneCP5_13p6TeV_powheg-pythia8/NANOAODSIM/130X_mcRun3_2023_realistic_v14-v2/2550000/5c66df5b-2c4e-494b-ad66-9e73fa7541f3.root
/store/mc/Run3Summer23NanoAODv12/TTto4Q_TuneCP5_13p6TeV_powheg-pythia8/NANOAODSIM/130X_mcRun3_2023_realistic_v14-v2/2550000/11d99ade-ff39-4605-ac12-c2e1713f3ba0.root
/store/mc/Run3Summer23NanoAODv12/TTto4Q_TuneCP5_13p6TeV_powheg-pythia8/NANOAODSIM/130X_mcRun3_2023_realistic_v14-v2/2550000/0357f4d1-f57e-4d20-8dbe-1bd1f70afba8.root
/store/mc/Run3Summer23NanoAODv12/TTto4Q_TuneCP5_13p6TeV_powheg-pythia8/NANOAODSIM/130X_mcRun3_2023_realistic_v14-v2/2550000/fce410d4-6ef9-4c26-a59e-20ba1dae924d.root
/store/mc/Run3Summer23NanoAODv12/TTto4Q_TuneCP5_13p6TeV_powheg-pythia8/NANOAODSIM/130X_mcRun3_2023_realistic_v14-v2/2550000/fa339ac6-6872-436e-8e1c-5cb82ce1e488.root
/store/mc/Run3Summer23NanoAODv12/TTto4Q_TuneCP5_13p6TeV_powheg-pythia8/NANOAODSIM/130X_mcRun3_2023_realistic_v14-v2/2550000/ffe21977-8602-4d94-90e1-6938d271d36c.root
/store/mc/Run3Summer23NanoAODv12/TTto4Q_TuneCP5_13p6TeV_powheg-pythia8/NANOAODSIM/130X_mcRun3_2023_realistic_v14-v2/2550000/6283929e-08cb-4ba6-bfe4-14a111eae4b7.root
/store/mc/Run3Summer23NanoAODv12/TTto4Q_TuneCP5_13p6TeV_powheg-pythia8/NANOAODSIM/130X_mcRun3_2023_realistic_v14-v2/2550000/cddf08f7-63e1-4220-a360-a82cf5a3904c.root
/store/mc/Run3Summer23NanoAODv12/TTto4Q_TuneCP5_13p6TeV_powheg-pythia8/NANOAODSIM/130X_mcRun3_2023_realistic_v14-v2/2550000/ab2bfeec-2007-4abd-93be-68a6efac8907.root
/store/mc/Run3Summer23NanoAODv12/TTto4Q_TuneCP5_13p6TeV_powheg-pythia8/NANOAODSIM/130X_mcRun3_2023_realistic_v14-v2/2550000/ae195545-0c6e-4ac9-9bec-6a3f11f14028.root
/store/mc/Run3Summer23NanoAODv12/TTto4Q_TuneCP5_13p6TeV_powheg-pythia8/NANOAODSIM/130X_mcRun3_2023_realistic_v14-v2/2550000/746e51b8-448c-43da-83de-cbf7ecbd9027.root
/store/mc/Run3Summer23NanoAODv12/TTto4Q_TuneCP5_13p6TeV_powheg-pythia8/NANOAODSIM/130X_mcRun3_2023_realistic_v14-v2/2550000/5ccaee5c-0071-4196-9015-a8a2ec8a9d19.root
/store/mc/Run3Summer23NanoAODv12/TTto4Q_TuneCP5_13p6TeV_powheg-pythia8/NANOAODSIM/130X_mcRun3_2023_realistic_v14-v2/2550000/3dda56a7-3857-41a1-89dd-3243b4f03fb5.root
/store/mc/Run3Summer23NanoAODv12/TTto4Q_TuneCP5_13p6TeV_powheg-pythia8/NANOAODSIM/130X_mcRun3_2023_realistic_v14-v2/2550000/08450041-2f28-43fe-8100-b78b978a2180.root
/store/mc/Run3Summer23NanoAODv12/TTto4Q_TuneCP5_13p6TeV_powheg-pythia8/NANOAODSIM/130X_mcRun3_2023_realistic_v14-v2/2550000/9b5cb46a-3770-4f50-9487-12a699d6b359.root
/store/mc/Run3Summer23NanoAODv12/TTto4Q_TuneCP5_13p6TeV_powheg-pythia8/NANOAODSIM/130X_mcRun3_2023_realistic_v14-v2/2550000/b2aa21c1-7e46-4f58-bc30-cc68c30bc324.root
/store/mc/Run3Summer23NanoAODv12/TTto4Q_TuneCP5_13p6TeV_powheg-pythia8/NANOAODSIM/130X_mcRun3_2023_realistic_v14-v2/2550000/6ea629c0-d21f-4971-8cbe-4822562d75de.root
/store/mc/Run3Summer23NanoAODv12/TTto4Q_TuneCP5_13p6TeV_powheg-pythia8/NANOAODSIM/130X_mcRun3_2023_realistic_v14-v2/2550000/5c2bc338-2d3b-406a-95d0-046d514c1c96.root
/store/mc/Run3Summer23NanoAODv12/TTto4Q_TuneCP5_13p6TeV_powheg-pythia8/NANOAODSIM/130X_mcRun3_2023_realistic_v14-v2/2550000/0d7fb406-2186-4171-a0aa-700471a5382e.root
/store/mc/Run3Summer23NanoAODv12/TTto4Q_TuneCP5_13p6TeV_powheg-pythia8/NANOAODSIM/130X_mcRun3_2023_realistic_v14-v2/2550000/0b788f77-bc06-442b-a25c-125fbaa1ecd7.root
/store/mc/Run3Summer23NanoAODv12/TTto4Q_TuneCP5_13p6TeV_powheg-pythia8/NANOAODSIM/130X_mcRun3_2023_realistic_v14-v2/2550000/23da033f-1956-475f-aac5-9d5bdbf531ad.root
/store/mc/Run3Summer23NanoAODv12/TTto4Q_TuneCP5_13p6TeV_powheg-pythia8/NANOAODSIM/130X_mcRun3_2023_realistic_v14-v2/2550000/94c50956-b9a5-436b-a4c1-6da813d9a58b.root
/store/mc/Run3Summer23NanoAODv12/TTto4Q_TuneCP5_13p6TeV_powheg-pythia8/NANOAODSIM/130X_mcRun3_2023_realistic_v14-v2/2550000/421dd268-9d2c-4fb2-bacc-f1b268de0b56.root
/store/mc/Run3Summer23NanoAODv12/TTto4Q_TuneCP5_13p6TeV_powheg-pythia8/NANOAODSIM/130X_mcRun3_2023_realistic_v14-v2/2550000/9df8265b-9957-4497-a08e-5bb4addeb71b.root
/store/mc/Run3Summer23NanoAODv12/TTto4Q_TuneCP5_13p6TeV_powheg-pythia8/NANOAODSIM/130X_mcRun3_2023_realistic_v14-v2/2550000/8fc0f7ce-ecb1-4974-9e3e-b85940cb4a67.root
/store/mc/Run3Summer23NanoAODv12/TTto4Q_TuneCP5_13p6TeV_powheg-pythia8/NANOAODSIM/130X_mcRun3_2023_realistic_v14-v2/2550000/2c7558a6-b0f7-4d78-9b84-6ed25d87cd53.root
/store/mc/Run3Summer23NanoAODv12/TTto4Q_TuneCP5_13p6TeV_powheg-pythia8/NANOAODSIM/130X_mcRun3_2023_realistic_v14-v2/2550000/aeef8eba-157a-40a9-a9b9-a76ad5f45486.root
/store/mc/Run3Summer23NanoAODv12/TTto4Q_TuneCP5_13p6TeV_powheg-pythia8/NANOAODSIM/130X_mcRun3_2023_realistic_v14-v2/2550000/7ea4d4a2-bce2-4f30-b05c-31009059d406.root
/store/mc/Run3Summer23NanoAODv12/TTto4Q_TuneCP5_13p6TeV_powheg-pythia8/NANOAODSIM/130X_mcRun3_2023_realistic_v14-v2/2550000/d970d0dd-edb0-4ebf-b238-70bdfdc41e51.root
/store/mc/Run3Summer23NanoAODv12/TTto4Q_TuneCP5_13p6TeV_powheg-pythia8/NANOAODSIM/130X_mcRun3_2023_realistic_v14-v2/2550000/205e4a12-c1ed-4293-ba07-d953d789f31d.root
/store/mc/Run3Summer23NanoAODv12/TTto4Q_TuneCP5_13p6TeV_powheg-pythia8/NANOAODSIM/130X_mcRun3_2023_realistic_v14-v2/2550000/23667d19-efbf-4c4d-aa6e-087f6b26c23a.root
/store/mc/Run3Summer23NanoAODv12/TTto4Q_TuneCP5_13p6TeV_powheg-pythia8/NANOAODSIM/130X_mcRun3_2023_realistic_v14-v2/2550000/eab3ad80-a3a0-41cf-83d5-5e835980359f.root
/store/mc/Run3Summer23NanoAODv12/TTto4Q_TuneCP5_13p6TeV_powheg-pythia8/NANOAODSIM/130X_mcRun3_2023_realistic_v14-v2/2550000/8204f22f-e31c-413c-99fc-5b18086b0a7c.root
/store/mc/Run3Summer23NanoAODv12/TTto4Q_TuneCP5_13p6TeV_powheg-pythia8/NANOAODSIM/130X_mcRun3_2023_realistic_v14-v2/2550000/2a863a72-d136-4aac-aa00-7b71f327a9be.root
/store/mc/Run3Summer23NanoAODv12/TTto4Q_TuneCP5_13p6TeV_powheg-pythia8/NANOAODSIM/130X_mcRun3_2023_realistic_v14-v2/2550000/51f50baa-bd7b-45eb-9693-5118e6e09143.root
/store/mc/Run3Summer23NanoAODv12/TTto4Q_TuneCP5_13p6TeV_powheg-pythia8/NANOAODSIM/130X_mcRun3_2023_realistic_v14-v2/2550000/ab0c0bb2-f83c-4868-b713-e03bcede3131.root
/store/mc/Run3Summer23NanoAODv12/TTto4Q_TuneCP5_13p6TeV_powheg-pythia8/NANOAODSIM/130X_mcRun3_2023_realistic_v14-v2/2550000/acd640dc-5f83-478c-9706-40a64e61e8b8.root
/store/mc/Run3Summer23NanoAODv12/TTto4Q_TuneCP5_13p6TeV_powheg-pythia8/NANOAODSIM/130X_mcRun3_2023_realistic_v14-v2/2550000/a64d2846-ba09-4b10-9e12-608548bfe2bd.root
/store/mc/Run3Summer23NanoAODv12/TTto4Q_TuneCP5_13p6TeV_powheg-pythia8/NANOAODSIM/130X_mcRun3_2023_realistic_v14-v2/2550000/67a5a7be-5950-444a-9c01-ae55486fd7e8.root
/store/mc/Run3Summer23NanoAODv12/TTto4Q_TuneCP5_13p6TeV_powheg-pythia8/NANOAODSIM/130X_mcRun3_2023_realistic_v14-v2/2550000/11d2ed70-0559-40c4-bb3e-467a993ebd2c.root
/store/mc/Run3Summer23NanoAODv12/TTto4Q_TuneCP5_13p6TeV_powheg-pythia8/NANOAODSIM/130X_mcRun3_2023_realistic_v14-v2/2550000/14945709-5260-4a11-b792-90f40860eb4e.root
/store/mc/Run3Summer23NanoAODv12/TTto4Q_TuneCP5_13p6TeV_powheg-pythia8/NANOAODSIM/130X_mcRun3_2023_realistic_v14-v2/2550000/29ca1661-fa3d-45c0-9cda-b5a10ca0a359.root
/store/mc/Run3Summer23NanoAODv12/TTto4Q_TuneCP5_13p6TeV_powheg-pythia8/NANOAODSIM/130X_mcRun3_2023_realistic_v14-v2/2550000/816bf3dd-7dbd-4e1f-8c35-3298fa550f7e.root
/store/mc/Run3Summer23NanoAODv12/TTto4Q_TuneCP5_13p6TeV_powheg-pythia8/NANOAODSIM/130X_mcRun3_2023_realistic_v14-v2/2550000/f827879a-f95a-4d6c-b286-8bcd368de728.root
/store/mc/Run3Summer23NanoAODv12/TTto4Q_TuneCP5_13p6TeV_powheg-pythia8/NANOAODSIM/130X_mcRun3_2023_realistic_v14-v2/2550000/eff46b2d-cf75-4775-9c33-828e70c3a65b.root
/store/mc/Run3Summer23NanoAODv12/TTto4Q_TuneCP5_13p6TeV_powheg-pythia8/NANOAODSIM/130X_mcRun3_2023_realistic_v14-v2/2550000/3d2374b9-2666-4d71-a371-e91625d7af49.root
/store/mc/Run3Summer23NanoAODv12/TTto4Q_TuneCP5_13p6TeV_powheg-pythia8/NANOAODSIM/130X_mcRun3_2023_realistic_v14-v2/2550000/b3746116-901c-43a6-91f3-3e8b2d49c9b4.root
/store/mc/Run3Summer23NanoAODv12/TTto4Q_TuneCP5_13p6TeV_powheg-pythia8/NANOAODSIM/130X_mcRun3_2023_realistic_v14-v2/2550000/14c486f7-4c3e-43fc-b964-fee1ccd9a7b5.root
/store/mc/Run3Summer23NanoAODv12/TTto4Q_TuneCP5_13p6TeV_powheg-pythia8/NANOAODSIM/130X_mcRun3_2023_realistic_v14-v2/2550000/5a49e131-8eba-49ea-9870-397f18a5cda8.root
/store/mc/Run3Summer23NanoAODv12/TTto4Q_TuneCP5_13p6TeV_powheg-pythia8/NANOAODSIM/130X_mcRun3_2023_realistic_v14-v2/2550000/c0114b03-a468-45f4-ac7e-9caada632341.root
/store/mc/Run3Summer23NanoAODv12/TTto4Q_TuneCP5_13p6TeV_powheg-pythia8/NANOAODSIM/130X_mcRun3_2023_realistic_v14-v2/2550000/3bd8d823-386e-44d0-ab54-c3df5ec39a19.root
/store/mc/Run3Summer23NanoAODv12/TTto4Q_TuneCP5_13p6TeV_powheg-pythia8/NANOAODSIM/130X_mcRun3_2023_realistic_v14-v2/2550000/9e13eaf2-d457-413d-a762-2d4378f6a8c6.root
/store/mc/Run3Summer23NanoAODv12/TTto4Q_TuneCP5_13p6TeV_powheg-pythia8/NANOAODSIM/130X_mcRun3_2023_realistic_v14-v2/2550000/b2f03875-ba24-4060-88b5-21c53d5561fe.root
/store/mc/Run3Summer23NanoAODv12/TTto4Q_TuneCP5_13p6TeV_powheg-pythia8/NANOAODSIM/130X_mcRun3_2023_realistic_v14-v2/2550000/b43facc1-e8e4-4e80-b006-9637bd7a9f40.root
/store/mc/Run3Summer23NanoAODv12/TTto4Q_TuneCP5_13p6TeV_powheg-pythia8/NANOAODSIM/130X_mcRun3_2023_realistic_v14-v2/2550000/fd192a5a-d7cd-48d2-b912-46f9ff46ccca.root
/store/mc/Run3Summer23NanoAODv12/TTto4Q_TuneCP5_13p6TeV_powheg-pythia8/NANOAODSIM/130X_mcRun3_2023_realistic_v14-v2/2550000/b5274808-8b4d-4536-bda2-5d4c6a0a4276.root
/store/mc/Run3Summer23NanoAODv12/TTto4Q_TuneCP5_13p6TeV_powheg-pythia8/NANOAODSIM/130X_mcRun3_2023_realistic_v14-v2/2550000/fc10792c-58a2-4c4f-9ead-78b94c480d3a.root
/store/mc/Run3Summer23NanoAODv12/TTto4Q_TuneCP5_13p6TeV_powheg-pythia8/NANOAODSIM/130X_mcRun3_2023_realistic_v14-v2/2550000/7ce30c89-f2c5-4266-90c5-ada4be336238.root
/store/mc/Run3Summer23NanoAODv12/TTto4Q_TuneCP5_13p6TeV_powheg-pythia8/NANOAODSIM/130X_mcRun3_2023_realistic_v14-v2/2550000/d45a3434-af0b-43ee-a9ba-9d1bfc61bccb.root
/store/mc/Run3Summer23NanoAODv12/TTto4Q_TuneCP5_13p6TeV_powheg-pythia8/NANOAODSIM/130X_mcRun3_2023_realistic_v14-v2/2550000/7e20e386-307c-4aff-9254-955e6d0717f3.root
/store/mc/Run3Summer23NanoAODv12/TTto4Q_TuneCP5_13p6TeV_powheg-pythia8/NANOAODSIM/130X_mcRun3_2023_realistic_v14-v2/2550000/ed90a08d-83dc-4eae-880c-06bd03e7671b.root
/store/mc/Run3Summer23NanoAODv12/TTto4Q_TuneCP5_13p6TeV_powheg-pythia8/NANOAODSIM/130X_mcRun3_2023_realistic_v14-v2/2550000/1ce00e6a-62bb-4850-9e60-362fa8247efa.root
/store/mc/Run3Summer23NanoAODv12/TTto4Q_TuneCP5_13p6TeV_powheg-pythia8/NANOAODSIM/130X_mcRun3_2023_realistic_v14-v2/2550000/94fc4592-ffcb-466a-ba0f-522e59c35774.root
/store/mc/Run3Summer23NanoAODv12/TTto4Q_TuneCP5_13p6TeV_powheg-pythia8/NANOAODSIM/130X_mcRun3_2023_realistic_v14-v2/2550000/7cc6dccd-68b2-49c4-af7a-790d096a3796.root
/store/mc/Run3Summer23NanoAODv12/TTto4Q_TuneCP5_13p6TeV_powheg-pythia8/NANOAODSIM/130X_mcRun3_2023_realistic_v14-v2/2550000/ee18b2bb-5617-41ca-a917-7da69a3d6f27.root
/store/mc/Run3Summer23NanoAODv12/TTto4Q_TuneCP5_13p6TeV_powheg-pythia8/NANOAODSIM/130X_mcRun3_2023_realistic_v14-v2/2550000/d8148d35-3838-433d-aed8-5d9b786a3d15.root
/store/mc/Run3Summer23NanoAODv12/TTto4Q_TuneCP5_13p6TeV_powheg-pythia8/NANOAODSIM/130X_mcRun3_2023_realistic_v14-v2/2550000/96734c89-2f69-4f82-959f-0dadd8ba2a4a.root
/store/mc/Run3Summer23NanoAODv12/TTto4Q_TuneCP5_13p6TeV_powheg-pythia8/NANOAODSIM/130X_mcRun3_2023_realistic_v14-v2/2550000/5c200bef-d27b-49a6-893e-e69ee72fef2d.root
/store/mc/Run3Summer23NanoAODv12/TTto4Q_TuneCP5_13p6TeV_powheg-pythia8/NANOAODSIM/130X_mcRun3_2023_realistic_v14-v2/2550000/7e958a59-b345-4160-9bfe-c7505a7f6c82.root
/store/mc/Run3Summer23NanoAODv12/TTto4Q_TuneCP5_13p6TeV_powheg-pythia8/NANOAODSIM/130X_mcRun3_2023_realistic_v14-v2/2550000/1ca8d47c-9cae-4b0b-8468-56e8899ff12c.root
/store/mc/Run3Summer23NanoAODv12/TTto4Q_TuneCP5_13p6TeV_powheg-pythia8/NANOAODSIM/130X_mcRun3_2023_realistic_v14-v2/2550000/3fba842c-1d2c-4f48-b3b2-bdf20e381a47.root
/store/mc/Run3Summer23NanoAODv12/TTto4Q_TuneCP5_13p6TeV_powheg-pythia8/NANOAODSIM/130X_mcRun3_2023_realistic_v14-v2/2550000/edf0474e-bbe2-4e11-be39-07e2ae2ade3b.root
/store/mc/Run3Summer23NanoAODv12/TTto4Q_TuneCP5_13p6TeV_powheg-pythia8/NANOAODSIM/130X_mcRun3_2023_realistic_v14-v2/2550000/e09dae1c-328d-45c4-b475-edef780fce82.root
/store/mc/Run3Summer23NanoAODv12/TTto4Q_TuneCP5_13p6TeV_powheg-pythia8/NANOAODSIM/130X_mcRun3_2023_realistic_v14-v2/2550000/3dc92a45-ddae-47b3-bba2-3b521340af90.root
/store/mc/Run3Summer23NanoAODv12/TTto4Q_TuneCP5_13p6TeV_powheg-pythia8/NANOAODSIM/130X_mcRun3_2023_realistic_v14-v2/2550000/13461391-3ef3-46e7-b8f0-2e9a9e530cb2.root
/store/mc/Run3Summer23NanoAODv12/TTto4Q_TuneCP5_13p6TeV_powheg-pythia8/NANOAODSIM/130X_mcRun3_2023_realistic_v14-v2/2550000/94e17f21-657d-4841-ab0d-0220a79e5ae8.root
/store/mc/Run3Summer23NanoAODv12/TTto4Q_TuneCP5_13p6TeV_powheg-pythia8/NANOAODSIM/130X_mcRun3_2023_realistic_v14-v2/2550000/e5daf60b-29a8-4914-a3e9-6456706aaf3e.root
/store/mc/Run3Summer23NanoAODv12/TTto4Q_TuneCP5_13p6TeV_powheg-pythia8/NANOAODSIM/130X_mcRun3_2023_realistic_v14-v2/2550000/bdb5dbf3-5977-4d64-987b-de6b106670ab.root
/store/mc/Run3Summer23NanoAODv12/TTto4Q_TuneCP5_13p6TeV_powheg-pythia8/NANOAODSIM/130X_mcRun3_2023_realistic_v14-v2/2550000/183e8e87-b4f3-4a2b-b61f-d814bb67723c.root
/store/mc/Run3Summer23NanoAODv12/TTto4Q_TuneCP5_13p6TeV_powheg-pythia8/NANOAODSIM/130X_mcRun3_2023_realistic_v14-v2/2550000/934a83ee-e224-4b8b-bbec-47ff71aee301.root
/store/mc/Run3Summer23NanoAODv12/TTto4Q_TuneCP5_13p6TeV_powheg-pythia8/NANOAODSIM/130X_mcRun3_2023_realistic_v14-v2/2550000/c235f711-65c7-4689-bb56-27b1e701787c.root
/store/mc/Run3Summer23NanoAODv12/TTto4Q_TuneCP5_13p6TeV_powheg-pythia8/NANOAODSIM/130X_mcRun3_2023_realistic_v14-v2/2550000/4689c3f1-52e5-4e22-86dc-59f317b773fd.root
/store/mc/Run3Summer23NanoAODv12/TTto4Q_TuneCP5_13p6TeV_powheg-pythia8/NANOAODSIM/130X_mcRun3_2023_realistic_v14-v2/2550000/1c7d30a9-fd07-4268-8bb3-ee942edb86d2.root
/store/mc/Run3Summer23NanoAODv12/TTto4Q_TuneCP5_13p6TeV_powheg-pythia8/NANOAODSIM/130X_mcRun3_2023_realistic_v14-v2/2550000/83bb88bf-e3ff-4bbd-a655-230f712a28be.root
/store/mc/Run3Summer23NanoAODv12/TTto4Q_TuneCP5_13p6TeV_powheg-pythia8/NANOAODSIM/130X_mcRun3_2023_realistic_v14-v2/2550000/3094df05-7b8e-4613-a081-600626551745.root
/store/mc/Run3Summer23NanoAODv12/TTto4Q_TuneCP5_13p6TeV_powheg-pythia8/NANOAODSIM/130X_mcRun3_2023_realistic_v14-v2/2550000/60973201-4fc4-4746-afb9-389c010f012b.root
/store/mc/Run3Summer23NanoAODv12/TTto4Q_TuneCP5_13p6TeV_powheg-pythia8/NANOAODSIM/130X_mcRun3_2023_realistic_v14-v2/2550000/cfcec56c-4155-4a03-949d-ba3ff09976ff.root
/store/mc/Run3Summer23NanoAODv12/TTto4Q_TuneCP5_13p6TeV_powheg-pythia8/NANOAODSIM/130X_mcRun3_2023_realistic_v14-v2/2550000/30f59ad3-ea4b-4722-adfe-86f73285398b.root
/store/mc/Run3Summer23NanoAODv12/TTto4Q_TuneCP5_13p6TeV_powheg-pythia8/NANOAODSIM/130X_mcRun3_2023_realistic_v14-v2/2550000/a516df0d-10dd-405b-9e52-380499137952.root
/store/mc/Run3Summer23NanoAODv12/TTto4Q_TuneCP5_13p6TeV_powheg-pythia8/NANOAODSIM/130X_mcRun3_2023_realistic_v14-v2/2550000/bca85e82-54f2-47da-a794-0e0ff9c94a52.root
/store/mc/Run3Summer23NanoAODv12/TTto4Q_TuneCP5_13p6TeV_powheg-pythia8/NANOAODSIM/130X_mcRun3_2023_realistic_v14-v2/2550000/cad82d6a-22d7-4abf-bd37-56135f47d001.root
/store/mc/Run3Summer23NanoAODv12/TTto4Q_TuneCP5_13p6TeV_powheg-pythia8/NANOAODSIM/130X_mcRun3_2023_realistic_v14-v2/2550000/6f66ca7e-d676-40d9-b544-a8b8dbf4a1ee.root
/store/mc/Run3Summer23NanoAODv12/TTto4Q_TuneCP5_13p6TeV_powheg-pythia8/NANOAODSIM/130X_mcRun3_2023_realistic_v14-v2/2550000/54ab7e5d-c265-458d-ba24-b07c52aa6614.root
/store/mc/Run3Summer23NanoAODv12/TTto4Q_TuneCP5_13p6TeV_powheg-pythia8/NANOAODSIM/130X_mcRun3_2023_realistic_v14-v2/2550000/cf6abb69-e2ce-4c29-bcc2-8bfd0c483727.root
/store/mc/Run3Summer23NanoAODv12/TTto4Q_TuneCP5_13p6TeV_powheg-pythia8/NANOAODSIM/130X_mcRun3_2023_realistic_v14-v2/2550000/43d0a9e1-4fc2-43cf-8bb9-9bda69ac0fcf.root
/store/mc/Run3Summer23NanoAODv12/TTto4Q_TuneCP5_13p6TeV_powheg-pythia8/NANOAODSIM/130X_mcRun3_2023_realistic_v14-v2/2550000/f6ccdad6-33de-473d-81e7-110a3f66a7a1.root
/store/mc/Run3Summer23NanoAODv12/TTto4Q_TuneCP5_13p6TeV_powheg-pythia8/NANOAODSIM/130X_mcRun3_2023_realistic_v14-v2/2550000/106d34a9-5f6d-40b2-8d4a-6562f88df192.root
/store/mc/Run3Summer23NanoAODv12/TTto4Q_TuneCP5_13p6TeV_powheg-pythia8/NANOAODSIM/130X_mcRun3_2023_realistic_v14-v2/2550000/525c256c-dc4d-441c-95e4-43883c70f29e.root
/store/mc/Run3Summer23NanoAODv12/TTto4Q_TuneCP5_13p6TeV_powheg-pythia8/NANOAODSIM/130X_mcRun3_2023_realistic_v14-v2/2550000/7acbc5a9-476f-46bb-821a-6fdcaa5b59a6.root
/store/mc/Run3Summer23NanoAODv12/TTto4Q_TuneCP5_13p6TeV_powheg-pythia8/NANOAODSIM/130X_mcRun3_2023_realistic_v14-v2/2550000/c50a00da-bf75-4666-935f-b3e3f1cf5c50.root
/store/mc/Run3Summer23NanoAODv12/TTto4Q_TuneCP5_13p6TeV_powheg-pythia8/NANOAODSIM/130X_mcRun3_2023_realistic_v14-v2/2550000/8badc604-7405-4d0a-976d-7d36aa5e32be.root
/store/mc/Run3Summer23NanoAODv12/TTto4Q_TuneCP5_13p6TeV_powheg-pythia8/NANOAODSIM/130X_mcRun3_2023_realistic_v14-v2/2550000/1a011b97-504f-4d84-8db3-ddab8c80b5fc.root
/store/mc/Run3Summer23NanoAODv12/TTto4Q_TuneCP5_13p6TeV_powheg-pythia8/NANOAODSIM/130X_mcRun3_2023_realistic_v14-v2/2550000/6e5efc83-2fae-4231-99c2-b7fef2c48482.root
/store/mc/Run3Summer23NanoAODv12/TTto4Q_TuneCP5_13p6TeV_powheg-pythia8/NANOAODSIM/130X_mcRun3_2023_realistic_v14-v2/2550000/b8ff0670-2826-4b2c-9745-e3ba9c6210a0.root
/store/mc/Run3Summer23NanoAODv12/TTto4Q_TuneCP5_13p6TeV_powheg-pythia8/NANOAODSIM/130X_mcRun3_2023_realistic_v14-v2/2550000/6a35ebd7-096a-461b-a462-fc63f019d065.root
/store/mc/Run3Summer23NanoAODv12/TTto4Q_TuneCP5_13p6TeV_powheg-pythia8/NANOAODSIM/130X_mcRun3_2023_realistic_v14-v2/2550000/d90fed0d-f5e5-4431-b21e-3d1b2b1a4ed0.root
/store/mc/Run3Summer23NanoAODv12/TTto4Q_TuneCP5_13p6TeV_powheg-pythia8/NANOAODSIM/130X_mcRun3_2023_realistic_v14-v2/2550000/2a7bad11-6dfc-4de8-9a42-d94feea60e75.root
/store/mc/Run3Summer23NanoAODv12/TTto4Q_TuneCP5_13p6TeV_powheg-pythia8/NANOAODSIM/130X_mcRun3_2023_realistic_v14-v2/2550000/72c870c9-5bcb-499f-8fb8-0d046fdc6bb1.root
/store/mc/Run3Summer23NanoAODv12/TTto4Q_TuneCP5_13p6TeV_powheg-pythia8/NANOAODSIM/130X_mcRun3_2023_realistic_v14-v2/2550000/c73d3069-12ed-4fe5-9876-9f391599371f.root
/store/mc/Run3Summer23NanoAODv12/TTto4Q_TuneCP5_13p6TeV_powheg-pythia8/NANOAODSIM/130X_mcRun3_2023_realistic_v14-v2/2550000/ecc78161-865f-41b4-acfd-9b29c4e02236.root
/store/mc/Run3Summer23NanoAODv12/TTto4Q_TuneCP5_13p6TeV_powheg-pythia8/NANOAODSIM/130X_mcRun3_2023_realistic_v14-v2/2550000/f89139f5-6ada-47cc-875c-a9c02cab2c0c.root
/store/mc/Run3Summer23NanoAODv12/TTto4Q_TuneCP5_13p6TeV_powheg-pythia8/NANOAODSIM/130X_mcRun3_2023_realistic_v14-v2/2550000/c8289e51-9f94-4b33-b354-d1ab23176bfc.root
/store/mc/Run3Summer23NanoAODv12/TTto4Q_TuneCP5_13p6TeV_powheg-pythia8/NANOAODSIM/130X_mcRun3_2023_realistic_v14-v2/2550000/292d56f3-43fd-44c5-90eb-33636b54a1db.root
/store/mc/Run3Summer23NanoAODv12/TTto4Q_TuneCP5_13p6TeV_powheg-pythia8/NANOAODSIM/130X_mcRun3_2023_realistic_v14-v2/2550000/4a486431-acc3-43f7-b7df-c5b779d593f3.root
/store/mc/Run3Summer23NanoAODv12/TTto4Q_TuneCP5_13p6TeV_powheg-pythia8/NANOAODSIM/130X_mcRun3_2023_realistic_v14-v2/2550000/53c425db-1013-4fc0-a981-0fd8a3f84774.root
/store/mc/Run3Summer23NanoAODv12/TTto4Q_TuneCP5_13p6TeV_powheg-pythia8/NANOAODSIM/130X_mcRun3_2023_realistic_v14-v2/2550000/583e1a19-5a4c-446b-8647-00118a628f53.root
/store/mc/Run3Summer23NanoAODv12/TTto4Q_TuneCP5_13p6TeV_powheg-pythia8/NANOAODSIM/130X_mcRun3_2023_realistic_v14-v2/2550000/8e2e8264-3d30-41be-bf9e-f14e793d842e.root
/store/mc/Run3Summer23NanoAODv12/TTto4Q_TuneCP5_13p6TeV_powheg-pythia8/NANOAODSIM/130X_mcRun3_2023_realistic_v14-v2/2550000/c702f7ed-0970-4d16-bcea-12003e242da8.root
/store/mc/Run3Summer23NanoAODv12/TTto4Q_TuneCP5_13p6TeV_powheg-pythia8/NANOAODSIM/130X_mcRun3_2023_realistic_v14-v2/2550000/79c5911d-b96a-4a88-9880-54035000cb47.root
/store/mc/Run3Summer23NanoAODv12/TTto4Q_TuneCP5_13p6TeV_powheg-pythia8/NANOAODSIM/130X_mcRun3_2023_realistic_v14-v2/2550000/584c3cd7-9eaf-4fa0-91f5-c206d320d0f9.root
/store/mc/Run3Summer23NanoAODv12/TTto4Q_TuneCP5_13p6TeV_powheg-pythia8/NANOAODSIM/130X_mcRun3_2023_realistic_v14-v2/2550000/eda431c7-d4c9-46c5-a4d9-ab2daa2d60b4.root
/store/mc/Run3Summer23NanoAODv12/TTto4Q_TuneCP5_13p6TeV_powheg-pythia8/NANOAODSIM/130X_mcRun3_2023_realistic_v14-v2/2550000/14897662-d510-4240-8bda-2f80f5232040.root
/store/mc/Run3Summer23NanoAODv12/TTto4Q_TuneCP5_13p6TeV_powheg-pythia8/NANOAODSIM/130X_mcRun3_2023_realistic_v14-v2/2550000/e216a5af-ba8c-416d-bb00-a14b66ff4d03.root
/store/mc/Run3Summer23NanoAODv12/TTto4Q_TuneCP5_13p6TeV_powheg-pythia8/NANOAODSIM/130X_mcRun3_2023_realistic_v14-v2/2550000/e286a95b-19c8-4bc3-a1c1-265007009ccc.root
/store/mc/Run3Summer23NanoAODv12/TTto4Q_TuneCP5_13p6TeV_powheg-pythia8/NANOAODSIM/130X_mcRun3_2023_realistic_v14-v2/2550000/7ffa9efe-6509-4b24-a4e9-94b4ad06cc53.root
/store/mc/Run3Summer23NanoAODv12/TTto4Q_TuneCP5_13p6TeV_powheg-pythia8/NANOAODSIM/130X_mcRun3_2023_realistic_v14-v2/2550000/c9727338-9ea1-4c7e-bd44-c4a401772df4.root
/store/mc/Run3Summer23NanoAODv12/TTto4Q_TuneCP5_13p6TeV_powheg-pythia8/NANOAODSIM/130X_mcRun3_2023_realistic_v14-v2/2550000/79025438-63ee-4a00-ad94-86b5fd2c48a2.root
/store/mc/Run3Summer23NanoAODv12/TTto4Q_TuneCP5_13p6TeV_powheg-pythia8/NANOAODSIM/130X_mcRun3_2023_realistic_v14-v2/2550000/066cd44b-aae9-4495-8128-f31eb834f49d.root
/store/mc/Run3Summer23NanoAODv12/TTto4Q_TuneCP5_13p6TeV_powheg-pythia8/NANOAODSIM/130X_mcRun3_2023_realistic_v14-v2/2550000/8a832fbe-5fcc-4041-bdc3-be83eb7828ba.root
/store/mc/Run3Summer23NanoAODv12/TTto4Q_TuneCP5_13p6TeV_powheg-pythia8/NANOAODSIM/130X_mcRun3_2023_realistic_v14-v2/2550000/d71c8098-8473-44ea-99ba-0124d0f4dbc0.root
/store/mc/Run3Summer23NanoAODv12/TTto4Q_TuneCP5_13p6TeV_powheg-pythia8/NANOAODSIM/130X_mcRun3_2023_realistic_v14-v2/2550000/39c6a719-ee90-450f-9193-88d1250f6271.root
/store/mc/Run3Summer23NanoAODv12/TTto4Q_TuneCP5_13p6TeV_powheg-pythia8/NANOAODSIM/130X_mcRun3_2023_realistic_v14-v2/2550000/acaf8892-bf51-467d-879e-b94a1c948ed8.root
/store/mc/Run3Summer23NanoAODv12/TTto4Q_TuneCP5_13p6TeV_powheg-pythia8/NANOAODSIM/130X_mcRun3_2023_realistic_v14-v2/2550000/3dad559a-0222-441d-9a35-cee705e98991.root
/store/mc/Run3Summer23NanoAODv12/TTto4Q_TuneCP5_13p6TeV_powheg-pythia8/NANOAODSIM/130X_mcRun3_2023_realistic_v14-v2/2550000/14ffa292-a96d-451e-bc02-dd545d8c5e96.root
/store/mc/Run3Summer23NanoAODv12/TTto4Q_TuneCP5_13p6TeV_powheg-pythia8/NANOAODSIM/130X_mcRun3_2023_realistic_v14-v2/2550000/0a33d096-8e7f-45bd-8566-0a7973577036.root
/store/mc/Run3Summer23NanoAODv12/TTto4Q_TuneCP5_13p6TeV_powheg-pythia8/NANOAODSIM/130X_mcRun3_2023_realistic_v14-v2/2550000/f36b548d-3f3b-4bfe-8e2c-2b4601121623.root
/store/mc/Run3Summer23NanoAODv12/TTto4Q_TuneCP5_13p6TeV_powheg-pythia8/NANOAODSIM/130X_mcRun3_2023_realistic_v14-v2/2550000/9c50ea56-7745-4fe8-bbc0-75356d019008.root
/store/mc/Run3Summer23NanoAODv12/TTto4Q_TuneCP5_13p6TeV_powheg-pythia8/NANOAODSIM/130X_mcRun3_2023_realistic_v14-v2/2550000/b23234ab-406b-4b65-bed9-5078b1b8ea6a.root
/store/mc/Run3Summer23NanoAODv12/TTto4Q_TuneCP5_13p6TeV_powheg-pythia8/NANOAODSIM/130X_mcRun3_2023_realistic_v14-v2/2550000/bf4f3dcc-fe11-467f-822c-43600ad1d028.root
/store/mc/Run3Summer23NanoAODv12/TTto4Q_TuneCP5_13p6TeV_powheg-pythia8/NANOAODSIM/130X_mcRun3_2023_realistic_v14-v2/2550000/4f93214b-44f9-4234-abf4-e9306bf9e8e1.root
/store/mc/Run3Summer23NanoAODv12/TTto4Q_TuneCP5_13p6TeV_powheg-pythia8/NANOAODSIM/130X_mcRun3_2023_realistic_v14-v2/2550000/9257c9fa-c6d9-4e6c-b0e2-a98150c04457.root
/store/mc/Run3Summer23NanoAODv12/TTto4Q_TuneCP5_13p6TeV_powheg-pythia8/NANOAODSIM/130X_mcRun3_2023_realistic_v14-v2/2550000/7e48788c-01c6-4c54-9951-9efb4080cd94.root
/store/mc/Run3Summer23NanoAODv12/TTto4Q_TuneCP5_13p6TeV_powheg-pythia8/NANOAODSIM/130X_mcRun3_2023_realistic_v14-v2/2550000/8c95db7a-2b43-46fd-9ab5-0cf871bc62fa.root
/store/mc/Run3Summer23NanoAODv12/TTto4Q_TuneCP5_13p6TeV_powheg-pythia8/NANOAODSIM/130X_mcRun3_2023_realistic_v14-v2/2550000/907d7543-b0cd-4dc1-bddd-dba82e52538b.root
/store/mc/Run3Summer23NanoAODv12/TTto4Q_TuneCP5_13p6TeV_powheg-pythia8/NANOAODSIM/130X_mcRun3_2023_realistic_v14-v2/2550000/d32231c0-d33d-45a4-ae35-ed47b03e21a7.root
/store/mc/Run3Summer23NanoAODv12/TTto4Q_TuneCP5_13p6TeV_powheg-pythia8/NANOAODSIM/130X_mcRun3_2023_realistic_v14-v2/2550000/6f99ff2d-49ab-43f4-a9d7-3abae846cc59.root
/store/mc/Run3Summer23NanoAODv12/TTto4Q_TuneCP5_13p6TeV_powheg-pythia8/NANOAODSIM/130X_mcRun3_2023_realistic_v14-v2/2550000/9a8c4abe-11ff-47ed-9e9d-c3dbc4967327.root
/store/mc/Run3Summer23NanoAODv12/TTto4Q_TuneCP5_13p6TeV_powheg-pythia8/NANOAODSIM/130X_mcRun3_2023_realistic_v14-v2/2550000/874e7006-00d5-4532-bfc5-597be9372889.root
/store/mc/Run3Summer23NanoAODv12/TTto4Q_TuneCP5_13p6TeV_powheg-pythia8/NANOAODSIM/130X_mcRun3_2023_realistic_v14-v2/2550000/35c0b52d-e87f-42e8-9c78-13e2eb723fec.root
/store/mc/Run3Summer23NanoAODv12/TTto4Q_TuneCP5_13p6TeV_powheg-pythia8/NANOAODSIM/130X_mcRun3_2023_realistic_v14-v2/2550000/0df3cec6-f681-4144-a2bf-0196cffb94f4.root
/store/mc/Run3Summer23NanoAODv12/TTto4Q_TuneCP5_13p6TeV_powheg-pythia8/NANOAODSIM/130X_mcRun3_2023_realistic_v14-v2/2550000/d50b3e39-baec-438d-980a-83f52e85c8fb.root
/store/mc/Run3Summer23NanoAODv12/TTto4Q_TuneCP5_13p6TeV_powheg-pythia8/NANOAODSIM/130X_mcRun3_2023_realistic_v14-v2/2550000/b7e7e54c-fb54-4515-ab79-339e03bd9ed7.root
/store/mc/Run3Summer23NanoAODv12/TTto4Q_TuneCP5_13p6TeV_powheg-pythia8/NANOAODSIM/130X_mcRun3_2023_realistic_v14-v2/2550000/9f660870-afc7-4aef-bc19-cc36bcb5b5a8.root
/store/mc/Run3Summer23NanoAODv12/TTto4Q_TuneCP5_13p6TeV_powheg-pythia8/NANOAODSIM/130X_mcRun3_2023_realistic_v14-v2/2550000/6e8ce473-f130-4c00-8eb7-9a5348cb4103.root
/store/mc/Run3Summer23NanoAODv12/TTto4Q_TuneCP5_13p6TeV_powheg-pythia8/NANOAODSIM/130X_mcRun3_2023_realistic_v14-v2/2550000/43c6334d-56a8-44a4-ba34-040c69cb2ebb.root
/store/mc/Run3Summer23NanoAODv12/TTto4Q_TuneCP5_13p6TeV_powheg-pythia8/NANOAODSIM/130X_mcRun3_2023_realistic_v14-v2/2550000/23fbfea7-d006-4a05-a8a6-169fd65e01a5.root
/store/mc/Run3Summer23NanoAODv12/TTto4Q_TuneCP5_13p6TeV_powheg-pythia8/NANOAODSIM/130X_mcRun3_2023_realistic_v14-v2/2550000/27d9f8af-a0c3-4e77-9861-4f9ab3cc2f80.root
/store/mc/Run3Summer23NanoAODv12/TTto4Q_TuneCP5_13p6TeV_powheg-pythia8/NANOAODSIM/130X_mcRun3_2023_realistic_v14-v2/2550000/7ba2735b-1d3e-41d6-a672-c69a7f9ee42b.root
/store/mc/Run3Summer23NanoAODv12/TTto4Q_TuneCP5_13p6TeV_powheg-pythia8/NANOAODSIM/130X_mcRun3_2023_realistic_v14-v2/2550000/7a7a5019-80d7-4d4c-970f-9df149bafc59.root
/store/mc/Run3Summer23NanoAODv12/TTto4Q_TuneCP5_13p6TeV_powheg-pythia8/NANOAODSIM/130X_mcRun3_2023_realistic_v14-v2/2550000/ac23db95-3942-4b54-8345-7b0c1a12b97b.root
/store/mc/Run3Summer23NanoAODv12/TTto4Q_TuneCP5_13p6TeV_powheg-pythia8/NANOAODSIM/130X_mcRun3_2023_realistic_v14-v2/2550000/1fd9d752-a876-433d-bdaf-2f519430c491.root
/store/mc/Run3Summer23NanoAODv12/TTto4Q_TuneCP5_13p6TeV_powheg-pythia8/NANOAODSIM/130X_mcRun3_2023_realistic_v14-v2/2550000/ec4d1d72-9a52-445a-912d-6c8e0814d2f3.root
/store/mc/Run3Summer23NanoAODv12/TTto4Q_TuneCP5_13p6TeV_powheg-pythia8/NANOAODSIM/130X_mcRun3_2023_realistic_v14-v2/2550000/80b5aeaa-5a64-4f98-bd3d-ad730a1da92c.root
/store/mc/Run3Summer23NanoAODv12/TTto4Q_TuneCP5_13p6TeV_powheg-pythia8/NANOAODSIM/130X_mcRun3_2023_realistic_v14-v2/2550000/331377f9-d55f-44bd-8cde-f6d349697cd3.root
/store/mc/Run3Summer23NanoAODv12/TTto4Q_TuneCP5_13p6TeV_powheg-pythia8/NANOAODSIM/130X_mcRun3_2023_realistic_v14-v2/2550000/765825ed-c1d4-4210-b4bf-ce267b4c759b.root
/store/mc/Run3Summer23NanoAODv12/TTto4Q_TuneCP5_13p6TeV_powheg-pythia8/NANOAODSIM/130X_mcRun3_2023_realistic_v14-v2/2550000/1d33a4f3-7659-449e-b097-ad4efca44b7e.root
/store/mc/Run3Summer23NanoAODv12/TTto4Q_TuneCP5_13p6TeV_powheg-pythia8/NANOAODSIM/130X_mcRun3_2023_realistic_v14-v2/2550000/4363d8db-6754-490e-852a-d2f7bba1872b.root
/store/mc/Run3Summer23NanoAODv12/TTto4Q_TuneCP5_13p6TeV_powheg-pythia8/NANOAODSIM/130X_mcRun3_2023_realistic_v14-v2/2550000/500f7d09-ab23-4de6-97db-3525217cb2ec.root
/store/mc/Run3Summer23NanoAODv12/TTto4Q_TuneCP5_13p6TeV_powheg-pythia8/NANOAODSIM/130X_mcRun3_2023_realistic_v14-v2/2550000/43405cd6-3d2b-4fc6-a077-4e9b63a7865f.root
/store/mc/Run3Summer23NanoAODv12/TTto4Q_TuneCP5_13p6TeV_powheg-pythia8/NANOAODSIM/130X_mcRun3_2023_realistic_v14-v2/2550000/40385000-b114-4be1-a54e-1ff92b1dce89.root
/store/mc/Run3Summer23NanoAODv12/TTto4Q_TuneCP5_13p6TeV_powheg-pythia8/NANOAODSIM/130X_mcRun3_2023_realistic_v14-v2/2550000/dab4d88a-8bdf-49d5-9f91-8ea58dac80ef.root
/store/mc/Run3Summer23NanoAODv12/TTto4Q_TuneCP5_13p6TeV_powheg-pythia8/NANOAODSIM/130X_mcRun3_2023_realistic_v14-v2/2550000/d2866b44-3e68-433f-9f07-89edaf7f6787.root
/store/mc/Run3Summer23NanoAODv12/TTto4Q_TuneCP5_13p6TeV_powheg-pythia8/NANOAODSIM/130X_mcRun3_2023_realistic_v14-v2/2550000/71475065-4114-4fb6-ac01-9c879c525856.root
/store/mc/Run3Summer23NanoAODv12/TTto4Q_TuneCP5_13p6TeV_powheg-pythia8/NANOAODSIM/130X_mcRun3_2023_realistic_v14-v2/2550000/8099fe83-bc1d-421f-be74-25a89fe3327c.root
/store/mc/Run3Summer23NanoAODv12/TTto4Q_TuneCP5_13p6TeV_powheg-pythia8/NANOAODSIM/130X_mcRun3_2023_realistic_v14-v2/2550000/6f2aac71-858e-476e-b2df-37577a0cb32e.root
/store/mc/Run3Summer23NanoAODv12/TTto4Q_TuneCP5_13p6TeV_powheg-pythia8/NANOAODSIM/130X_mcRun3_2023_realistic_v14-v2/2550000/505a4e09-5681-45ac-a220-513ca87561e8.root
/store/mc/Run3Summer23NanoAODv12/TTto4Q_TuneCP5_13p6TeV_powheg-pythia8/NANOAODSIM/130X_mcRun3_2023_realistic_v14-v2/2550000/5d149aaa-854d-4616-b67a-30afb68b2076.root
/store/mc/Run3Summer23NanoAODv12/TTto4Q_TuneCP5_13p6TeV_powheg-pythia8/NANOAODSIM/130X_mcRun3_2023_realistic_v14-v2/2550000/cec2653b-1a8f-4d8d-996c-fb9af009d976.root
/store/mc/Run3Summer23NanoAODv12/TTto4Q_TuneCP5_13p6TeV_powheg-pythia8/NANOAODSIM/130X_mcRun3_2023_realistic_v14-v2/2550000/1f9e0739-1aa1-411e-97dd-8b3953fd69ef.root
/store/mc/Run3Summer23NanoAODv12/TTto4Q_TuneCP5_13p6TeV_powheg-pythia8/NANOAODSIM/130X_mcRun3_2023_realistic_v14-v2/2550000/39831571-7abb-4d44-82ad-68343686e429.root
/store/mc/Run3Summer23NanoAODv12/TTto4Q_TuneCP5_13p6TeV_powheg-pythia8/NANOAODSIM/130X_mcRun3_2023_realistic_v14-v2/2550000/af0c1918-6873-4eef-b199-f243af7a7e22.root
/store/mc/Run3Summer23NanoAODv12/TTto4Q_TuneCP5_13p6TeV_powheg-pythia8/NANOAODSIM/130X_mcRun3_2023_realistic_v14-v2/2550000/466d30de-2ec8-4c3c-9359-f522906e9da7.root
/store/mc/Run3Summer23NanoAODv12/TTto4Q_TuneCP5_13p6TeV_powheg-pythia8/NANOAODSIM/130X_mcRun3_2023_realistic_v14-v2/2550000/9351c684-f183-4086-b92a-a3d2d1ecd3c9.root
/store/mc/Run3Summer23NanoAODv12/TTto4Q_TuneCP5_13p6TeV_powheg-pythia8/NANOAODSIM/130X_mcRun3_2023_realistic_v14-v2/2550000/d71138b7-11ea-49ad-a4e5-bf801bedab77.root
/store/mc/Run3Summer23NanoAODv12/TTto4Q_TuneCP5_13p6TeV_powheg-pythia8/NANOAODSIM/130X_mcRun3_2023_realistic_v14-v2/2550000/f1a25144-7448-4488-b094-553fb7883d96.root
/store/mc/Run3Summer23NanoAODv12/TTto4Q_TuneCP5_13p6TeV_powheg-pythia8/NANOAODSIM/130X_mcRun3_2023_realistic_v14-v2/2550000/73b0bb22-e5bc-49a0-9ae9-27fe311084e5.root
/store/mc/Run3Summer23NanoAODv12/TTto4Q_TuneCP5_13p6TeV_powheg-pythia8/NANOAODSIM/130X_mcRun3_2023_realistic_v14-v2/2550000/e31e318c-c24c-4146-89b7-7d5cb20b6827.root
/store/mc/Run3Summer23NanoAODv12/TTto4Q_TuneCP5_13p6TeV_powheg-pythia8/NANOAODSIM/130X_mcRun3_2023_realistic_v14-v2/2550000/c9ba1dc4-3804-4c84-893c-4d6aef67df2d.root
/store/mc/Run3Summer23NanoAODv12/TTto4Q_TuneCP5_13p6TeV_powheg-pythia8/NANOAODSIM/130X_mcRun3_2023_realistic_v14-v2/2550000/76c6ff1f-da72-4973-bd3d-a53c61d768fa.root
/store/mc/Run3Summer23NanoAODv12/TTto4Q_TuneCP5_13p6TeV_powheg-pythia8/NANOAODSIM/130X_mcRun3_2023_realistic_v14-v2/2550000/249fc231-954d-4725-ab7d-56a805cc15de.root
/store/mc/Run3Summer23NanoAODv12/TTto4Q_TuneCP5_13p6TeV_powheg-pythia8/NANOAODSIM/130X_mcRun3_2023_realistic_v14-v2/2550000/35469f3d-13bc-4bf7-aa81-0277390f9ffd.root
/store/mc/Run3Summer23NanoAODv12/TTto4Q_TuneCP5_13p6TeV_powheg-pythia8/NANOAODSIM/130X_mcRun3_2023_realistic_v14-v2/2550000/d974dcc4-39ae-4778-8220-b0694e6269be.root
/store/mc/Run3Summer23NanoAODv12/TTto4Q_TuneCP5_13p6TeV_powheg-pythia8/NANOAODSIM/130X_mcRun3_2023_realistic_v14-v2/2550000/f0fa97ef-bb64-4045-813a-2b50cad0a61d.root
/store/mc/Run3Summer23NanoAODv12/TTto4Q_TuneCP5_13p6TeV_powheg-pythia8/NANOAODSIM/130X_mcRun3_2023_realistic_v14-v2/2550000/ac118e2f-c616-4b02-90b0-76108f990215.root
/store/mc/Run3Summer23NanoAODv12/TTto4Q_TuneCP5_13p6TeV_powheg-pythia8/NANOAODSIM/130X_mcRun3_2023_realistic_v14-v2/2550000/716b4b58-b5b6-4475-bac1-dfc621683745.root
/store/mc/Run3Summer23NanoAODv12/TTto4Q_TuneCP5_13p6TeV_powheg-pythia8/NANOAODSIM/130X_mcRun3_2023_realistic_v14-v2/2550000/d7e8e0fc-ec3c-415b-959b-21a2cde547ef.root
/store/mc/Run3Summer23NanoAODv12/TTto4Q_TuneCP5_13p6TeV_powheg-pythia8/NANOAODSIM/130X_mcRun3_2023_realistic_v14-v2/2550000/5358db9a-41a5-422e-b781-e298b424cab7.root
/store/mc/Run3Summer23NanoAODv12/TTto4Q_TuneCP5_13p6TeV_powheg-pythia8/NANOAODSIM/130X_mcRun3_2023_realistic_v14-v2/2550000/8a57c93b-723e-4760-8eba-b44562d928f5.root
/store/mc/Run3Summer23NanoAODv12/TTto4Q_TuneCP5_13p6TeV_powheg-pythia8/NANOAODSIM/130X_mcRun3_2023_realistic_v14-v2/2550000/e9efead7-b5f1-4714-8728-b910ed09a9d4.root
/store/mc/Run3Summer23NanoAODv12/TTto4Q_TuneCP5_13p6TeV_powheg-pythia8/NANOAODSIM/130X_mcRun3_2023_realistic_v14-v2/2550000/b993e2d3-548b-4967-873d-d5e13b0109cc.root
/store/mc/Run3Summer23NanoAODv12/TTto4Q_TuneCP5_13p6TeV_powheg-pythia8/NANOAODSIM/130X_mcRun3_2023_realistic_v14-v2/2550000/16973097-ff9f-430a-9470-cdf32ddde0f9.root
/store/mc/Run3Summer23NanoAODv12/TTto4Q_TuneCP5_13p6TeV_powheg-pythia8/NANOAODSIM/130X_mcRun3_2023_realistic_v14-v2/2550000/f079e9a0-a74d-436f-aae9-ad35897a5c83.root
/store/mc/Run3Summer23NanoAODv12/TTto4Q_TuneCP5_13p6TeV_powheg-pythia8/NANOAODSIM/130X_mcRun3_2023_realistic_v14-v2/2550000/7fcd8569-30b3-4b84-ab16-382e09799111.root
/store/mc/Run3Summer23NanoAODv12/TTto4Q_TuneCP5_13p6TeV_powheg-pythia8/NANOAODSIM/130X_mcRun3_2023_realistic_v14-v2/2550000/cc88bc07-f928-41f5-8c26-ac5ff94d22b8.root
/store/mc/Run3Summer23NanoAODv12/TTto4Q_TuneCP5_13p6TeV_powheg-pythia8/NANOAODSIM/130X_mcRun3_2023_realistic_v14-v2/2550000/7ebd299c-8cb1-440b-96d0-1f588176675e.root
/store/mc/Run3Summer23NanoAODv12/TTto4Q_TuneCP5_13p6TeV_powheg-pythia8/NANOAODSIM/130X_mcRun3_2023_realistic_v14-v2/2550000/530aa437-05de-42ef-afc6-35cd6e4f6adc.root
/store/mc/Run3Summer23NanoAODv12/TTto4Q_TuneCP5_13p6TeV_powheg-pythia8/NANOAODSIM/130X_mcRun3_2023_realistic_v14-v2/2550000/b4b4df93-58b7-4661-8a64-bd729572a615.root
/store/mc/Run3Summer23NanoAODv12/TTto4Q_TuneCP5_13p6TeV_powheg-pythia8/NANOAODSIM/130X_mcRun3_2023_realistic_v14-v2/2550000/bcb96d58-27ed-4573-bd80-0f4bd7bb7664.root
/store/mc/Run3Summer23NanoAODv12/TTto4Q_TuneCP5_13p6TeV_powheg-pythia8/NANOAODSIM/130X_mcRun3_2023_realistic_v14-v2/2550000/b3afe0a9-0d0e-4d56-a630-a9ea49b48784.root
/store/mc/Run3Summer23NanoAODv12/TTto4Q_TuneCP5_13p6TeV_powheg-pythia8/NANOAODSIM/130X_mcRun3_2023_realistic_v14-v2/2550000/b7d483c5-1659-4761-84ea-bb8e966fd449.root
/store/mc/Run3Summer23NanoAODv12/TTto4Q_TuneCP5_13p6TeV_powheg-pythia8/NANOAODSIM/130X_mcRun3_2023_realistic_v14-v2/2550000/f90cee03-db25-4e08-bb97-1294f84320bd.root
/store/mc/Run3Summer23NanoAODv12/TTto4Q_TuneCP5_13p6TeV_powheg-pythia8/NANOAODSIM/130X_mcRun3_2023_realistic_v14-v2/2550000/d5a863be-7bbf-49ce-baa6-b0f64d2fcbde.root
/store/mc/Run3Summer23NanoAODv12/TTto4Q_TuneCP5_13p6TeV_powheg-pythia8/NANOAODSIM/130X_mcRun3_2023_realistic_v14-v2/2550000/bd2f50dc-6a6f-44bb-9bb6-bcef200016b7.root
/store/mc/Run3Summer23NanoAODv12/TTto4Q_TuneCP5_13p6TeV_powheg-pythia8/NANOAODSIM/130X_mcRun3_2023_realistic_v14-v2/2550000/caf799b1-2c7b-4ede-afb7-403e74e149c2.root
/store/mc/Run3Summer23NanoAODv12/TTto4Q_TuneCP5_13p6TeV_powheg-pythia8/NANOAODSIM/130X_mcRun3_2023_realistic_v14-v2/2550000/d6655e26-c70e-4ba8-b86b-6616930f6f87.root
/store/mc/Run3Summer23NanoAODv12/TTto4Q_TuneCP5_13p6TeV_powheg-pythia8/NANOAODSIM/130X_mcRun3_2023_realistic_v14-v2/2550000/5011a04c-5815-4cde-9c93-eb9bfc3e46ff.root
/store/mc/Run3Summer23NanoAODv12/TTto4Q_TuneCP5_13p6TeV_powheg-pythia8/NANOAODSIM/130X_mcRun3_2023_realistic_v14-v2/2550000/c06432da-a2de-47f9-ba42-5fdcf8054260.root
/store/mc/Run3Summer23NanoAODv12/TTto4Q_TuneCP5_13p6TeV_powheg-pythia8/NANOAODSIM/130X_mcRun3_2023_realistic_v14-v2/2550000/196640a2-ce26-486a-a29c-525320e1c764.root
/store/mc/Run3Summer23NanoAODv12/TTto4Q_TuneCP5_13p6TeV_powheg-pythia8/NANOAODSIM/130X_mcRun3_2023_realistic_v14-v2/2550000/17acf493-d580-4c2b-99a8-d62561250a0e.root
/store/mc/Run3Summer23NanoAODv12/TTto4Q_TuneCP5_13p6TeV_powheg-pythia8/NANOAODSIM/130X_mcRun3_2023_realistic_v14-v2/2550000/037078b8-0065-4772-be57-10b4ca0dfd38.root
/store/mc/Run3Summer23NanoAODv12/TTto4Q_TuneCP5_13p6TeV_powheg-pythia8/NANOAODSIM/130X_mcRun3_2023_realistic_v14-v2/2550000/5ccea4a0-3de0-4662-ba61-beefd6671c95.root
/store/mc/Run3Summer23NanoAODv12/TTto4Q_TuneCP5_13p6TeV_powheg-pythia8/NANOAODSIM/130X_mcRun3_2023_realistic_v14-v2/2550000/35f026be-a9c8-4243-9066-3e0d1b45f16f.root
/store/mc/Run3Summer23NanoAODv12/TTto4Q_TuneCP5_13p6TeV_powheg-pythia8/NANOAODSIM/130X_mcRun3_2023_realistic_v14-v2/2550000/5a3ab7b1-54f8-4708-9b46-ab37c734b8d1.root
/store/mc/Run3Summer23NanoAODv12/TTto4Q_TuneCP5_13p6TeV_powheg-pythia8/NANOAODSIM/130X_mcRun3_2023_realistic_v14-v2/2550000/b2a990fd-affe-4403-bc54-0fe43eb58515.root
/store/mc/Run3Summer23NanoAODv12/TTto4Q_TuneCP5_13p6TeV_powheg-pythia8/NANOAODSIM/130X_mcRun3_2023_realistic_v14-v2/2550000/589abe6f-43b2-4ba6-9406-6313acf66fe9.root
/store/mc/Run3Summer23NanoAODv12/TTto4Q_TuneCP5_13p6TeV_powheg-pythia8/NANOAODSIM/130X_mcRun3_2023_realistic_v14-v2/2550000/89421f36-4068-4f2b-bc3c-f2949fbb4ddf.root
/store/mc/Run3Summer23NanoAODv12/TTto4Q_TuneCP5_13p6TeV_powheg-pythia8/NANOAODSIM/130X_mcRun3_2023_realistic_v14-v2/2550000/b5a80ad6-9b4d-4a2c-b885-c440e0ec3cf5.root
/store/mc/Run3Summer23NanoAODv12/TTto4Q_TuneCP5_13p6TeV_powheg-pythia8/NANOAODSIM/130X_mcRun3_2023_realistic_v14-v2/2550000/68fc3f3c-1241-4441-a3c6-3491ec297c37.root
/store/mc/Run3Summer23NanoAODv12/TTto4Q_TuneCP5_13p6TeV_powheg-pythia8/NANOAODSIM/130X_mcRun3_2023_realistic_v14-v2/2550000/cf98f679-3890-4d33-a132-116c01e63f7e.root
/store/mc/Run3Summer23NanoAODv12/TTto4Q_TuneCP5_13p6TeV_powheg-pythia8/NANOAODSIM/130X_mcRun3_2023_realistic_v14-v2/2550000/f81f88be-e6cc-4f73-937c-7b80bfa5c53f.root
/store/mc/Run3Summer23NanoAODv12/TTto4Q_TuneCP5_13p6TeV_powheg-pythia8/NANOAODSIM/130X_mcRun3_2023_realistic_v14-v2/2550000/35c03848-c988-4906-ac52-71603c25c3c6.root
/store/mc/Run3Summer23NanoAODv12/TTto4Q_TuneCP5_13p6TeV_powheg-pythia8/NANOAODSIM/130X_mcRun3_2023_realistic_v14-v2/2550000/6d0da7c1-8fab-49d2-87a6-41b632387749.root
/store/mc/Run3Summer23NanoAODv12/TTto4Q_TuneCP5_13p6TeV_powheg-pythia8/NANOAODSIM/130X_mcRun3_2023_realistic_v14-v2/2550000/faf7c53b-0376-4616-ac87-3925e8b43d4a.root
/store/mc/Run3Summer23NanoAODv12/TTto4Q_TuneCP5_13p6TeV_powheg-pythia8/NANOAODSIM/130X_mcRun3_2023_realistic_v14-v2/2550000/5a60eeda-3dab-4014-8ab5-3b661749afe1.root
/store/mc/Run3Summer23NanoAODv12/TTto4Q_TuneCP5_13p6TeV_powheg-pythia8/NANOAODSIM/130X_mcRun3_2023_realistic_v14-v2/2550000/0f69b070-5e09-4f13-8270-147d807cb275.root
/store/mc/Run3Summer23NanoAODv12/TTto4Q_TuneCP5_13p6TeV_powheg-pythia8/NANOAODSIM/130X_mcRun3_2023_realistic_v14-v2/2550000/c6ea5a37-4cbe-40b6-8e9c-f72a3592efaf.root
/store/mc/Run3Summer23NanoAODv12/TTto4Q_TuneCP5_13p6TeV_powheg-pythia8/NANOAODSIM/130X_mcRun3_2023_realistic_v14-v2/2550000/d03973e4-636f-43cf-b0b9-f6f1981b96e2.root
/store/mc/Run3Summer23NanoAODv12/TTto4Q_TuneCP5_13p6TeV_powheg-pythia8/NANOAODSIM/130X_mcRun3_2023_realistic_v14-v2/2550000/2ef65cd0-1138-4fcc-b233-08391183a3b3.root
/store/mc/Run3Summer23NanoAODv12/TTto4Q_TuneCP5_13p6TeV_powheg-pythia8/NANOAODSIM/130X_mcRun3_2023_realistic_v14-v2/2550000/7fed7a59-660a-4218-a400-02c6b271f7a2.root
/store/mc/Run3Summer23NanoAODv12/TTto4Q_TuneCP5_13p6TeV_powheg-pythia8/NANOAODSIM/130X_mcRun3_2023_realistic_v14-v2/2550000/39215d6b-218b-4eae-818a-b2c2696e282a.root
/store/mc/Run3Summer23NanoAODv12/TTto4Q_TuneCP5_13p6TeV_powheg-pythia8/NANOAODSIM/130X_mcRun3_2023_realistic_v14-v2/2550000/daa3e42b-ca16-459c-85a4-955d662e2600.root
/store/mc/Run3Summer23NanoAODv12/TTto4Q_TuneCP5_13p6TeV_powheg-pythia8/NANOAODSIM/130X_mcRun3_2023_realistic_v14-v2/2550000/da8dcdbe-b163-48c6-b249-00ba393f6a3b.root
/store/mc/Run3Summer23NanoAODv12/TTto4Q_TuneCP5_13p6TeV_powheg-pythia8/NANOAODSIM/130X_mcRun3_2023_realistic_v14-v2/2550000/b1937a41-3f99-4820-83f3-1005b03f0670.root
/store/mc/Run3Summer23NanoAODv12/TTto4Q_TuneCP5_13p6TeV_powheg-pythia8/NANOAODSIM/130X_mcRun3_2023_realistic_v14-v2/2550000/a4f5488b-749d-4fbf-9a75-8a780ce309ee.root
/store/mc/Run3Summer23NanoAODv12/TTto4Q_TuneCP5_13p6TeV_powheg-pythia8/NANOAODSIM/130X_mcRun3_2023_realistic_v14-v2/2550000/cc844c95-be6f-4dd5-814d-dccbfc3dac63.root
/store/mc/Run3Summer23NanoAODv12/TTto4Q_TuneCP5_13p6TeV_powheg-pythia8/NANOAODSIM/130X_mcRun3_2023_realistic_v14-v2/2550000/41872c84-5dc0-459b-8a31-f61386c273b2.root
/store/mc/Run3Summer23NanoAODv12/TTto4Q_TuneCP5_13p6TeV_powheg-pythia8/NANOAODSIM/130X_mcRun3_2023_realistic_v14-v2/2550000/d0688d10-e4ff-43cf-995f-5630532361c8.root
/store/mc/Run3Summer23NanoAODv12/TTto4Q_TuneCP5_13p6TeV_powheg-pythia8/NANOAODSIM/130X_mcRun3_2023_realistic_v14-v2/2550000/b5c1a450-a1b8-463a-9717-9b374b59f082.root
/store/mc/Run3Summer23NanoAODv12/TTto4Q_TuneCP5_13p6TeV_powheg-pythia8/NANOAODSIM/130X_mcRun3_2023_realistic_v14-v2/2550000/1126d2d2-3e89-45db-818b-bedec02aee35.root
/store/mc/Run3Summer23NanoAODv12/TTto4Q_TuneCP5_13p6TeV_powheg-pythia8/NANOAODSIM/130X_mcRun3_2023_realistic_v14-v2/2550000/f7e06d85-2681-402e-aa98-e68a147b7640.root
/store/mc/Run3Summer23NanoAODv12/TTto4Q_TuneCP5_13p6TeV_powheg-pythia8/NANOAODSIM/130X_mcRun3_2023_realistic_v14-v2/2550000/34c4eb6d-9371-4923-8164-04ee3761ad95.root
/store/mc/Run3Summer23NanoAODv12/TTto4Q_TuneCP5_13p6TeV_powheg-pythia8/NANOAODSIM/130X_mcRun3_2023_realistic_v14-v2/2550000/55f0c2e1-7a99-43ab-94a1-c2f7861dc8ff.root
/store/mc/Run3Summer23NanoAODv12/TTto4Q_TuneCP5_13p6TeV_powheg-pythia8/NANOAODSIM/130X_mcRun3_2023_realistic_v14-v2/2550000/126f78f4-d1cc-433d-9407-a4978e7c9c30.root
/store/mc/Run3Summer23NanoAODv12/TTto4Q_TuneCP5_13p6TeV_powheg-pythia8/NANOAODSIM/130X_mcRun3_2023_realistic_v14-v2/2550000/3b9bded0-0af9-4997-ad6d-ce97a36a88d3.root
/store/mc/Run3Summer23NanoAODv12/TTto4Q_TuneCP5_13p6TeV_powheg-pythia8/NANOAODSIM/130X_mcRun3_2023_realistic_v14-v2/2550000/34a470bc-a45a-41a6-bbe5-fb4c857464ec.root
/store/mc/Run3Summer23NanoAODv12/TTto4Q_TuneCP5_13p6TeV_powheg-pythia8/NANOAODSIM/130X_mcRun3_2023_realistic_v14-v2/2550000/627913db-386c-4a34-81ec-fc761b7965aa.root
/store/mc/Run3Summer23NanoAODv12/TTto4Q_TuneCP5_13p6TeV_powheg-pythia8/NANOAODSIM/130X_mcRun3_2023_realistic_v14-v2/2550000/9d12e872-a7cc-4bf4-916e-600ce7116732.root
/store/mc/Run3Summer23NanoAODv12/TTto4Q_TuneCP5_13p6TeV_powheg-pythia8/NANOAODSIM/130X_mcRun3_2023_realistic_v14-v2/2550000/d03a1468-1306-4c34-8df7-1f1e53d478e8.root
/store/mc/Run3Summer23NanoAODv12/TTto4Q_TuneCP5_13p6TeV_powheg-pythia8/NANOAODSIM/130X_mcRun3_2023_realistic_v14-v2/2550000/33c99f15-bfe1-4a2a-b245-93be92d95f11.root
/store/mc/Run3Summer23NanoAODv12/TTto4Q_TuneCP5_13p6TeV_powheg-pythia8/NANOAODSIM/130X_mcRun3_2023_realistic_v14-v2/2550000/654e8d4e-66a1-4ec8-a9a7-34e624cb6fcb.root
/store/mc/Run3Summer23NanoAODv12/TTto4Q_TuneCP5_13p6TeV_powheg-pythia8/NANOAODSIM/130X_mcRun3_2023_realistic_v14-v2/2550000/af3f2772-7d06-46f4-8cbf-8d21078abf7a.root
/store/mc/Run3Summer23NanoAODv12/TTto4Q_TuneCP5_13p6TeV_powheg-pythia8/NANOAODSIM/130X_mcRun3_2023_realistic_v14-v2/2550000/d35e0acb-48f0-48cd-aacd-0788b6779446.root
/store/mc/Run3Summer23NanoAODv12/TTto4Q_TuneCP5_13p6TeV_powheg-pythia8/NANOAODSIM/130X_mcRun3_2023_realistic_v14-v2/2550000/d5b96d40-bc3c-4c3a-abf7-009ea3522ffc.root
/store/mc/Run3Summer23NanoAODv12/TTto4Q_TuneCP5_13p6TeV_powheg-pythia8/NANOAODSIM/130X_mcRun3_2023_realistic_v14-v2/2550000/c53ee0fb-d102-4c4d-830b-2c699be5741d.root
/store/mc/Run3Summer23NanoAODv12/TTto4Q_TuneCP5_13p6TeV_powheg-pythia8/NANOAODSIM/130X_mcRun3_2023_realistic_v14-v2/2550000/3eb11550-7d35-4f75-9685-8a47eb718de3.root
/store/mc/Run3Summer23NanoAODv12/TTto4Q_TuneCP5_13p6TeV_powheg-pythia8/NANOAODSIM/130X_mcRun3_2023_realistic_v14-v2/2550000/768efe08-dabd-42c3-9a04-0a845254ecc7.root
/store/mc/Run3Summer23NanoAODv12/TTto4Q_TuneCP5_13p6TeV_powheg-pythia8/NANOAODSIM/130X_mcRun3_2023_realistic_v14-v2/2550000/62e3bfe0-645d-4d68-a956-b53a475b8972.root
/store/mc/Run3Summer23NanoAODv12/TTto4Q_TuneCP5_13p6TeV_powheg-pythia8/NANOAODSIM/130X_mcRun3_2023_realistic_v14-v2/2550000/bec10547-ba0f-40f3-a576-7ee40a6038f0.root
/store/mc/Run3Summer23NanoAODv12/TTto4Q_TuneCP5_13p6TeV_powheg-pythia8/NANOAODSIM/130X_mcRun3_2023_realistic_v14-v2/60000/745cfcdc-c2e5-4324-9af4-409c936e0b92.root
/store/mc/Run3Summer23NanoAODv12/TTto4Q_TuneCP5_13p6TeV_powheg-pythia8/NANOAODSIM/130X_mcRun3_2023_realistic_v14-v2/2550000/4a923b8d-190a-4a6d-85a8-dfc5d3fce767.root
/store/mc/Run3Summer23NanoAODv12/TTto4Q_TuneCP5_13p6TeV_powheg-pythia8/NANOAODSIM/130X_mcRun3_2023_realistic_v14-v2/60000/52f9e5bf-27a2-40e0-b96a-cc22ee62704a.root
/store/mc/Run3Summer23NanoAODv12/TTto4Q_TuneCP5_13p6TeV_powheg-pythia8/NANOAODSIM/130X_mcRun3_2023_realistic_v14-v2/60000/0986a7c4-3253-4ef5-87a8-9f827a093949.root
/store/mc/Run3Summer23NanoAODv12/TTto4Q_TuneCP5_13p6TeV_powheg-pythia8/NANOAODSIM/130X_mcRun3_2023_realistic_v14-v2/60000/5c8b033a-8f3d-42c1-8da4-fa89fb462618.root
/store/mc/Run3Summer23NanoAODv12/TTto4Q_TuneCP5_13p6TeV_powheg-pythia8/NANOAODSIM/130X_mcRun3_2023_realistic_v14-v2/60000/edd17a79-0672-4d59-bb9a-186e9a95da82.root
/store/mc/Run3Summer23NanoAODv12/TTto4Q_TuneCP5_13p6TeV_powheg-pythia8/NANOAODSIM/130X_mcRun3_2023_realistic_v14-v2/60000/7ca0c514-992e-45f7-83e2-c6c32428c136.root
/store/mc/Run3Summer23NanoAODv12/TTto4Q_TuneCP5_13p6TeV_powheg-pythia8/NANOAODSIM/130X_mcRun3_2023_realistic_v14-v2/60000/cdd586d5-8984-404a-a989-cbdb58267adb.root
/store/mc/Run3Summer23NanoAODv12/TTto4Q_TuneCP5_13p6TeV_powheg-pythia8/NANOAODSIM/130X_mcRun3_2023_realistic_v14-v2/60000/59aaa622-2c07-4c12-ae0e-faf8d189e200.root
/store/mc/Run3Summer23NanoAODv12/TTto4Q_TuneCP5_13p6TeV_powheg-pythia8/NANOAODSIM/130X_mcRun3_2023_realistic_v14-v2/60000/27b09fa8-9856-437f-8142-f42d07749b42.root
/store/mc/Run3Summer23NanoAODv12/TTto4Q_TuneCP5_13p6TeV_powheg-pythia8/NANOAODSIM/130X_mcRun3_2023_realistic_v14-v2/60000/71a78ab7-90dd-4251-9726-3753d0aa4f98.root
/store/mc/Run3Summer23NanoAODv12/TTto4Q_TuneCP5_13p6TeV_powheg-pythia8/NANOAODSIM/130X_mcRun3_2023_realistic_v14-v2/60000/66ac517d-439e-48f6-917d-b02c6782ca21.root
/store/mc/Run3Summer23NanoAODv12/TTto4Q_TuneCP5_13p6TeV_powheg-pythia8/NANOAODSIM/130X_mcRun3_2023_realistic_v14-v2/60000/54087b52-08fe-4086-afc6-a51bdca27734.root
/store/mc/Run3Summer23NanoAODv12/TTto4Q_TuneCP5_13p6TeV_powheg-pythia8/NANOAODSIM/130X_mcRun3_2023_realistic_v14-v2/60000/122b573c-fd76-46d5-b73f-4b1690e5a6d2.root
/store/mc/Run3Summer23NanoAODv12/TTto4Q_TuneCP5_13p6TeV_powheg-pythia8/NANOAODSIM/130X_mcRun3_2023_realistic_v14-v2/60000/4123ca89-6c80-4de0-ae7a-ee17554dbf41.root
/store/mc/Run3Summer23NanoAODv12/TTto4Q_TuneCP5_13p6TeV_powheg-pythia8/NANOAODSIM/130X_mcRun3_2023_realistic_v14-v2/60000/beaebc89-9653-4278-8296-ea36fa8fd30d.root
/store/mc/Run3Summer23NanoAODv12/TTto4Q_TuneCP5_13p6TeV_powheg-pythia8/NANOAODSIM/130X_mcRun3_2023_realistic_v14-v2/60000/4554008a-0e10-4917-99df-4f888dac62fc.root
/store/mc/Run3Summer23NanoAODv12/TTto4Q_TuneCP5_13p6TeV_powheg-pythia8/NANOAODSIM/130X_mcRun3_2023_realistic_v14-v2/60000/77162422-1685-4fef-b5d9-2124bf90c608.root
/store/mc/Run3Summer23NanoAODv12/TTto4Q_TuneCP5_13p6TeV_powheg-pythia8/NANOAODSIM/130X_mcRun3_2023_realistic_v14-v2/60000/e7a8fc28-ccc4-4ddd-9088-b95a0a7b7f4d.root
/store/mc/Run3Summer23NanoAODv12/TTto4Q_TuneCP5_13p6TeV_powheg-pythia8/NANOAODSIM/130X_mcRun3_2023_realistic_v14-v2/60000/5f70a525-dfef-4100-9b55-9bcdda1ce73a.root
/store/mc/Run3Summer23NanoAODv12/TTto4Q_TuneCP5_13p6TeV_powheg-pythia8/NANOAODSIM/130X_mcRun3_2023_realistic_v14-v2/60000/749d3fc0-d9cd-4fd2-bc9f-638a1ffbcfb1.root
/store/mc/Run3Summer23NanoAODv12/TTto4Q_TuneCP5_13p6TeV_powheg-pythia8/NANOAODSIM/130X_mcRun3_2023_realistic_v14-v2/60000/1be0ab68-2aa8-405f-8280-8e6acce78c5d.root
/store/mc/Run3Summer23NanoAODv12/TTto4Q_TuneCP5_13p6TeV_powheg-pythia8/NANOAODSIM/130X_mcRun3_2023_realistic_v14-v2/60000/e70dd15d-6e05-4378-8ee5-0af771a2fcfc.root
/store/mc/Run3Summer23NanoAODv12/TTto4Q_TuneCP5_13p6TeV_powheg-pythia8/NANOAODSIM/130X_mcRun3_2023_realistic_v14-v2/60000/93b09a82-4b1c-4bd6-8ca6-140aeb1776d9.root
/store/mc/Run3Summer23NanoAODv12/TTto4Q_TuneCP5_13p6TeV_powheg-pythia8/NANOAODSIM/130X_mcRun3_2023_realistic_v14-v2/60000/9e542bc0-76e2-4ae8-966f-0ea872ab1a3a.root
/store/mc/Run3Summer23NanoAODv12/TTto4Q_TuneCP5_13p6TeV_powheg-pythia8/NANOAODSIM/130X_mcRun3_2023_realistic_v14-v2/60000/d3c7da3b-cd83-4ef5-8860-15cd936b56f6.root
/store/mc/Run3Summer23NanoAODv12/TTto4Q_TuneCP5_13p6TeV_powheg-pythia8/NANOAODSIM/130X_mcRun3_2023_realistic_v14-v2/60000/ab344ea3-2e24-41b1-9137-02109694dd98.root
/store/mc/Run3Summer23NanoAODv12/TTto4Q_TuneCP5_13p6TeV_powheg-pythia8/NANOAODSIM/130X_mcRun3_2023_realistic_v14-v2/60000/af7f33af-2b29-4d44-87a1-bfc4c498a211.root
/store/mc/Run3Summer23NanoAODv12/TTto4Q_TuneCP5_13p6TeV_powheg-pythia8/NANOAODSIM/130X_mcRun3_2023_realistic_v14-v2/60000/62f0ed5b-427f-4e83-bd99-6ed26cdfce06.root
/store/mc/Run3Summer23NanoAODv12/TTto4Q_TuneCP5_13p6TeV_powheg-pythia8/NANOAODSIM/130X_mcRun3_2023_realistic_v14-v2/60000/f961890f-d788-474b-921a-b777ff6f75c5.root
/store/mc/Run3Summer23NanoAODv12/TTto4Q_TuneCP5_13p6TeV_powheg-pythia8/NANOAODSIM/130X_mcRun3_2023_realistic_v14-v2/60000/8eb83753-2c48-4ce5-a03e-9679cd7b96a5.root
/store/mc/Run3Summer23NanoAODv12/TTto4Q_TuneCP5_13p6TeV_powheg-pythia8/NANOAODSIM/130X_mcRun3_2023_realistic_v14-v2/60000/97c15439-d7f7-4603-8b50-825d91ff574f.root
/store/mc/Run3Summer23NanoAODv12/TTto4Q_TuneCP5_13p6TeV_powheg-pythia8/NANOAODSIM/130X_mcRun3_2023_realistic_v14-v2/60000/27bc3bc2-eb0a-4c8b-8479-4f8dbc931f30.root
/store/mc/Run3Summer23NanoAODv12/TTto4Q_TuneCP5_13p6TeV_powheg-pythia8/NANOAODSIM/130X_mcRun3_2023_realistic_v14-v2/60000/6c951e54-ba13-41fa-908b-784b2cb9ee13.root
/store/mc/Run3Summer23NanoAODv12/TTto4Q_TuneCP5_13p6TeV_powheg-pythia8/NANOAODSIM/130X_mcRun3_2023_realistic_v14-v2/60000/aa193221-18a8-443d-ab40-97ea7b080b3b.root
/store/mc/Run3Summer23NanoAODv12/TTto4Q_TuneCP5_13p6TeV_powheg-pythia8/NANOAODSIM/130X_mcRun3_2023_realistic_v14-v2/60000/4aea6746-cc42-4261-a91d-d1b39b66eb07.root
/store/mc/Run3Summer23NanoAODv12/TTto4Q_TuneCP5_13p6TeV_powheg-pythia8/NANOAODSIM/130X_mcRun3_2023_realistic_v14-v2/60000/8c648564-9e71-4098-afea-e1e5caae8efd.root
/store/mc/Run3Summer23NanoAODv12/TTto4Q_TuneCP5_13p6TeV_powheg-pythia8/NANOAODSIM/130X_mcRun3_2023_realistic_v14-v2/60000/06f282de-d2e6-4f21-aa9e-5d97349eae60.root
/store/mc/Run3Summer23NanoAODv12/TTto4Q_TuneCP5_13p6TeV_powheg-pythia8/NANOAODSIM/130X_mcRun3_2023_realistic_v14-v2/60000/5be58532-2751-48ec-a9b1-dd15b7955ec3.root
/store/mc/Run3Summer23NanoAODv12/TTto4Q_TuneCP5_13p6TeV_powheg-pythia8/NANOAODSIM/130X_mcRun3_2023_realistic_v14-v2/60000/5d660e54-a7c2-4dff-a4ac-c05e4bd02641.root
/store/mc/Run3Summer23NanoAODv12/TTto4Q_TuneCP5_13p6TeV_powheg-pythia8/NANOAODSIM/130X_mcRun3_2023_realistic_v14-v2/60000/6b68d2ae-e054-4a6c-a546-8bd594202f43.root
/store/mc/Run3Summer23NanoAODv12/TTto4Q_TuneCP5_13p6TeV_powheg-pythia8/NANOAODSIM/130X_mcRun3_2023_realistic_v14-v2/60000/13647eec-0e73-4896-9701-28a98015b8ea.root
/store/mc/Run3Summer23NanoAODv12/TTto4Q_TuneCP5_13p6TeV_powheg-pythia8/NANOAODSIM/130X_mcRun3_2023_realistic_v14-v2/60000/384ae6d8-24a2-4bcb-ba73-536996ef55a0.root
/store/mc/Run3Summer23NanoAODv12/TTto4Q_TuneCP5_13p6TeV_powheg-pythia8/NANOAODSIM/130X_mcRun3_2023_realistic_v14-v2/60000/aee25677-dd4e-4293-802a-066ff3b5a0e9.root
/store/mc/Run3Summer23NanoAODv12/TTto4Q_TuneCP5_13p6TeV_powheg-pythia8/NANOAODSIM/130X_mcRun3_2023_realistic_v14-v2/60000/d190de53-70a1-4e59-950e-de7ddff599aa.root
/store/mc/Run3Summer23NanoAODv12/TTto4Q_TuneCP5_13p6TeV_powheg-pythia8/NANOAODSIM/130X_mcRun3_2023_realistic_v14-v2/60000/57d57dab-4c65-492a-88f8-95b234fd7b7e.root
/store/mc/Run3Summer23NanoAODv12/TTto4Q_TuneCP5_13p6TeV_powheg-pythia8/NANOAODSIM/130X_mcRun3_2023_realistic_v14-v2/60000/50e9b4a9-9b17-443f-b823-e4acf64d6f50.root
/store/mc/Run3Summer23NanoAODv12/TTto4Q_TuneCP5_13p6TeV_powheg-pythia8/NANOAODSIM/130X_mcRun3_2023_realistic_v14-v2/60000/86739b9d-9d0f-420c-bc63-19d00903873e.root
/store/mc/Run3Summer23NanoAODv12/TTto4Q_TuneCP5_13p6TeV_powheg-pythia8/NANOAODSIM/130X_mcRun3_2023_realistic_v14-v2/60000/08181809-1c72-409a-8915-52c7bd8910b8.root
/store/mc/Run3Summer23NanoAODv12/TTto4Q_TuneCP5_13p6TeV_powheg-pythia8/NANOAODSIM/130X_mcRun3_2023_realistic_v14-v2/60000/c3e26e69-2f75-4c7f-8094-6c0d65d59b19.root
/store/mc/Run3Summer23NanoAODv12/TTto4Q_TuneCP5_13p6TeV_powheg-pythia8/NANOAODSIM/130X_mcRun3_2023_realistic_v14-v2/60000/ec945e94-e121-4a8c-8bb5-2c85ec8cba51.root
/store/mc/Run3Summer23NanoAODv12/TTto4Q_TuneCP5_13p6TeV_powheg-pythia8/NANOAODSIM/130X_mcRun3_2023_realistic_v14-v2/60000/ceff4037-4806-42b4-8845-70ea1855db29.root
/store/mc/Run3Summer23NanoAODv12/TTto4Q_TuneCP5_13p6TeV_powheg-pythia8/NANOAODSIM/130X_mcRun3_2023_realistic_v14-v2/60000/26cd1858-bbed-49ad-8830-6a64775e3316.root
/store/mc/Run3Summer23NanoAODv12/TTto4Q_TuneCP5_13p6TeV_powheg-pythia8/NANOAODSIM/130X_mcRun3_2023_realistic_v14-v2/60000/7368d89e-25a5-4398-86ec-5923621231ca.root
/store/mc/Run3Summer23NanoAODv12/TTto4Q_TuneCP5_13p6TeV_powheg-pythia8/NANOAODSIM/130X_mcRun3_2023_realistic_v14-v2/60000/3a1c100c-f605-4a08-97bf-829b95c8024e.root
/store/mc/Run3Summer23NanoAODv12/TTto4Q_TuneCP5_13p6TeV_powheg-pythia8/NANOAODSIM/130X_mcRun3_2023_realistic_v14-v2/60000/d0837fd0-5588-4a7b-ac66-d02ae9bf6ba1.root
/store/mc/Run3Summer23NanoAODv12/TTto4Q_TuneCP5_13p6TeV_powheg-pythia8/NANOAODSIM/130X_mcRun3_2023_realistic_v14-v2/60000/f96c636b-35d5-49da-a7f9-af8c6ecf4964.root
/store/mc/Run3Summer23NanoAODv12/TTto4Q_TuneCP5_13p6TeV_powheg-pythia8/NANOAODSIM/130X_mcRun3_2023_realistic_v14-v2/60000/a73089c6-20ed-4394-980a-ea9da06d9f06.root
/store/mc/Run3Summer23NanoAODv12/TTto4Q_TuneCP5_13p6TeV_powheg-pythia8/NANOAODSIM/130X_mcRun3_2023_realistic_v14-v2/60000/fd3505b9-d5e6-4980-b79a-93191fbbb8e8.root
/store/mc/Run3Summer23NanoAODv12/TTto4Q_TuneCP5_13p6TeV_powheg-pythia8/NANOAODSIM/130X_mcRun3_2023_realistic_v14-v2/60000/a1d2f4a2-ea88-4d66-b269-f5e8f42aca76.root
/store/mc/Run3Summer23NanoAODv12/TTto4Q_TuneCP5_13p6TeV_powheg-pythia8/NANOAODSIM/130X_mcRun3_2023_realistic_v14-v2/60000/ed01d728-1989-4451-aeab-6ecb7a57b15c.root
/store/mc/Run3Summer23NanoAODv12/TTto4Q_TuneCP5_13p6TeV_powheg-pythia8/NANOAODSIM/130X_mcRun3_2023_realistic_v14-v2/60000/128e8369-fee2-4b76-aef6-f079d65dbafd.root
/store/mc/Run3Summer23NanoAODv12/TTto4Q_TuneCP5_13p6TeV_powheg-pythia8/NANOAODSIM/130X_mcRun3_2023_realistic_v14-v2/60000/1d80ebd4-905b-4ab0-8cf4-39a7e4a2dc07.root
/store/mc/Run3Summer23NanoAODv12/TTto4Q_TuneCP5_13p6TeV_powheg-pythia8/NANOAODSIM/130X_mcRun3_2023_realistic_v14-v2/60000/61e34bdb-9af1-4250-b28d-73b41bc1520a.root
/store/mc/Run3Summer23NanoAODv12/TTto4Q_TuneCP5_13p6TeV_powheg-pythia8/NANOAODSIM/130X_mcRun3_2023_realistic_v14-v2/60000/2f7184a0-5f7e-4861-aaa5-8e15d38c3bf8.root
/store/mc/Run3Summer23NanoAODv12/TTto4Q_TuneCP5_13p6TeV_powheg-pythia8/NANOAODSIM/130X_mcRun3_2023_realistic_v14-v2/60000/c6ba2e95-112e-4354-b03c-0ce7964d6e12.root
/store/mc/Run3Summer23NanoAODv12/TTto4Q_TuneCP5_13p6TeV_powheg-pythia8/NANOAODSIM/130X_mcRun3_2023_realistic_v14-v2/60000/73fc3168-0171-42e1-974a-8f66d86b73ee.root
/store/mc/Run3Summer23NanoAODv12/TTto4Q_TuneCP5_13p6TeV_powheg-pythia8/NANOAODSIM/130X_mcRun3_2023_realistic_v14-v2/60000/a1258f56-a713-4238-b864-69b6f0015717.root