/store/mc/Run3Summer23NanoAODv13/VBFHHto2B2Tau_CV_1_C2V_0_C3_1_TuneCP5_13p6TeV_madgraph-pythia8/NANOAODSIM/133X_mcRun3_2023_realistic_ForNanov13_v1-v2/80000/454600c4-fa4d-4441-90b3-280d56552303.root
/store/mc/Run3Summer23NanoAODv13/VBFHHto2B2Tau_CV_1_C2V_0_C3_1_TuneCP5_13p6TeV_madgraph-pythia8/NANOAODSIM/133X_mcRun3_2023_realistic_ForNanov13_v1-v2/80000/87f97e64-dc96-4ac6-b9bc-3fd54a10891c.root
/store/mc/Run3Summer23NanoAODv13/VBFHHto2B2Tau_CV_1_C2V_0_C3_1_TuneCP5_13p6TeV_madgraph-pythia8/NANOAODSIM/133X_mcRun3_2023_realistic_ForNanov13_v1-v2/80000/2529726d-3284-4c6c-9d71-095fde031c67.root
/store/mc/Run3Summer23NanoAODv13/VBFHHto2B2Tau_CV_1_C2V_0_C3_1_TuneCP5_13p6TeV_madgraph-pythia8/NANOAODSIM/133X_mcRun3_2023_realistic_ForNanov13_v1-v2/80000/1021f811-a302-4d61-bc39-dd1ea098a082.root
/store/mc/Run3Summer23NanoAODv13/VBFHHto2B2Tau_CV_1_C2V_0_C3_1_TuneCP5_13p6TeV_madgraph-pythia8/NANOAODSIM/133X_mcRun3_2023_realistic_ForNanov13_v1-v2/80000/3116af08-6104-437a-bc2b-67428db72e12.root
/store/mc/Run3Summer23NanoAODv13/VBFHHto2B2Tau_CV_1_C2V_0_C3_1_TuneCP5_13p6TeV_madgraph-pythia8/NANOAODSIM/133X_mcRun3_2023_realistic_ForNanov13_v1-v2/80000/0f48b506-42c2-4ddd-819d-eb31b520f68c.root
/store/mc/Run3Summer23NanoAODv13/VBFHHto2B2Tau_CV_1_C2V_0_C3_1_TuneCP5_13p6TeV_madgraph-pythia8/NANOAODSIM/133X_mcRun3_2023_realistic_ForNanov13_v1-v2/80000/84c0f72a-2bf1-4dcc-9e83-90d3b5811149.root
/store/mc/Run3Summer23NanoAODv13/VBFHHto2B2Tau_CV_1_C2V_0_C3_1_TuneCP5_13p6TeV_madgraph-pythia8/NANOAODSIM/133X_mcRun3_2023_realistic_ForNanov13_v1-v2/80000/86b003bf-b1cb-4e55-95ef-6c3642a33e57.root
/store/mc/Run3Summer23NanoAODv13/VBFHHto2B2Tau_CV_1_C2V_0_C3_1_TuneCP5_13p6TeV_madgraph-pythia8/NANOAODSIM/133X_mcRun3_2023_realistic_ForNanov13_v1-v2/80000/6fc1ade6-8d81-49e6-af3c-5a50fbd531ca.root
/store/mc/Run3Summer23NanoAODv13/VBFHHto2B2Tau_CV_1_C2V_0_C3_1_TuneCP5_13p6TeV_madgraph-pythia8/NANOAODSIM/133X_mcRun3_2023_realistic_ForNanov13_v1-v2/80000/f42857d6-0c40-4ad8-9e92-d56ba1c53789.root