/store/mc/Run3Summer23NanoAODv12/WtoLNu-2Jets_PTLNu-400to600_1J_TuneCP5_13p6TeV_amcatnloFXFX-pythia8/NANOAODSIM/130X_mcRun3_2023_realistic_v14-v3/2820000/ab006174-7de1-4dce-aacb-070821f84593.root
/store/mc/Run3Summer23NanoAODv12/WtoLNu-2Jets_PTLNu-400to600_1J_TuneCP5_13p6TeV_amcatnloFXFX-pythia8/NANOAODSIM/130X_mcRun3_2023_realistic_v14-v3/2820000/4fdcaa1b-764c-4cda-a3f9-98d81654e32b.root
/store/mc/Run3Summer23NanoAODv12/WtoLNu-2Jets_PTLNu-400to600_1J_TuneCP5_13p6TeV_amcatnloFXFX-pythia8/NANOAODSIM/130X_mcRun3_2023_realistic_v14-v3/2820000/e2635700-ed95-4cbb-a99e-a8799c2a3572.root
/store/mc/Run3Summer23NanoAODv12/WtoLNu-2Jets_PTLNu-400to600_1J_TuneCP5_13p6TeV_amcatnloFXFX-pythia8/NANOAODSIM/130X_mcRun3_2023_realistic_v14-v3/2820000/3f7d1a10-4731-43d1-91e5-8dbd4f9e7285.root
/store/mc/Run3Summer23NanoAODv12/WtoLNu-2Jets_PTLNu-400to600_1J_TuneCP5_13p6TeV_amcatnloFXFX-pythia8/NANOAODSIM/130X_mcRun3_2023_realistic_v14-v3/2820000/da75bef5-ef26-44ca-a139-f3fc0769ac41.root
/store/mc/Run3Summer23NanoAODv12/WtoLNu-2Jets_PTLNu-400to600_1J_TuneCP5_13p6TeV_amcatnloFXFX-pythia8/NANOAODSIM/130X_mcRun3_2023_realistic_v14-v3/2820000/a183fb68-5799-41f4-b240-29b50d1c49fb.root
/store/mc/Run3Summer23NanoAODv12/WtoLNu-2Jets_PTLNu-400to600_1J_TuneCP5_13p6TeV_amcatnloFXFX-pythia8/NANOAODSIM/130X_mcRun3_2023_realistic_v14-v3/2820000/6406d32c-6130-4ac2-878e-1e03b68936a4.root
/store/mc/Run3Summer23NanoAODv12/WtoLNu-2Jets_PTLNu-400to600_1J_TuneCP5_13p6TeV_amcatnloFXFX-pythia8/NANOAODSIM/130X_mcRun3_2023_realistic_v14-v3/2820000/e2364b9b-c8fe-4539-8327-46a7c3fe7ab1.root
/store/mc/Run3Summer23NanoAODv12/WtoLNu-2Jets_PTLNu-400to600_1J_TuneCP5_13p6TeV_amcatnloFXFX-pythia8/NANOAODSIM/130X_mcRun3_2023_realistic_v14-v3/2820000/2ba855a4-78e5-4689-8a0c-954e947249f6.root
/store/mc/Run3Summer23NanoAODv12/WtoLNu-2Jets_PTLNu-400to600_1J_TuneCP5_13p6TeV_amcatnloFXFX-pythia8/NANOAODSIM/130X_mcRun3_2023_realistic_v14-v3/2820000/8c41a60f-8c21-4d25-9acd-1b2c23f6a1ad.root
/store/mc/Run3Summer23NanoAODv12/WtoLNu-2Jets_PTLNu-400to600_1J_TuneCP5_13p6TeV_amcatnloFXFX-pythia8/NANOAODSIM/130X_mcRun3_2023_realistic_v14-v3/2820000/aeb40aff-1209-4bcb-b77a-175e88b32ad4.root
/store/mc/Run3Summer23NanoAODv12/WtoLNu-2Jets_PTLNu-400to600_1J_TuneCP5_13p6TeV_amcatnloFXFX-pythia8/NANOAODSIM/130X_mcRun3_2023_realistic_v14-v3/2820000/538b4e60-60ac-48d0-a145-d4a7ae51cd3a.root
/store/mc/Run3Summer23NanoAODv12/WtoLNu-2Jets_PTLNu-400to600_1J_TuneCP5_13p6TeV_amcatnloFXFX-pythia8/NANOAODSIM/130X_mcRun3_2023_realistic_v14-v3/2820000/b150f825-6f6e-44a1-a4f9-715995f8a404.root
/store/mc/Run3Summer23NanoAODv12/WtoLNu-2Jets_PTLNu-400to600_1J_TuneCP5_13p6TeV_amcatnloFXFX-pythia8/NANOAODSIM/130X_mcRun3_2023_realistic_v14-v3/2820000/09979039-f12c-42fc-b622-6fec9708b203.root
/store/mc/Run3Summer23NanoAODv12/WtoLNu-2Jets_PTLNu-400to600_1J_TuneCP5_13p6TeV_amcatnloFXFX-pythia8/NANOAODSIM/130X_mcRun3_2023_realistic_v14-v3/2820000/76546574-5bcc-447b-98e7-1d46e47e0701.root
/store/mc/Run3Summer23NanoAODv12/WtoLNu-2Jets_PTLNu-400to600_1J_TuneCP5_13p6TeV_amcatnloFXFX-pythia8/NANOAODSIM/130X_mcRun3_2023_realistic_v14-v3/2820000/cfd6bb6d-61a0-4870-9b18-6cb2931d7c55.root
/store/mc/Run3Summer23NanoAODv12/WtoLNu-2Jets_PTLNu-400to600_1J_TuneCP5_13p6TeV_amcatnloFXFX-pythia8/NANOAODSIM/130X_mcRun3_2023_realistic_v14-v3/2820000/2b5a69f2-5800-4331-b581-bca3209d1daf.root
/store/mc/Run3Summer23NanoAODv12/WtoLNu-2Jets_PTLNu-400to600_1J_TuneCP5_13p6TeV_amcatnloFXFX-pythia8/NANOAODSIM/130X_mcRun3_2023_realistic_v14-v3/2820000/1610c532-4bf3-4660-aaa1-ed530da6eb44.root
/store/mc/Run3Summer23NanoAODv12/WtoLNu-2Jets_PTLNu-400to600_1J_TuneCP5_13p6TeV_amcatnloFXFX-pythia8/NANOAODSIM/130X_mcRun3_2023_realistic_v14-v3/2820000/81c4ba5d-e769-46d6-8634-c7fd3ad87249.root
/store/mc/Run3Summer23NanoAODv12/WtoLNu-2Jets_PTLNu-400to600_1J_TuneCP5_13p6TeV_amcatnloFXFX-pythia8/NANOAODSIM/130X_mcRun3_2023_realistic_v14-v3/2820000/17c098b2-e3bd-4b60-b618-c7c48bb50f7e.root
/store/mc/Run3Summer23NanoAODv12/WtoLNu-2Jets_PTLNu-400to600_1J_TuneCP5_13p6TeV_amcatnloFXFX-pythia8/NANOAODSIM/130X_mcRun3_2023_realistic_v14-v3/2820000/c7cb1578-6c86-43e8-af61-a4065ff78168.root
/store/mc/Run3Summer23NanoAODv12/WtoLNu-2Jets_PTLNu-400to600_1J_TuneCP5_13p6TeV_amcatnloFXFX-pythia8/NANOAODSIM/130X_mcRun3_2023_realistic_v14-v3/2820000/4dc4c797-8ebc-42e2-ac39-99486d8c1f56.root
/store/mc/Run3Summer23NanoAODv12/WtoLNu-2Jets_PTLNu-400to600_1J_TuneCP5_13p6TeV_amcatnloFXFX-pythia8/NANOAODSIM/130X_mcRun3_2023_realistic_v14-v3/2820000/4411980f-5231-4f42-a307-a99390be3777.root
/store/mc/Run3Summer23NanoAODv12/WtoLNu-2Jets_PTLNu-400to600_1J_TuneCP5_13p6TeV_amcatnloFXFX-pythia8/NANOAODSIM/130X_mcRun3_2023_realistic_v14-v3/2820000/d142c281-b7f0-4ba8-91d4-55d187c9f004.root